Inference procedure has parameters:
Timeout: Some(30.) (sec)
Approximation method: remove functionnality constraint where possible



Learning problem is:

env: {
elt -> {a, b}  ;  eltlist -> {cons, nil}
}
definition:
{
(prefix, P:
{
prefix(nil, y) <= True
prefix(cons(y2, zs), cons(y2, ys)) <= prefix(zs, ys)
prefix(zs, ys) <= prefix(cons(y2, zs), cons(y2, ys))
eq_elt(z, y2) <= prefix(cons(z, zs), cons(y2, ys))
False <= prefix(cons(z, zs), nil)
}
)
(append, F:
{
append(nil, l2, l2) <= True
append(cons(h1, t1), l2, cons(h1, _a)) <= append(t1, l2, _a)
}
eq_eltlist(_d, _e) <= append(_b, _c, _d) /\ append(_b, _c, _e)
)
}

properties:
{
prefix(l2, _f) <= append(l1, l2, _f)
}


over-approximation: {append}
under-approximation: {prefix}

Clause system for inference is:

{
append(nil, l2, l2) <= True
prefix(nil, y) <= True
prefix(l2, _f) <= append(l1, l2, _f)
append(cons(h1, t1), l2, cons(h1, _a)) <= append(t1, l2, _a)
prefix(cons(y2, zs), cons(y2, ys)) <= prefix(zs, ys)
prefix(zs, ys) <= prefix(cons(y2, zs), cons(y2, ys))
eq_elt(z, y2) <= prefix(cons(z, zs), cons(y2, ys))
False <= prefix(cons(z, zs), nil)
}


Solving took 29.689990 seconds.
Maybe:  timeout during learner
Last solver state:

Clauses:
{
append(nil, l2, l2) <= True
prefix(nil, y) <= True
prefix(l2, _f) <= append(l1, l2, _f)
append(cons(h1, t1), l2, cons(h1, _a)) <= append(t1, l2, _a)
prefix(cons(y2, zs), cons(y2, ys)) <= prefix(zs, ys)
prefix(zs, ys) <= prefix(cons(y2, zs), cons(y2, ys))
eq_elt(z, y2) <= prefix(cons(z, zs), cons(y2, ys))
False <= prefix(cons(z, zs), nil)
}

Accumulated learning constraints:
{
append(cons(a, cons(a, nil)), cons(b, nil), cons(a, cons(a, cons(b, nil)))) <= True
append(cons(a, nil), cons(a, nil), cons(a, cons(a, nil))) <= True
append(cons(a, nil), cons(b, nil), cons(a, cons(b, nil))) <= True
append(cons(a, nil), nil, cons(a, nil)) <= True
append(cons(b, cons(a, nil)), cons(b, nil), cons(b, cons(a, cons(b, nil)))) <= True
append(cons(b, nil), cons(a, nil), cons(b, cons(a, nil))) <= True
append(nil, cons(a, nil), cons(a, nil)) <= True
append(nil, cons(b, nil), cons(b, nil)) <= True
append(nil, nil, nil) <= True
prefix(cons(a, nil), cons(a, nil)) <= True
prefix(cons(b, nil), cons(a, cons(b, nil))) <= True
prefix(cons(b, nil), cons(b, nil)) <= True
prefix(nil, cons(a, nil)) <= True
prefix(nil, nil) <= True
False <= append(cons(a, cons(a, nil)), cons(a, nil), cons(b, nil))
append(cons(a, cons(a, nil)), cons(a, cons(a, nil)), cons(a, cons(a, nil))) <= append(cons(a, nil), cons(a, cons(a, nil)), cons(a, nil))
False <= append(cons(a, nil), cons(a, nil), cons(b, nil))
False <= append(cons(a, nil), cons(b, cons(a, nil)), cons(a, nil))
False <= append(cons(a, nil), cons(b, nil), cons(a, cons(a, nil)))
False <= append(cons(a, nil), cons(b, nil), cons(a, nil))
append(cons(a, cons(a, nil)), cons(b, nil), cons(a, cons(b, nil))) <= append(cons(a, nil), cons(b, nil), cons(b, nil))
False <= append(cons(b, cons(a, nil)), cons(a, nil), cons(b, cons(b, nil)))
False <= append(cons(b, nil), cons(b, nil), cons(a, nil))
False <= append(nil, cons(a, cons(a, nil)), cons(a, nil))
False <= append(nil, cons(a, nil), cons(b, nil))
False <= append(nil, cons(b, cons(a, nil)), cons(b, nil))
append(cons(a, nil), cons(b, cons(b, nil)), cons(a, cons(b, cons(b, nil)))) <= append(nil, cons(b, cons(b, nil)), cons(b, cons(b, nil)))
False <= append(nil, cons(b, nil), cons(a, nil))
False <= prefix(cons(a, cons(a, nil)), cons(a, cons(b, nil)))
False <= prefix(cons(a, cons(a, nil)), cons(a, nil))
False <= prefix(cons(a, nil), cons(b, cons(a, nil)))
False <= prefix(cons(a, nil), cons(b, cons(b, nil)))
False <= prefix(cons(a, nil), cons(b, nil))
False <= prefix(cons(a, nil), nil)
prefix(cons(a, cons(a, nil)), cons(b, nil)) <= prefix(cons(b, cons(a, cons(a, nil))), cons(b, cons(b, nil)))
False <= prefix(cons(b, cons(a, nil)), cons(a, nil))
False <= prefix(cons(b, cons(a, nil)), cons(b, nil))
False <= prefix(cons(b, cons(b, cons(a, nil))), cons(b, cons(a, nil)))
False <= prefix(cons(b, nil), cons(a, cons(a, nil)))
False <= prefix(cons(b, nil), cons(a, cons(b, nil)))
False <= prefix(cons(b, nil), cons(a, nil))
}

Current best model:
|_

_r_1 ->
{
  _r_1(a, cons(x_1_0, x_1_1)) <= True
  _r_1(b, cons(x_1_0, x_1_1)) <= _r_3(x_1_0)
}
;
_r_2 ->
{
  _r_2(a, a) <= True
  _r_2(b, b) <= True
}
;
_r_3 ->
{
  _r_3(b) <= True
}
;
append ->
{
  append(cons(x_0_0, x_0_1), cons(x_1_0, x_1_1), cons(x_2_0, x_2_1)) <= _r_1(x_0_0, x_2_1) /\ append(x_0_1, x_1_1, x_2_1)
  append(cons(x_0_0, x_0_1), cons(x_1_0, x_1_1), cons(x_2_0, x_2_1)) <= _r_1(x_1_0, x_2_1)
  append(cons(x_0_0, x_0_1), nil, cons(x_2_0, x_2_1)) <= True
  append(nil, cons(x_1_0, x_1_1), cons(x_2_0, x_2_1)) <= _r_2(x_1_0, x_2_0) /\ prefix(x_1_1, x_2_1)
  append(nil, nil, nil) <= True
}
;
prefix ->
{
  prefix(cons(x_0_0, x_0_1), cons(x_1_0, x_1_1)) <= _r_1(x_0_0, x_1_1) /\ _r_3(x_0_0)
  prefix(cons(x_0_0, x_0_1), cons(x_1_0, x_1_1)) <= _r_2(x_0_0, x_1_0) /\ prefix(x_0_1, x_1_1)
  prefix(nil, cons(x_1_0, x_1_1)) <= True
  prefix(nil, nil) <= True
}

--
Equality automata are defined for: {elt, eltlist}
_|






-------------------
STEPS:
-------------------------------------------
Step 0, which took 0.006745 s (model generation: 0.006178,  model checking: 0.000567):

Ground examples at the beginning of this step are:
{

}

Learner proposed model:
Found Model:
|_

append ->
{
  
}
;
prefix ->
{
  
}

--
Equality automata are defined for: {elt, eltlist}
_|


Answer of teacher:


append(nil, l2, l2) <= True -> Yes: {
l2 -> nil
}
prefix(nil, y) <= True -> Yes: {
y -> nil
}
prefix(l2, _f) <= append(l1, l2, _f) -> No: ()
append(cons(h1, t1), l2, cons(h1, _a)) <= append(t1, l2, _a) -> No: ()
prefix(cons(y2, zs), cons(y2, ys)) <= prefix(zs, ys) -> No: ()
prefix(zs, ys) <= prefix(cons(y2, zs), cons(y2, ys)) -> No: ()
eq_elt(z, y2) <= prefix(cons(z, zs), cons(y2, ys)) -> No: ()
False <= prefix(cons(z, zs), nil) -> No: ()



-------------------------------------------
Step 1, which took 0.006119 s (model generation: 0.006073,  model checking: 0.000046):

Ground examples at the beginning of this step are:
{
append(nil, nil, nil) <= True
prefix(nil, nil) <= True
}

Learner proposed model:
Found Model:
|_

append ->
{
  append(nil, nil, nil) <= True
}
;
prefix ->
{
  prefix(nil, nil) <= True
}

--
Equality automata are defined for: {elt, eltlist}
_|


Answer of teacher:


append(nil, l2, l2) <= True -> Yes: {
l2 -> cons(l2_0, l2_1)
}
prefix(nil, y) <= True -> Yes: {
y -> cons(y_0, y_1)
}
prefix(l2, _f) <= append(l1, l2, _f) -> No: ()
append(cons(h1, t1), l2, cons(h1, _a)) <= append(t1, l2, _a) -> Yes: {
_a -> nil  ;  l2 -> nil  ;  t1 -> nil
}
prefix(cons(y2, zs), cons(y2, ys)) <= prefix(zs, ys) -> Yes: {
ys -> nil  ;  zs -> nil
}
prefix(zs, ys) <= prefix(cons(y2, zs), cons(y2, ys)) -> No: ()
eq_elt(z, y2) <= prefix(cons(z, zs), cons(y2, ys)) -> No: ()
False <= prefix(cons(z, zs), nil) -> No: ()



-------------------------------------------
Step 2, which took 0.010890 s (model generation: 0.010801,  model checking: 0.000089):

Ground examples at the beginning of this step are:
{
append(cons(a, nil), nil, cons(a, nil)) <= True
append(nil, cons(a, nil), cons(a, nil)) <= True
append(nil, nil, nil) <= True
prefix(cons(a, nil), cons(a, nil)) <= True
prefix(nil, cons(a, nil)) <= True
prefix(nil, nil) <= True
}

Learner proposed model:
Found Model:
|_

append ->
{
  append(cons(x_0_0, x_0_1), nil, cons(x_2_0, x_2_1)) <= True
  append(nil, cons(x_1_0, x_1_1), cons(x_2_0, x_2_1)) <= True
  append(nil, nil, nil) <= True
}
;
prefix ->
{
  prefix(cons(x_0_0, x_0_1), cons(x_1_0, x_1_1)) <= True
  prefix(nil, cons(x_1_0, x_1_1)) <= True
  prefix(nil, nil) <= True
}

--
Equality automata are defined for: {elt, eltlist}
_|


Answer of teacher:


append(nil, l2, l2) <= True -> No: ()
prefix(nil, y) <= True -> No: ()
prefix(l2, _f) <= append(l1, l2, _f) -> No: ()
append(cons(h1, t1), l2, cons(h1, _a)) <= append(t1, l2, _a) -> Yes: {
_a -> cons(_a_0, _a_1)  ;  l2 -> cons(l2_0, l2_1)  ;  t1 -> nil
}
prefix(cons(y2, zs), cons(y2, ys)) <= prefix(zs, ys) -> No: ()
prefix(zs, ys) <= prefix(cons(y2, zs), cons(y2, ys)) -> Yes: {
ys -> nil  ;  zs -> cons(zs_0, zs_1)
}
eq_elt(z, y2) <= prefix(cons(z, zs), cons(y2, ys)) -> Yes: {
y2 -> b  ;  z -> a
}
False <= prefix(cons(z, zs), nil) -> No: ()



-------------------------------------------
Step 3, which took 0.028736 s (model generation: 0.028636,  model checking: 0.000100):

Ground examples at the beginning of this step are:
{
append(cons(a, nil), cons(a, nil), cons(a, cons(a, nil))) <= True
append(cons(a, nil), nil, cons(a, nil)) <= True
append(nil, cons(a, nil), cons(a, nil)) <= True
append(nil, nil, nil) <= True
prefix(cons(a, nil), cons(a, nil)) <= True
prefix(nil, cons(a, nil)) <= True
prefix(nil, nil) <= True
prefix(cons(a, nil), nil) <= prefix(cons(a, cons(a, nil)), cons(a, nil))
False <= prefix(cons(a, nil), cons(b, nil))
}

Learner proposed model:
Found Model:
|_

_r_1 ->
{
  _r_1(a) <= True
}
;
append ->
{
  append(cons(x_0_0, x_0_1), cons(x_1_0, x_1_1), cons(x_2_0, x_2_1)) <= True
  append(cons(x_0_0, x_0_1), nil, cons(x_2_0, x_2_1)) <= True
  append(nil, cons(x_1_0, x_1_1), cons(x_2_0, x_2_1)) <= True
  append(nil, nil, nil) <= True
}
;
prefix ->
{
  prefix(cons(x_0_0, x_0_1), cons(x_1_0, x_1_1)) <= _r_1(x_1_0)
  prefix(cons(x_0_0, x_0_1), nil) <= True
  prefix(nil, cons(x_1_0, x_1_1)) <= True
  prefix(nil, nil) <= True
}

--
Equality automata are defined for: {elt, eltlist}
_|


Answer of teacher:


append(nil, l2, l2) <= True -> No: ()
prefix(nil, y) <= True -> No: ()
prefix(l2, _f) <= append(l1, l2, _f) -> Yes: {
_f -> cons(b, _f_1)  ;  l1 -> nil  ;  l2 -> cons(l2_0, l2_1)
}
append(cons(h1, t1), l2, cons(h1, _a)) <= append(t1, l2, _a) -> No: ()
prefix(cons(y2, zs), cons(y2, ys)) <= prefix(zs, ys) -> Yes: {
y2 -> b  ;  ys -> nil  ;  zs -> nil
}
prefix(zs, ys) <= prefix(cons(y2, zs), cons(y2, ys)) -> Yes: {
y2 -> a  ;  ys -> cons(b, ys_1)  ;  zs -> cons(zs_0, zs_1)
}
eq_elt(z, y2) <= prefix(cons(z, zs), cons(y2, ys)) -> Yes: {
y2 -> a  ;  z -> b
}
False <= prefix(cons(z, zs), nil) -> Yes: {

}



-------------------------------------------
Step 4, which took 0.021214 s (model generation: 0.020655,  model checking: 0.000559):

Ground examples at the beginning of this step are:
{
append(cons(a, nil), cons(a, nil), cons(a, cons(a, nil))) <= True
append(cons(a, nil), nil, cons(a, nil)) <= True
append(nil, cons(a, nil), cons(a, nil)) <= True
append(nil, nil, nil) <= True
prefix(cons(a, nil), cons(a, nil)) <= True
prefix(cons(b, nil), cons(b, nil)) <= True
prefix(nil, cons(a, nil)) <= True
prefix(nil, nil) <= True
False <= append(nil, cons(a, nil), cons(b, nil))
False <= prefix(cons(a, cons(a, nil)), cons(a, cons(b, nil)))
False <= prefix(cons(a, cons(a, nil)), cons(a, nil))
False <= prefix(cons(a, nil), cons(b, nil))
False <= prefix(cons(a, nil), nil)
False <= prefix(cons(b, nil), cons(a, nil))
}

Learner proposed model:
Found Model:
|_

_r_1 ->
{
  _r_1(a, a) <= True
  _r_1(b, b) <= True
}
;
append ->
{
  append(cons(x_0_0, x_0_1), cons(x_1_0, x_1_1), cons(x_2_0, x_2_1)) <= True
  append(cons(x_0_0, x_0_1), nil, cons(x_2_0, x_2_1)) <= True
  append(nil, cons(x_1_0, x_1_1), cons(x_2_0, x_2_1)) <= _r_1(x_1_0, x_2_0)
  append(nil, nil, nil) <= True
}
;
prefix ->
{
  prefix(cons(x_0_0, x_0_1), cons(x_1_0, x_1_1)) <= _r_1(x_0_0, x_1_0) /\ prefix(x_0_1, x_1_1)
  prefix(nil, cons(x_1_0, x_1_1)) <= True
  prefix(nil, nil) <= True
}

--
Equality automata are defined for: {elt, eltlist}
_|


Answer of teacher:


append(nil, l2, l2) <= True -> No: ()
prefix(nil, y) <= True -> No: ()
prefix(l2, _f) <= append(l1, l2, _f) -> Yes: {
_f -> cons(a, _f_1)  ;  l1 -> cons(l1_0, l1_1)  ;  l2 -> cons(b, l2_1)
}
append(cons(h1, t1), l2, cons(h1, _a)) <= append(t1, l2, _a) -> No: ()
prefix(cons(y2, zs), cons(y2, ys)) <= prefix(zs, ys) -> No: ()
prefix(zs, ys) <= prefix(cons(y2, zs), cons(y2, ys)) -> No: ()
eq_elt(z, y2) <= prefix(cons(z, zs), cons(y2, ys)) -> No: ()
False <= prefix(cons(z, zs), nil) -> No: ()



-------------------------------------------
Step 5, which took 0.022934 s (model generation: 0.022490,  model checking: 0.000444):

Ground examples at the beginning of this step are:
{
append(cons(a, nil), cons(a, nil), cons(a, cons(a, nil))) <= True
append(cons(a, nil), nil, cons(a, nil)) <= True
append(nil, cons(a, nil), cons(a, nil)) <= True
append(nil, nil, nil) <= True
prefix(cons(a, nil), cons(a, nil)) <= True
prefix(cons(b, nil), cons(b, nil)) <= True
prefix(nil, cons(a, nil)) <= True
prefix(nil, nil) <= True
False <= append(cons(a, nil), cons(b, nil), cons(a, nil))
False <= append(nil, cons(a, nil), cons(b, nil))
False <= prefix(cons(a, cons(a, nil)), cons(a, cons(b, nil)))
False <= prefix(cons(a, cons(a, nil)), cons(a, nil))
False <= prefix(cons(a, nil), cons(b, nil))
False <= prefix(cons(a, nil), nil)
False <= prefix(cons(b, nil), cons(a, nil))
}

Learner proposed model:
Found Model:
|_

_r_1 ->
{
  _r_1(a, a) <= True
  _r_1(b, b) <= True
}
;
append ->
{
  append(cons(x_0_0, x_0_1), cons(x_1_0, x_1_1), cons(x_2_0, x_2_1)) <= _r_1(x_1_0, x_2_0)
  append(cons(x_0_0, x_0_1), nil, cons(x_2_0, x_2_1)) <= True
  append(nil, cons(x_1_0, x_1_1), cons(x_2_0, x_2_1)) <= _r_1(x_1_0, x_2_0)
  append(nil, nil, nil) <= True
}
;
prefix ->
{
  prefix(cons(x_0_0, x_0_1), cons(x_1_0, x_1_1)) <= _r_1(x_0_0, x_1_0) /\ prefix(x_0_1, x_1_1)
  prefix(nil, cons(x_1_0, x_1_1)) <= True
  prefix(nil, nil) <= True
}

--
Equality automata are defined for: {elt, eltlist}
_|


Answer of teacher:


append(nil, l2, l2) <= True -> No: ()
prefix(nil, y) <= True -> No: ()
prefix(l2, _f) <= append(l1, l2, _f) -> Yes: {
_f -> cons(b, nil)  ;  l1 -> nil  ;  l2 -> cons(b, cons(v0_0, v0_1))
}
append(cons(h1, t1), l2, cons(h1, _a)) <= append(t1, l2, _a) -> Yes: {
_a -> cons(b, _a_1)  ;  h1 -> a  ;  l2 -> cons(b, l2_1)  ;  t1 -> nil
}
prefix(cons(y2, zs), cons(y2, ys)) <= prefix(zs, ys) -> No: ()
prefix(zs, ys) <= prefix(cons(y2, zs), cons(y2, ys)) -> No: ()
eq_elt(z, y2) <= prefix(cons(z, zs), cons(y2, ys)) -> No: ()
False <= prefix(cons(z, zs), nil) -> No: ()



-------------------------------------------
Step 6, which took 0.065733 s (model generation: 0.065263,  model checking: 0.000470):

Ground examples at the beginning of this step are:
{
append(cons(a, nil), cons(a, nil), cons(a, cons(a, nil))) <= True
append(cons(a, nil), nil, cons(a, nil)) <= True
append(nil, cons(a, nil), cons(a, nil)) <= True
append(nil, nil, nil) <= True
prefix(cons(a, nil), cons(a, nil)) <= True
prefix(cons(b, nil), cons(b, nil)) <= True
prefix(nil, cons(a, nil)) <= True
prefix(nil, nil) <= True
False <= append(cons(a, nil), cons(b, nil), cons(a, nil))
False <= append(nil, cons(a, nil), cons(b, nil))
prefix(cons(b, cons(a, nil)), cons(b, nil)) <= append(nil, cons(b, cons(a, nil)), cons(b, nil))
append(cons(a, nil), cons(b, nil), cons(a, cons(b, nil))) <= append(nil, cons(b, nil), cons(b, nil))
False <= prefix(cons(a, cons(a, nil)), cons(a, cons(b, nil)))
False <= prefix(cons(a, cons(a, nil)), cons(a, nil))
False <= prefix(cons(a, nil), cons(b, nil))
False <= prefix(cons(a, nil), nil)
False <= prefix(cons(b, nil), cons(a, nil))
}

Learner proposed model:
Found Model:
|_

_r_1 ->
{
  _r_1(a, a) <= True
}
;
_r_2 ->
{
  _r_2(a, a) <= True
  _r_2(b, b) <= True
}
;
append ->
{
  append(cons(x_0_0, x_0_1), cons(x_1_0, x_1_1), cons(x_2_0, x_2_1)) <= _r_1(x_1_0, x_2_0)
  append(cons(x_0_0, x_0_1), nil, cons(x_2_0, x_2_1)) <= True
  append(nil, cons(x_1_0, x_1_1), cons(x_2_0, x_2_1)) <= _r_1(x_1_0, x_2_0)
  append(nil, nil, nil) <= True
}
;
prefix ->
{
  prefix(cons(x_0_0, x_0_1), cons(x_1_0, x_1_1)) <= _r_2(x_0_0, x_1_0) /\ prefix(x_0_1, x_1_1)
  prefix(nil, cons(x_1_0, x_1_1)) <= True
  prefix(nil, nil) <= True
}

--
Equality automata are defined for: {elt, eltlist}
_|


Answer of teacher:


append(nil, l2, l2) <= True -> Yes: {
l2 -> cons(b, l2_1)
}
prefix(nil, y) <= True -> No: ()
prefix(l2, _f) <= append(l1, l2, _f) -> Yes: {
_f -> cons(a, nil)  ;  l1 -> nil  ;  l2 -> cons(a, cons(v0_0, v0_1))
}
append(cons(h1, t1), l2, cons(h1, _a)) <= append(t1, l2, _a) -> Yes: {
_a -> cons(a, _a_1)  ;  h1 -> b  ;  l2 -> cons(a, l2_1)  ;  t1 -> nil
}
prefix(cons(y2, zs), cons(y2, ys)) <= prefix(zs, ys) -> No: ()
prefix(zs, ys) <= prefix(cons(y2, zs), cons(y2, ys)) -> No: ()
eq_elt(z, y2) <= prefix(cons(z, zs), cons(y2, ys)) -> No: ()
False <= prefix(cons(z, zs), nil) -> No: ()



-------------------------------------------
Step 7, which took 0.080015 s (model generation: 0.079129,  model checking: 0.000886):

Ground examples at the beginning of this step are:
{
append(cons(a, nil), cons(a, nil), cons(a, cons(a, nil))) <= True
append(cons(a, nil), cons(b, nil), cons(a, cons(b, nil))) <= True
append(cons(a, nil), nil, cons(a, nil)) <= True
append(cons(b, nil), cons(a, nil), cons(b, cons(a, nil))) <= True
append(nil, cons(a, nil), cons(a, nil)) <= True
append(nil, cons(b, nil), cons(b, nil)) <= True
append(nil, nil, nil) <= True
prefix(cons(a, nil), cons(a, nil)) <= True
prefix(cons(b, nil), cons(b, nil)) <= True
prefix(nil, cons(a, nil)) <= True
prefix(nil, nil) <= True
False <= append(cons(a, nil), cons(b, nil), cons(a, nil))
False <= append(nil, cons(a, cons(a, nil)), cons(a, nil))
False <= append(nil, cons(a, nil), cons(b, nil))
prefix(cons(b, cons(a, nil)), cons(b, nil)) <= append(nil, cons(b, cons(a, nil)), cons(b, nil))
False <= prefix(cons(a, cons(a, nil)), cons(a, cons(b, nil)))
False <= prefix(cons(a, cons(a, nil)), cons(a, nil))
False <= prefix(cons(a, nil), cons(b, nil))
False <= prefix(cons(a, nil), nil)
False <= prefix(cons(b, nil), cons(a, nil))
}

Learner proposed model:
Found Model:
|_

_r_1 ->
{
  _r_1(nil, cons(x_1_0, x_1_1)) <= True
}
;
_r_2 ->
{
  _r_2(a, a) <= True
  _r_2(b, b) <= True
}
;
append ->
{
  append(cons(x_0_0, x_0_1), cons(x_1_0, x_1_1), cons(x_2_0, x_2_1)) <= _r_1(x_1_1, x_2_1)
  append(cons(x_0_0, x_0_1), nil, cons(x_2_0, x_2_1)) <= True
  append(nil, cons(x_1_0, x_1_1), cons(x_2_0, x_2_1)) <= _r_2(x_1_0, x_2_0) /\ prefix(x_1_1, x_2_1)
  append(nil, nil, nil) <= True
}
;
prefix ->
{
  prefix(cons(x_0_0, x_0_1), cons(x_1_0, x_1_1)) <= _r_2(x_0_0, x_1_0) /\ prefix(x_0_1, x_1_1)
  prefix(nil, cons(x_1_0, x_1_1)) <= True
  prefix(nil, nil) <= True
}

--
Equality automata are defined for: {elt, eltlist}
_|


Answer of teacher:


append(nil, l2, l2) <= True -> No: ()
prefix(nil, y) <= True -> No: ()
prefix(l2, _f) <= append(l1, l2, _f) -> Yes: {
_f -> cons(a, cons(v1_0, v1_1))  ;  l1 -> cons(l1_0, l1_1)  ;  l2 -> cons(b, nil)
}
append(cons(h1, t1), l2, cons(h1, _a)) <= append(t1, l2, _a) -> Yes: {
_a -> cons(b, cons(b, nil))  ;  l2 -> cons(b, cons(b, nil))  ;  t1 -> nil
}
prefix(cons(y2, zs), cons(y2, ys)) <= prefix(zs, ys) -> No: ()
prefix(zs, ys) <= prefix(cons(y2, zs), cons(y2, ys)) -> No: ()
eq_elt(z, y2) <= prefix(cons(z, zs), cons(y2, ys)) -> No: ()
False <= prefix(cons(z, zs), nil) -> No: ()



-------------------------------------------
Step 8, which took 0.132903 s (model generation: 0.131682,  model checking: 0.001221):

Ground examples at the beginning of this step are:
{
append(cons(a, nil), cons(a, nil), cons(a, cons(a, nil))) <= True
append(cons(a, nil), cons(b, nil), cons(a, cons(b, nil))) <= True
append(cons(a, nil), nil, cons(a, nil)) <= True
append(cons(b, nil), cons(a, nil), cons(b, cons(a, nil))) <= True
append(nil, cons(a, nil), cons(a, nil)) <= True
append(nil, cons(b, nil), cons(b, nil)) <= True
append(nil, nil, nil) <= True
prefix(cons(a, nil), cons(a, nil)) <= True
prefix(cons(b, nil), cons(b, nil)) <= True
prefix(nil, cons(a, nil)) <= True
prefix(nil, nil) <= True
prefix(cons(b, nil), cons(a, cons(a, nil))) <= append(cons(a, nil), cons(b, nil), cons(a, cons(a, nil)))
False <= append(cons(a, nil), cons(b, nil), cons(a, nil))
False <= append(nil, cons(a, cons(a, nil)), cons(a, nil))
False <= append(nil, cons(a, nil), cons(b, nil))
prefix(cons(b, cons(a, nil)), cons(b, nil)) <= append(nil, cons(b, cons(a, nil)), cons(b, nil))
append(cons(a, nil), cons(b, cons(b, nil)), cons(a, cons(b, cons(b, nil)))) <= append(nil, cons(b, cons(b, nil)), cons(b, cons(b, nil)))
False <= prefix(cons(a, cons(a, nil)), cons(a, cons(b, nil)))
False <= prefix(cons(a, cons(a, nil)), cons(a, nil))
False <= prefix(cons(a, nil), cons(b, nil))
False <= prefix(cons(a, nil), nil)
False <= prefix(cons(b, nil), cons(a, nil))
}

Learner proposed model:
Found Model:
|_

_r_1 ->
{
  _r_1(nil, cons(x_1_0, x_1_1)) <= True
}
;
_r_2 ->
{
  _r_2(a, a) <= True
  _r_2(b, b) <= True
}
;
append ->
{
  append(cons(x_0_0, x_0_1), cons(x_1_0, x_1_1), cons(x_2_0, x_2_1)) <= _r_1(x_0_1, x_1_1)
  append(cons(x_0_0, x_0_1), cons(x_1_0, x_1_1), cons(x_2_0, x_2_1)) <= _r_1(x_1_1, x_2_1)
  append(cons(x_0_0, x_0_1), nil, cons(x_2_0, x_2_1)) <= True
  append(nil, cons(x_1_0, x_1_1), cons(x_2_0, x_2_1)) <= _r_2(x_1_0, x_2_0) /\ prefix(x_1_1, x_2_1)
  append(nil, nil, nil) <= True
}
;
prefix ->
{
  prefix(cons(x_0_0, x_0_1), cons(x_1_0, x_1_1)) <= _r_1(x_0_1, x_1_1)
  prefix(cons(x_0_0, x_0_1), cons(x_1_0, x_1_1)) <= _r_2(x_0_0, x_1_0) /\ prefix(x_0_1, x_1_1)
  prefix(nil, cons(x_1_0, x_1_1)) <= True
  prefix(nil, nil) <= True
}

--
Equality automata are defined for: {elt, eltlist}
_|


Answer of teacher:


append(nil, l2, l2) <= True -> No: ()
prefix(nil, y) <= True -> No: ()
prefix(l2, _f) <= append(l1, l2, _f) -> Yes: {
_f -> cons(a, nil)  ;  l1 -> cons(l1_0, nil)  ;  l2 -> cons(b, cons(v1_0, v1_1))
}
append(cons(h1, t1), l2, cons(h1, _a)) <= append(t1, l2, _a) -> Yes: {
_a -> cons(_a_0, _a_1)  ;  l2 -> cons(l2_0, cons(v0_0, v0_1))  ;  t1 -> cons(t1_0, nil)
}
prefix(cons(y2, zs), cons(y2, ys)) <= prefix(zs, ys) -> No: ()
prefix(zs, ys) <= prefix(cons(y2, zs), cons(y2, ys)) -> No: ()
eq_elt(z, y2) <= prefix(cons(z, zs), cons(y2, ys)) -> Yes: {
y2 -> b  ;  ys -> cons(v1_0, v1_1)  ;  z -> a  ;  zs -> nil
}
False <= prefix(cons(z, zs), nil) -> No: ()



-------------------------------------------
Step 9, which took 0.223436 s (model generation: 0.221698,  model checking: 0.001738):

Ground examples at the beginning of this step are:
{
append(cons(a, nil), cons(a, nil), cons(a, cons(a, nil))) <= True
append(cons(a, nil), cons(b, nil), cons(a, cons(b, nil))) <= True
append(cons(a, nil), nil, cons(a, nil)) <= True
append(cons(b, nil), cons(a, nil), cons(b, cons(a, nil))) <= True
append(nil, cons(a, nil), cons(a, nil)) <= True
append(nil, cons(b, nil), cons(b, nil)) <= True
append(nil, nil, nil) <= True
prefix(cons(a, nil), cons(a, nil)) <= True
prefix(cons(b, nil), cons(b, nil)) <= True
prefix(nil, cons(a, nil)) <= True
prefix(nil, nil) <= True
append(cons(a, cons(a, nil)), cons(a, cons(a, nil)), cons(a, cons(a, nil))) <= append(cons(a, nil), cons(a, cons(a, nil)), cons(a, nil))
prefix(cons(b, cons(a, nil)), cons(a, nil)) <= append(cons(a, nil), cons(b, cons(a, nil)), cons(a, nil))
prefix(cons(b, nil), cons(a, cons(a, nil))) <= append(cons(a, nil), cons(b, nil), cons(a, cons(a, nil)))
False <= append(cons(a, nil), cons(b, nil), cons(a, nil))
False <= append(nil, cons(a, cons(a, nil)), cons(a, nil))
False <= append(nil, cons(a, nil), cons(b, nil))
prefix(cons(b, cons(a, nil)), cons(b, nil)) <= append(nil, cons(b, cons(a, nil)), cons(b, nil))
append(cons(a, nil), cons(b, cons(b, nil)), cons(a, cons(b, cons(b, nil)))) <= append(nil, cons(b, cons(b, nil)), cons(b, cons(b, nil)))
False <= prefix(cons(a, cons(a, nil)), cons(a, cons(b, nil)))
False <= prefix(cons(a, cons(a, nil)), cons(a, nil))
False <= prefix(cons(a, nil), cons(b, cons(a, nil)))
False <= prefix(cons(a, nil), cons(b, nil))
False <= prefix(cons(a, nil), nil)
False <= prefix(cons(b, nil), cons(a, nil))
}

Learner proposed model:
Found Model:
|_

_r_1 ->
{
  _r_1(b, cons(x_1_0, x_1_1)) <= True
}
;
_r_2 ->
{
  _r_2(a, a) <= True
  _r_2(b, b) <= True
}
;
append ->
{
  append(cons(x_0_0, x_0_1), cons(x_1_0, x_1_1), cons(x_2_0, x_2_1)) <= _r_1(x_0_0, x_2_1)
  append(cons(x_0_0, x_0_1), cons(x_1_0, x_1_1), cons(x_2_0, x_2_1)) <= _r_1(x_1_0, x_2_1)
  append(cons(x_0_0, x_0_1), cons(x_1_0, x_1_1), cons(x_2_0, x_2_1)) <= _r_2(x_0_0, x_1_0)
  append(cons(x_0_0, x_0_1), nil, cons(x_2_0, x_2_1)) <= True
  append(nil, cons(x_1_0, x_1_1), cons(x_2_0, x_2_1)) <= _r_2(x_1_0, x_2_0) /\ prefix(x_1_1, x_2_1)
  append(nil, nil, nil) <= True
}
;
prefix ->
{
  prefix(cons(x_0_0, x_0_1), cons(x_1_0, x_1_1)) <= _r_1(x_0_0, x_1_1)
  prefix(cons(x_0_0, x_0_1), cons(x_1_0, x_1_1)) <= _r_2(x_0_0, x_1_0) /\ prefix(x_0_1, x_1_1)
  prefix(nil, cons(x_1_0, x_1_1)) <= True
  prefix(nil, nil) <= True
}

--
Equality automata are defined for: {elt, eltlist}
_|


Answer of teacher:


append(nil, l2, l2) <= True -> No: ()
prefix(nil, y) <= True -> No: ()
prefix(l2, _f) <= append(l1, l2, _f) -> Yes: {
_f -> cons(a, nil)  ;  l1 -> cons(b, l1_1)  ;  l2 -> cons(b, l2_1)
}
append(cons(h1, t1), l2, cons(h1, _a)) <= append(t1, l2, _a) -> No: ()
prefix(cons(y2, zs), cons(y2, ys)) <= prefix(zs, ys) -> No: ()
prefix(zs, ys) <= prefix(cons(y2, zs), cons(y2, ys)) -> Yes: {
y2 -> b  ;  ys -> cons(ys_0, nil)  ;  zs -> cons(b, cons(v4_0, v4_1))
}
eq_elt(z, y2) <= prefix(cons(z, zs), cons(y2, ys)) -> Yes: {
y2 -> a  ;  ys -> cons(v0_0, v0_1)  ;  z -> b
}
False <= prefix(cons(z, zs), nil) -> No: ()



-------------------------------------------
Step 10, which took 0.736570 s (model generation: 0.735920,  model checking: 0.000650):

Ground examples at the beginning of this step are:
{
append(cons(a, nil), cons(a, nil), cons(a, cons(a, nil))) <= True
append(cons(a, nil), cons(b, nil), cons(a, cons(b, nil))) <= True
append(cons(a, nil), nil, cons(a, nil)) <= True
append(cons(b, nil), cons(a, nil), cons(b, cons(a, nil))) <= True
append(nil, cons(a, nil), cons(a, nil)) <= True
append(nil, cons(b, nil), cons(b, nil)) <= True
append(nil, nil, nil) <= True
prefix(cons(a, nil), cons(a, nil)) <= True
prefix(cons(b, nil), cons(b, nil)) <= True
prefix(nil, cons(a, nil)) <= True
prefix(nil, nil) <= True
append(cons(a, cons(a, nil)), cons(a, cons(a, nil)), cons(a, cons(a, nil))) <= append(cons(a, nil), cons(a, cons(a, nil)), cons(a, nil))
prefix(cons(b, cons(a, nil)), cons(a, nil)) <= append(cons(a, nil), cons(b, cons(a, nil)), cons(a, nil))
False <= append(cons(a, nil), cons(b, nil), cons(a, cons(a, nil)))
False <= append(cons(a, nil), cons(b, nil), cons(a, nil))
False <= append(cons(b, nil), cons(b, nil), cons(a, nil))
False <= append(nil, cons(a, cons(a, nil)), cons(a, nil))
False <= append(nil, cons(a, nil), cons(b, nil))
prefix(cons(b, cons(a, nil)), cons(b, nil)) <= append(nil, cons(b, cons(a, nil)), cons(b, nil))
append(cons(a, nil), cons(b, cons(b, nil)), cons(a, cons(b, cons(b, nil)))) <= append(nil, cons(b, cons(b, nil)), cons(b, cons(b, nil)))
False <= prefix(cons(a, cons(a, nil)), cons(a, cons(b, nil)))
False <= prefix(cons(a, cons(a, nil)), cons(a, nil))
False <= prefix(cons(a, nil), cons(b, cons(a, nil)))
False <= prefix(cons(a, nil), cons(b, nil))
False <= prefix(cons(a, nil), nil)
prefix(cons(b, cons(a, nil)), cons(a, nil)) <= prefix(cons(b, cons(b, cons(a, nil))), cons(b, cons(a, nil)))
False <= prefix(cons(b, nil), cons(a, cons(a, nil)))
False <= prefix(cons(b, nil), cons(a, nil))
}

Learner proposed model:
Found Model:
|_

_r_1 ->
{
  _r_1(a, cons(x_1_0, x_1_1)) <= True
  _r_1(b, cons(x_1_0, x_1_1)) <= _r_3(x_1_0)
}
;
_r_2 ->
{
  _r_2(a, a) <= True
  _r_2(b, b) <= True
}
;
_r_3 ->
{
  _r_3(b) <= True
}
;
append ->
{
  append(cons(x_0_0, x_0_1), cons(x_1_0, x_1_1), cons(x_2_0, x_2_1)) <= _r_1(x_1_0, x_2_1)
  append(cons(x_0_0, x_0_1), nil, cons(x_2_0, x_2_1)) <= True
  append(nil, cons(x_1_0, x_1_1), cons(x_2_0, x_2_1)) <= _r_2(x_1_0, x_2_0) /\ prefix(x_1_1, x_2_1)
  append(nil, nil, nil) <= True
}
;
prefix ->
{
  prefix(cons(x_0_0, x_0_1), cons(x_1_0, x_1_1)) <= _r_2(x_0_0, x_1_0) /\ prefix(x_0_1, x_1_1)
  prefix(nil, cons(x_1_0, x_1_1)) <= True
  prefix(nil, nil) <= True
}

--
Equality automata are defined for: {elt, eltlist}
_|


Answer of teacher:


append(nil, l2, l2) <= True -> No: ()
prefix(nil, y) <= True -> No: ()
prefix(l2, _f) <= append(l1, l2, _f) -> Yes: {
_f -> cons(a, cons(b, v1_1))  ;  l1 -> cons(l1_0, l1_1)  ;  l2 -> cons(b, l2_1)
}
append(cons(h1, t1), l2, cons(h1, _a)) <= append(t1, l2, _a) -> Yes: {
_a -> cons(a, cons(b, v1_1))  ;  l2 -> cons(b, l2_1)  ;  t1 -> cons(t1_0, t1_1)
}
prefix(cons(y2, zs), cons(y2, ys)) <= prefix(zs, ys) -> No: ()
prefix(zs, ys) <= prefix(cons(y2, zs), cons(y2, ys)) -> No: ()
eq_elt(z, y2) <= prefix(cons(z, zs), cons(y2, ys)) -> No: ()
False <= prefix(cons(z, zs), nil) -> No: ()



-------------------------------------------
Step 11, which took 1.353924 s (model generation: 1.352101,  model checking: 0.001823):

Ground examples at the beginning of this step are:
{
append(cons(a, cons(a, nil)), cons(b, nil), cons(a, cons(a, cons(b, nil)))) <= True
append(cons(a, nil), cons(a, nil), cons(a, cons(a, nil))) <= True
append(cons(a, nil), cons(b, nil), cons(a, cons(b, nil))) <= True
append(cons(a, nil), nil, cons(a, nil)) <= True
append(cons(b, nil), cons(a, nil), cons(b, cons(a, nil))) <= True
append(nil, cons(a, nil), cons(a, nil)) <= True
append(nil, cons(b, nil), cons(b, nil)) <= True
append(nil, nil, nil) <= True
prefix(cons(a, nil), cons(a, nil)) <= True
prefix(cons(b, nil), cons(a, cons(b, nil))) <= True
prefix(cons(b, nil), cons(b, nil)) <= True
prefix(nil, cons(a, nil)) <= True
prefix(nil, nil) <= True
append(cons(a, cons(a, nil)), cons(a, cons(a, nil)), cons(a, cons(a, nil))) <= append(cons(a, nil), cons(a, cons(a, nil)), cons(a, nil))
prefix(cons(b, cons(a, nil)), cons(a, nil)) <= append(cons(a, nil), cons(b, cons(a, nil)), cons(a, nil))
False <= append(cons(a, nil), cons(b, nil), cons(a, cons(a, nil)))
False <= append(cons(a, nil), cons(b, nil), cons(a, nil))
False <= append(cons(b, nil), cons(b, nil), cons(a, nil))
False <= append(nil, cons(a, cons(a, nil)), cons(a, nil))
False <= append(nil, cons(a, nil), cons(b, nil))
prefix(cons(b, cons(a, nil)), cons(b, nil)) <= append(nil, cons(b, cons(a, nil)), cons(b, nil))
append(cons(a, nil), cons(b, cons(b, nil)), cons(a, cons(b, cons(b, nil)))) <= append(nil, cons(b, cons(b, nil)), cons(b, cons(b, nil)))
False <= prefix(cons(a, cons(a, nil)), cons(a, cons(b, nil)))
False <= prefix(cons(a, cons(a, nil)), cons(a, nil))
False <= prefix(cons(a, nil), cons(b, cons(a, nil)))
False <= prefix(cons(a, nil), cons(b, nil))
False <= prefix(cons(a, nil), nil)
prefix(cons(b, cons(a, nil)), cons(a, nil)) <= prefix(cons(b, cons(b, cons(a, nil))), cons(b, cons(a, nil)))
False <= prefix(cons(b, nil), cons(a, cons(a, nil)))
False <= prefix(cons(b, nil), cons(a, nil))
}

Learner proposed model:
Found Model:
|_

_r_1 ->
{
  _r_1(cons(x_0_0, x_0_1), cons(x_1_0, x_1_1)) <= _r_1(x_0_1, x_1_1)
  _r_1(nil, cons(x_1_0, x_1_1)) <= _r_3(x_1_0)
}
;
_r_2 ->
{
  _r_2(a, a) <= True
  _r_2(b, b) <= True
}
;
_r_3 ->
{
  _r_3(b) <= True
}
;
append ->
{
  append(cons(x_0_0, x_0_1), cons(x_1_0, x_1_1), cons(x_2_0, x_2_1)) <= _r_1(x_0_1, x_2_1)
  append(cons(x_0_0, x_0_1), cons(x_1_0, x_1_1), cons(x_2_0, x_2_1)) <= _r_2(x_1_0, x_2_0)
  append(cons(x_0_0, x_0_1), cons(x_1_0, x_1_1), cons(x_2_0, x_2_1)) <= _r_3(x_2_0)
  append(cons(x_0_0, x_0_1), nil, cons(x_2_0, x_2_1)) <= True
  append(nil, cons(x_1_0, x_1_1), cons(x_2_0, x_2_1)) <= _r_2(x_1_0, x_2_0) /\ prefix(x_1_1, x_2_1)
  append(nil, nil, nil) <= True
}
;
prefix ->
{
  prefix(cons(x_0_0, x_0_1), cons(x_1_0, x_1_1)) <= _r_1(x_0_1, x_1_1)
  prefix(cons(x_0_0, x_0_1), cons(x_1_0, x_1_1)) <= _r_2(x_0_0, x_1_0) /\ prefix(x_0_1, x_1_1)
  prefix(nil, cons(x_1_0, x_1_1)) <= True
  prefix(nil, nil) <= True
}

--
Equality automata are defined for: {elt, eltlist}
_|


Answer of teacher:


append(nil, l2, l2) <= True -> No: ()
prefix(nil, y) <= True -> No: ()
prefix(l2, _f) <= append(l1, l2, _f) -> Yes: {
_f -> cons(b, nil)  ;  l1 -> cons(l1_0, l1_1)  ;  l2 -> cons(a, nil)
}
append(cons(h1, t1), l2, cons(h1, _a)) <= append(t1, l2, _a) -> Yes: {
_a -> cons(b, nil)  ;  h1 -> a  ;  l2 -> cons(b, l2_1)  ;  t1 -> cons(t1_0, nil)
}
prefix(cons(y2, zs), cons(y2, ys)) <= prefix(zs, ys) -> No: ()
prefix(zs, ys) <= prefix(cons(y2, zs), cons(y2, ys)) -> No: ()
eq_elt(z, y2) <= prefix(cons(z, zs), cons(y2, ys)) -> Yes: {
y2 -> b  ;  ys -> cons(b, v1_1)  ;  z -> a  ;  zs -> nil
}
False <= prefix(cons(z, zs), nil) -> No: ()



-------------------------------------------
Step 12, which took 0.941547 s (model generation: 0.936579,  model checking: 0.004968):

Ground examples at the beginning of this step are:
{
append(cons(a, cons(a, nil)), cons(b, nil), cons(a, cons(a, cons(b, nil)))) <= True
append(cons(a, nil), cons(a, nil), cons(a, cons(a, nil))) <= True
append(cons(a, nil), cons(b, nil), cons(a, cons(b, nil))) <= True
append(cons(a, nil), nil, cons(a, nil)) <= True
append(cons(b, nil), cons(a, nil), cons(b, cons(a, nil))) <= True
append(nil, cons(a, nil), cons(a, nil)) <= True
append(nil, cons(b, nil), cons(b, nil)) <= True
append(nil, nil, nil) <= True
prefix(cons(a, nil), cons(a, nil)) <= True
prefix(cons(b, nil), cons(a, cons(b, nil))) <= True
prefix(cons(b, nil), cons(b, nil)) <= True
prefix(nil, cons(a, nil)) <= True
prefix(nil, nil) <= True
append(cons(a, cons(a, nil)), cons(a, cons(a, nil)), cons(a, cons(a, nil))) <= append(cons(a, nil), cons(a, cons(a, nil)), cons(a, nil))
False <= append(cons(a, nil), cons(a, nil), cons(b, nil))
prefix(cons(b, cons(a, nil)), cons(a, nil)) <= append(cons(a, nil), cons(b, cons(a, nil)), cons(a, nil))
False <= append(cons(a, nil), cons(b, nil), cons(a, cons(a, nil)))
False <= append(cons(a, nil), cons(b, nil), cons(a, nil))
append(cons(a, cons(a, nil)), cons(b, nil), cons(a, cons(b, nil))) <= append(cons(a, nil), cons(b, nil), cons(b, nil))
False <= append(cons(b, nil), cons(b, nil), cons(a, nil))
False <= append(nil, cons(a, cons(a, nil)), cons(a, nil))
False <= append(nil, cons(a, nil), cons(b, nil))
prefix(cons(b, cons(a, nil)), cons(b, nil)) <= append(nil, cons(b, cons(a, nil)), cons(b, nil))
append(cons(a, nil), cons(b, cons(b, nil)), cons(a, cons(b, cons(b, nil)))) <= append(nil, cons(b, cons(b, nil)), cons(b, cons(b, nil)))
False <= prefix(cons(a, cons(a, nil)), cons(a, cons(b, nil)))
False <= prefix(cons(a, cons(a, nil)), cons(a, nil))
False <= prefix(cons(a, nil), cons(b, cons(a, nil)))
False <= prefix(cons(a, nil), cons(b, cons(b, nil)))
False <= prefix(cons(a, nil), cons(b, nil))
False <= prefix(cons(a, nil), nil)
prefix(cons(b, cons(a, nil)), cons(a, nil)) <= prefix(cons(b, cons(b, cons(a, nil))), cons(b, cons(a, nil)))
False <= prefix(cons(b, nil), cons(a, cons(a, nil)))
False <= prefix(cons(b, nil), cons(a, nil))
}

Learner proposed model:
Found Model:
|_

_r_1 ->
{
  _r_1(cons(x_0_0, x_0_1), cons(x_1_0, x_1_1)) <= True
  _r_1(cons(x_0_0, x_0_1), nil) <= True
  _r_1(nil, cons(x_1_0, x_1_1)) <= _r_2(x_1_0)
}
;
_r_2 ->
{
  _r_2(b) <= True
}
;
_r_3 ->
{
  _r_3(a) <= True
}
;
append ->
{
  append(cons(x_0_0, x_0_1), cons(x_1_0, x_1_1), cons(x_2_0, x_2_1)) <= _r_1(x_0_1, x_1_1) /\ prefix(x_0_1, x_2_1)
  append(cons(x_0_0, x_0_1), cons(x_1_0, x_1_1), cons(x_2_0, x_2_1)) <= _r_1(x_0_1, x_2_1)
  append(cons(x_0_0, x_0_1), cons(x_1_0, x_1_1), cons(x_2_0, x_2_1)) <= _r_2(x_0_0) /\ _r_2(x_2_0)
  append(cons(x_0_0, x_0_1), cons(x_1_0, x_1_1), cons(x_2_0, x_2_1)) <= _r_3(x_1_0) /\ _r_3(x_2_0)
  append(cons(x_0_0, x_0_1), nil, cons(x_2_0, x_2_1)) <= True
  append(nil, cons(x_1_0, x_1_1), cons(x_2_0, x_2_1)) <= _r_2(x_1_0)
  append(nil, cons(x_1_0, x_1_1), cons(x_2_0, x_2_1)) <= _r_3(x_2_0) /\ prefix(x_1_1, x_2_1)
  append(nil, nil, nil) <= True
}
;
prefix ->
{
  prefix(cons(x_0_0, x_0_1), cons(x_1_0, x_1_1)) <= _r_1(x_0_1, x_1_1) /\ _r_2(x_0_0)
  prefix(cons(x_0_0, x_0_1), cons(x_1_0, x_1_1)) <= _r_2(x_0_0) /\ _r_2(x_1_0)
  prefix(cons(x_0_0, x_0_1), cons(x_1_0, x_1_1)) <= _r_3(x_0_0) /\ _r_3(x_1_0) /\ prefix(x_0_1, x_1_1)
  prefix(nil, cons(x_1_0, x_1_1)) <= True
  prefix(nil, nil) <= True
}

--
Equality automata are defined for: {elt, eltlist}
_|


Answer of teacher:


append(nil, l2, l2) <= True -> No: ()
prefix(nil, y) <= True -> No: ()
prefix(l2, _f) <= append(l1, l2, _f) -> Yes: {
_f -> cons(b, nil)  ;  l1 -> cons(l1_0, cons(v0_0, v0_1))  ;  l2 -> cons(a, l2_1)
}
append(cons(h1, t1), l2, cons(h1, _a)) <= append(t1, l2, _a) -> Yes: {
_a -> cons(a, _a_1)  ;  h1 -> a  ;  l2 -> cons(b, nil)  ;  t1 -> nil
}
prefix(cons(y2, zs), cons(y2, ys)) <= prefix(zs, ys) -> No: ()
prefix(zs, ys) <= prefix(cons(y2, zs), cons(y2, ys)) -> Yes: {
y2 -> b  ;  ys -> nil  ;  zs -> cons(zs_0, zs_1)
}
eq_elt(z, y2) <= prefix(cons(z, zs), cons(y2, ys)) -> Yes: {
y2 -> a  ;  ys -> nil  ;  z -> b  ;  zs -> cons(v0_0, v0_1)
}
False <= prefix(cons(z, zs), nil) -> No: ()



-------------------------------------------
Step 13, which took 1.006710 s (model generation: 1.002831,  model checking: 0.003879):

Ground examples at the beginning of this step are:
{
append(cons(a, cons(a, nil)), cons(b, nil), cons(a, cons(a, cons(b, nil)))) <= True
append(cons(a, nil), cons(a, nil), cons(a, cons(a, nil))) <= True
append(cons(a, nil), cons(b, nil), cons(a, cons(b, nil))) <= True
append(cons(a, nil), nil, cons(a, nil)) <= True
append(cons(b, nil), cons(a, nil), cons(b, cons(a, nil))) <= True
append(nil, cons(a, nil), cons(a, nil)) <= True
append(nil, cons(b, nil), cons(b, nil)) <= True
append(nil, nil, nil) <= True
prefix(cons(a, nil), cons(a, nil)) <= True
prefix(cons(b, nil), cons(a, cons(b, nil))) <= True
prefix(cons(b, nil), cons(b, nil)) <= True
prefix(nil, cons(a, nil)) <= True
prefix(nil, nil) <= True
False <= append(cons(a, cons(a, nil)), cons(a, nil), cons(b, nil))
append(cons(a, cons(a, nil)), cons(a, cons(a, nil)), cons(a, cons(a, nil))) <= append(cons(a, nil), cons(a, cons(a, nil)), cons(a, nil))
False <= append(cons(a, nil), cons(a, nil), cons(b, nil))
False <= append(cons(a, nil), cons(b, cons(a, nil)), cons(a, nil))
False <= append(cons(a, nil), cons(b, nil), cons(a, cons(a, nil)))
False <= append(cons(a, nil), cons(b, nil), cons(a, nil))
append(cons(a, cons(a, nil)), cons(b, nil), cons(a, cons(b, nil))) <= append(cons(a, nil), cons(b, nil), cons(b, nil))
False <= append(cons(b, nil), cons(b, nil), cons(a, nil))
False <= append(nil, cons(a, cons(a, nil)), cons(a, nil))
False <= append(nil, cons(a, nil), cons(b, nil))
False <= append(nil, cons(b, cons(a, nil)), cons(b, nil))
append(cons(a, nil), cons(b, cons(b, nil)), cons(a, cons(b, cons(b, nil)))) <= append(nil, cons(b, cons(b, nil)), cons(b, cons(b, nil)))
False <= append(nil, cons(b, nil), cons(a, nil))
False <= prefix(cons(a, cons(a, nil)), cons(a, cons(b, nil)))
False <= prefix(cons(a, cons(a, nil)), cons(a, nil))
False <= prefix(cons(a, nil), cons(b, cons(a, nil)))
False <= prefix(cons(a, nil), cons(b, cons(b, nil)))
False <= prefix(cons(a, nil), cons(b, nil))
False <= prefix(cons(a, nil), nil)
False <= prefix(cons(b, cons(a, nil)), cons(a, nil))
False <= prefix(cons(b, cons(a, nil)), cons(b, nil))
False <= prefix(cons(b, cons(b, cons(a, nil))), cons(b, cons(a, nil)))
False <= prefix(cons(b, nil), cons(a, cons(a, nil)))
False <= prefix(cons(b, nil), cons(a, nil))
}

Learner proposed model:
Found Model:
|_

_r_1 ->
{
  _r_1(a, cons(x_1_0, x_1_1)) <= True
  _r_1(b, cons(x_1_0, x_1_1)) <= _r_3(x_1_0)
}
;
_r_2 ->
{
  _r_2(a, a) <= True
  _r_2(b, b) <= True
}
;
_r_3 ->
{
  _r_3(b) <= True
}
;
append ->
{
  append(cons(x_0_0, x_0_1), cons(x_1_0, x_1_1), cons(x_2_0, x_2_1)) <= _r_1(x_0_0, x_2_1) /\ append(x_0_1, x_1_1, x_2_1)
  append(cons(x_0_0, x_0_1), cons(x_1_0, x_1_1), cons(x_2_0, x_2_1)) <= _r_1(x_1_0, x_2_1)
  append(cons(x_0_0, x_0_1), nil, cons(x_2_0, x_2_1)) <= True
  append(nil, cons(x_1_0, x_1_1), cons(x_2_0, x_2_1)) <= _r_2(x_1_0, x_2_0) /\ prefix(x_1_1, x_2_1)
  append(nil, nil, nil) <= True
}
;
prefix ->
{
  prefix(cons(x_0_0, x_0_1), cons(x_1_0, x_1_1)) <= _r_1(x_0_0, x_1_1) /\ _r_3(x_0_0)
  prefix(cons(x_0_0, x_0_1), cons(x_1_0, x_1_1)) <= _r_2(x_0_0, x_1_0) /\ prefix(x_0_1, x_1_1)
  prefix(nil, cons(x_1_0, x_1_1)) <= True
  prefix(nil, nil) <= True
}

--
Equality automata are defined for: {elt, eltlist}
_|


Answer of teacher:


append(nil, l2, l2) <= True -> No: ()
prefix(nil, y) <= True -> No: ()
prefix(l2, _f) <= append(l1, l2, _f) -> Yes: {
_f -> cons(b, cons(b, v1_1))  ;  l1 -> cons(b, cons(v2_0, v2_1))  ;  l2 -> cons(a, nil)
}
append(cons(h1, t1), l2, cons(h1, _a)) <= append(t1, l2, _a) -> Yes: {
_a -> cons(a, cons(b, v1_1))  ;  h1 -> b  ;  l2 -> cons(b, l2_1)  ;  t1 -> cons(t1_0, t1_1)
}
prefix(cons(y2, zs), cons(y2, ys)) <= prefix(zs, ys) -> No: ()
prefix(zs, ys) <= prefix(cons(y2, zs), cons(y2, ys)) -> Yes: {
y2 -> b  ;  ys -> cons(b, nil)  ;  zs -> cons(a, cons(v3_0, v3_1))
}
eq_elt(z, y2) <= prefix(cons(z, zs), cons(y2, ys)) -> Yes: {
y2 -> a  ;  ys -> cons(b, v0_1)  ;  z -> b
}
False <= prefix(cons(z, zs), nil) -> No: ()



Ground examples:
{
append(cons(a, cons(a, nil)), cons(b, nil), cons(a, cons(a, cons(b, nil)))) <= True
append(cons(a, nil), cons(a, nil), cons(a, cons(a, nil))) <= True
append(cons(a, nil), cons(b, nil), cons(a, cons(b, nil))) <= True
append(cons(a, nil), nil, cons(a, nil)) <= True
append(cons(b, cons(a, nil)), cons(b, nil), cons(b, cons(a, cons(b, nil)))) <= True
append(cons(b, nil), cons(a, nil), cons(b, cons(a, nil))) <= True
append(nil, cons(a, nil), cons(a, nil)) <= True
append(nil, cons(b, nil), cons(b, nil)) <= True
append(nil, nil, nil) <= True
prefix(cons(a, nil), cons(a, nil)) <= True
prefix(cons(b, nil), cons(a, cons(b, nil))) <= True
prefix(cons(b, nil), cons(b, nil)) <= True
prefix(nil, cons(a, nil)) <= True
prefix(nil, nil) <= True
False <= append(cons(a, cons(a, nil)), cons(a, nil), cons(b, nil))
append(cons(a, cons(a, nil)), cons(a, cons(a, nil)), cons(a, cons(a, nil))) <= append(cons(a, nil), cons(a, cons(a, nil)), cons(a, nil))
False <= append(cons(a, nil), cons(a, nil), cons(b, nil))
False <= append(cons(a, nil), cons(b, cons(a, nil)), cons(a, nil))
False <= append(cons(a, nil), cons(b, nil), cons(a, cons(a, nil)))
False <= append(cons(a, nil), cons(b, nil), cons(a, nil))
append(cons(a, cons(a, nil)), cons(b, nil), cons(a, cons(b, nil))) <= append(cons(a, nil), cons(b, nil), cons(b, nil))
False <= append(cons(b, cons(a, nil)), cons(a, nil), cons(b, cons(b, nil)))
False <= append(cons(b, nil), cons(b, nil), cons(a, nil))
False <= append(nil, cons(a, cons(a, nil)), cons(a, nil))
False <= append(nil, cons(a, nil), cons(b, nil))
False <= append(nil, cons(b, cons(a, nil)), cons(b, nil))
append(cons(a, nil), cons(b, cons(b, nil)), cons(a, cons(b, cons(b, nil)))) <= append(nil, cons(b, cons(b, nil)), cons(b, cons(b, nil)))
False <= append(nil, cons(b, nil), cons(a, nil))
False <= prefix(cons(a, cons(a, nil)), cons(a, cons(b, nil)))
False <= prefix(cons(a, cons(a, nil)), cons(a, nil))
False <= prefix(cons(a, nil), cons(b, cons(a, nil)))
False <= prefix(cons(a, nil), cons(b, cons(b, nil)))
False <= prefix(cons(a, nil), cons(b, nil))
False <= prefix(cons(a, nil), nil)
prefix(cons(a, cons(a, nil)), cons(b, nil)) <= prefix(cons(b, cons(a, cons(a, nil))), cons(b, cons(b, nil)))
False <= prefix(cons(b, cons(a, nil)), cons(a, nil))
False <= prefix(cons(b, cons(a, nil)), cons(b, nil))
False <= prefix(cons(b, cons(b, cons(a, nil))), cons(b, cons(a, nil)))
False <= prefix(cons(b, nil), cons(a, cons(a, nil)))
False <= prefix(cons(b, nil), cons(a, cons(b, nil)))
False <= prefix(cons(b, nil), cons(a, nil))
}

Learner output:
Maybe

Last ice step stopped before teacher could answer
Total time: 29.689990
Learner time: 4.620036
Teacher time: 0.017440
Reasons for stopping: Maybe:  timeout during learner
Last solver state:

Clauses:
{
append(nil, l2, l2) <= True
prefix(nil, y) <= True
prefix(l2, _f) <= append(l1, l2, _f)
append(cons(h1, t1), l2, cons(h1, _a)) <= append(t1, l2, _a)
prefix(cons(y2, zs), cons(y2, ys)) <= prefix(zs, ys)
prefix(zs, ys) <= prefix(cons(y2, zs), cons(y2, ys))
eq_elt(z, y2) <= prefix(cons(z, zs), cons(y2, ys))
False <= prefix(cons(z, zs), nil)
}

Accumulated learning constraints:
{
append(cons(a, cons(a, nil)), cons(b, nil), cons(a, cons(a, cons(b, nil)))) <= True
append(cons(a, nil), cons(a, nil), cons(a, cons(a, nil))) <= True
append(cons(a, nil), cons(b, nil), cons(a, cons(b, nil))) <= True
append(cons(a, nil), nil, cons(a, nil)) <= True
append(cons(b, cons(a, nil)), cons(b, nil), cons(b, cons(a, cons(b, nil)))) <= True
append(cons(b, nil), cons(a, nil), cons(b, cons(a, nil))) <= True
append(nil, cons(a, nil), cons(a, nil)) <= True
append(nil, cons(b, nil), cons(b, nil)) <= True
append(nil, nil, nil) <= True
prefix(cons(a, nil), cons(a, nil)) <= True
prefix(cons(b, nil), cons(a, cons(b, nil))) <= True
prefix(cons(b, nil), cons(b, nil)) <= True
prefix(nil, cons(a, nil)) <= True
prefix(nil, nil) <= True
False <= append(cons(a, cons(a, nil)), cons(a, nil), cons(b, nil))
append(cons(a, cons(a, nil)), cons(a, cons(a, nil)), cons(a, cons(a, nil))) <= append(cons(a, nil), cons(a, cons(a, nil)), cons(a, nil))
False <= append(cons(a, nil), cons(a, nil), cons(b, nil))
False <= append(cons(a, nil), cons(b, cons(a, nil)), cons(a, nil))
False <= append(cons(a, nil), cons(b, nil), cons(a, cons(a, nil)))
False <= append(cons(a, nil), cons(b, nil), cons(a, nil))
append(cons(a, cons(a, nil)), cons(b, nil), cons(a, cons(b, nil))) <= append(cons(a, nil), cons(b, nil), cons(b, nil))
False <= append(cons(b, cons(a, nil)), cons(a, nil), cons(b, cons(b, nil)))
False <= append(cons(b, nil), cons(b, nil), cons(a, nil))
False <= append(nil, cons(a, cons(a, nil)), cons(a, nil))
False <= append(nil, cons(a, nil), cons(b, nil))
False <= append(nil, cons(b, cons(a, nil)), cons(b, nil))
append(cons(a, nil), cons(b, cons(b, nil)), cons(a, cons(b, cons(b, nil)))) <= append(nil, cons(b, cons(b, nil)), cons(b, cons(b, nil)))
False <= append(nil, cons(b, nil), cons(a, nil))
False <= prefix(cons(a, cons(a, nil)), cons(a, cons(b, nil)))
False <= prefix(cons(a, cons(a, nil)), cons(a, nil))
False <= prefix(cons(a, nil), cons(b, cons(a, nil)))
False <= prefix(cons(a, nil), cons(b, cons(b, nil)))
False <= prefix(cons(a, nil), cons(b, nil))
False <= prefix(cons(a, nil), nil)
prefix(cons(a, cons(a, nil)), cons(b, nil)) <= prefix(cons(b, cons(a, cons(a, nil))), cons(b, cons(b, nil)))
False <= prefix(cons(b, cons(a, nil)), cons(a, nil))
False <= prefix(cons(b, cons(a, nil)), cons(b, nil))
False <= prefix(cons(b, cons(b, cons(a, nil))), cons(b, cons(a, nil)))
False <= prefix(cons(b, nil), cons(a, cons(a, nil)))
False <= prefix(cons(b, nil), cons(a, cons(b, nil)))
False <= prefix(cons(b, nil), cons(a, nil))
}

Current best model:
|_

_r_1 ->
{
  _r_1(a, cons(x_1_0, x_1_1)) <= True
  _r_1(b, cons(x_1_0, x_1_1)) <= _r_3(x_1_0)
}
;
_r_2 ->
{
  _r_2(a, a) <= True
  _r_2(b, b) <= True
}
;
_r_3 ->
{
  _r_3(b) <= True
}
;
append ->
{
  append(cons(x_0_0, x_0_1), cons(x_1_0, x_1_1), cons(x_2_0, x_2_1)) <= _r_1(x_0_0, x_2_1) /\ append(x_0_1, x_1_1, x_2_1)
  append(cons(x_0_0, x_0_1), cons(x_1_0, x_1_1), cons(x_2_0, x_2_1)) <= _r_1(x_1_0, x_2_1)
  append(cons(x_0_0, x_0_1), nil, cons(x_2_0, x_2_1)) <= True
  append(nil, cons(x_1_0, x_1_1), cons(x_2_0, x_2_1)) <= _r_2(x_1_0, x_2_0) /\ prefix(x_1_1, x_2_1)
  append(nil, nil, nil) <= True
}
;
prefix ->
{
  prefix(cons(x_0_0, x_0_1), cons(x_1_0, x_1_1)) <= _r_1(x_0_0, x_1_1) /\ _r_3(x_0_0)
  prefix(cons(x_0_0, x_0_1), cons(x_1_0, x_1_1)) <= _r_2(x_0_0, x_1_0) /\ prefix(x_0_1, x_1_1)
  prefix(nil, cons(x_1_0, x_1_1)) <= True
  prefix(nil, nil) <= True
}

--
Equality automata are defined for: {elt, eltlist}
_|








