Solving ../../../../benchmarks/smtlib/true/tree_depth_le_node.smt2...

Inference procedure has parameters:
Timeout: Some(40.) (sec)
Approximation method: remove functionnality constraint where possible



Learning problem is:

env: {
elt -> {a, b}  ;  etree -> {leaf, node}  ;  nat -> {s, z}
}
definition:
{
(le, P:
{
le(z, s(nn2)) <= True
le(s(nn1), s(nn2)) <= le(nn1, nn2)
le(nn1, nn2) <= le(s(nn1), s(nn2))
False <= le(s(nn1), z)
False <= le(z, z)
}
)
(leq, P:
{
leq(z, n2) <= True
leq(s(nn1), s(nn2)) <= leq(nn1, nn2)
leq(nn1, nn2) <= leq(s(nn1), s(nn2))
False <= leq(s(nn1), z)
}
)
(max, F:
{
leq(n, m) \/ max(n, m, n) <= True
max(n, m, m) <= leq(n, m)
}
eq_nat(_ska, _tka) <= max(_qka, _rka, _ska) /\ max(_qka, _rka, _tka)
)
(depth, F:
{
depth(leaf, z) <= True
depth(node(e, t1, t2), s(_uka)) <= depth(t1, _vka) /\ depth(t2, _wka) /\ max(_vka, _wka, _uka)
}
eq_nat(_yka, _zka) <= depth(_xka, _yka) /\ depth(_xka, _zka)
)
}

properties:
{
le(_ala, _bla) <= depth(t1, _ala) /\ depth(node(e, t1, t2), _bla)
}


over-approximation: {depth, max}
under-approximation: {le}

Clause system for inference is:

{
depth(leaf, z) <= True
le(z, s(nn2)) <= True
leq(n, m) \/ max(n, m, n) <= True
leq(z, n2) <= True
le(_ala, _bla) <= depth(t1, _ala) /\ depth(node(e, t1, t2), _bla)
depth(node(e, t1, t2), s(_uka)) <= depth(t1, _vka) /\ depth(t2, _wka) /\ max(_vka, _wka, _uka)
le(s(nn1), s(nn2)) <= le(nn1, nn2)
le(nn1, nn2) <= le(s(nn1), s(nn2))
False <= le(s(nn1), z)
False <= le(z, z)
max(n, m, m) <= leq(n, m)
leq(s(nn1), s(nn2)) <= leq(nn1, nn2)
leq(nn1, nn2) <= leq(s(nn1), s(nn2))
False <= leq(s(nn1), z)
}


Solving took 45.058913 seconds.
Maybe:  other: Some clauses could not be checked:
{
{le([_ala, _bla]), ~depth([t1, _ala]), ~depth([node(e, t1, t2), _bla])} -> out of time
{depth([node(e, t1, t2), s(_uka)]), ~depth([t1, _vka]), ~depth([t2, _wka]), ~max([_vka, _wka, _uka])} -> out of time
}

Last solver state:

Clauses:
{
depth(leaf, z) <= True
le(z, s(nn2)) <= True
leq(n, m) \/ max(n, m, n) <= True
leq(z, n2) <= True
le(_ala, _bla) <= depth(t1, _ala) /\ depth(node(e, t1, t2), _bla)
depth(node(e, t1, t2), s(_uka)) <= depth(t1, _vka) /\ depth(t2, _wka) /\ max(_vka, _wka, _uka)
le(s(nn1), s(nn2)) <= le(nn1, nn2)
le(nn1, nn2) <= le(s(nn1), s(nn2))
False <= le(s(nn1), z)
False <= le(z, z)
max(n, m, m) <= leq(n, m)
leq(s(nn1), s(nn2)) <= leq(nn1, nn2)
leq(nn1, nn2) <= leq(s(nn1), s(nn2))
False <= leq(s(nn1), z)
}

Accumulated learning constraints:
{
depth(leaf, z) <= True
depth(node(a, leaf, leaf), s(z)) <= True
depth(node(a, leaf, node(a, leaf, leaf)), s(s(z))) <= True
depth(node(a, node(a, leaf, leaf), leaf), s(s(z))) <= True
depth(node(a, node(a, leaf, leaf), node(a, leaf, leaf)), s(s(z))) <= True
depth(node(a, node(a, leaf, leaf), node(a, node(a, leaf, leaf), node(a, leaf, leaf))), s(s(s(z)))) <= True
le(s(z), s(s(z))) <= True
le(z, s(z)) <= True
leq(s(s(z)), z) \/ max(s(s(z)), z, s(s(z))) <= True
leq(s(z), s(s(z))) <= True
leq(s(z), s(z)) <= True
leq(z, s(z)) <= True
leq(z, z) <= True
max(s(s(z)), s(z), s(s(z))) <= True
max(s(z), s(s(z)), s(s(z))) <= True
max(s(z), s(z), s(z)) <= True
max(s(z), z, s(z)) <= True
max(z, s(z), s(z)) <= True
max(z, z, z) <= True
False <= depth(leaf, s(z))
le(s(s(s(z))), s(s(s(z)))) <= depth(node(a, leaf, leaf), s(s(s(z)))) /\ depth(node(a, node(a, leaf, leaf), node(a, leaf, leaf)), s(s(s(z))))
False <= depth(node(a, leaf, leaf), s(s(z)))
le(s(s(s(z))), s(s(s(z)))) <= depth(node(a, leaf, node(a, leaf, leaf)), s(s(s(z)))) /\ depth(node(a, node(a, leaf, node(a, leaf, leaf)), leaf), s(s(s(z))))
depth(node(a, node(a, leaf, node(a, leaf, leaf)), node(a, leaf, node(a, leaf, leaf))), s(s(z))) <= depth(node(a, leaf, node(a, leaf, leaf)), s(z))
False <= depth(node(a, leaf, node(a, leaf, leaf)), s(z)) /\ depth(node(a, node(a, leaf, node(a, leaf, leaf)), node(a, leaf, leaf)), s(z))
depth(node(a, node(a, leaf, node(a, leaf, node(a, leaf, leaf))), node(a, leaf, node(a, leaf, node(a, leaf, leaf)))), s(s(s(z)))) <= depth(node(a, leaf, node(a, leaf, node(a, leaf, leaf))), s(s(z))) /\ max(s(s(z)), s(s(z)), s(s(z)))
le(s(s(s(z))), s(s(s(z)))) <= depth(node(a, node(a, leaf, leaf), leaf), s(s(s(z)))) /\ depth(node(a, node(a, node(a, leaf, leaf), leaf), leaf), s(s(s(z))))
False <= depth(node(a, node(a, leaf, leaf), leaf), s(z))
depth(node(a, node(a, node(a, leaf, node(a, leaf, leaf)), leaf), leaf), s(s(z))) <= depth(node(a, node(a, leaf, node(a, leaf, leaf)), leaf), s(s(z))) /\ max(s(s(z)), z, s(z))
False <= depth(node(a, node(a, leaf, node(a, leaf, leaf)), node(a, leaf, leaf)), s(s(z)))
False <= depth(node(a, node(a, node(a, leaf, leaf), leaf), leaf), s(s(z)))
False <= depth(node(a, node(a, node(a, leaf, leaf), leaf), node(a, leaf, leaf)), s(s(z)))
depth(node(a, node(a, node(a, node(a, node(a, leaf, leaf), node(a, leaf, leaf)), node(a, node(a, leaf, leaf), node(a, leaf, leaf))), node(a, node(a, node(a, leaf, leaf), node(a, leaf, leaf)), node(a, node(a, leaf, leaf), node(a, leaf, leaf)))), node(a, node(a, node(a, node(a, leaf, leaf), node(a, leaf, leaf)), node(a, node(a, leaf, leaf), node(a, leaf, leaf))), node(a, node(a, node(a, leaf, leaf), node(a, leaf, leaf)), node(a, node(a, leaf, leaf), node(a, leaf, leaf))))), s(s(s(z)))) <= depth(node(a, node(a, node(a, node(a, leaf, leaf), node(a, leaf, leaf)), node(a, node(a, leaf, leaf), node(a, leaf, leaf))), node(a, node(a, node(a, leaf, leaf), node(a, leaf, leaf)), node(a, node(a, leaf, leaf), node(a, leaf, leaf)))), s(s(s(s(z))))) /\ max(s(s(s(s(z)))), s(s(s(s(z)))), s(s(z)))
False <= le(s(s(z)), s(s(z)))
False <= le(s(s(z)), s(z))
False <= le(s(z), s(z))
False <= le(s(z), z)
False <= le(z, z)
False <= leq(s(s(z)), s(z))
False <= leq(s(z), z)
max(z, s(s(z)), s(s(z))) <= leq(z, s(s(z)))
depth(node(a, node(a, node(a, leaf, leaf), leaf), node(a, node(a, leaf, leaf), leaf)), s(s(z))) <= max(s(s(z)), s(s(z)), s(z))
depth(node(a, node(a, node(a, leaf, leaf), node(a, leaf, leaf)), leaf), s(s(s(s(z))))) <= max(s(s(z)), z, s(s(s(z))))
depth(node(a, node(a, leaf, node(a, leaf, leaf)), leaf), s(s(s(z)))) <= max(s(s(z)), z, s(s(z)))
depth(node(a, node(a, leaf, node(a, leaf, leaf)), leaf), s(s(z))) <= max(s(s(z)), z, s(z))
depth(node(a, node(a, leaf, leaf), node(a, node(a, leaf, leaf), node(a, leaf, leaf))), s(s(z))) <= max(s(z), s(s(z)), s(z))
depth(node(a, node(a, leaf, leaf), node(a, leaf, leaf)), s(s(s(z)))) <= max(s(z), s(z), s(s(z)))
depth(node(a, leaf, node(a, node(a, leaf, leaf), node(a, leaf, leaf))), s(s(z))) <= max(z, s(s(z)), s(z))
depth(node(a, leaf, node(a, leaf, leaf)), s(s(s(z)))) <= max(z, s(z), s(s(z)))
}

Current best model:
|_

_r_1 ->
{
  _r_1(s(x_0_0), s(x_1_0)) <= _r_1(x_0_0, x_1_0)
  _r_1(z, z) <= True
}
;
_r_2 ->
{
  _r_2(leaf, s(x_1_0)) <= True
  _r_2(leaf, z) <= True
  _r_2(node(x_0_0, x_0_1, x_0_2), s(x_1_0)) <= _r_2(x_0_1, x_1_0) /\ _r_2(x_0_2, x_1_0)
}
;
depth ->
{
  depth(leaf, z) <= True
  depth(node(x_0_0, x_0_1, x_0_2), s(x_1_0)) <= _r_2(x_0_1, x_1_0) /\ depth(x_0_2, x_1_0)
  depth(node(x_0_0, x_0_1, x_0_2), s(x_1_0)) <= _r_2(x_0_2, x_1_0) /\ depth(x_0_1, x_1_0)
}
;
le ->
{
  le(s(x_0_0), s(x_1_0)) <= le(x_0_0, x_1_0)
  le(z, s(x_1_0)) <= True
}
;
leq ->
{
  leq(s(x_0_0), s(x_1_0)) <= leq(x_0_0, x_1_0)
  leq(z, s(x_1_0)) <= True
  leq(z, z) <= True
}
;
max ->
{
  max(s(x_0_0), s(x_1_0), s(x_2_0)) <= max(x_0_0, x_1_0, x_2_0)
  max(s(x_0_0), z, s(x_2_0)) <= _r_1(x_0_0, x_2_0)
  max(z, s(x_1_0), s(x_2_0)) <= _r_1(x_1_0, x_2_0)
  max(z, z, z) <= True
}

--
Equality automata are defined for: {elt, etree, nat}
_|






-------------------
STEPS:
-------------------------------------------
Step 0, which took 0.005714 s (model generation: 0.005483,  model checking: 0.000231):

Ground examples at the beginning of this step are:
{

}

Learner proposed model:
Found Model:
|_

depth ->
{
  
}
;
le ->
{
  
}
;
leq ->
{
  
}
;
max ->
{
  
}

--
Equality automata are defined for: {elt, etree, nat}
_|


Answer of teacher:


depth(leaf, z) <= True -> Yes: {

}
le(z, s(nn2)) <= True -> Yes: {

}
leq(n, m) \/ max(n, m, n) <= True -> Yes: {
m -> z  ;  n -> z
}
leq(z, n2) <= True -> Yes: {
n2 -> z
}
le(_ala, _bla) <= depth(t1, _ala) /\ depth(node(e, t1, t2), _bla) -> No: ()
depth(node(e, t1, t2), s(_uka)) <= depth(t1, _vka) /\ depth(t2, _wka) /\ max(_vka, _wka, _uka) -> No: ()
le(s(nn1), s(nn2)) <= le(nn1, nn2) -> No: ()
le(nn1, nn2) <= le(s(nn1), s(nn2)) -> No: ()
False <= le(s(nn1), z) -> No: ()
False <= le(z, z) -> No: ()
max(n, m, m) <= leq(n, m) -> No: ()
leq(s(nn1), s(nn2)) <= leq(nn1, nn2) -> No: ()
leq(nn1, nn2) <= leq(s(nn1), s(nn2)) -> No: ()
False <= leq(s(nn1), z) -> No: ()



-------------------------------------------
Step 1, which took 0.009381 s (model generation: 0.009058,  model checking: 0.000323):

Ground examples at the beginning of this step are:
{
depth(leaf, z) <= True
le(z, s(z)) <= True
leq(z, z) <= True
}

Learner proposed model:
Found Model:
|_

depth ->
{
  depth(leaf, z) <= True
}
;
le ->
{
  le(z, s(x_1_0)) <= True
}
;
leq ->
{
  leq(z, z) <= True
}
;
max ->
{
  
}

--
Equality automata are defined for: {elt, etree, nat}
_|


Answer of teacher:


depth(leaf, z) <= True -> No: ()
le(z, s(nn2)) <= True -> No: ()
leq(n, m) \/ max(n, m, n) <= True -> Yes: {
m -> z  ;  n -> s(n_0)
}
leq(z, n2) <= True -> Yes: {
n2 -> s(n2_0)
}
le(_ala, _bla) <= depth(t1, _ala) /\ depth(node(e, t1, t2), _bla) -> No: ()
depth(node(e, t1, t2), s(_uka)) <= depth(t1, _vka) /\ depth(t2, _wka) /\ max(_vka, _wka, _uka) -> No: ()
le(s(nn1), s(nn2)) <= le(nn1, nn2) -> Yes: {
nn1 -> z  ;  nn2 -> s(v1_0)
}
le(nn1, nn2) <= le(s(nn1), s(nn2)) -> No: ()
False <= le(s(nn1), z) -> No: ()
False <= le(z, z) -> No: ()
max(n, m, m) <= leq(n, m) -> Yes: {
m -> z  ;  n -> z
}
leq(s(nn1), s(nn2)) <= leq(nn1, nn2) -> Yes: {
nn1 -> z  ;  nn2 -> z
}
leq(nn1, nn2) <= leq(s(nn1), s(nn2)) -> No: ()
False <= leq(s(nn1), z) -> No: ()



-------------------------------------------
Step 2, which took 0.017994 s (model generation: 0.017821,  model checking: 0.000173):

Ground examples at the beginning of this step are:
{
depth(leaf, z) <= True
le(s(z), s(s(z))) <= True
le(z, s(z)) <= True
leq(s(z), s(z)) <= True
leq(s(z), z) \/ max(s(z), z, s(z)) <= True
leq(z, s(z)) <= True
leq(z, z) <= True
max(z, z, z) <= True
}

Learner proposed model:
Found Model:
|_

depth ->
{
  depth(leaf, z) <= True
}
;
le ->
{
  le(s(x_0_0), s(x_1_0)) <= True
  le(z, s(x_1_0)) <= True
}
;
leq ->
{
  leq(s(x_0_0), s(x_1_0)) <= True
  leq(s(x_0_0), z) <= True
  leq(z, s(x_1_0)) <= True
  leq(z, z) <= True
}
;
max ->
{
  max(s(x_0_0), z, s(x_2_0)) <= True
  max(z, z, z) <= True
}

--
Equality automata are defined for: {elt, etree, nat}
_|


Answer of teacher:


depth(leaf, z) <= True -> No: ()
le(z, s(nn2)) <= True -> No: ()
leq(n, m) \/ max(n, m, n) <= True -> No: ()
leq(z, n2) <= True -> No: ()
le(_ala, _bla) <= depth(t1, _ala) /\ depth(node(e, t1, t2), _bla) -> No: ()
depth(node(e, t1, t2), s(_uka)) <= depth(t1, _vka) /\ depth(t2, _wka) /\ max(_vka, _wka, _uka) -> Yes: {
_uka -> z  ;  _vka -> z  ;  _wka -> z  ;  t1 -> leaf  ;  t2 -> leaf
}
le(s(nn1), s(nn2)) <= le(nn1, nn2) -> No: ()
le(nn1, nn2) <= le(s(nn1), s(nn2)) -> Yes: {
nn1 -> z  ;  nn2 -> z
}
False <= le(s(nn1), z) -> No: ()
False <= le(z, z) -> No: ()
max(n, m, m) <= leq(n, m) -> Yes: {
m -> z  ;  n -> s(n_0)
}
leq(s(nn1), s(nn2)) <= leq(nn1, nn2) -> No: ()
leq(nn1, nn2) <= leq(s(nn1), s(nn2)) -> No: ()
False <= leq(s(nn1), z) -> Yes: {

}



-------------------------------------------
Step 3, which took 0.016034 s (model generation: 0.015227,  model checking: 0.000807):

Ground examples at the beginning of this step are:
{
depth(leaf, z) <= True
depth(node(a, leaf, leaf), s(z)) <= True
le(s(z), s(s(z))) <= True
le(z, s(z)) <= True
leq(s(z), s(z)) <= True
leq(z, s(z)) <= True
leq(z, z) <= True
max(s(z), z, s(z)) <= True
max(z, z, z) <= True
le(z, z) <= le(s(z), s(z))
False <= leq(s(z), z)
}

Learner proposed model:
Found Model:
|_

depth ->
{
  depth(leaf, z) <= True
  depth(node(x_0_0, x_0_1, x_0_2), s(x_1_0)) <= True
}
;
le ->
{
  le(s(x_0_0), s(x_1_0)) <= True
  le(z, s(x_1_0)) <= True
  le(z, z) <= True
}
;
leq ->
{
  leq(s(x_0_0), s(x_1_0)) <= True
  leq(z, s(x_1_0)) <= True
  leq(z, z) <= True
}
;
max ->
{
  max(s(x_0_0), z, s(x_2_0)) <= True
  max(z, z, z) <= True
}

--
Equality automata are defined for: {elt, etree, nat}
_|


Answer of teacher:


depth(leaf, z) <= True -> No: ()
le(z, s(nn2)) <= True -> No: ()
leq(n, m) \/ max(n, m, n) <= True -> No: ()
leq(z, n2) <= True -> No: ()
le(_ala, _bla) <= depth(t1, _ala) /\ depth(node(e, t1, t2), _bla) -> No: ()
depth(node(e, t1, t2), s(_uka)) <= depth(t1, _vka) /\ depth(t2, _wka) /\ max(_vka, _wka, _uka) -> No: ()
le(s(nn1), s(nn2)) <= le(nn1, nn2) -> No: ()
le(nn1, nn2) <= le(s(nn1), s(nn2)) -> Yes: {
nn1 -> s(v0_0)  ;  nn2 -> z
}
False <= le(s(nn1), z) -> No: ()
False <= le(z, z) -> Yes: {

}
max(n, m, m) <= leq(n, m) -> Yes: {
m -> s(m_0)  ;  n -> z
}
leq(s(nn1), s(nn2)) <= leq(nn1, nn2) -> No: ()
leq(nn1, nn2) <= leq(s(nn1), s(nn2)) -> Yes: {
nn1 -> s(v0_0)  ;  nn2 -> z
}
False <= leq(s(nn1), z) -> No: ()



-------------------------------------------
Step 4, which took 0.020123 s (model generation: 0.019773,  model checking: 0.000350):

Ground examples at the beginning of this step are:
{
depth(leaf, z) <= True
depth(node(a, leaf, leaf), s(z)) <= True
le(s(z), s(s(z))) <= True
le(z, s(z)) <= True
leq(s(z), s(z)) <= True
leq(z, s(z)) <= True
leq(z, z) <= True
max(s(z), z, s(z)) <= True
max(z, s(z), s(z)) <= True
max(z, z, z) <= True
le(s(z), z) <= le(s(s(z)), s(z))
False <= le(s(z), s(z))
False <= le(z, z)
False <= leq(s(s(z)), s(z))
False <= leq(s(z), z)
}

Learner proposed model:
Found Model:
|_

depth ->
{
  depth(leaf, z) <= True
  depth(node(x_0_0, x_0_1, x_0_2), s(x_1_0)) <= True
}
;
le ->
{
  le(s(x_0_0), s(x_1_0)) <= le(x_0_0, x_1_0)
  le(s(x_0_0), z) <= True
  le(z, s(x_1_0)) <= True
}
;
leq ->
{
  leq(s(x_0_0), s(x_1_0)) <= leq(x_0_0, x_1_0)
  leq(z, s(x_1_0)) <= True
  leq(z, z) <= True
}
;
max ->
{
  max(s(x_0_0), z, s(x_2_0)) <= True
  max(z, s(x_1_0), s(x_2_0)) <= True
  max(z, z, z) <= True
}

--
Equality automata are defined for: {elt, etree, nat}
_|


Answer of teacher:


depth(leaf, z) <= True -> No: ()
le(z, s(nn2)) <= True -> No: ()
leq(n, m) \/ max(n, m, n) <= True -> Yes: {
m -> s(z)  ;  n -> s(s(v0_0))
}
leq(z, n2) <= True -> No: ()
le(_ala, _bla) <= depth(t1, _ala) /\ depth(node(e, t1, t2), _bla) -> Yes: {
_ala -> s(z)  ;  _bla -> s(z)  ;  t1 -> node(t1_0, t1_1, t1_2)
}
depth(node(e, t1, t2), s(_uka)) <= depth(t1, _vka) /\ depth(t2, _wka) /\ max(_vka, _wka, _uka) -> No: ()
le(s(nn1), s(nn2)) <= le(nn1, nn2) -> No: ()
le(nn1, nn2) <= le(s(nn1), s(nn2)) -> No: ()
False <= le(s(nn1), z) -> Yes: {

}
False <= le(z, z) -> No: ()
max(n, m, m) <= leq(n, m) -> Yes: {
m -> s(z)  ;  n -> s(z)
}
leq(s(nn1), s(nn2)) <= leq(nn1, nn2) -> No: ()
leq(nn1, nn2) <= leq(s(nn1), s(nn2)) -> No: ()
False <= leq(s(nn1), z) -> No: ()



-------------------------------------------
Step 5, which took 0.013447 s (model generation: 0.013214,  model checking: 0.000233):

Ground examples at the beginning of this step are:
{
depth(leaf, z) <= True
depth(node(a, leaf, leaf), s(z)) <= True
le(s(z), s(s(z))) <= True
le(z, s(z)) <= True
leq(s(z), s(z)) <= True
leq(z, s(z)) <= True
leq(z, z) <= True
max(s(s(z)), s(z), s(s(z))) <= True
max(s(z), s(z), s(z)) <= True
max(s(z), z, s(z)) <= True
max(z, s(z), s(z)) <= True
max(z, z, z) <= True
False <= depth(node(a, node(a, leaf, leaf), leaf), s(z))
False <= le(s(s(z)), s(z))
False <= le(s(z), s(z))
False <= le(s(z), z)
False <= le(z, z)
False <= leq(s(s(z)), s(z))
False <= leq(s(z), z)
}

Learner proposed model:
Found Model:
|_

depth ->
{
  depth(leaf, z) <= True
  depth(node(x_0_0, x_0_1, x_0_2), s(x_1_0)) <= depth(x_0_1, x_1_0)
}
;
le ->
{
  le(s(x_0_0), s(x_1_0)) <= le(x_0_0, x_1_0)
  le(z, s(x_1_0)) <= True
}
;
leq ->
{
  leq(s(x_0_0), s(x_1_0)) <= leq(x_0_0, x_1_0)
  leq(z, s(x_1_0)) <= True
  leq(z, z) <= True
}
;
max ->
{
  max(s(x_0_0), s(x_1_0), s(x_2_0)) <= True
  max(s(x_0_0), z, s(x_2_0)) <= True
  max(z, s(x_1_0), s(x_2_0)) <= True
  max(z, z, z) <= True
}

--
Equality automata are defined for: {elt, etree, nat}
_|


Answer of teacher:


depth(leaf, z) <= True -> No: ()
le(z, s(nn2)) <= True -> No: ()
leq(n, m) \/ max(n, m, n) <= True -> No: ()
leq(z, n2) <= True -> No: ()
le(_ala, _bla) <= depth(t1, _ala) /\ depth(node(e, t1, t2), _bla) -> No: ()
depth(node(e, t1, t2), s(_uka)) <= depth(t1, _vka) /\ depth(t2, _wka) /\ max(_vka, _wka, _uka) -> Yes: {
_uka -> s(v1_0)  ;  _vka -> z  ;  _wka -> s(z)  ;  t1 -> leaf  ;  t2 -> node(v3_0, leaf, v3_2)
}
le(s(nn1), s(nn2)) <= le(nn1, nn2) -> No: ()
le(nn1, nn2) <= le(s(nn1), s(nn2)) -> No: ()
False <= le(s(nn1), z) -> No: ()
False <= le(z, z) -> No: ()
max(n, m, m) <= leq(n, m) -> No: ()
leq(s(nn1), s(nn2)) <= leq(nn1, nn2) -> No: ()
leq(nn1, nn2) <= leq(s(nn1), s(nn2)) -> No: ()
False <= leq(s(nn1), z) -> No: ()



-------------------------------------------
Step 6, which took 0.012933 s (model generation: 0.012299,  model checking: 0.000634):

Ground examples at the beginning of this step are:
{
depth(leaf, z) <= True
depth(node(a, leaf, leaf), s(z)) <= True
depth(node(a, leaf, node(a, leaf, leaf)), s(s(z))) <= True
le(s(z), s(s(z))) <= True
le(z, s(z)) <= True
leq(s(z), s(z)) <= True
leq(z, s(z)) <= True
leq(z, z) <= True
max(s(s(z)), s(z), s(s(z))) <= True
max(s(z), s(z), s(z)) <= True
max(s(z), z, s(z)) <= True
max(z, s(z), s(z)) <= True
max(z, z, z) <= True
False <= depth(node(a, node(a, leaf, leaf), leaf), s(z))
False <= le(s(s(z)), s(z))
False <= le(s(z), s(z))
False <= le(s(z), z)
False <= le(z, z)
False <= leq(s(s(z)), s(z))
False <= leq(s(z), z)
}

Learner proposed model:
Found Model:
|_

depth ->
{
  depth(leaf, s(x_1_0)) <= True
  depth(leaf, z) <= True
  depth(node(x_0_0, x_0_1, x_0_2), s(x_1_0)) <= depth(x_0_1, x_1_0)
}
;
le ->
{
  le(s(x_0_0), s(x_1_0)) <= le(x_0_0, x_1_0)
  le(z, s(x_1_0)) <= True
}
;
leq ->
{
  leq(s(x_0_0), s(x_1_0)) <= leq(x_0_0, x_1_0)
  leq(z, s(x_1_0)) <= True
  leq(z, z) <= True
}
;
max ->
{
  max(s(x_0_0), s(x_1_0), s(x_2_0)) <= True
  max(s(x_0_0), z, s(x_2_0)) <= True
  max(z, s(x_1_0), s(x_2_0)) <= True
  max(z, z, z) <= True
}

--
Equality automata are defined for: {elt, etree, nat}
_|


Answer of teacher:


depth(leaf, z) <= True -> No: ()
le(z, s(nn2)) <= True -> No: ()
leq(n, m) \/ max(n, m, n) <= True -> No: ()
leq(z, n2) <= True -> No: ()
le(_ala, _bla) <= depth(t1, _ala) /\ depth(node(e, t1, t2), _bla) -> Yes: {
_ala -> s(z)  ;  _bla -> s(z)  ;  t1 -> leaf
}
depth(node(e, t1, t2), s(_uka)) <= depth(t1, _vka) /\ depth(t2, _wka) /\ max(_vka, _wka, _uka) -> Yes: {
_uka -> s(z)  ;  _vka -> s(s(z))  ;  _wka -> s(s(z))  ;  t1 -> node(v0_0, node(v0_0, leaf, v0_2), v0_2)  ;  t2 -> node(v3_0, node(v0_0, leaf, v0_2), v3_2)
}
le(s(nn1), s(nn2)) <= le(nn1, nn2) -> No: ()
le(nn1, nn2) <= le(s(nn1), s(nn2)) -> No: ()
False <= le(s(nn1), z) -> No: ()
False <= le(z, z) -> No: ()
max(n, m, m) <= leq(n, m) -> No: ()
leq(s(nn1), s(nn2)) <= leq(nn1, nn2) -> No: ()
leq(nn1, nn2) <= leq(s(nn1), s(nn2)) -> No: ()
False <= leq(s(nn1), z) -> No: ()



-------------------------------------------
Step 7, which took 0.027544 s (model generation: 0.027344,  model checking: 0.000200):

Ground examples at the beginning of this step are:
{
depth(leaf, z) <= True
depth(node(a, leaf, leaf), s(z)) <= True
depth(node(a, leaf, node(a, leaf, leaf)), s(s(z))) <= True
le(s(z), s(s(z))) <= True
le(z, s(z)) <= True
leq(s(z), s(z)) <= True
leq(z, s(z)) <= True
leq(z, z) <= True
max(s(s(z)), s(z), s(s(z))) <= True
max(s(z), s(z), s(z)) <= True
max(s(z), z, s(z)) <= True
max(z, s(z), s(z)) <= True
max(z, z, z) <= True
False <= depth(leaf, s(z))
depth(node(a, node(a, node(a, leaf, leaf), leaf), node(a, node(a, leaf, leaf), leaf)), s(s(z))) <= depth(node(a, node(a, leaf, leaf), leaf), s(s(z))) /\ max(s(s(z)), s(s(z)), s(z))
False <= depth(node(a, node(a, leaf, leaf), leaf), s(z))
False <= le(s(s(z)), s(z))
False <= le(s(z), s(z))
False <= le(s(z), z)
False <= le(z, z)
False <= leq(s(s(z)), s(z))
False <= leq(s(z), z)
}

Learner proposed model:
Found Model:
|_

_r_1 ->
{
  _r_1(leaf) <= True
}
;
depth ->
{
  depth(leaf, z) <= True
  depth(node(x_0_0, x_0_1, x_0_2), s(x_1_0)) <= _r_1(x_0_1)
}
;
le ->
{
  le(s(x_0_0), s(x_1_0)) <= le(x_0_0, x_1_0)
  le(z, s(x_1_0)) <= True
}
;
leq ->
{
  leq(s(x_0_0), s(x_1_0)) <= leq(x_0_0, x_1_0)
  leq(z, s(x_1_0)) <= True
  leq(z, z) <= True
}
;
max ->
{
  max(s(x_0_0), s(x_1_0), s(x_2_0)) <= True
  max(s(x_0_0), z, s(x_2_0)) <= True
  max(z, s(x_1_0), s(x_2_0)) <= True
  max(z, z, z) <= True
}

--
Equality automata are defined for: {elt, etree, nat}
_|


Answer of teacher:


depth(leaf, z) <= True -> No: ()
le(z, s(nn2)) <= True -> No: ()
leq(n, m) \/ max(n, m, n) <= True -> No: ()
leq(z, n2) <= True -> No: ()
le(_ala, _bla) <= depth(t1, _ala) /\ depth(node(e, t1, t2), _bla) -> No: ()
depth(node(e, t1, t2), s(_uka)) <= depth(t1, _vka) /\ depth(t2, _wka) /\ max(_vka, _wka, _uka) -> Yes: {
_uka -> s(v4_0)  ;  _vka -> s(v1_0)  ;  _wka -> s(v3_0)  ;  t1 -> node(v0_0, leaf, v0_2)  ;  t2 -> node(v2_0, leaf, v2_2)
}
le(s(nn1), s(nn2)) <= le(nn1, nn2) -> No: ()
le(nn1, nn2) <= le(s(nn1), s(nn2)) -> No: ()
False <= le(s(nn1), z) -> No: ()
False <= le(z, z) -> No: ()
max(n, m, m) <= leq(n, m) -> No: ()
leq(s(nn1), s(nn2)) <= leq(nn1, nn2) -> No: ()
leq(nn1, nn2) <= leq(s(nn1), s(nn2)) -> No: ()
False <= leq(s(nn1), z) -> No: ()



-------------------------------------------
Step 8, which took 0.023829 s (model generation: 0.023586,  model checking: 0.000243):

Ground examples at the beginning of this step are:
{
depth(leaf, z) <= True
depth(node(a, leaf, leaf), s(z)) <= True
depth(node(a, leaf, node(a, leaf, leaf)), s(s(z))) <= True
depth(node(a, node(a, leaf, leaf), node(a, leaf, leaf)), s(s(z))) <= True
le(s(z), s(s(z))) <= True
le(z, s(z)) <= True
leq(s(z), s(z)) <= True
leq(z, s(z)) <= True
leq(z, z) <= True
max(s(s(z)), s(z), s(s(z))) <= True
max(s(z), s(z), s(z)) <= True
max(s(z), z, s(z)) <= True
max(z, s(z), s(z)) <= True
max(z, z, z) <= True
False <= depth(leaf, s(z))
depth(node(a, node(a, node(a, leaf, leaf), leaf), node(a, node(a, leaf, leaf), leaf)), s(s(z))) <= depth(node(a, node(a, leaf, leaf), leaf), s(s(z))) /\ max(s(s(z)), s(s(z)), s(z))
False <= depth(node(a, node(a, leaf, leaf), leaf), s(z))
False <= le(s(s(z)), s(z))
False <= le(s(z), s(z))
False <= le(s(z), z)
False <= le(z, z)
False <= leq(s(s(z)), s(z))
False <= leq(s(z), z)
}

Learner proposed model:
Found Model:
|_

_r_1 ->
{
  _r_1(leaf, s(x_1_0)) <= True
  _r_1(leaf, z) <= True
  _r_1(node(x_0_0, x_0_1, x_0_2), s(x_1_0)) <= True
}
;
depth ->
{
  depth(leaf, z) <= True
  depth(node(x_0_0, x_0_1, x_0_2), s(x_1_0)) <= _r_1(x_0_1, x_1_0)
}
;
le ->
{
  le(s(x_0_0), s(x_1_0)) <= le(x_0_0, x_1_0)
  le(z, s(x_1_0)) <= True
}
;
leq ->
{
  leq(s(x_0_0), s(x_1_0)) <= leq(x_0_0, x_1_0)
  leq(z, s(x_1_0)) <= True
  leq(z, z) <= True
}
;
max ->
{
  max(s(x_0_0), s(x_1_0), s(x_2_0)) <= True
  max(s(x_0_0), z, s(x_2_0)) <= True
  max(z, s(x_1_0), s(x_2_0)) <= True
  max(z, z, z) <= True
}

--
Equality automata are defined for: {elt, etree, nat}
_|


Answer of teacher:


depth(leaf, z) <= True -> No: ()
le(z, s(nn2)) <= True -> No: ()
leq(n, m) \/ max(n, m, n) <= True -> No: ()
leq(z, n2) <= True -> No: ()
le(_ala, _bla) <= depth(t1, _ala) /\ depth(node(e, t1, t2), _bla) -> Yes: {
_ala -> s(s(z))  ;  _bla -> s(s(z))  ;  t1 -> node(t1_0, node(v0_0, v0_1, v0_2), t1_2)
}
depth(node(e, t1, t2), s(_uka)) <= depth(t1, _vka) /\ depth(t2, _wka) /\ max(_vka, _wka, _uka) -> No: ()
le(s(nn1), s(nn2)) <= le(nn1, nn2) -> No: ()
le(nn1, nn2) <= le(s(nn1), s(nn2)) -> No: ()
False <= le(s(nn1), z) -> No: ()
False <= le(z, z) -> No: ()
max(n, m, m) <= leq(n, m) -> No: ()
leq(s(nn1), s(nn2)) <= leq(nn1, nn2) -> No: ()
leq(nn1, nn2) <= leq(s(nn1), s(nn2)) -> No: ()
False <= leq(s(nn1), z) -> No: ()



-------------------------------------------
Step 9, which took 0.025576 s (model generation: 0.025162,  model checking: 0.000414):

Ground examples at the beginning of this step are:
{
depth(leaf, z) <= True
depth(node(a, leaf, leaf), s(z)) <= True
depth(node(a, leaf, node(a, leaf, leaf)), s(s(z))) <= True
depth(node(a, node(a, leaf, leaf), node(a, leaf, leaf)), s(s(z))) <= True
le(s(z), s(s(z))) <= True
le(z, s(z)) <= True
leq(s(z), s(z)) <= True
leq(z, s(z)) <= True
leq(z, z) <= True
max(s(s(z)), s(z), s(s(z))) <= True
max(s(z), s(z), s(z)) <= True
max(s(z), z, s(z)) <= True
max(z, s(z), s(z)) <= True
max(z, z, z) <= True
False <= depth(leaf, s(z))
le(s(s(z)), s(s(z))) <= depth(node(a, node(a, leaf, leaf), leaf), s(s(z))) /\ depth(node(a, node(a, node(a, leaf, leaf), leaf), leaf), s(s(z)))
depth(node(a, node(a, node(a, leaf, leaf), leaf), node(a, node(a, leaf, leaf), leaf)), s(s(z))) <= depth(node(a, node(a, leaf, leaf), leaf), s(s(z))) /\ max(s(s(z)), s(s(z)), s(z))
False <= depth(node(a, node(a, leaf, leaf), leaf), s(z))
False <= le(s(s(z)), s(z))
False <= le(s(z), s(z))
False <= le(s(z), z)
False <= le(z, z)
False <= leq(s(s(z)), s(z))
False <= leq(s(z), z)
}

Learner proposed model:
Found Model:
|_

_r_1 ->
{
  _r_1(s(x_0_0)) <= True
}
;
depth ->
{
  depth(leaf, z) <= True
  depth(node(x_0_0, x_0_1, x_0_2), s(x_1_0)) <= _r_1(x_1_0)
  depth(node(x_0_0, x_0_1, x_0_2), s(x_1_0)) <= depth(x_0_1, x_1_0)
}
;
le ->
{
  le(s(x_0_0), s(x_1_0)) <= _r_1(x_1_0)
  le(z, s(x_1_0)) <= True
}
;
leq ->
{
  leq(s(x_0_0), s(x_1_0)) <= leq(x_0_0, x_1_0)
  leq(z, s(x_1_0)) <= True
  leq(z, z) <= True
}
;
max ->
{
  max(s(x_0_0), s(x_1_0), s(x_2_0)) <= True
  max(s(x_0_0), z, s(x_2_0)) <= True
  max(z, s(x_1_0), s(x_2_0)) <= True
  max(z, z, z) <= True
}

--
Equality automata are defined for: {elt, etree, nat}
_|


Answer of teacher:


depth(leaf, z) <= True -> No: ()
le(z, s(nn2)) <= True -> No: ()
leq(n, m) \/ max(n, m, n) <= True -> No: ()
leq(z, n2) <= True -> No: ()
le(_ala, _bla) <= depth(t1, _ala) /\ depth(node(e, t1, t2), _bla) -> No: ()
depth(node(e, t1, t2), s(_uka)) <= depth(t1, _vka) /\ depth(t2, _wka) /\ max(_vka, _wka, _uka) -> No: ()
le(s(nn1), s(nn2)) <= le(nn1, nn2) -> No: ()
le(nn1, nn2) <= le(s(nn1), s(nn2)) -> Yes: {
nn1 -> s(v1_0)  ;  nn2 -> s(z)
}
False <= le(s(nn1), z) -> No: ()
False <= le(z, z) -> No: ()
max(n, m, m) <= leq(n, m) -> No: ()
leq(s(nn1), s(nn2)) <= leq(nn1, nn2) -> No: ()
leq(nn1, nn2) <= leq(s(nn1), s(nn2)) -> No: ()
False <= leq(s(nn1), z) -> No: ()



-------------------------------------------
Step 10, which took 0.026059 s (model generation: 0.025623,  model checking: 0.000436):

Ground examples at the beginning of this step are:
{
depth(leaf, z) <= True
depth(node(a, leaf, leaf), s(z)) <= True
depth(node(a, leaf, node(a, leaf, leaf)), s(s(z))) <= True
depth(node(a, node(a, leaf, leaf), node(a, leaf, leaf)), s(s(z))) <= True
le(s(z), s(s(z))) <= True
le(z, s(z)) <= True
leq(s(z), s(z)) <= True
leq(z, s(z)) <= True
leq(z, z) <= True
max(s(s(z)), s(z), s(s(z))) <= True
max(s(z), s(z), s(z)) <= True
max(s(z), z, s(z)) <= True
max(z, s(z), s(z)) <= True
max(z, z, z) <= True
False <= depth(leaf, s(z))
False <= depth(node(a, node(a, leaf, leaf), leaf), s(s(z))) /\ depth(node(a, node(a, node(a, leaf, leaf), leaf), leaf), s(s(z)))
depth(node(a, node(a, node(a, leaf, leaf), leaf), node(a, node(a, leaf, leaf), leaf)), s(s(z))) <= depth(node(a, node(a, leaf, leaf), leaf), s(s(z))) /\ max(s(s(z)), s(s(z)), s(z))
False <= depth(node(a, node(a, leaf, leaf), leaf), s(z))
False <= le(s(s(z)), s(s(z)))
False <= le(s(s(z)), s(z))
False <= le(s(z), s(z))
False <= le(s(z), z)
False <= le(z, z)
False <= leq(s(s(z)), s(z))
False <= leq(s(z), z)
}

Learner proposed model:
Found Model:
|_

_r_1 ->
{
  _r_1(node(x_0_0, x_0_1, x_0_2)) <= True
}
;
depth ->
{
  depth(leaf, z) <= True
  depth(node(x_0_0, x_0_1, x_0_2), s(x_1_0)) <= _r_1(x_0_2)
  depth(node(x_0_0, x_0_1, x_0_2), s(x_1_0)) <= depth(x_0_1, x_1_0)
}
;
le ->
{
  le(s(x_0_0), s(x_1_0)) <= le(x_0_0, x_1_0)
  le(z, s(x_1_0)) <= True
}
;
leq ->
{
  leq(s(x_0_0), s(x_1_0)) <= leq(x_0_0, x_1_0)
  leq(z, s(x_1_0)) <= True
  leq(z, z) <= True
}
;
max ->
{
  max(s(x_0_0), s(x_1_0), s(x_2_0)) <= True
  max(s(x_0_0), z, s(x_2_0)) <= True
  max(z, s(x_1_0), s(x_2_0)) <= True
  max(z, z, z) <= True
}

--
Equality automata are defined for: {elt, etree, nat}
_|


Answer of teacher:


depth(leaf, z) <= True -> No: ()
le(z, s(nn2)) <= True -> No: ()
leq(n, m) \/ max(n, m, n) <= True -> No: ()
leq(z, n2) <= True -> No: ()
le(_ala, _bla) <= depth(t1, _ala) /\ depth(node(e, t1, t2), _bla) -> Yes: {
_ala -> s(z)  ;  _bla -> s(z)  ;  t1 -> node(t1_0, t1_1, node(v0_0, v0_1, v0_2))  ;  t2 -> node(v0_0, v0_1, v0_2)
}
depth(node(e, t1, t2), s(_uka)) <= depth(t1, _vka) /\ depth(t2, _wka) /\ max(_vka, _wka, _uka) -> Yes: {
_uka -> s(z)  ;  _vka -> s(s(v2_0))  ;  _wka -> z  ;  t1 -> node(v1_0, node(v0_0, v0_1, node(v0_0, v0_1, v0_2)), leaf)  ;  t2 -> leaf
}
le(s(nn1), s(nn2)) <= le(nn1, nn2) -> No: ()
le(nn1, nn2) <= le(s(nn1), s(nn2)) -> No: ()
False <= le(s(nn1), z) -> No: ()
False <= le(z, z) -> No: ()
max(n, m, m) <= leq(n, m) -> No: ()
leq(s(nn1), s(nn2)) <= leq(nn1, nn2) -> No: ()
leq(nn1, nn2) <= leq(s(nn1), s(nn2)) -> No: ()
False <= leq(s(nn1), z) -> No: ()



-------------------------------------------
Step 11, which took 0.038890 s (model generation: 0.038387,  model checking: 0.000503):

Ground examples at the beginning of this step are:
{
depth(leaf, z) <= True
depth(node(a, leaf, leaf), s(z)) <= True
depth(node(a, leaf, node(a, leaf, leaf)), s(s(z))) <= True
depth(node(a, node(a, leaf, leaf), node(a, leaf, leaf)), s(s(z))) <= True
le(s(z), s(s(z))) <= True
le(z, s(z)) <= True
leq(s(z), s(z)) <= True
leq(z, s(z)) <= True
leq(z, z) <= True
max(s(s(z)), s(z), s(s(z))) <= True
max(s(z), s(z), s(z)) <= True
max(s(z), z, s(z)) <= True
max(z, s(z), s(z)) <= True
max(z, z, z) <= True
False <= depth(leaf, s(z))
False <= depth(node(a, leaf, node(a, leaf, leaf)), s(z)) /\ depth(node(a, node(a, leaf, node(a, leaf, leaf)), node(a, leaf, leaf)), s(z))
False <= depth(node(a, node(a, leaf, leaf), leaf), s(s(z))) /\ depth(node(a, node(a, node(a, leaf, leaf), leaf), leaf), s(s(z)))
depth(node(a, node(a, node(a, leaf, leaf), leaf), node(a, node(a, leaf, leaf), leaf)), s(s(z))) <= depth(node(a, node(a, leaf, leaf), leaf), s(s(z))) /\ max(s(s(z)), s(s(z)), s(z))
False <= depth(node(a, node(a, leaf, leaf), leaf), s(z))
depth(node(a, node(a, node(a, leaf, node(a, leaf, leaf)), leaf), leaf), s(s(z))) <= depth(node(a, node(a, leaf, node(a, leaf, leaf)), leaf), s(s(z))) /\ max(s(s(z)), z, s(z))
False <= le(s(s(z)), s(s(z)))
False <= le(s(s(z)), s(z))
False <= le(s(z), s(z))
False <= le(s(z), z)
False <= le(z, z)
False <= leq(s(s(z)), s(z))
False <= leq(s(z), z)
}

Learner proposed model:
Found Model:
|_

_r_1 ->
{
  _r_1(node(x_0_0, x_0_1, x_0_2), s(x_1_0)) <= True
}
;
depth ->
{
  depth(leaf, z) <= True
  depth(node(x_0_0, x_0_1, x_0_2), s(x_1_0)) <= _r_1(x_0_2, x_1_0)
  depth(node(x_0_0, x_0_1, x_0_2), s(x_1_0)) <= depth(x_0_1, x_1_0) /\ depth(x_0_2, x_1_0)
}
;
le ->
{
  le(s(x_0_0), s(x_1_0)) <= le(x_0_0, x_1_0)
  le(z, s(x_1_0)) <= True
}
;
leq ->
{
  leq(s(x_0_0), s(x_1_0)) <= leq(x_0_0, x_1_0)
  leq(z, s(x_1_0)) <= True
  leq(z, z) <= True
}
;
max ->
{
  max(s(x_0_0), s(x_1_0), s(x_2_0)) <= True
  max(s(x_0_0), z, s(x_2_0)) <= True
  max(z, s(x_1_0), s(x_2_0)) <= True
  max(z, z, z) <= True
}

--
Equality automata are defined for: {elt, etree, nat}
_|


Answer of teacher:


depth(leaf, z) <= True -> No: ()
le(z, s(nn2)) <= True -> No: ()
leq(n, m) \/ max(n, m, n) <= True -> No: ()
leq(z, n2) <= True -> No: ()
le(_ala, _bla) <= depth(t1, _ala) /\ depth(node(e, t1, t2), _bla) -> Yes: {
_ala -> s(s(z))  ;  _bla -> s(s(z))  ;  t1 -> node(t1_0, t1_1, node(v0_0, v0_1, v0_2))  ;  t2 -> node(v2_0, v2_1, v2_2)
}
depth(node(e, t1, t2), s(_uka)) <= depth(t1, _vka) /\ depth(t2, _wka) /\ max(_vka, _wka, _uka) -> Yes: {
_uka -> s(v1_0)  ;  _vka -> s(s(v1_0))  ;  _wka -> z  ;  t1 -> node(v2_0, v2_1, node(v0_0, v0_1, v0_2))  ;  t2 -> leaf
}
le(s(nn1), s(nn2)) <= le(nn1, nn2) -> No: ()
le(nn1, nn2) <= le(s(nn1), s(nn2)) -> No: ()
False <= le(s(nn1), z) -> No: ()
False <= le(z, z) -> No: ()
max(n, m, m) <= leq(n, m) -> No: ()
leq(s(nn1), s(nn2)) <= leq(nn1, nn2) -> No: ()
leq(nn1, nn2) <= leq(s(nn1), s(nn2)) -> No: ()
False <= leq(s(nn1), z) -> No: ()



-------------------------------------------
Step 12, which took 0.040302 s (model generation: 0.038864,  model checking: 0.001438):

Ground examples at the beginning of this step are:
{
depth(leaf, z) <= True
depth(node(a, leaf, leaf), s(z)) <= True
depth(node(a, leaf, node(a, leaf, leaf)), s(s(z))) <= True
depth(node(a, node(a, leaf, leaf), node(a, leaf, leaf)), s(s(z))) <= True
le(s(z), s(s(z))) <= True
le(z, s(z)) <= True
leq(s(z), s(z)) <= True
leq(z, s(z)) <= True
leq(z, z) <= True
max(s(s(z)), s(z), s(s(z))) <= True
max(s(z), s(z), s(z)) <= True
max(s(z), z, s(z)) <= True
max(z, s(z), s(z)) <= True
max(z, z, z) <= True
False <= depth(leaf, s(z))
False <= depth(node(a, leaf, node(a, leaf, leaf)), s(z)) /\ depth(node(a, node(a, leaf, node(a, leaf, leaf)), node(a, leaf, leaf)), s(z))
False <= depth(node(a, node(a, leaf, leaf), leaf), s(s(z))) /\ depth(node(a, node(a, node(a, leaf, leaf), leaf), leaf), s(s(z)))
depth(node(a, node(a, node(a, leaf, leaf), leaf), node(a, node(a, leaf, leaf), leaf)), s(s(z))) <= depth(node(a, node(a, leaf, leaf), leaf), s(s(z))) /\ max(s(s(z)), s(s(z)), s(z))
False <= depth(node(a, node(a, leaf, leaf), leaf), s(z))
depth(node(a, node(a, node(a, leaf, node(a, leaf, leaf)), leaf), leaf), s(s(z))) <= depth(node(a, node(a, leaf, node(a, leaf, leaf)), leaf), s(s(z))) /\ max(s(s(z)), z, s(z))
False <= depth(node(a, node(a, leaf, node(a, leaf, leaf)), node(a, leaf, leaf)), s(s(z)))
False <= le(s(s(z)), s(s(z)))
False <= le(s(s(z)), s(z))
False <= le(s(z), s(z))
False <= le(s(z), z)
False <= le(z, z)
False <= leq(s(s(z)), s(z))
False <= leq(s(z), z)
depth(node(a, node(a, leaf, node(a, leaf, leaf)), leaf), s(s(z))) <= max(s(s(z)), z, s(z))
}

Learner proposed model:
Found Model:
|_

_r_1 ->
{
  _r_1(leaf, s(x_1_0)) <= True
}
;
depth ->
{
  depth(leaf, z) <= True
  depth(node(x_0_0, x_0_1, x_0_2), s(x_1_0)) <= _r_1(x_0_1, x_1_0)
  depth(node(x_0_0, x_0_1, x_0_2), s(x_1_0)) <= depth(x_0_1, x_1_0) /\ depth(x_0_2, x_1_0)
}
;
le ->
{
  le(s(x_0_0), s(x_1_0)) <= le(x_0_0, x_1_0)
  le(z, s(x_1_0)) <= True
}
;
leq ->
{
  leq(s(x_0_0), s(x_1_0)) <= leq(x_0_0, x_1_0)
  leq(z, s(x_1_0)) <= True
  leq(z, z) <= True
}
;
max ->
{
  max(s(x_0_0), s(x_1_0), s(x_2_0)) <= True
  max(s(x_0_0), z, s(x_2_0)) <= leq(x_0_0, x_2_0)
  max(z, s(x_1_0), s(x_2_0)) <= True
  max(z, z, z) <= True
}

--
Equality automata are defined for: {elt, etree, nat}
_|


Answer of teacher:


depth(leaf, z) <= True -> No: ()
le(z, s(nn2)) <= True -> No: ()
leq(n, m) \/ max(n, m, n) <= True -> No: ()
leq(z, n2) <= True -> No: ()
le(_ala, _bla) <= depth(t1, _ala) /\ depth(node(e, t1, t2), _bla) -> Yes: {
_ala -> s(s(s(z)))  ;  _bla -> s(s(s(z)))  ;  t1 -> node(t1_0, leaf, t1_2)  ;  t2 -> node(v2_0, leaf, v2_2)
}
depth(node(e, t1, t2), s(_uka)) <= depth(t1, _vka) /\ depth(t2, _wka) /\ max(_vka, _wka, _uka) -> Yes: {
_uka -> s(z)  ;  _vka -> s(z)  ;  _wka -> z  ;  t1 -> node(v0_0, leaf, leaf)  ;  t2 -> leaf
}
le(s(nn1), s(nn2)) <= le(nn1, nn2) -> No: ()
le(nn1, nn2) <= le(s(nn1), s(nn2)) -> No: ()
False <= le(s(nn1), z) -> No: ()
False <= le(z, z) -> No: ()
max(n, m, m) <= leq(n, m) -> No: ()
leq(s(nn1), s(nn2)) <= leq(nn1, nn2) -> No: ()
leq(nn1, nn2) <= leq(s(nn1), s(nn2)) -> No: ()
False <= leq(s(nn1), z) -> No: ()



-------------------------------------------
Step 13, which took 0.049913 s (model generation: 0.048589,  model checking: 0.001324):

Ground examples at the beginning of this step are:
{
depth(leaf, z) <= True
depth(node(a, leaf, leaf), s(z)) <= True
depth(node(a, leaf, node(a, leaf, leaf)), s(s(z))) <= True
depth(node(a, node(a, leaf, leaf), leaf), s(s(z))) <= True
depth(node(a, node(a, leaf, leaf), node(a, leaf, leaf)), s(s(z))) <= True
le(s(z), s(s(z))) <= True
le(z, s(z)) <= True
leq(s(z), s(z)) <= True
leq(z, s(z)) <= True
leq(z, z) <= True
max(s(s(z)), s(z), s(s(z))) <= True
max(s(z), s(z), s(z)) <= True
max(s(z), z, s(z)) <= True
max(z, s(z), s(z)) <= True
max(z, z, z) <= True
False <= depth(leaf, s(z))
le(s(s(s(z))), s(s(s(z)))) <= depth(node(a, leaf, leaf), s(s(s(z)))) /\ depth(node(a, node(a, leaf, leaf), node(a, leaf, leaf)), s(s(s(z))))
False <= depth(node(a, leaf, node(a, leaf, leaf)), s(z)) /\ depth(node(a, node(a, leaf, node(a, leaf, leaf)), node(a, leaf, leaf)), s(z))
False <= depth(node(a, node(a, leaf, leaf), leaf), s(z))
depth(node(a, node(a, node(a, leaf, node(a, leaf, leaf)), leaf), leaf), s(s(z))) <= depth(node(a, node(a, leaf, node(a, leaf, leaf)), leaf), s(s(z))) /\ max(s(s(z)), z, s(z))
False <= depth(node(a, node(a, leaf, node(a, leaf, leaf)), node(a, leaf, leaf)), s(s(z)))
False <= depth(node(a, node(a, node(a, leaf, leaf), leaf), leaf), s(s(z)))
False <= le(s(s(z)), s(s(z)))
False <= le(s(s(z)), s(z))
False <= le(s(z), s(z))
False <= le(s(z), z)
False <= le(z, z)
False <= leq(s(s(z)), s(z))
False <= leq(s(z), z)
depth(node(a, node(a, node(a, leaf, leaf), leaf), node(a, node(a, leaf, leaf), leaf)), s(s(z))) <= max(s(s(z)), s(s(z)), s(z))
depth(node(a, node(a, leaf, node(a, leaf, leaf)), leaf), s(s(z))) <= max(s(s(z)), z, s(z))
}

Learner proposed model:
Found Model:
|_

_r_1 ->
{
  _r_1(leaf, s(x_1_0)) <= True
  _r_1(leaf, z) <= True
  _r_1(node(x_0_0, x_0_1, x_0_2), s(x_1_0)) <= depth(x_0_1, x_1_0) /\ depth(x_0_2, x_1_0)
}
;
depth ->
{
  depth(leaf, z) <= True
  depth(node(x_0_0, x_0_1, x_0_2), s(x_1_0)) <= _r_1(x_0_1, x_1_0)
  depth(node(x_0_0, x_0_1, x_0_2), s(x_1_0)) <= _r_1(x_0_1, x_1_0) /\ _r_1(x_0_2, x_1_0)
}
;
le ->
{
  le(s(x_0_0), s(x_1_0)) <= le(x_0_0, x_1_0)
  le(z, s(x_1_0)) <= True
}
;
leq ->
{
  leq(s(x_0_0), s(x_1_0)) <= leq(x_0_0, x_1_0)
  leq(z, s(x_1_0)) <= True
  leq(z, z) <= True
}
;
max ->
{
  max(s(x_0_0), s(x_1_0), s(x_2_0)) <= leq(x_0_0, x_2_0)
  max(s(x_0_0), z, s(x_2_0)) <= leq(x_0_0, x_2_0)
  max(z, s(x_1_0), s(x_2_0)) <= True
  max(z, z, z) <= True
}

--
Equality automata are defined for: {elt, etree, nat}
_|


Answer of teacher:


depth(leaf, z) <= True -> No: ()
le(z, s(nn2)) <= True -> No: ()
leq(n, m) \/ max(n, m, n) <= True -> No: ()
leq(z, n2) <= True -> No: ()
le(_ala, _bla) <= depth(t1, _ala) /\ depth(node(e, t1, t2), _bla) -> Yes: {
_ala -> s(s(z))  ;  _bla -> s(s(z))  ;  t1 -> node(t1_0, leaf, leaf)
}
depth(node(e, t1, t2), s(_uka)) <= depth(t1, _vka) /\ depth(t2, _wka) /\ max(_vka, _wka, _uka) -> Yes: {
_uka -> s(s(v2_0))  ;  _vka -> s(z)  ;  _wka -> s(z)  ;  t1 -> node(v0_0, leaf, leaf)  ;  t2 -> node(v3_0, leaf, v3_2)
}
le(s(nn1), s(nn2)) <= le(nn1, nn2) -> No: ()
le(nn1, nn2) <= le(s(nn1), s(nn2)) -> No: ()
False <= le(s(nn1), z) -> No: ()
False <= le(z, z) -> No: ()
max(n, m, m) <= leq(n, m) -> No: ()
leq(s(nn1), s(nn2)) <= leq(nn1, nn2) -> No: ()
leq(nn1, nn2) <= leq(s(nn1), s(nn2)) -> No: ()
False <= leq(s(nn1), z) -> No: ()



-------------------------------------------
Step 14, which took 0.062030 s (model generation: 0.050958,  model checking: 0.011072):

Ground examples at the beginning of this step are:
{
depth(leaf, z) <= True
depth(node(a, leaf, leaf), s(z)) <= True
depth(node(a, leaf, node(a, leaf, leaf)), s(s(z))) <= True
depth(node(a, node(a, leaf, leaf), leaf), s(s(z))) <= True
depth(node(a, node(a, leaf, leaf), node(a, leaf, leaf)), s(s(z))) <= True
le(s(z), s(s(z))) <= True
le(z, s(z)) <= True
leq(s(z), s(z)) <= True
leq(z, s(z)) <= True
leq(z, z) <= True
max(s(s(z)), s(z), s(s(z))) <= True
max(s(z), s(z), s(z)) <= True
max(s(z), z, s(z)) <= True
max(z, s(z), s(z)) <= True
max(z, z, z) <= True
False <= depth(leaf, s(z))
le(s(s(s(z))), s(s(s(z)))) <= depth(node(a, leaf, leaf), s(s(s(z)))) /\ depth(node(a, node(a, leaf, leaf), node(a, leaf, leaf)), s(s(s(z))))
False <= depth(node(a, leaf, leaf), s(s(z)))
False <= depth(node(a, leaf, node(a, leaf, leaf)), s(z)) /\ depth(node(a, node(a, leaf, node(a, leaf, leaf)), node(a, leaf, leaf)), s(z))
False <= depth(node(a, node(a, leaf, leaf), leaf), s(z))
depth(node(a, node(a, node(a, leaf, node(a, leaf, leaf)), leaf), leaf), s(s(z))) <= depth(node(a, node(a, leaf, node(a, leaf, leaf)), leaf), s(s(z))) /\ max(s(s(z)), z, s(z))
False <= depth(node(a, node(a, leaf, node(a, leaf, leaf)), node(a, leaf, leaf)), s(s(z)))
False <= depth(node(a, node(a, node(a, leaf, leaf), leaf), leaf), s(s(z)))
False <= le(s(s(z)), s(s(z)))
False <= le(s(s(z)), s(z))
False <= le(s(z), s(z))
False <= le(s(z), z)
False <= le(z, z)
False <= leq(s(s(z)), s(z))
False <= leq(s(z), z)
depth(node(a, node(a, node(a, leaf, leaf), leaf), node(a, node(a, leaf, leaf), leaf)), s(s(z))) <= max(s(s(z)), s(s(z)), s(z))
depth(node(a, node(a, leaf, node(a, leaf, leaf)), leaf), s(s(z))) <= max(s(s(z)), z, s(z))
depth(node(a, node(a, leaf, leaf), node(a, leaf, leaf)), s(s(s(z)))) <= max(s(z), s(z), s(s(z)))
}

Learner proposed model:
Found Model:
|_

_r_1 ->
{
  _r_1(leaf, s(x_1_0)) <= True
  _r_1(leaf, z) <= True
}
;
depth ->
{
  depth(leaf, z) <= True
  depth(node(x_0_0, x_0_1, x_0_2), s(x_1_0)) <= _r_1(x_0_1, x_1_0) /\ depth(x_0_2, x_1_0)
  depth(node(x_0_0, x_0_1, x_0_2), s(x_1_0)) <= _r_1(x_0_2, x_1_0) /\ depth(x_0_1, x_1_0)
  depth(node(x_0_0, x_0_1, x_0_2), s(x_1_0)) <= depth(x_0_1, x_1_0) /\ depth(x_0_2, x_1_0)
}
;
le ->
{
  le(s(x_0_0), s(x_1_0)) <= le(x_0_0, x_1_0)
  le(z, s(x_1_0)) <= True
}
;
leq ->
{
  leq(s(x_0_0), s(x_1_0)) <= leq(x_0_0, x_1_0)
  leq(z, s(x_1_0)) <= True
  leq(z, z) <= True
}
;
max ->
{
  max(s(x_0_0), s(x_1_0), s(x_2_0)) <= max(x_0_0, x_1_0, x_2_0)
  max(s(x_0_0), z, s(x_2_0)) <= leq(x_0_0, x_2_0)
  max(z, s(x_1_0), s(x_2_0)) <= True
  max(z, z, z) <= True
}

--
Equality automata are defined for: {elt, etree, nat}
_|


Answer of teacher:


depth(leaf, z) <= True -> No: ()
le(z, s(nn2)) <= True -> No: ()
leq(n, m) \/ max(n, m, n) <= True -> No: ()
leq(z, n2) <= True -> No: ()
le(_ala, _bla) <= depth(t1, _ala) /\ depth(node(e, t1, t2), _bla) -> No: ()
depth(node(e, t1, t2), s(_uka)) <= depth(t1, _vka) /\ depth(t2, _wka) /\ max(_vka, _wka, _uka) -> Yes: {
_uka -> s(s(v1_0))  ;  _vka -> z  ;  _wka -> s(z)  ;  t1 -> leaf  ;  t2 -> node(v0_0, leaf, leaf)
}
le(s(nn1), s(nn2)) <= le(nn1, nn2) -> No: ()
le(nn1, nn2) <= le(s(nn1), s(nn2)) -> No: ()
False <= le(s(nn1), z) -> No: ()
False <= le(z, z) -> No: ()
max(n, m, m) <= leq(n, m) -> No: ()
leq(s(nn1), s(nn2)) <= leq(nn1, nn2) -> No: ()
leq(nn1, nn2) <= leq(s(nn1), s(nn2)) -> No: ()
False <= leq(s(nn1), z) -> No: ()



-------------------------------------------
Step 15, which took 0.234130 s (model generation: 0.189402,  model checking: 0.044728):

Ground examples at the beginning of this step are:
{
depth(leaf, z) <= True
depth(node(a, leaf, leaf), s(z)) <= True
depth(node(a, leaf, node(a, leaf, leaf)), s(s(z))) <= True
depth(node(a, node(a, leaf, leaf), leaf), s(s(z))) <= True
depth(node(a, node(a, leaf, leaf), node(a, leaf, leaf)), s(s(z))) <= True
le(s(z), s(s(z))) <= True
le(z, s(z)) <= True
leq(s(z), s(z)) <= True
leq(z, s(z)) <= True
leq(z, z) <= True
max(s(s(z)), s(z), s(s(z))) <= True
max(s(z), s(z), s(z)) <= True
max(s(z), z, s(z)) <= True
max(z, s(z), s(z)) <= True
max(z, z, z) <= True
False <= depth(leaf, s(z))
le(s(s(s(z))), s(s(s(z)))) <= depth(node(a, leaf, leaf), s(s(s(z)))) /\ depth(node(a, node(a, leaf, leaf), node(a, leaf, leaf)), s(s(s(z))))
False <= depth(node(a, leaf, leaf), s(s(z)))
False <= depth(node(a, leaf, node(a, leaf, leaf)), s(z)) /\ depth(node(a, node(a, leaf, node(a, leaf, leaf)), node(a, leaf, leaf)), s(z))
False <= depth(node(a, node(a, leaf, leaf), leaf), s(z))
depth(node(a, node(a, node(a, leaf, node(a, leaf, leaf)), leaf), leaf), s(s(z))) <= depth(node(a, node(a, leaf, node(a, leaf, leaf)), leaf), s(s(z))) /\ max(s(s(z)), z, s(z))
False <= depth(node(a, node(a, leaf, node(a, leaf, leaf)), node(a, leaf, leaf)), s(s(z)))
False <= depth(node(a, node(a, node(a, leaf, leaf), leaf), leaf), s(s(z)))
False <= le(s(s(z)), s(s(z)))
False <= le(s(s(z)), s(z))
False <= le(s(z), s(z))
False <= le(s(z), z)
False <= le(z, z)
False <= leq(s(s(z)), s(z))
False <= leq(s(z), z)
depth(node(a, node(a, node(a, leaf, leaf), leaf), node(a, node(a, leaf, leaf), leaf)), s(s(z))) <= max(s(s(z)), s(s(z)), s(z))
depth(node(a, node(a, leaf, node(a, leaf, leaf)), leaf), s(s(z))) <= max(s(s(z)), z, s(z))
depth(node(a, node(a, leaf, leaf), node(a, leaf, leaf)), s(s(s(z)))) <= max(s(z), s(z), s(s(z)))
depth(node(a, leaf, node(a, leaf, leaf)), s(s(s(z)))) <= max(z, s(z), s(s(z)))
}

Learner proposed model:
Found Model:
|_

_r_1 ->
{
  _r_1(s(x_0_0), s(x_1_0)) <= True
  _r_1(z, z) <= True
}
;
_r_2 ->
{
  _r_2(leaf, s(x_1_0)) <= True
  _r_2(leaf, z) <= True
}
;
depth ->
{
  depth(leaf, z) <= True
  depth(node(x_0_0, x_0_1, x_0_2), s(x_1_0)) <= _r_2(x_0_1, x_1_0) /\ depth(x_0_2, x_1_0)
  depth(node(x_0_0, x_0_1, x_0_2), s(x_1_0)) <= _r_2(x_0_2, x_1_0) /\ depth(x_0_1, x_1_0)
  depth(node(x_0_0, x_0_1, x_0_2), s(x_1_0)) <= depth(x_0_1, x_1_0) /\ depth(x_0_2, x_1_0)
}
;
le ->
{
  le(s(x_0_0), s(x_1_0)) <= le(x_0_0, x_1_0)
  le(z, s(x_1_0)) <= True
}
;
leq ->
{
  leq(s(x_0_0), s(x_1_0)) <= leq(x_0_0, x_1_0)
  leq(z, s(x_1_0)) <= True
  leq(z, z) <= True
}
;
max ->
{
  max(s(x_0_0), s(x_1_0), s(x_2_0)) <= _r_1(x_0_0, x_2_0)
  max(s(x_0_0), z, s(x_2_0)) <= _r_1(x_0_0, x_2_0)
  max(z, s(x_1_0), s(x_2_0)) <= _r_1(x_1_0, x_2_0)
  max(z, z, z) <= True
}

--
Equality automata are defined for: {elt, etree, nat}
_|


Answer of teacher:


depth(leaf, z) <= True -> No: ()
le(z, s(nn2)) <= True -> No: ()
leq(n, m) \/ max(n, m, n) <= True -> No: ()
leq(z, n2) <= True -> No: ()
le(_ala, _bla) <= depth(t1, _ala) /\ depth(node(e, t1, t2), _bla) -> No: ()
depth(node(e, t1, t2), s(_uka)) <= depth(t1, _vka) /\ depth(t2, _wka) /\ max(_vka, _wka, _uka) -> Yes: {
_uka -> s(s(z))  ;  _vka -> s(s(s(s(z))))  ;  _wka -> s(s(s(s(z))))  ;  t1 -> node(v0_0, node(v2_0, node(v0_0, node(v0_0, leaf, leaf), node(v0_0, leaf, leaf)), node(v0_0, node(v0_0, leaf, leaf), node(v0_0, leaf, leaf))), node(v2_0, node(v0_0, node(v0_0, leaf, leaf), node(v0_0, leaf, leaf)), node(v0_0, node(v0_0, leaf, leaf), node(v0_0, leaf, leaf))))  ;  t2 -> node(v2_0, node(v2_0, node(v0_0, node(v0_0, leaf, leaf), node(v0_0, leaf, leaf)), node(v0_0, node(v0_0, leaf, leaf), node(v0_0, leaf, leaf))), node(v2_0, node(v0_0, node(v0_0, leaf, leaf), node(v0_0, leaf, leaf)), node(v0_0, node(v0_0, leaf, leaf), node(v0_0, leaf, leaf))))
}
le(s(nn1), s(nn2)) <= le(nn1, nn2) -> No: ()
le(nn1, nn2) <= le(s(nn1), s(nn2)) -> No: ()
False <= le(s(nn1), z) -> No: ()
False <= le(z, z) -> No: ()
max(n, m, m) <= leq(n, m) -> Yes: {
m -> s(s(v1_0))  ;  n -> s(z)
}
leq(s(nn1), s(nn2)) <= leq(nn1, nn2) -> No: ()
leq(nn1, nn2) <= leq(s(nn1), s(nn2)) -> No: ()
False <= leq(s(nn1), z) -> No: ()



-------------------------------------------
Step 16, which took 0.527437 s (model generation: 0.524964,  model checking: 0.002473):

Ground examples at the beginning of this step are:
{
depth(leaf, z) <= True
depth(node(a, leaf, leaf), s(z)) <= True
depth(node(a, leaf, node(a, leaf, leaf)), s(s(z))) <= True
depth(node(a, node(a, leaf, leaf), leaf), s(s(z))) <= True
depth(node(a, node(a, leaf, leaf), node(a, leaf, leaf)), s(s(z))) <= True
le(s(z), s(s(z))) <= True
le(z, s(z)) <= True
leq(s(z), s(z)) <= True
leq(z, s(z)) <= True
leq(z, z) <= True
max(s(s(z)), s(z), s(s(z))) <= True
max(s(z), s(z), s(z)) <= True
max(s(z), z, s(z)) <= True
max(z, s(z), s(z)) <= True
max(z, z, z) <= True
False <= depth(leaf, s(z))
le(s(s(s(z))), s(s(s(z)))) <= depth(node(a, leaf, leaf), s(s(s(z)))) /\ depth(node(a, node(a, leaf, leaf), node(a, leaf, leaf)), s(s(s(z))))
False <= depth(node(a, leaf, leaf), s(s(z)))
False <= depth(node(a, leaf, node(a, leaf, leaf)), s(z)) /\ depth(node(a, node(a, leaf, node(a, leaf, leaf)), node(a, leaf, leaf)), s(z))
False <= depth(node(a, node(a, leaf, leaf), leaf), s(z))
depth(node(a, node(a, node(a, leaf, node(a, leaf, leaf)), leaf), leaf), s(s(z))) <= depth(node(a, node(a, leaf, node(a, leaf, leaf)), leaf), s(s(z))) /\ max(s(s(z)), z, s(z))
False <= depth(node(a, node(a, leaf, node(a, leaf, leaf)), node(a, leaf, leaf)), s(s(z)))
False <= depth(node(a, node(a, node(a, leaf, leaf), leaf), leaf), s(s(z)))
depth(node(a, node(a, node(a, node(a, node(a, leaf, leaf), node(a, leaf, leaf)), node(a, node(a, leaf, leaf), node(a, leaf, leaf))), node(a, node(a, node(a, leaf, leaf), node(a, leaf, leaf)), node(a, node(a, leaf, leaf), node(a, leaf, leaf)))), node(a, node(a, node(a, node(a, leaf, leaf), node(a, leaf, leaf)), node(a, node(a, leaf, leaf), node(a, leaf, leaf))), node(a, node(a, node(a, leaf, leaf), node(a, leaf, leaf)), node(a, node(a, leaf, leaf), node(a, leaf, leaf))))), s(s(s(z)))) <= depth(node(a, node(a, node(a, node(a, leaf, leaf), node(a, leaf, leaf)), node(a, node(a, leaf, leaf), node(a, leaf, leaf))), node(a, node(a, node(a, leaf, leaf), node(a, leaf, leaf)), node(a, node(a, leaf, leaf), node(a, leaf, leaf)))), s(s(s(s(z))))) /\ max(s(s(s(s(z)))), s(s(s(s(z)))), s(s(z)))
False <= le(s(s(z)), s(s(z)))
False <= le(s(s(z)), s(z))
False <= le(s(z), s(z))
False <= le(s(z), z)
False <= le(z, z)
False <= leq(s(s(z)), s(z))
max(s(z), s(s(z)), s(s(z))) <= leq(s(z), s(s(z)))
False <= leq(s(z), z)
depth(node(a, node(a, node(a, leaf, leaf), leaf), node(a, node(a, leaf, leaf), leaf)), s(s(z))) <= max(s(s(z)), s(s(z)), s(z))
depth(node(a, node(a, leaf, node(a, leaf, leaf)), leaf), s(s(z))) <= max(s(s(z)), z, s(z))
depth(node(a, node(a, leaf, leaf), node(a, leaf, leaf)), s(s(s(z)))) <= max(s(z), s(z), s(s(z)))
depth(node(a, leaf, node(a, leaf, leaf)), s(s(s(z)))) <= max(z, s(z), s(s(z)))
}

Learner proposed model:
Found Model:
|_

_r_1 ->
{
  _r_1(leaf, s(x_1_0)) <= True
  _r_1(leaf, z) <= True
}
;
_r_2 ->
{
  _r_2(leaf, z) <= True
  _r_2(node(x_0_0, x_0_1, x_0_2), s(x_1_0)) <= _r_1(x_0_1, x_1_0) /\ _r_1(x_0_2, x_1_0)
}
;
depth ->
{
  depth(leaf, z) <= True
  depth(node(x_0_0, x_0_1, x_0_2), s(x_1_0)) <= _r_1(x_0_1, x_1_0) /\ _r_2(x_0_2, x_1_0)
  depth(node(x_0_0, x_0_1, x_0_2), s(x_1_0)) <= _r_2(x_0_1, x_1_0)
}
;
le ->
{
  le(s(x_0_0), s(x_1_0)) <= le(x_0_0, x_1_0)
  le(z, s(x_1_0)) <= True
}
;
leq ->
{
  leq(s(x_0_0), s(x_1_0)) <= leq(x_0_0, x_1_0)
  leq(z, s(x_1_0)) <= True
  leq(z, z) <= True
}
;
max ->
{
  max(s(x_0_0), s(x_1_0), s(x_2_0)) <= leq(x_0_0, x_2_0)
  max(s(x_0_0), z, s(x_2_0)) <= leq(x_0_0, x_2_0)
  max(z, s(x_1_0), s(x_2_0)) <= True
  max(z, z, z) <= True
}

--
Equality automata are defined for: {elt, etree, nat}
_|


Answer of teacher:


depth(leaf, z) <= True -> No: ()
le(z, s(nn2)) <= True -> No: ()
leq(n, m) \/ max(n, m, n) <= True -> No: ()
leq(z, n2) <= True -> No: ()
le(_ala, _bla) <= depth(t1, _ala) /\ depth(node(e, t1, t2), _bla) -> No: ()
depth(node(e, t1, t2), s(_uka)) <= depth(t1, _vka) /\ depth(t2, _wka) /\ max(_vka, _wka, _uka) -> Yes: {
_uka -> s(z)  ;  _vka -> z  ;  _wka -> s(s(z))  ;  t1 -> leaf  ;  t2 -> node(v2_0, node(v0_0, leaf, leaf), node(v0_0, v0_1, v0_2))
}
le(s(nn1), s(nn2)) <= le(nn1, nn2) -> No: ()
le(nn1, nn2) <= le(s(nn1), s(nn2)) -> No: ()
False <= le(s(nn1), z) -> No: ()
False <= le(z, z) -> No: ()
max(n, m, m) <= leq(n, m) -> No: ()
leq(s(nn1), s(nn2)) <= leq(nn1, nn2) -> No: ()
leq(nn1, nn2) <= leq(s(nn1), s(nn2)) -> No: ()
False <= leq(s(nn1), z) -> No: ()



-------------------------------------------
Step 17, which took 0.747280 s (model generation: 0.744737,  model checking: 0.002543):

Ground examples at the beginning of this step are:
{
depth(leaf, z) <= True
depth(node(a, leaf, leaf), s(z)) <= True
depth(node(a, leaf, node(a, leaf, leaf)), s(s(z))) <= True
depth(node(a, node(a, leaf, leaf), leaf), s(s(z))) <= True
depth(node(a, node(a, leaf, leaf), node(a, leaf, leaf)), s(s(z))) <= True
le(s(z), s(s(z))) <= True
le(z, s(z)) <= True
leq(s(z), s(z)) <= True
leq(z, s(z)) <= True
leq(z, z) <= True
max(s(s(z)), s(z), s(s(z))) <= True
max(s(z), s(z), s(z)) <= True
max(s(z), z, s(z)) <= True
max(z, s(z), s(z)) <= True
max(z, z, z) <= True
False <= depth(leaf, s(z))
le(s(s(s(z))), s(s(s(z)))) <= depth(node(a, leaf, leaf), s(s(s(z)))) /\ depth(node(a, node(a, leaf, leaf), node(a, leaf, leaf)), s(s(s(z))))
False <= depth(node(a, leaf, leaf), s(s(z)))
False <= depth(node(a, leaf, node(a, leaf, leaf)), s(z)) /\ depth(node(a, node(a, leaf, node(a, leaf, leaf)), node(a, leaf, leaf)), s(z))
False <= depth(node(a, node(a, leaf, leaf), leaf), s(z))
depth(node(a, node(a, node(a, leaf, node(a, leaf, leaf)), leaf), leaf), s(s(z))) <= depth(node(a, node(a, leaf, node(a, leaf, leaf)), leaf), s(s(z))) /\ max(s(s(z)), z, s(z))
False <= depth(node(a, node(a, leaf, node(a, leaf, leaf)), node(a, leaf, leaf)), s(s(z)))
False <= depth(node(a, node(a, node(a, leaf, leaf), leaf), leaf), s(s(z)))
depth(node(a, node(a, node(a, node(a, node(a, leaf, leaf), node(a, leaf, leaf)), node(a, node(a, leaf, leaf), node(a, leaf, leaf))), node(a, node(a, node(a, leaf, leaf), node(a, leaf, leaf)), node(a, node(a, leaf, leaf), node(a, leaf, leaf)))), node(a, node(a, node(a, node(a, leaf, leaf), node(a, leaf, leaf)), node(a, node(a, leaf, leaf), node(a, leaf, leaf))), node(a, node(a, node(a, leaf, leaf), node(a, leaf, leaf)), node(a, node(a, leaf, leaf), node(a, leaf, leaf))))), s(s(s(z)))) <= depth(node(a, node(a, node(a, node(a, leaf, leaf), node(a, leaf, leaf)), node(a, node(a, leaf, leaf), node(a, leaf, leaf))), node(a, node(a, node(a, leaf, leaf), node(a, leaf, leaf)), node(a, node(a, leaf, leaf), node(a, leaf, leaf)))), s(s(s(s(z))))) /\ max(s(s(s(s(z)))), s(s(s(s(z)))), s(s(z)))
False <= le(s(s(z)), s(s(z)))
False <= le(s(s(z)), s(z))
False <= le(s(z), s(z))
False <= le(s(z), z)
False <= le(z, z)
False <= leq(s(s(z)), s(z))
max(s(z), s(s(z)), s(s(z))) <= leq(s(z), s(s(z)))
False <= leq(s(z), z)
depth(node(a, node(a, node(a, leaf, leaf), leaf), node(a, node(a, leaf, leaf), leaf)), s(s(z))) <= max(s(s(z)), s(s(z)), s(z))
depth(node(a, node(a, leaf, node(a, leaf, leaf)), leaf), s(s(z))) <= max(s(s(z)), z, s(z))
depth(node(a, node(a, leaf, leaf), node(a, leaf, leaf)), s(s(s(z)))) <= max(s(z), s(z), s(s(z)))
depth(node(a, leaf, node(a, node(a, leaf, leaf), node(a, leaf, leaf))), s(s(z))) <= max(z, s(s(z)), s(z))
depth(node(a, leaf, node(a, leaf, leaf)), s(s(s(z)))) <= max(z, s(z), s(s(z)))
}

Learner proposed model:
Found Model:
|_

_r_1 ->
{
  _r_1(leaf, s(x_1_0)) <= True
  _r_1(leaf, z) <= True
}
;
_r_2 ->
{
  _r_2(leaf, z) <= True
  _r_2(node(x_0_0, x_0_1, x_0_2), s(x_1_0)) <= _r_1(x_0_1, x_1_0) /\ _r_1(x_0_2, x_1_0)
}
;
depth ->
{
  depth(leaf, z) <= True
  depth(node(x_0_0, x_0_1, x_0_2), s(x_1_0)) <= _r_1(x_0_1, x_1_0) /\ _r_2(x_0_2, x_1_0)
  depth(node(x_0_0, x_0_1, x_0_2), s(x_1_0)) <= _r_2(x_0_1, x_1_0)
}
;
le ->
{
  le(s(x_0_0), s(x_1_0)) <= le(x_0_0, x_1_0)
  le(z, s(x_1_0)) <= True
}
;
leq ->
{
  leq(s(x_0_0), s(x_1_0)) <= leq(x_0_0, x_1_0)
  leq(z, s(x_1_0)) <= True
  leq(z, z) <= True
}
;
max ->
{
  max(s(x_0_0), s(x_1_0), s(x_2_0)) <= leq(x_1_0, x_2_0)
  max(s(x_0_0), z, s(x_2_0)) <= leq(x_0_0, x_2_0)
  max(z, s(x_1_0), s(x_2_0)) <= leq(x_1_0, x_2_0)
  max(z, z, z) <= True
}

--
Equality automata are defined for: {elt, etree, nat}
_|


Answer of teacher:


depth(leaf, z) <= True -> No: ()
le(z, s(nn2)) <= True -> No: ()
leq(n, m) \/ max(n, m, n) <= True -> No: ()
leq(z, n2) <= True -> No: ()
le(_ala, _bla) <= depth(t1, _ala) /\ depth(node(e, t1, t2), _bla) -> No: ()
depth(node(e, t1, t2), s(_uka)) <= depth(t1, _vka) /\ depth(t2, _wka) /\ max(_vka, _wka, _uka) -> Yes: {
_uka -> s(z)  ;  _vka -> s(z)  ;  _wka -> s(z)  ;  t1 -> node(v0_0, leaf, node(v0_0, v0_1, v0_2))  ;  t2 -> node(v2_0, leaf, node(v0_0, v0_1, v0_2))
}
le(s(nn1), s(nn2)) <= le(nn1, nn2) -> No: ()
le(nn1, nn2) <= le(s(nn1), s(nn2)) -> No: ()
False <= le(s(nn1), z) -> No: ()
False <= le(z, z) -> No: ()
max(n, m, m) <= leq(n, m) -> No: ()
leq(s(nn1), s(nn2)) <= leq(nn1, nn2) -> No: ()
leq(nn1, nn2) <= leq(s(nn1), s(nn2)) -> No: ()
False <= leq(s(nn1), z) -> No: ()



-------------------------------------------
Step 18, which took 0.662402 s (model generation: 0.614964,  model checking: 0.047438):

Ground examples at the beginning of this step are:
{
depth(leaf, z) <= True
depth(node(a, leaf, leaf), s(z)) <= True
depth(node(a, leaf, node(a, leaf, leaf)), s(s(z))) <= True
depth(node(a, node(a, leaf, leaf), leaf), s(s(z))) <= True
depth(node(a, node(a, leaf, leaf), node(a, leaf, leaf)), s(s(z))) <= True
le(s(z), s(s(z))) <= True
le(z, s(z)) <= True
leq(s(z), s(z)) <= True
leq(z, s(z)) <= True
leq(z, z) <= True
max(s(s(z)), s(z), s(s(z))) <= True
max(s(z), s(z), s(z)) <= True
max(s(z), z, s(z)) <= True
max(z, s(z), s(z)) <= True
max(z, z, z) <= True
False <= depth(leaf, s(z))
le(s(s(s(z))), s(s(s(z)))) <= depth(node(a, leaf, leaf), s(s(s(z)))) /\ depth(node(a, node(a, leaf, leaf), node(a, leaf, leaf)), s(s(s(z))))
False <= depth(node(a, leaf, leaf), s(s(z)))
depth(node(a, node(a, leaf, node(a, leaf, leaf)), node(a, leaf, node(a, leaf, leaf))), s(s(z))) <= depth(node(a, leaf, node(a, leaf, leaf)), s(z))
False <= depth(node(a, leaf, node(a, leaf, leaf)), s(z)) /\ depth(node(a, node(a, leaf, node(a, leaf, leaf)), node(a, leaf, leaf)), s(z))
False <= depth(node(a, node(a, leaf, leaf), leaf), s(z))
depth(node(a, node(a, node(a, leaf, node(a, leaf, leaf)), leaf), leaf), s(s(z))) <= depth(node(a, node(a, leaf, node(a, leaf, leaf)), leaf), s(s(z))) /\ max(s(s(z)), z, s(z))
False <= depth(node(a, node(a, leaf, node(a, leaf, leaf)), node(a, leaf, leaf)), s(s(z)))
False <= depth(node(a, node(a, node(a, leaf, leaf), leaf), leaf), s(s(z)))
depth(node(a, node(a, node(a, node(a, node(a, leaf, leaf), node(a, leaf, leaf)), node(a, node(a, leaf, leaf), node(a, leaf, leaf))), node(a, node(a, node(a, leaf, leaf), node(a, leaf, leaf)), node(a, node(a, leaf, leaf), node(a, leaf, leaf)))), node(a, node(a, node(a, node(a, leaf, leaf), node(a, leaf, leaf)), node(a, node(a, leaf, leaf), node(a, leaf, leaf))), node(a, node(a, node(a, leaf, leaf), node(a, leaf, leaf)), node(a, node(a, leaf, leaf), node(a, leaf, leaf))))), s(s(s(z)))) <= depth(node(a, node(a, node(a, node(a, leaf, leaf), node(a, leaf, leaf)), node(a, node(a, leaf, leaf), node(a, leaf, leaf))), node(a, node(a, node(a, leaf, leaf), node(a, leaf, leaf)), node(a, node(a, leaf, leaf), node(a, leaf, leaf)))), s(s(s(s(z))))) /\ max(s(s(s(s(z)))), s(s(s(s(z)))), s(s(z)))
False <= le(s(s(z)), s(s(z)))
False <= le(s(s(z)), s(z))
False <= le(s(z), s(z))
False <= le(s(z), z)
False <= le(z, z)
False <= leq(s(s(z)), s(z))
max(s(z), s(s(z)), s(s(z))) <= leq(s(z), s(s(z)))
False <= leq(s(z), z)
depth(node(a, node(a, node(a, leaf, leaf), leaf), node(a, node(a, leaf, leaf), leaf)), s(s(z))) <= max(s(s(z)), s(s(z)), s(z))
depth(node(a, node(a, leaf, node(a, leaf, leaf)), leaf), s(s(z))) <= max(s(s(z)), z, s(z))
depth(node(a, node(a, leaf, leaf), node(a, leaf, leaf)), s(s(s(z)))) <= max(s(z), s(z), s(s(z)))
depth(node(a, leaf, node(a, node(a, leaf, leaf), node(a, leaf, leaf))), s(s(z))) <= max(z, s(s(z)), s(z))
depth(node(a, leaf, node(a, leaf, leaf)), s(s(s(z)))) <= max(z, s(z), s(s(z)))
}

Learner proposed model:
Found Model:
|_

_r_1 ->
{
  _r_1(s(x_0_0), s(x_1_0)) <= True
  _r_1(z, z) <= True
}
;
_r_2 ->
{
  _r_2(leaf, s(x_1_0)) <= True
  _r_2(leaf, z) <= True
}
;
depth ->
{
  depth(leaf, z) <= True
  depth(node(x_0_0, x_0_1, x_0_2), s(x_1_0)) <= _r_2(x_0_1, x_1_0) /\ depth(x_0_2, x_1_0)
  depth(node(x_0_0, x_0_1, x_0_2), s(x_1_0)) <= _r_2(x_0_2, x_1_0) /\ depth(x_0_1, x_1_0)
  depth(node(x_0_0, x_0_1, x_0_2), s(x_1_0)) <= depth(x_0_1, x_1_0) /\ depth(x_0_2, x_1_0)
}
;
le ->
{
  le(s(x_0_0), s(x_1_0)) <= le(x_0_0, x_1_0)
  le(z, s(x_1_0)) <= True
}
;
leq ->
{
  leq(s(x_0_0), s(x_1_0)) <= _r_1(x_0_0, x_1_0)
  leq(z, s(x_1_0)) <= True
  leq(z, z) <= True
}
;
max ->
{
  max(s(x_0_0), s(x_1_0), s(x_2_0)) <= _r_1(x_0_0, x_2_0) /\ leq(x_1_0, x_2_0)
  max(s(x_0_0), z, s(x_2_0)) <= _r_1(x_0_0, x_2_0)
  max(z, s(x_1_0), s(x_2_0)) <= _r_1(x_1_0, x_2_0)
  max(z, z, z) <= True
}

--
Equality automata are defined for: {elt, etree, nat}
_|


Answer of teacher:


depth(leaf, z) <= True -> No: ()
le(z, s(nn2)) <= True -> No: ()
leq(n, m) \/ max(n, m, n) <= True -> Yes: {
m -> s(s(v1_0))  ;  n -> s(z)
}
leq(z, n2) <= True -> No: ()
le(_ala, _bla) <= depth(t1, _ala) /\ depth(node(e, t1, t2), _bla) -> No: ()
depth(node(e, t1, t2), s(_uka)) <= depth(t1, _vka) /\ depth(t2, _wka) /\ max(_vka, _wka, _uka) -> Yes: {
_uka -> s(s(s(v2_0)))  ;  _vka -> s(s(z))  ;  _wka -> z  ;  t1 -> node(v0_0, node(v2_0, leaf, leaf), node(v2_0, leaf, leaf))  ;  t2 -> leaf
}
le(s(nn1), s(nn2)) <= le(nn1, nn2) -> No: ()
le(nn1, nn2) <= le(s(nn1), s(nn2)) -> No: ()
False <= le(s(nn1), z) -> No: ()
False <= le(z, z) -> No: ()
max(n, m, m) <= leq(n, m) -> No: ()
leq(s(nn1), s(nn2)) <= leq(nn1, nn2) -> Yes: {
nn1 -> z  ;  nn2 -> s(v1_0)
}
leq(nn1, nn2) <= leq(s(nn1), s(nn2)) -> Yes: {
nn1 -> s(z)  ;  nn2 -> s(s(v1_0))
}
False <= leq(s(nn1), z) -> No: ()



-------------------------------------------
Step 19, which took 0.955270 s (model generation: 0.837089,  model checking: 0.118181):

Ground examples at the beginning of this step are:
{
depth(leaf, z) <= True
depth(node(a, leaf, leaf), s(z)) <= True
depth(node(a, leaf, node(a, leaf, leaf)), s(s(z))) <= True
depth(node(a, node(a, leaf, leaf), leaf), s(s(z))) <= True
depth(node(a, node(a, leaf, leaf), node(a, leaf, leaf)), s(s(z))) <= True
le(s(z), s(s(z))) <= True
le(z, s(z)) <= True
leq(s(z), s(s(z))) <= True
leq(s(z), s(z)) <= True
leq(z, s(z)) <= True
leq(z, z) <= True
max(s(s(z)), s(z), s(s(z))) <= True
max(s(z), s(s(z)), s(s(z))) <= True
max(s(z), s(z), s(z)) <= True
max(s(z), z, s(z)) <= True
max(z, s(z), s(z)) <= True
max(z, z, z) <= True
False <= depth(leaf, s(z))
le(s(s(s(z))), s(s(s(z)))) <= depth(node(a, leaf, leaf), s(s(s(z)))) /\ depth(node(a, node(a, leaf, leaf), node(a, leaf, leaf)), s(s(s(z))))
False <= depth(node(a, leaf, leaf), s(s(z)))
depth(node(a, node(a, leaf, node(a, leaf, leaf)), node(a, leaf, node(a, leaf, leaf))), s(s(z))) <= depth(node(a, leaf, node(a, leaf, leaf)), s(z))
False <= depth(node(a, leaf, node(a, leaf, leaf)), s(z)) /\ depth(node(a, node(a, leaf, node(a, leaf, leaf)), node(a, leaf, leaf)), s(z))
False <= depth(node(a, node(a, leaf, leaf), leaf), s(z))
depth(node(a, node(a, node(a, leaf, node(a, leaf, leaf)), leaf), leaf), s(s(z))) <= depth(node(a, node(a, leaf, node(a, leaf, leaf)), leaf), s(s(z))) /\ max(s(s(z)), z, s(z))
False <= depth(node(a, node(a, leaf, node(a, leaf, leaf)), node(a, leaf, leaf)), s(s(z)))
False <= depth(node(a, node(a, node(a, leaf, leaf), leaf), leaf), s(s(z)))
depth(node(a, node(a, node(a, node(a, node(a, leaf, leaf), node(a, leaf, leaf)), node(a, node(a, leaf, leaf), node(a, leaf, leaf))), node(a, node(a, node(a, leaf, leaf), node(a, leaf, leaf)), node(a, node(a, leaf, leaf), node(a, leaf, leaf)))), node(a, node(a, node(a, node(a, leaf, leaf), node(a, leaf, leaf)), node(a, node(a, leaf, leaf), node(a, leaf, leaf))), node(a, node(a, node(a, leaf, leaf), node(a, leaf, leaf)), node(a, node(a, leaf, leaf), node(a, leaf, leaf))))), s(s(s(z)))) <= depth(node(a, node(a, node(a, node(a, leaf, leaf), node(a, leaf, leaf)), node(a, node(a, leaf, leaf), node(a, leaf, leaf))), node(a, node(a, node(a, leaf, leaf), node(a, leaf, leaf)), node(a, node(a, leaf, leaf), node(a, leaf, leaf)))), s(s(s(s(z))))) /\ max(s(s(s(s(z)))), s(s(s(s(z)))), s(s(z)))
False <= le(s(s(z)), s(s(z)))
False <= le(s(s(z)), s(z))
False <= le(s(z), s(z))
False <= le(s(z), z)
False <= le(z, z)
False <= leq(s(s(z)), s(z))
False <= leq(s(z), z)
depth(node(a, node(a, node(a, leaf, leaf), leaf), node(a, node(a, leaf, leaf), leaf)), s(s(z))) <= max(s(s(z)), s(s(z)), s(z))
depth(node(a, node(a, node(a, leaf, leaf), node(a, leaf, leaf)), leaf), s(s(s(s(z))))) <= max(s(s(z)), z, s(s(s(z))))
depth(node(a, node(a, leaf, node(a, leaf, leaf)), leaf), s(s(z))) <= max(s(s(z)), z, s(z))
depth(node(a, node(a, leaf, leaf), node(a, leaf, leaf)), s(s(s(z)))) <= max(s(z), s(z), s(s(z)))
depth(node(a, leaf, node(a, node(a, leaf, leaf), node(a, leaf, leaf))), s(s(z))) <= max(z, s(s(z)), s(z))
depth(node(a, leaf, node(a, leaf, leaf)), s(s(s(z)))) <= max(z, s(z), s(s(z)))
}

Learner proposed model:
Found Model:
|_

_r_1 ->
{
  _r_1(z, z) <= True
}
;
_r_2 ->
{
  _r_2(leaf, s(x_1_0)) <= True
  _r_2(leaf, z) <= True
}
;
depth ->
{
  depth(leaf, z) <= True
  depth(node(x_0_0, x_0_1, x_0_2), s(x_1_0)) <= _r_2(x_0_1, x_1_0) /\ depth(x_0_2, x_1_0)
  depth(node(x_0_0, x_0_1, x_0_2), s(x_1_0)) <= _r_2(x_0_2, x_1_0) /\ depth(x_0_1, x_1_0)
  depth(node(x_0_0, x_0_1, x_0_2), s(x_1_0)) <= depth(x_0_1, x_1_0) /\ depth(x_0_2, x_1_0)
}
;
le ->
{
  le(s(x_0_0), s(x_1_0)) <= le(x_0_0, x_1_0)
  le(z, s(x_1_0)) <= True
}
;
leq ->
{
  leq(s(x_0_0), s(x_1_0)) <= leq(x_0_0, x_1_0)
  leq(z, s(x_1_0)) <= True
  leq(z, z) <= True
}
;
max ->
{
  max(s(x_0_0), s(x_1_0), s(x_2_0)) <= max(x_0_0, x_1_0, x_2_0)
  max(s(x_0_0), z, s(x_2_0)) <= _r_1(x_0_0, x_2_0)
  max(z, s(x_1_0), s(x_2_0)) <= _r_1(x_1_0, x_2_0)
  max(z, z, z) <= True
}

--
Equality automata are defined for: {elt, etree, nat}
_|


Answer of teacher:


depth(leaf, z) <= True -> No: ()
le(z, s(nn2)) <= True -> No: ()
leq(n, m) \/ max(n, m, n) <= True -> Yes: {
m -> z  ;  n -> s(s(v0_0))
}
leq(z, n2) <= True -> No: ()
le(_ala, _bla) <= depth(t1, _ala) /\ depth(node(e, t1, t2), _bla) -> No: ()
depth(node(e, t1, t2), s(_uka)) <= depth(t1, _vka) /\ depth(t2, _wka) /\ max(_vka, _wka, _uka) -> Yes: {
_uka -> s(s(z))  ;  _vka -> s(z)  ;  _wka -> s(s(z))  ;  t1 -> node(v0_0, leaf, leaf)  ;  t2 -> node(v3_0, node(v3_0, leaf, leaf), node(v3_0, leaf, leaf))
}
le(s(nn1), s(nn2)) <= le(nn1, nn2) -> No: ()
le(nn1, nn2) <= le(s(nn1), s(nn2)) -> No: ()
False <= le(s(nn1), z) -> No: ()
False <= le(z, z) -> No: ()
max(n, m, m) <= leq(n, m) -> Yes: {
m -> s(s(v0_0))  ;  n -> z
}
leq(s(nn1), s(nn2)) <= leq(nn1, nn2) -> No: ()
leq(nn1, nn2) <= leq(s(nn1), s(nn2)) -> No: ()
False <= leq(s(nn1), z) -> No: ()



-------------------------------------------
Step 20, which took 1.672474 s (model generation: 1.669361,  model checking: 0.003113):

Ground examples at the beginning of this step are:
{
depth(leaf, z) <= True
depth(node(a, leaf, leaf), s(z)) <= True
depth(node(a, leaf, node(a, leaf, leaf)), s(s(z))) <= True
depth(node(a, node(a, leaf, leaf), leaf), s(s(z))) <= True
depth(node(a, node(a, leaf, leaf), node(a, leaf, leaf)), s(s(z))) <= True
depth(node(a, node(a, leaf, leaf), node(a, node(a, leaf, leaf), node(a, leaf, leaf))), s(s(s(z)))) <= True
le(s(z), s(s(z))) <= True
le(z, s(z)) <= True
leq(s(s(z)), z) \/ max(s(s(z)), z, s(s(z))) <= True
leq(s(z), s(s(z))) <= True
leq(s(z), s(z)) <= True
leq(z, s(z)) <= True
leq(z, z) <= True
max(s(s(z)), s(z), s(s(z))) <= True
max(s(z), s(s(z)), s(s(z))) <= True
max(s(z), s(z), s(z)) <= True
max(s(z), z, s(z)) <= True
max(z, s(z), s(z)) <= True
max(z, z, z) <= True
False <= depth(leaf, s(z))
le(s(s(s(z))), s(s(s(z)))) <= depth(node(a, leaf, leaf), s(s(s(z)))) /\ depth(node(a, node(a, leaf, leaf), node(a, leaf, leaf)), s(s(s(z))))
False <= depth(node(a, leaf, leaf), s(s(z)))
depth(node(a, node(a, leaf, node(a, leaf, leaf)), node(a, leaf, node(a, leaf, leaf))), s(s(z))) <= depth(node(a, leaf, node(a, leaf, leaf)), s(z))
False <= depth(node(a, leaf, node(a, leaf, leaf)), s(z)) /\ depth(node(a, node(a, leaf, node(a, leaf, leaf)), node(a, leaf, leaf)), s(z))
False <= depth(node(a, node(a, leaf, leaf), leaf), s(z))
depth(node(a, node(a, node(a, leaf, node(a, leaf, leaf)), leaf), leaf), s(s(z))) <= depth(node(a, node(a, leaf, node(a, leaf, leaf)), leaf), s(s(z))) /\ max(s(s(z)), z, s(z))
False <= depth(node(a, node(a, leaf, node(a, leaf, leaf)), node(a, leaf, leaf)), s(s(z)))
False <= depth(node(a, node(a, node(a, leaf, leaf), leaf), leaf), s(s(z)))
depth(node(a, node(a, node(a, node(a, node(a, leaf, leaf), node(a, leaf, leaf)), node(a, node(a, leaf, leaf), node(a, leaf, leaf))), node(a, node(a, node(a, leaf, leaf), node(a, leaf, leaf)), node(a, node(a, leaf, leaf), node(a, leaf, leaf)))), node(a, node(a, node(a, node(a, leaf, leaf), node(a, leaf, leaf)), node(a, node(a, leaf, leaf), node(a, leaf, leaf))), node(a, node(a, node(a, leaf, leaf), node(a, leaf, leaf)), node(a, node(a, leaf, leaf), node(a, leaf, leaf))))), s(s(s(z)))) <= depth(node(a, node(a, node(a, node(a, leaf, leaf), node(a, leaf, leaf)), node(a, node(a, leaf, leaf), node(a, leaf, leaf))), node(a, node(a, node(a, leaf, leaf), node(a, leaf, leaf)), node(a, node(a, leaf, leaf), node(a, leaf, leaf)))), s(s(s(s(z))))) /\ max(s(s(s(s(z)))), s(s(s(s(z)))), s(s(z)))
False <= le(s(s(z)), s(s(z)))
False <= le(s(s(z)), s(z))
False <= le(s(z), s(z))
False <= le(s(z), z)
False <= le(z, z)
False <= leq(s(s(z)), s(z))
False <= leq(s(z), z)
max(z, s(s(z)), s(s(z))) <= leq(z, s(s(z)))
depth(node(a, node(a, node(a, leaf, leaf), leaf), node(a, node(a, leaf, leaf), leaf)), s(s(z))) <= max(s(s(z)), s(s(z)), s(z))
depth(node(a, node(a, node(a, leaf, leaf), node(a, leaf, leaf)), leaf), s(s(s(s(z))))) <= max(s(s(z)), z, s(s(s(z))))
depth(node(a, node(a, leaf, node(a, leaf, leaf)), leaf), s(s(z))) <= max(s(s(z)), z, s(z))
depth(node(a, node(a, leaf, leaf), node(a, leaf, leaf)), s(s(s(z)))) <= max(s(z), s(z), s(s(z)))
depth(node(a, leaf, node(a, node(a, leaf, leaf), node(a, leaf, leaf))), s(s(z))) <= max(z, s(s(z)), s(z))
depth(node(a, leaf, node(a, leaf, leaf)), s(s(s(z)))) <= max(z, s(z), s(s(z)))
}

Learner proposed model:
Found Model:
|_

_r_1 ->
{
  _r_1(node(x_0_0, x_0_1, x_0_2), s(x_1_0)) <= True
}
;
_r_2 ->
{
  _r_2(leaf, s(x_1_0)) <= True
  _r_2(leaf, z) <= True
  _r_2(node(x_0_0, x_0_1, x_0_2), s(x_1_0)) <= _r_2(x_0_2, x_1_0)
}
;
depth ->
{
  depth(leaf, z) <= True
  depth(node(x_0_0, x_0_1, x_0_2), s(x_1_0)) <= _r_1(x_0_2, x_1_0) /\ _r_2(x_0_1, x_1_0)
  depth(node(x_0_0, x_0_1, x_0_2), s(x_1_0)) <= _r_2(x_0_2, x_1_0) /\ depth(x_0_1, x_1_0)
}
;
le ->
{
  le(s(x_0_0), s(x_1_0)) <= le(x_0_0, x_1_0)
  le(z, s(x_1_0)) <= True
}
;
leq ->
{
  leq(s(x_0_0), s(x_1_0)) <= leq(x_0_0, x_1_0)
  leq(z, s(x_1_0)) <= True
  leq(z, z) <= True
}
;
max ->
{
  max(s(x_0_0), s(x_1_0), s(x_2_0)) <= leq(x_0_0, x_2_0)
  max(s(x_0_0), z, s(x_2_0)) <= leq(x_0_0, x_2_0)
  max(z, s(x_1_0), s(x_2_0)) <= True
  max(z, z, z) <= True
}

--
Equality automata are defined for: {elt, etree, nat}
_|


Answer of teacher:


depth(leaf, z) <= True -> No: ()
le(z, s(nn2)) <= True -> No: ()
leq(n, m) \/ max(n, m, n) <= True -> No: ()
leq(z, n2) <= True -> No: ()
le(_ala, _bla) <= depth(t1, _ala) /\ depth(node(e, t1, t2), _bla) -> Yes: {
_ala -> s(s(s(z)))  ;  _bla -> s(s(s(z)))  ;  t1 -> node(t1_0, leaf, node(v0_0, v0_1, v0_2))  ;  t2 -> leaf
}
depth(node(e, t1, t2), s(_uka)) <= depth(t1, _vka) /\ depth(t2, _wka) /\ max(_vka, _wka, _uka) -> Yes: {
_uka -> s(s(z))  ;  _vka -> s(s(z))  ;  _wka -> s(s(z))  ;  t1 -> node(v0_0, leaf, node(v0_0, v0_1, node(v0_0, v0_1, v0_2)))  ;  t2 -> node(v2_0, leaf, node(v0_0, v0_1, node(v0_0, v0_1, v0_2)))
}
le(s(nn1), s(nn2)) <= le(nn1, nn2) -> No: ()
le(nn1, nn2) <= le(s(nn1), s(nn2)) -> No: ()
False <= le(s(nn1), z) -> No: ()
False <= le(z, z) -> No: ()
max(n, m, m) <= leq(n, m) -> No: ()
leq(s(nn1), s(nn2)) <= leq(nn1, nn2) -> No: ()
leq(nn1, nn2) <= leq(s(nn1), s(nn2)) -> No: ()
False <= leq(s(nn1), z) -> No: ()



-------------------------------------------
Step 21, which took 1.023272 s (model generation: 0.993253,  model checking: 0.030019):

Ground examples at the beginning of this step are:
{
depth(leaf, z) <= True
depth(node(a, leaf, leaf), s(z)) <= True
depth(node(a, leaf, node(a, leaf, leaf)), s(s(z))) <= True
depth(node(a, node(a, leaf, leaf), leaf), s(s(z))) <= True
depth(node(a, node(a, leaf, leaf), node(a, leaf, leaf)), s(s(z))) <= True
depth(node(a, node(a, leaf, leaf), node(a, node(a, leaf, leaf), node(a, leaf, leaf))), s(s(s(z)))) <= True
le(s(z), s(s(z))) <= True
le(z, s(z)) <= True
leq(s(s(z)), z) \/ max(s(s(z)), z, s(s(z))) <= True
leq(s(z), s(s(z))) <= True
leq(s(z), s(z)) <= True
leq(z, s(z)) <= True
leq(z, z) <= True
max(s(s(z)), s(z), s(s(z))) <= True
max(s(z), s(s(z)), s(s(z))) <= True
max(s(z), s(z), s(z)) <= True
max(s(z), z, s(z)) <= True
max(z, s(z), s(z)) <= True
max(z, z, z) <= True
False <= depth(leaf, s(z))
le(s(s(s(z))), s(s(s(z)))) <= depth(node(a, leaf, leaf), s(s(s(z)))) /\ depth(node(a, node(a, leaf, leaf), node(a, leaf, leaf)), s(s(s(z))))
False <= depth(node(a, leaf, leaf), s(s(z)))
le(s(s(s(z))), s(s(s(z)))) <= depth(node(a, leaf, node(a, leaf, leaf)), s(s(s(z)))) /\ depth(node(a, node(a, leaf, node(a, leaf, leaf)), leaf), s(s(s(z))))
depth(node(a, node(a, leaf, node(a, leaf, leaf)), node(a, leaf, node(a, leaf, leaf))), s(s(z))) <= depth(node(a, leaf, node(a, leaf, leaf)), s(z))
False <= depth(node(a, leaf, node(a, leaf, leaf)), s(z)) /\ depth(node(a, node(a, leaf, node(a, leaf, leaf)), node(a, leaf, leaf)), s(z))
depth(node(a, node(a, leaf, node(a, leaf, node(a, leaf, leaf))), node(a, leaf, node(a, leaf, node(a, leaf, leaf)))), s(s(s(z)))) <= depth(node(a, leaf, node(a, leaf, node(a, leaf, leaf))), s(s(z))) /\ max(s(s(z)), s(s(z)), s(s(z)))
False <= depth(node(a, node(a, leaf, leaf), leaf), s(z))
depth(node(a, node(a, node(a, leaf, node(a, leaf, leaf)), leaf), leaf), s(s(z))) <= depth(node(a, node(a, leaf, node(a, leaf, leaf)), leaf), s(s(z))) /\ max(s(s(z)), z, s(z))
False <= depth(node(a, node(a, leaf, node(a, leaf, leaf)), node(a, leaf, leaf)), s(s(z)))
False <= depth(node(a, node(a, node(a, leaf, leaf), leaf), leaf), s(s(z)))
depth(node(a, node(a, node(a, node(a, node(a, leaf, leaf), node(a, leaf, leaf)), node(a, node(a, leaf, leaf), node(a, leaf, leaf))), node(a, node(a, node(a, leaf, leaf), node(a, leaf, leaf)), node(a, node(a, leaf, leaf), node(a, leaf, leaf)))), node(a, node(a, node(a, node(a, leaf, leaf), node(a, leaf, leaf)), node(a, node(a, leaf, leaf), node(a, leaf, leaf))), node(a, node(a, node(a, leaf, leaf), node(a, leaf, leaf)), node(a, node(a, leaf, leaf), node(a, leaf, leaf))))), s(s(s(z)))) <= depth(node(a, node(a, node(a, node(a, leaf, leaf), node(a, leaf, leaf)), node(a, node(a, leaf, leaf), node(a, leaf, leaf))), node(a, node(a, node(a, leaf, leaf), node(a, leaf, leaf)), node(a, node(a, leaf, leaf), node(a, leaf, leaf)))), s(s(s(s(z))))) /\ max(s(s(s(s(z)))), s(s(s(s(z)))), s(s(z)))
False <= le(s(s(z)), s(s(z)))
False <= le(s(s(z)), s(z))
False <= le(s(z), s(z))
False <= le(s(z), z)
False <= le(z, z)
False <= leq(s(s(z)), s(z))
False <= leq(s(z), z)
max(z, s(s(z)), s(s(z))) <= leq(z, s(s(z)))
depth(node(a, node(a, node(a, leaf, leaf), leaf), node(a, node(a, leaf, leaf), leaf)), s(s(z))) <= max(s(s(z)), s(s(z)), s(z))
depth(node(a, node(a, node(a, leaf, leaf), node(a, leaf, leaf)), leaf), s(s(s(s(z))))) <= max(s(s(z)), z, s(s(s(z))))
depth(node(a, node(a, leaf, node(a, leaf, leaf)), leaf), s(s(z))) <= max(s(s(z)), z, s(z))
depth(node(a, node(a, leaf, leaf), node(a, leaf, leaf)), s(s(s(z)))) <= max(s(z), s(z), s(s(z)))
depth(node(a, leaf, node(a, node(a, leaf, leaf), node(a, leaf, leaf))), s(s(z))) <= max(z, s(s(z)), s(z))
depth(node(a, leaf, node(a, leaf, leaf)), s(s(s(z)))) <= max(z, s(z), s(s(z)))
}

Learner proposed model:
Found Model:
|_

_r_1 ->
{
  _r_1(s(x_0_0), s(x_1_0)) <= _r_1(x_0_0, x_1_0)
  _r_1(z, z) <= True
}
;
_r_2 ->
{
  _r_2(leaf, s(x_1_0)) <= True
  _r_2(leaf, z) <= True
  _r_2(node(x_0_0, x_0_1, x_0_2), s(x_1_0)) <= _r_2(x_0_2, x_1_0)
}
;
depth ->
{
  depth(leaf, z) <= True
  depth(node(x_0_0, x_0_1, x_0_2), s(x_1_0)) <= _r_2(x_0_1, x_1_0) /\ depth(x_0_2, x_1_0)
  depth(node(x_0_0, x_0_1, x_0_2), s(x_1_0)) <= _r_2(x_0_2, x_1_0) /\ depth(x_0_1, x_1_0)
}
;
le ->
{
  le(s(x_0_0), s(x_1_0)) <= le(x_0_0, x_1_0)
  le(z, s(x_1_0)) <= True
}
;
leq ->
{
  leq(s(x_0_0), s(x_1_0)) <= leq(x_0_0, x_1_0)
  leq(z, s(x_1_0)) <= True
  leq(z, z) <= True
}
;
max ->
{
  max(s(x_0_0), s(x_1_0), s(x_2_0)) <= _r_1(x_0_0, x_2_0)
  max(s(x_0_0), s(x_1_0), s(x_2_0)) <= _r_1(x_1_0, x_2_0)
  max(s(x_0_0), z, s(x_2_0)) <= _r_1(x_0_0, x_2_0)
  max(z, s(x_1_0), s(x_2_0)) <= _r_1(x_1_0, x_2_0)
  max(z, z, z) <= True
}

--
Equality automata are defined for: {elt, etree, nat}
_|


Answer of teacher:


depth(leaf, z) <= True -> No: ()
le(z, s(nn2)) <= True -> No: ()
leq(n, m) \/ max(n, m, n) <= True -> No: ()
leq(z, n2) <= True -> No: ()
le(_ala, _bla) <= depth(t1, _ala) /\ depth(node(e, t1, t2), _bla) -> Yes: {
_ala -> s(s(z))  ;  _bla -> s(s(z))  ;  t1 -> node(t1_0, node(v3_0, leaf, leaf), leaf)  ;  t2 -> node(v5_0, leaf, leaf)
}
depth(node(e, t1, t2), s(_uka)) <= depth(t1, _vka) /\ depth(t2, _wka) /\ max(_vka, _wka, _uka) -> Yes: {
_uka -> s(z)  ;  _vka -> s(z)  ;  _wka -> s(s(z))  ;  t1 -> node(v2_0, leaf, leaf)  ;  t2 -> node(v0_0, node(v2_0, leaf, leaf), node(v3_0, v3_1, leaf))
}
le(s(nn1), s(nn2)) <= le(nn1, nn2) -> No: ()
le(nn1, nn2) <= le(s(nn1), s(nn2)) -> No: ()
False <= le(s(nn1), z) -> No: ()
False <= le(z, z) -> No: ()
max(n, m, m) <= leq(n, m) -> No: ()
leq(s(nn1), s(nn2)) <= leq(nn1, nn2) -> No: ()
leq(nn1, nn2) <= leq(s(nn1), s(nn2)) -> No: ()
False <= leq(s(nn1), z) -> No: ()



-------------------------------------------
Step 22, which took 1.852726 s (model generation: 1.834516,  model checking: 0.018210):

Ground examples at the beginning of this step are:
{
depth(leaf, z) <= True
depth(node(a, leaf, leaf), s(z)) <= True
depth(node(a, leaf, node(a, leaf, leaf)), s(s(z))) <= True
depth(node(a, node(a, leaf, leaf), leaf), s(s(z))) <= True
depth(node(a, node(a, leaf, leaf), node(a, leaf, leaf)), s(s(z))) <= True
depth(node(a, node(a, leaf, leaf), node(a, node(a, leaf, leaf), node(a, leaf, leaf))), s(s(s(z)))) <= True
le(s(z), s(s(z))) <= True
le(z, s(z)) <= True
leq(s(s(z)), z) \/ max(s(s(z)), z, s(s(z))) <= True
leq(s(z), s(s(z))) <= True
leq(s(z), s(z)) <= True
leq(z, s(z)) <= True
leq(z, z) <= True
max(s(s(z)), s(z), s(s(z))) <= True
max(s(z), s(s(z)), s(s(z))) <= True
max(s(z), s(z), s(z)) <= True
max(s(z), z, s(z)) <= True
max(z, s(z), s(z)) <= True
max(z, z, z) <= True
False <= depth(leaf, s(z))
le(s(s(s(z))), s(s(s(z)))) <= depth(node(a, leaf, leaf), s(s(s(z)))) /\ depth(node(a, node(a, leaf, leaf), node(a, leaf, leaf)), s(s(s(z))))
False <= depth(node(a, leaf, leaf), s(s(z)))
le(s(s(s(z))), s(s(s(z)))) <= depth(node(a, leaf, node(a, leaf, leaf)), s(s(s(z)))) /\ depth(node(a, node(a, leaf, node(a, leaf, leaf)), leaf), s(s(s(z))))
depth(node(a, node(a, leaf, node(a, leaf, leaf)), node(a, leaf, node(a, leaf, leaf))), s(s(z))) <= depth(node(a, leaf, node(a, leaf, leaf)), s(z))
False <= depth(node(a, leaf, node(a, leaf, leaf)), s(z)) /\ depth(node(a, node(a, leaf, node(a, leaf, leaf)), node(a, leaf, leaf)), s(z))
depth(node(a, node(a, leaf, node(a, leaf, node(a, leaf, leaf))), node(a, leaf, node(a, leaf, node(a, leaf, leaf)))), s(s(s(z)))) <= depth(node(a, leaf, node(a, leaf, node(a, leaf, leaf))), s(s(z))) /\ max(s(s(z)), s(s(z)), s(s(z)))
False <= depth(node(a, node(a, leaf, leaf), leaf), s(z))
depth(node(a, node(a, node(a, leaf, node(a, leaf, leaf)), leaf), leaf), s(s(z))) <= depth(node(a, node(a, leaf, node(a, leaf, leaf)), leaf), s(s(z))) /\ max(s(s(z)), z, s(z))
False <= depth(node(a, node(a, leaf, node(a, leaf, leaf)), node(a, leaf, leaf)), s(s(z)))
False <= depth(node(a, node(a, node(a, leaf, leaf), leaf), leaf), s(s(z)))
False <= depth(node(a, node(a, node(a, leaf, leaf), leaf), node(a, leaf, leaf)), s(s(z)))
depth(node(a, node(a, node(a, node(a, node(a, leaf, leaf), node(a, leaf, leaf)), node(a, node(a, leaf, leaf), node(a, leaf, leaf))), node(a, node(a, node(a, leaf, leaf), node(a, leaf, leaf)), node(a, node(a, leaf, leaf), node(a, leaf, leaf)))), node(a, node(a, node(a, node(a, leaf, leaf), node(a, leaf, leaf)), node(a, node(a, leaf, leaf), node(a, leaf, leaf))), node(a, node(a, node(a, leaf, leaf), node(a, leaf, leaf)), node(a, node(a, leaf, leaf), node(a, leaf, leaf))))), s(s(s(z)))) <= depth(node(a, node(a, node(a, node(a, leaf, leaf), node(a, leaf, leaf)), node(a, node(a, leaf, leaf), node(a, leaf, leaf))), node(a, node(a, node(a, leaf, leaf), node(a, leaf, leaf)), node(a, node(a, leaf, leaf), node(a, leaf, leaf)))), s(s(s(s(z))))) /\ max(s(s(s(s(z)))), s(s(s(s(z)))), s(s(z)))
False <= le(s(s(z)), s(s(z)))
False <= le(s(s(z)), s(z))
False <= le(s(z), s(z))
False <= le(s(z), z)
False <= le(z, z)
False <= leq(s(s(z)), s(z))
False <= leq(s(z), z)
max(z, s(s(z)), s(s(z))) <= leq(z, s(s(z)))
depth(node(a, node(a, node(a, leaf, leaf), leaf), node(a, node(a, leaf, leaf), leaf)), s(s(z))) <= max(s(s(z)), s(s(z)), s(z))
depth(node(a, node(a, node(a, leaf, leaf), node(a, leaf, leaf)), leaf), s(s(s(s(z))))) <= max(s(s(z)), z, s(s(s(z))))
depth(node(a, node(a, leaf, node(a, leaf, leaf)), leaf), s(s(z))) <= max(s(s(z)), z, s(z))
depth(node(a, node(a, leaf, leaf), node(a, node(a, leaf, leaf), node(a, leaf, leaf))), s(s(z))) <= max(s(z), s(s(z)), s(z))
depth(node(a, node(a, leaf, leaf), node(a, leaf, leaf)), s(s(s(z)))) <= max(s(z), s(z), s(s(z)))
depth(node(a, leaf, node(a, node(a, leaf, leaf), node(a, leaf, leaf))), s(s(z))) <= max(z, s(s(z)), s(z))
depth(node(a, leaf, node(a, leaf, leaf)), s(s(s(z)))) <= max(z, s(z), s(s(z)))
}

Learner proposed model:
Found Model:
|_

_r_1 ->
{
  _r_1(leaf, s(x_1_0)) <= True
}
;
_r_2 ->
{
  _r_2(leaf, z) <= True
  _r_2(node(x_0_0, x_0_1, x_0_2), s(x_1_0)) <= _r_1(x_0_2, x_1_0)
  _r_2(node(x_0_0, x_0_1, x_0_2), s(x_1_0)) <= _r_2(x_0_1, x_1_0) /\ _r_2(x_0_2, x_1_0)
}
;
depth ->
{
  depth(leaf, z) <= True
  depth(node(x_0_0, x_0_1, x_0_2), s(x_1_0)) <= _r_1(x_0_1, x_1_0) /\ _r_2(x_0_2, x_1_0)
  depth(node(x_0_0, x_0_1, x_0_2), s(x_1_0)) <= _r_1(x_0_2, x_1_0) /\ _r_2(x_0_1, x_1_0)
  depth(node(x_0_0, x_0_1, x_0_2), s(x_1_0)) <= _r_2(x_0_1, x_1_0) /\ _r_2(x_0_2, x_1_0)
}
;
le ->
{
  le(s(x_0_0), s(x_1_0)) <= le(x_0_0, x_1_0)
  le(z, s(x_1_0)) <= True
}
;
leq ->
{
  leq(s(x_0_0), s(x_1_0)) <= leq(x_0_0, x_1_0)
  leq(z, s(x_1_0)) <= True
  leq(z, z) <= True
}
;
max ->
{
  max(s(x_0_0), s(x_1_0), s(x_2_0)) <= leq(x_1_0, x_2_0)
  max(s(x_0_0), z, s(x_2_0)) <= leq(x_0_0, x_2_0)
  max(z, s(x_1_0), s(x_2_0)) <= leq(x_1_0, x_2_0)
  max(z, z, z) <= True
}

--
Equality automata are defined for: {elt, etree, nat}
_|


Answer of teacher:


depth(leaf, z) <= True -> No: ()
le(z, s(nn2)) <= True -> No: ()
leq(n, m) \/ max(n, m, n) <= True -> No: ()
leq(z, n2) <= True -> No: ()
le(_ala, _bla) <= depth(t1, _ala) /\ depth(node(e, t1, t2), _bla) -> Yes: {
_ala -> s(s(s(z)))  ;  _bla -> s(s(s(z)))  ;  t1 -> node(t1_0, node(v4_0, v4_1, leaf), leaf)  ;  t2 -> leaf
}
depth(node(e, t1, t2), s(_uka)) <= depth(t1, _vka) /\ depth(t2, _wka) /\ max(_vka, _wka, _uka) -> Yes: {
_uka -> s(s(z))  ;  _vka -> s(s(z))  ;  _wka -> z  ;  t1 -> node(v0_0, leaf, node(v2_0, leaf, leaf))  ;  t2 -> leaf
}
le(s(nn1), s(nn2)) <= le(nn1, nn2) -> No: ()
le(nn1, nn2) <= le(s(nn1), s(nn2)) -> No: ()
False <= le(s(nn1), z) -> No: ()
False <= le(z, z) -> No: ()
max(n, m, m) <= leq(n, m) -> No: ()
leq(s(nn1), s(nn2)) <= leq(nn1, nn2) -> No: ()
leq(nn1, nn2) <= leq(s(nn1), s(nn2)) -> No: ()
False <= leq(s(nn1), z) -> No: ()



-------------------------------------------
Step 23, which took 36.992343 s (model generation: 0.705084,  model checking: 36.287259):

Ground examples at the beginning of this step are:
{
depth(leaf, z) <= True
depth(node(a, leaf, leaf), s(z)) <= True
depth(node(a, leaf, node(a, leaf, leaf)), s(s(z))) <= True
depth(node(a, node(a, leaf, leaf), leaf), s(s(z))) <= True
depth(node(a, node(a, leaf, leaf), node(a, leaf, leaf)), s(s(z))) <= True
depth(node(a, node(a, leaf, leaf), node(a, node(a, leaf, leaf), node(a, leaf, leaf))), s(s(s(z)))) <= True
le(s(z), s(s(z))) <= True
le(z, s(z)) <= True
leq(s(s(z)), z) \/ max(s(s(z)), z, s(s(z))) <= True
leq(s(z), s(s(z))) <= True
leq(s(z), s(z)) <= True
leq(z, s(z)) <= True
leq(z, z) <= True
max(s(s(z)), s(z), s(s(z))) <= True
max(s(z), s(s(z)), s(s(z))) <= True
max(s(z), s(z), s(z)) <= True
max(s(z), z, s(z)) <= True
max(z, s(z), s(z)) <= True
max(z, z, z) <= True
False <= depth(leaf, s(z))
le(s(s(s(z))), s(s(s(z)))) <= depth(node(a, leaf, leaf), s(s(s(z)))) /\ depth(node(a, node(a, leaf, leaf), node(a, leaf, leaf)), s(s(s(z))))
False <= depth(node(a, leaf, leaf), s(s(z)))
le(s(s(s(z))), s(s(s(z)))) <= depth(node(a, leaf, node(a, leaf, leaf)), s(s(s(z)))) /\ depth(node(a, node(a, leaf, node(a, leaf, leaf)), leaf), s(s(s(z))))
depth(node(a, node(a, leaf, node(a, leaf, leaf)), node(a, leaf, node(a, leaf, leaf))), s(s(z))) <= depth(node(a, leaf, node(a, leaf, leaf)), s(z))
False <= depth(node(a, leaf, node(a, leaf, leaf)), s(z)) /\ depth(node(a, node(a, leaf, node(a, leaf, leaf)), node(a, leaf, leaf)), s(z))
depth(node(a, node(a, leaf, node(a, leaf, node(a, leaf, leaf))), node(a, leaf, node(a, leaf, node(a, leaf, leaf)))), s(s(s(z)))) <= depth(node(a, leaf, node(a, leaf, node(a, leaf, leaf))), s(s(z))) /\ max(s(s(z)), s(s(z)), s(s(z)))
le(s(s(s(z))), s(s(s(z)))) <= depth(node(a, node(a, leaf, leaf), leaf), s(s(s(z)))) /\ depth(node(a, node(a, node(a, leaf, leaf), leaf), leaf), s(s(s(z))))
False <= depth(node(a, node(a, leaf, leaf), leaf), s(z))
depth(node(a, node(a, node(a, leaf, node(a, leaf, leaf)), leaf), leaf), s(s(z))) <= depth(node(a, node(a, leaf, node(a, leaf, leaf)), leaf), s(s(z))) /\ max(s(s(z)), z, s(z))
False <= depth(node(a, node(a, leaf, node(a, leaf, leaf)), node(a, leaf, leaf)), s(s(z)))
False <= depth(node(a, node(a, node(a, leaf, leaf), leaf), leaf), s(s(z)))
False <= depth(node(a, node(a, node(a, leaf, leaf), leaf), node(a, leaf, leaf)), s(s(z)))
depth(node(a, node(a, node(a, node(a, node(a, leaf, leaf), node(a, leaf, leaf)), node(a, node(a, leaf, leaf), node(a, leaf, leaf))), node(a, node(a, node(a, leaf, leaf), node(a, leaf, leaf)), node(a, node(a, leaf, leaf), node(a, leaf, leaf)))), node(a, node(a, node(a, node(a, leaf, leaf), node(a, leaf, leaf)), node(a, node(a, leaf, leaf), node(a, leaf, leaf))), node(a, node(a, node(a, leaf, leaf), node(a, leaf, leaf)), node(a, node(a, leaf, leaf), node(a, leaf, leaf))))), s(s(s(z)))) <= depth(node(a, node(a, node(a, node(a, leaf, leaf), node(a, leaf, leaf)), node(a, node(a, leaf, leaf), node(a, leaf, leaf))), node(a, node(a, node(a, leaf, leaf), node(a, leaf, leaf)), node(a, node(a, leaf, leaf), node(a, leaf, leaf)))), s(s(s(s(z))))) /\ max(s(s(s(s(z)))), s(s(s(s(z)))), s(s(z)))
False <= le(s(s(z)), s(s(z)))
False <= le(s(s(z)), s(z))
False <= le(s(z), s(z))
False <= le(s(z), z)
False <= le(z, z)
False <= leq(s(s(z)), s(z))
False <= leq(s(z), z)
max(z, s(s(z)), s(s(z))) <= leq(z, s(s(z)))
depth(node(a, node(a, node(a, leaf, leaf), leaf), node(a, node(a, leaf, leaf), leaf)), s(s(z))) <= max(s(s(z)), s(s(z)), s(z))
depth(node(a, node(a, node(a, leaf, leaf), node(a, leaf, leaf)), leaf), s(s(s(s(z))))) <= max(s(s(z)), z, s(s(s(z))))
depth(node(a, node(a, leaf, node(a, leaf, leaf)), leaf), s(s(s(z)))) <= max(s(s(z)), z, s(s(z)))
depth(node(a, node(a, leaf, node(a, leaf, leaf)), leaf), s(s(z))) <= max(s(s(z)), z, s(z))
depth(node(a, node(a, leaf, leaf), node(a, node(a, leaf, leaf), node(a, leaf, leaf))), s(s(z))) <= max(s(z), s(s(z)), s(z))
depth(node(a, node(a, leaf, leaf), node(a, leaf, leaf)), s(s(s(z)))) <= max(s(z), s(z), s(s(z)))
depth(node(a, leaf, node(a, node(a, leaf, leaf), node(a, leaf, leaf))), s(s(z))) <= max(z, s(s(z)), s(z))
depth(node(a, leaf, node(a, leaf, leaf)), s(s(s(z)))) <= max(z, s(z), s(s(z)))
}

Learner proposed model:
Found Model:
|_

_r_1 ->
{
  _r_1(s(x_0_0), s(x_1_0)) <= _r_1(x_0_0, x_1_0)
  _r_1(z, z) <= True
}
;
_r_2 ->
{
  _r_2(leaf, s(x_1_0)) <= True
  _r_2(leaf, z) <= True
  _r_2(node(x_0_0, x_0_1, x_0_2), s(x_1_0)) <= _r_2(x_0_1, x_1_0) /\ _r_2(x_0_2, x_1_0)
}
;
depth ->
{
  depth(leaf, z) <= True
  depth(node(x_0_0, x_0_1, x_0_2), s(x_1_0)) <= _r_2(x_0_1, x_1_0) /\ depth(x_0_2, x_1_0)
  depth(node(x_0_0, x_0_1, x_0_2), s(x_1_0)) <= _r_2(x_0_2, x_1_0) /\ depth(x_0_1, x_1_0)
}
;
le ->
{
  le(s(x_0_0), s(x_1_0)) <= le(x_0_0, x_1_0)
  le(z, s(x_1_0)) <= True
}
;
leq ->
{
  leq(s(x_0_0), s(x_1_0)) <= leq(x_0_0, x_1_0)
  leq(z, s(x_1_0)) <= True
  leq(z, z) <= True
}
;
max ->
{
  max(s(x_0_0), s(x_1_0), s(x_2_0)) <= max(x_0_0, x_1_0, x_2_0)
  max(s(x_0_0), z, s(x_2_0)) <= _r_1(x_0_0, x_2_0)
  max(z, s(x_1_0), s(x_2_0)) <= _r_1(x_1_0, x_2_0)
  max(z, z, z) <= True
}

--
Equality automata are defined for: {elt, etree, nat}
_|


Answer of teacher:


le(_ala, _bla) <= depth(t1, _ala) /\ depth(node(e, t1, t2), _bla) -> Maybe: out of time
depth(node(e, t1, t2), s(_uka)) <= depth(t1, _vka) /\ depth(t2, _wka) /\ max(_vka, _wka, _uka) -> Maybe: out of time




Total time: 45.058913
Learner time: 8.484758
Teacher time: 36.572345
Reasons for stopping: Maybe:  other: Some clauses could not be checked:
{
{le([_ala, _bla]), ~depth([t1, _ala]), ~depth([node(e, t1, t2), _bla])} -> out of time
{depth([node(e, t1, t2), s(_uka)]), ~depth([t1, _vka]), ~depth([t2, _wka]), ~max([_vka, _wka, _uka])} -> out of time
}

Last solver state:

Clauses:
{
depth(leaf, z) <= True
le(z, s(nn2)) <= True
leq(n, m) \/ max(n, m, n) <= True
leq(z, n2) <= True
le(_ala, _bla) <= depth(t1, _ala) /\ depth(node(e, t1, t2), _bla)
depth(node(e, t1, t2), s(_uka)) <= depth(t1, _vka) /\ depth(t2, _wka) /\ max(_vka, _wka, _uka)
le(s(nn1), s(nn2)) <= le(nn1, nn2)
le(nn1, nn2) <= le(s(nn1), s(nn2))
False <= le(s(nn1), z)
False <= le(z, z)
max(n, m, m) <= leq(n, m)
leq(s(nn1), s(nn2)) <= leq(nn1, nn2)
leq(nn1, nn2) <= leq(s(nn1), s(nn2))
False <= leq(s(nn1), z)
}

Accumulated learning constraints:
{
depth(leaf, z) <= True
depth(node(a, leaf, leaf), s(z)) <= True
depth(node(a, leaf, node(a, leaf, leaf)), s(s(z))) <= True
depth(node(a, node(a, leaf, leaf), leaf), s(s(z))) <= True
depth(node(a, node(a, leaf, leaf), node(a, leaf, leaf)), s(s(z))) <= True
depth(node(a, node(a, leaf, leaf), node(a, node(a, leaf, leaf), node(a, leaf, leaf))), s(s(s(z)))) <= True
le(s(z), s(s(z))) <= True
le(z, s(z)) <= True
leq(s(s(z)), z) \/ max(s(s(z)), z, s(s(z))) <= True
leq(s(z), s(s(z))) <= True
leq(s(z), s(z)) <= True
leq(z, s(z)) <= True
leq(z, z) <= True
max(s(s(z)), s(z), s(s(z))) <= True
max(s(z), s(s(z)), s(s(z))) <= True
max(s(z), s(z), s(z)) <= True
max(s(z), z, s(z)) <= True
max(z, s(z), s(z)) <= True
max(z, z, z) <= True
False <= depth(leaf, s(z))
le(s(s(s(z))), s(s(s(z)))) <= depth(node(a, leaf, leaf), s(s(s(z)))) /\ depth(node(a, node(a, leaf, leaf), node(a, leaf, leaf)), s(s(s(z))))
False <= depth(node(a, leaf, leaf), s(s(z)))
le(s(s(s(z))), s(s(s(z)))) <= depth(node(a, leaf, node(a, leaf, leaf)), s(s(s(z)))) /\ depth(node(a, node(a, leaf, node(a, leaf, leaf)), leaf), s(s(s(z))))
depth(node(a, node(a, leaf, node(a, leaf, leaf)), node(a, leaf, node(a, leaf, leaf))), s(s(z))) <= depth(node(a, leaf, node(a, leaf, leaf)), s(z))
False <= depth(node(a, leaf, node(a, leaf, leaf)), s(z)) /\ depth(node(a, node(a, leaf, node(a, leaf, leaf)), node(a, leaf, leaf)), s(z))
depth(node(a, node(a, leaf, node(a, leaf, node(a, leaf, leaf))), node(a, leaf, node(a, leaf, node(a, leaf, leaf)))), s(s(s(z)))) <= depth(node(a, leaf, node(a, leaf, node(a, leaf, leaf))), s(s(z))) /\ max(s(s(z)), s(s(z)), s(s(z)))
le(s(s(s(z))), s(s(s(z)))) <= depth(node(a, node(a, leaf, leaf), leaf), s(s(s(z)))) /\ depth(node(a, node(a, node(a, leaf, leaf), leaf), leaf), s(s(s(z))))
False <= depth(node(a, node(a, leaf, leaf), leaf), s(z))
depth(node(a, node(a, node(a, leaf, node(a, leaf, leaf)), leaf), leaf), s(s(z))) <= depth(node(a, node(a, leaf, node(a, leaf, leaf)), leaf), s(s(z))) /\ max(s(s(z)), z, s(z))
False <= depth(node(a, node(a, leaf, node(a, leaf, leaf)), node(a, leaf, leaf)), s(s(z)))
False <= depth(node(a, node(a, node(a, leaf, leaf), leaf), leaf), s(s(z)))
False <= depth(node(a, node(a, node(a, leaf, leaf), leaf), node(a, leaf, leaf)), s(s(z)))
depth(node(a, node(a, node(a, node(a, node(a, leaf, leaf), node(a, leaf, leaf)), node(a, node(a, leaf, leaf), node(a, leaf, leaf))), node(a, node(a, node(a, leaf, leaf), node(a, leaf, leaf)), node(a, node(a, leaf, leaf), node(a, leaf, leaf)))), node(a, node(a, node(a, node(a, leaf, leaf), node(a, leaf, leaf)), node(a, node(a, leaf, leaf), node(a, leaf, leaf))), node(a, node(a, node(a, leaf, leaf), node(a, leaf, leaf)), node(a, node(a, leaf, leaf), node(a, leaf, leaf))))), s(s(s(z)))) <= depth(node(a, node(a, node(a, node(a, leaf, leaf), node(a, leaf, leaf)), node(a, node(a, leaf, leaf), node(a, leaf, leaf))), node(a, node(a, node(a, leaf, leaf), node(a, leaf, leaf)), node(a, node(a, leaf, leaf), node(a, leaf, leaf)))), s(s(s(s(z))))) /\ max(s(s(s(s(z)))), s(s(s(s(z)))), s(s(z)))
False <= le(s(s(z)), s(s(z)))
False <= le(s(s(z)), s(z))
False <= le(s(z), s(z))
False <= le(s(z), z)
False <= le(z, z)
False <= leq(s(s(z)), s(z))
False <= leq(s(z), z)
max(z, s(s(z)), s(s(z))) <= leq(z, s(s(z)))
depth(node(a, node(a, node(a, leaf, leaf), leaf), node(a, node(a, leaf, leaf), leaf)), s(s(z))) <= max(s(s(z)), s(s(z)), s(z))
depth(node(a, node(a, node(a, leaf, leaf), node(a, leaf, leaf)), leaf), s(s(s(s(z))))) <= max(s(s(z)), z, s(s(s(z))))
depth(node(a, node(a, leaf, node(a, leaf, leaf)), leaf), s(s(s(z)))) <= max(s(s(z)), z, s(s(z)))
depth(node(a, node(a, leaf, node(a, leaf, leaf)), leaf), s(s(z))) <= max(s(s(z)), z, s(z))
depth(node(a, node(a, leaf, leaf), node(a, node(a, leaf, leaf), node(a, leaf, leaf))), s(s(z))) <= max(s(z), s(s(z)), s(z))
depth(node(a, node(a, leaf, leaf), node(a, leaf, leaf)), s(s(s(z)))) <= max(s(z), s(z), s(s(z)))
depth(node(a, leaf, node(a, node(a, leaf, leaf), node(a, leaf, leaf))), s(s(z))) <= max(z, s(s(z)), s(z))
depth(node(a, leaf, node(a, leaf, leaf)), s(s(s(z)))) <= max(z, s(z), s(s(z)))
}

Current best model:
|_

_r_1 ->
{
  _r_1(s(x_0_0), s(x_1_0)) <= _r_1(x_0_0, x_1_0)
  _r_1(z, z) <= True
}
;
_r_2 ->
{
  _r_2(leaf, s(x_1_0)) <= True
  _r_2(leaf, z) <= True
  _r_2(node(x_0_0, x_0_1, x_0_2), s(x_1_0)) <= _r_2(x_0_1, x_1_0) /\ _r_2(x_0_2, x_1_0)
}
;
depth ->
{
  depth(leaf, z) <= True
  depth(node(x_0_0, x_0_1, x_0_2), s(x_1_0)) <= _r_2(x_0_1, x_1_0) /\ depth(x_0_2, x_1_0)
  depth(node(x_0_0, x_0_1, x_0_2), s(x_1_0)) <= _r_2(x_0_2, x_1_0) /\ depth(x_0_1, x_1_0)
}
;
le ->
{
  le(s(x_0_0), s(x_1_0)) <= le(x_0_0, x_1_0)
  le(z, s(x_1_0)) <= True
}
;
leq ->
{
  leq(s(x_0_0), s(x_1_0)) <= leq(x_0_0, x_1_0)
  leq(z, s(x_1_0)) <= True
  leq(z, z) <= True
}
;
max ->
{
  max(s(x_0_0), s(x_1_0), s(x_2_0)) <= max(x_0_0, x_1_0, x_2_0)
  max(s(x_0_0), z, s(x_2_0)) <= _r_1(x_0_0, x_2_0)
  max(z, s(x_1_0), s(x_2_0)) <= _r_1(x_1_0, x_2_0)
  max(z, z, z) <= True
}

--
Equality automata are defined for: {elt, etree, nat}
_|








