Solving ../../../../benchmarks/smtlib/true/drop_length_minus.smt2...

Inference procedure has parameters:
Timeout: Some(40.) (sec)
Approximation method: remove functionnality constraint where possible



Learning problem is:

env: {
elist -> {econs, enil}  ;  elt -> {a, b}  ;  nat -> {s, z}
}
definition:
{
(drop_elt, F:
{
drop_elt(s(u), enil, enil) <= True
drop_elt(z, l, l) <= True
drop_elt(s(u), econs(x2, x3), _ata) <= drop_elt(u, x3, _ata)
}
eq_elist(_dta, _eta) <= drop_elt(_bta, _cta, _dta) /\ drop_elt(_bta, _cta, _eta)
)
(length_elt, F:
{
length_elt(enil, z) <= True
length_elt(econs(x, ll), s(_fta)) <= length_elt(ll, _fta)
}
eq_nat(_hta, _ita) <= length_elt(_gta, _hta) /\ length_elt(_gta, _ita)
)
(minus, F:
{
minus(s(u), z, s(u)) <= True
minus(z, y, z) <= True
minus(s(u), s(x2), _jta) <= minus(u, x2, _jta)
}
eq_nat(_mta, _nta) <= minus(_kta, _lta, _mta) /\ minus(_kta, _lta, _nta)
)
}

properties:
{
eq_nat(_ota, _qta) <= drop_elt(n, l, _pta) /\ length_elt(_pta, _ota) /\ length_elt(l, _rta) /\ minus(_rta, n, _qta)
}


over-approximation: {drop_elt, length_elt, minus}
under-approximation: {}

Clause system for inference is:

{
drop_elt(s(u), enil, enil) <= True
drop_elt(z, l, l) <= True
length_elt(enil, z) <= True
minus(s(u), z, s(u)) <= True
minus(z, y, z) <= True
eq_nat(_ota, _qta) <= drop_elt(n, l, _pta) /\ length_elt(_pta, _ota) /\ length_elt(l, _rta) /\ minus(_rta, n, _qta)
drop_elt(s(u), econs(x2, x3), _ata) <= drop_elt(u, x3, _ata)
length_elt(econs(x, ll), s(_fta)) <= length_elt(ll, _fta)
minus(s(u), s(x2), _jta) <= minus(u, x2, _jta)
}


Solving took 40.329140 seconds.
Maybe:  timeout during learner
Last solver state:

Clauses:
{
drop_elt(s(u), enil, enil) <= True
drop_elt(z, l, l) <= True
length_elt(enil, z) <= True
minus(s(u), z, s(u)) <= True
minus(z, y, z) <= True
eq_nat(_ota, _qta) <= drop_elt(n, l, _pta) /\ length_elt(_pta, _ota) /\ length_elt(l, _rta) /\ minus(_rta, n, _qta)
drop_elt(s(u), econs(x2, x3), _ata) <= drop_elt(u, x3, _ata)
length_elt(econs(x, ll), s(_fta)) <= length_elt(ll, _fta)
minus(s(u), s(x2), _jta) <= minus(u, x2, _jta)
}

Accumulated learning constraints:
{
drop_elt(s(s(z)), econs(a, econs(a, econs(a, enil))), econs(a, enil)) <= True
drop_elt(s(s(z)), econs(a, econs(a, enil)), enil) <= True
drop_elt(s(s(z)), econs(a, enil), enil) <= True
drop_elt(s(z), econs(a, econs(a, econs(a, enil))), econs(a, econs(a, enil))) <= True
drop_elt(s(z), econs(a, econs(a, enil)), econs(a, enil)) <= True
drop_elt(s(z), econs(a, enil), enil) <= True
drop_elt(s(z), enil, enil) <= True
drop_elt(z, econs(a, econs(a, econs(a, enil))), econs(a, econs(a, econs(a, enil)))) <= True
drop_elt(z, econs(a, econs(a, enil)), econs(a, econs(a, enil))) <= True
drop_elt(z, econs(a, enil), econs(a, enil)) <= True
drop_elt(z, enil, enil) <= True
length_elt(econs(a, econs(a, econs(a, enil))), s(s(s(z)))) <= True
length_elt(econs(a, econs(a, enil)), s(s(z))) <= True
length_elt(econs(a, enil), s(z)) <= True
length_elt(enil, z) <= True
minus(s(s(s(s(z)))), s(s(z)), s(s(z))) <= True
minus(s(s(s(s(z)))), z, s(s(s(s(z))))) <= True
minus(s(s(s(z))), s(s(z)), s(z)) <= True
minus(s(s(s(z))), s(z), s(s(z))) <= True
minus(s(s(s(z))), z, s(s(s(z)))) <= True
minus(s(s(z)), s(s(s(z))), z) <= True
minus(s(s(z)), s(s(z)), z) <= True
minus(s(s(z)), s(z), s(z)) <= True
minus(s(s(z)), z, s(s(z))) <= True
minus(s(z), s(s(z)), z) <= True
minus(s(z), s(z), z) <= True
minus(s(z), z, s(z)) <= True
minus(z, s(z), z) <= True
minus(z, z, z) <= True
False <= drop_elt(s(s(s(z))), econs(a, econs(a, enil)), enil) /\ minus(s(s(z)), s(s(s(z))), s(z))
False <= drop_elt(s(s(z)), econs(a, econs(a, econs(a, enil))), enil) /\ minus(s(s(s(z))), s(s(z)), s(s(z)))
False <= drop_elt(s(s(z)), econs(a, econs(a, enil)), econs(a, enil))
False <= drop_elt(s(s(z)), econs(a, enil), econs(a, enil))
False <= drop_elt(s(z), econs(a, econs(a, econs(a, enil))), econs(a, enil)) /\ minus(s(s(s(z))), s(z), z)
False <= drop_elt(s(z), econs(a, econs(a, enil)), econs(a, econs(a, enil)))
False <= drop_elt(s(z), econs(a, econs(a, enil)), enil)
False <= drop_elt(s(z), econs(a, enil), econs(a, enil))
False <= drop_elt(z, econs(a, econs(a, enil)), econs(a, enil))
False <= drop_elt(z, econs(a, enil), econs(a, econs(a, enil)))
False <= length_elt(econs(a, econs(a, enil)), s(z))
False <= length_elt(econs(a, enil), s(s(z)))
False <= minus(s(s(s(z))), s(s(z)), z)
minus(s(s(s(s(z)))), s(s(z)), z) <= minus(s(s(s(z))), s(z), z)
False <= minus(s(s(z)), s(s(z)), s(s(z)))
False <= minus(s(s(z)), s(s(z)), s(z))
False <= minus(s(s(z)), s(z), s(s(z)))
False <= minus(s(s(z)), s(z), z)
minus(s(s(s(z))), s(z), s(s(s(z)))) <= minus(s(s(z)), z, s(s(s(z))))
False <= minus(s(s(z)), z, s(z))
False <= minus(s(z), s(s(z)), s(s(z)))
False <= minus(s(z), s(s(z)), s(z))
False <= minus(s(z), s(z), s(s(z)))
False <= minus(s(z), s(z), s(z))
False <= minus(s(z), z, s(s(z)))
}

Current best model:
|_

_r_1 ->
{
  _r_1(s(x_0_0)) <= _r_2(x_0_0)
}
;
_r_2 ->
{
  _r_2(s(x_0_0)) <= _r_3(x_0_0)
}
;
_r_3 ->
{
  _r_3(s(x_0_0)) <= _r_1(x_0_0)
  _r_3(z) <= True
}
;
_r_4 ->
{
  _r_4(econs(x_0_0, x_0_1)) <= True
}
;
_r_5 ->
{
  _r_5(enil) <= True
}
;
_r_6 ->
{
  _r_6(econs(x_0_0, x_0_1)) <= _r_4(x_0_1)
}
;
drop_elt ->
{
  drop_elt(s(x_0_0), econs(x_1_0, x_1_1), econs(x_2_0, x_2_1)) <= _r_3(x_0_0) /\ _r_4(x_1_1) /\ _r_5(x_2_1)
  drop_elt(s(x_0_0), econs(x_1_0, x_1_1), econs(x_2_0, x_2_1)) <= _r_6(x_1_1)
  drop_elt(s(x_0_0), econs(x_1_0, x_1_1), enil) <= _r_2(x_0_0)
  drop_elt(s(x_0_0), econs(x_1_0, x_1_1), enil) <= _r_5(x_1_1)
  drop_elt(s(x_0_0), enil, enil) <= True
  drop_elt(z, econs(x_1_0, x_1_1), econs(x_2_0, x_2_1)) <= _r_4(x_2_1)
  drop_elt(z, econs(x_1_0, x_1_1), econs(x_2_0, x_2_1)) <= _r_5(x_1_1)
  drop_elt(z, enil, enil) <= True
}
;
length_elt ->
{
  length_elt(econs(x_0_0, x_0_1), s(x_1_0)) <= length_elt(x_0_1, x_1_0)
  length_elt(enil, z) <= True
}
;
minus ->
{
  minus(s(x_0_0), s(x_1_0), s(x_2_0)) <= _r_1(x_0_0) /\ _r_3(x_1_0)
  minus(s(x_0_0), s(x_1_0), s(x_2_0)) <= _r_1(x_0_0) /\ _r_3(x_2_0)
  minus(s(x_0_0), s(x_1_0), s(x_2_0)) <= _r_2(x_0_0) /\ _r_3(x_1_0) /\ _r_3(x_2_0)
  minus(s(x_0_0), s(x_1_0), s(x_2_0)) <= _r_2(x_1_0) /\ _r_2(x_2_0) /\ _r_3(x_0_0)
  minus(s(x_0_0), s(x_1_0), z) <= _r_1(x_1_0)
  minus(s(x_0_0), s(x_1_0), z) <= _r_2(x_0_0) /\ _r_2(x_1_0)
  minus(s(x_0_0), s(x_1_0), z) <= _r_3(x_0_0)
  minus(s(x_0_0), z, s(x_2_0)) <= _r_1(x_0_0)
  minus(s(x_0_0), z, s(x_2_0)) <= _r_2(x_0_0) /\ _r_2(x_2_0)
  minus(s(x_0_0), z, s(x_2_0)) <= _r_3(x_0_0) /\ _r_3(x_2_0)
  minus(z, s(x_1_0), z) <= True
  minus(z, z, z) <= True
}

--
Equality automata are defined for: {elist, elt, nat}
_|






-------------------
STEPS:
-------------------------------------------
Step 0, which took 0.005767 s (model generation: 0.005646,  model checking: 0.000121):

Ground examples at the beginning of this step are:
{

}

Learner proposed model:
Found Model:
|_

drop_elt ->
{
  
}
;
length_elt ->
{
  
}
;
minus ->
{
  
}

--
Equality automata are defined for: {elist, elt, nat}
_|


Answer of teacher:


drop_elt(s(u), enil, enil) <= True -> Yes: {

}
drop_elt(z, l, l) <= True -> Yes: {
l -> enil
}
length_elt(enil, z) <= True -> Yes: {

}
minus(s(u), z, s(u)) <= True -> Yes: {

}
minus(z, y, z) <= True -> Yes: {
y -> z
}
eq_nat(_ota, _qta) <= drop_elt(n, l, _pta) /\ length_elt(_pta, _ota) /\ length_elt(l, _rta) /\ minus(_rta, n, _qta) -> No: ()
drop_elt(s(u), econs(x2, x3), _ata) <= drop_elt(u, x3, _ata) -> No: ()
length_elt(econs(x, ll), s(_fta)) <= length_elt(ll, _fta) -> No: ()
minus(s(u), s(x2), _jta) <= minus(u, x2, _jta) -> No: ()



-------------------------------------------
Step 1, which took 0.007210 s (model generation: 0.007083,  model checking: 0.000127):

Ground examples at the beginning of this step are:
{
drop_elt(s(z), enil, enil) <= True
drop_elt(z, enil, enil) <= True
length_elt(enil, z) <= True
minus(s(z), z, s(z)) <= True
minus(z, z, z) <= True
}

Learner proposed model:
Found Model:
|_

drop_elt ->
{
  drop_elt(s(x_0_0), enil, enil) <= True
  drop_elt(z, enil, enil) <= True
}
;
length_elt ->
{
  length_elt(enil, z) <= True
}
;
minus ->
{
  minus(s(x_0_0), z, s(x_2_0)) <= True
  minus(z, z, z) <= True
}

--
Equality automata are defined for: {elist, elt, nat}
_|


Answer of teacher:


drop_elt(s(u), enil, enil) <= True -> No: ()
drop_elt(z, l, l) <= True -> Yes: {
l -> econs(l_0, l_1)
}
length_elt(enil, z) <= True -> No: ()
minus(s(u), z, s(u)) <= True -> No: ()
minus(z, y, z) <= True -> Yes: {
y -> s(y_0)
}
eq_nat(_ota, _qta) <= drop_elt(n, l, _pta) /\ length_elt(_pta, _ota) /\ length_elt(l, _rta) /\ minus(_rta, n, _qta) -> No: ()
drop_elt(s(u), econs(x2, x3), _ata) <= drop_elt(u, x3, _ata) -> Yes: {
_ata -> enil  ;  u -> z  ;  x3 -> enil
}
length_elt(econs(x, ll), s(_fta)) <= length_elt(ll, _fta) -> Yes: {
_fta -> z  ;  ll -> enil
}
minus(s(u), s(x2), _jta) <= minus(u, x2, _jta) -> Yes: {
_jta -> z  ;  u -> z  ;  x2 -> z
}



-------------------------------------------
Step 2, which took 0.014795 s (model generation: 0.014628,  model checking: 0.000167):

Ground examples at the beginning of this step are:
{
drop_elt(s(z), econs(a, enil), enil) <= True
drop_elt(s(z), enil, enil) <= True
drop_elt(z, econs(a, enil), econs(a, enil)) <= True
drop_elt(z, enil, enil) <= True
length_elt(econs(a, enil), s(z)) <= True
length_elt(enil, z) <= True
minus(s(z), s(z), z) <= True
minus(s(z), z, s(z)) <= True
minus(z, s(z), z) <= True
minus(z, z, z) <= True
}

Learner proposed model:
Found Model:
|_

drop_elt ->
{
  drop_elt(s(x_0_0), econs(x_1_0, x_1_1), enil) <= True
  drop_elt(s(x_0_0), enil, enil) <= True
  drop_elt(z, econs(x_1_0, x_1_1), econs(x_2_0, x_2_1)) <= True
  drop_elt(z, enil, enil) <= True
}
;
length_elt ->
{
  length_elt(econs(x_0_0, x_0_1), s(x_1_0)) <= True
  length_elt(enil, z) <= True
}
;
minus ->
{
  minus(s(x_0_0), s(x_1_0), z) <= True
  minus(s(x_0_0), z, s(x_2_0)) <= True
  minus(z, s(x_1_0), z) <= True
  minus(z, z, z) <= True
}

--
Equality automata are defined for: {elist, elt, nat}
_|


Answer of teacher:


drop_elt(s(u), enil, enil) <= True -> No: ()
drop_elt(z, l, l) <= True -> No: ()
length_elt(enil, z) <= True -> No: ()
minus(s(u), z, s(u)) <= True -> No: ()
minus(z, y, z) <= True -> No: ()
eq_nat(_ota, _qta) <= drop_elt(n, l, _pta) /\ length_elt(_pta, _ota) /\ length_elt(l, _rta) /\ minus(_rta, n, _qta) -> Yes: {
_ota -> s(z)  ;  _pta -> econs(_pta_0, _pta_1)  ;  _qta -> s(s(v1_0))  ;  _rta -> s(_rta_0)  ;  l -> econs(l_0, l_1)  ;  n -> z
}
drop_elt(s(u), econs(x2, x3), _ata) <= drop_elt(u, x3, _ata) -> Yes: {
_ata -> econs(_ata_0, _ata_1)  ;  u -> z  ;  x3 -> econs(x3_0, x3_1)
}
length_elt(econs(x, ll), s(_fta)) <= length_elt(ll, _fta) -> No: ()
minus(s(u), s(x2), _jta) <= minus(u, x2, _jta) -> Yes: {
_jta -> s(_jta_0)  ;  u -> s(u_0)  ;  x2 -> z
}



-------------------------------------------
Step 3, which took 0.020011 s (model generation: 0.019894,  model checking: 0.000117):

Ground examples at the beginning of this step are:
{
drop_elt(s(z), econs(a, econs(a, enil)), econs(a, enil)) <= True
drop_elt(s(z), econs(a, enil), enil) <= True
drop_elt(s(z), enil, enil) <= True
drop_elt(z, econs(a, enil), econs(a, enil)) <= True
drop_elt(z, enil, enil) <= True
length_elt(econs(a, enil), s(z)) <= True
length_elt(enil, z) <= True
minus(s(s(z)), s(z), s(z)) <= True
minus(s(z), s(z), z) <= True
minus(s(z), z, s(z)) <= True
minus(z, s(z), z) <= True
minus(z, z, z) <= True
False <= minus(s(z), z, s(s(z)))
}

Learner proposed model:
Found Model:
|_

_r_1 ->
{
  _r_1(z) <= True
}
;
drop_elt ->
{
  drop_elt(s(x_0_0), econs(x_1_0, x_1_1), econs(x_2_0, x_2_1)) <= True
  drop_elt(s(x_0_0), econs(x_1_0, x_1_1), enil) <= True
  drop_elt(s(x_0_0), enil, enil) <= True
  drop_elt(z, econs(x_1_0, x_1_1), econs(x_2_0, x_2_1)) <= True
  drop_elt(z, enil, enil) <= True
}
;
length_elt ->
{
  length_elt(econs(x_0_0, x_0_1), s(x_1_0)) <= True
  length_elt(enil, z) <= True
}
;
minus ->
{
  minus(s(x_0_0), s(x_1_0), s(x_2_0)) <= True
  minus(s(x_0_0), s(x_1_0), z) <= True
  minus(s(x_0_0), z, s(x_2_0)) <= _r_1(x_2_0)
  minus(z, s(x_1_0), z) <= True
  minus(z, z, z) <= True
}

--
Equality automata are defined for: {elist, elt, nat}
_|


Answer of teacher:


drop_elt(s(u), enil, enil) <= True -> No: ()
drop_elt(z, l, l) <= True -> No: ()
length_elt(enil, z) <= True -> No: ()
minus(s(u), z, s(u)) <= True -> Yes: {
u -> s(v0_0)
}
minus(z, y, z) <= True -> No: ()
eq_nat(_ota, _qta) <= drop_elt(n, l, _pta) /\ length_elt(_pta, _ota) /\ length_elt(l, _rta) /\ minus(_rta, n, _qta) -> Yes: {
_ota -> z  ;  _pta -> enil  ;  _qta -> s(_qta_0)  ;  _rta -> s(_rta_0)  ;  l -> econs(l_0, l_1)  ;  n -> s(n_0)
}
drop_elt(s(u), econs(x2, x3), _ata) <= drop_elt(u, x3, _ata) -> No: ()
length_elt(econs(x, ll), s(_fta)) <= length_elt(ll, _fta) -> No: ()
minus(s(u), s(x2), _jta) <= minus(u, x2, _jta) -> No: ()



-------------------------------------------
Step 4, which took 0.032952 s (model generation: 0.032792,  model checking: 0.000160):

Ground examples at the beginning of this step are:
{
drop_elt(s(z), econs(a, econs(a, enil)), econs(a, enil)) <= True
drop_elt(s(z), econs(a, enil), enil) <= True
drop_elt(s(z), enil, enil) <= True
drop_elt(z, econs(a, enil), econs(a, enil)) <= True
drop_elt(z, enil, enil) <= True
length_elt(econs(a, enil), s(z)) <= True
length_elt(enil, z) <= True
minus(s(s(z)), s(z), s(z)) <= True
minus(s(s(z)), z, s(s(z))) <= True
minus(s(z), s(z), z) <= True
minus(s(z), z, s(z)) <= True
minus(z, s(z), z) <= True
minus(z, z, z) <= True
False <= minus(s(z), s(z), s(z))
False <= minus(s(z), z, s(s(z)))
}

Learner proposed model:
Found Model:
|_

_r_1 ->
{
  _r_1(s(x_0_0), s(x_1_0)) <= True
  _r_1(z, z) <= True
}
;
_r_2 ->
{
  _r_2(s(x_0_0), z) <= True
}
;
drop_elt ->
{
  drop_elt(s(x_0_0), econs(x_1_0, x_1_1), econs(x_2_0, x_2_1)) <= True
  drop_elt(s(x_0_0), econs(x_1_0, x_1_1), enil) <= True
  drop_elt(s(x_0_0), enil, enil) <= True
  drop_elt(z, econs(x_1_0, x_1_1), econs(x_2_0, x_2_1)) <= True
  drop_elt(z, enil, enil) <= True
}
;
length_elt ->
{
  length_elt(econs(x_0_0, x_0_1), s(x_1_0)) <= True
  length_elt(enil, z) <= True
}
;
minus ->
{
  minus(s(x_0_0), s(x_1_0), s(x_2_0)) <= _r_2(x_0_0, x_2_0)
  minus(s(x_0_0), s(x_1_0), z) <= True
  minus(s(x_0_0), z, s(x_2_0)) <= _r_1(x_0_0, x_2_0)
  minus(z, s(x_1_0), z) <= True
  minus(z, z, z) <= True
}

--
Equality automata are defined for: {elist, elt, nat}
_|


Answer of teacher:


drop_elt(s(u), enil, enil) <= True -> No: ()
drop_elt(z, l, l) <= True -> No: ()
length_elt(enil, z) <= True -> No: ()
minus(s(u), z, s(u)) <= True -> No: ()
minus(z, y, z) <= True -> No: ()
eq_nat(_ota, _qta) <= drop_elt(n, l, _pta) /\ length_elt(_pta, _ota) /\ length_elt(l, _rta) /\ minus(_rta, n, _qta) -> Yes: {
_ota -> s(_ota_0)  ;  _pta -> econs(_pta_0, _pta_1)  ;  _qta -> z  ;  _rta -> s(_rta_0)  ;  l -> econs(l_0, l_1)  ;  n -> s(n_0)
}
drop_elt(s(u), econs(x2, x3), _ata) <= drop_elt(u, x3, _ata) -> No: ()
length_elt(econs(x, ll), s(_fta)) <= length_elt(ll, _fta) -> No: ()
minus(s(u), s(x2), _jta) <= minus(u, x2, _jta) -> Yes: {
_jta -> s(s(v1_0))  ;  u -> s(s(v0_0))  ;  x2 -> z
}



-------------------------------------------
Step 5, which took 0.078734 s (model generation: 0.078452,  model checking: 0.000282):

Ground examples at the beginning of this step are:
{
drop_elt(s(z), econs(a, econs(a, enil)), econs(a, enil)) <= True
drop_elt(s(z), econs(a, enil), enil) <= True
drop_elt(s(z), enil, enil) <= True
drop_elt(z, econs(a, enil), econs(a, enil)) <= True
drop_elt(z, enil, enil) <= True
length_elt(econs(a, enil), s(z)) <= True
length_elt(enil, z) <= True
minus(s(s(s(z))), s(z), s(s(z))) <= True
minus(s(s(z)), s(z), s(z)) <= True
minus(s(s(z)), z, s(s(z))) <= True
minus(s(z), s(z), z) <= True
minus(s(z), z, s(z)) <= True
minus(z, s(z), z) <= True
minus(z, z, z) <= True
False <= drop_elt(s(z), econs(a, enil), econs(a, enil))
False <= minus(s(z), s(z), s(z))
False <= minus(s(z), z, s(s(z)))
}

Learner proposed model:
Found Model:
|_

_r_1 ->
{
  _r_1(z, z) <= True
}
;
_r_2 ->
{
  _r_2(s(x_0_0), s(x_1_0)) <= True
  _r_2(s(x_0_0), z) <= True
}
;
_r_3 ->
{
  _r_3(econs(x_0_0, x_0_1)) <= True
}
;
drop_elt ->
{
  drop_elt(s(x_0_0), econs(x_1_0, x_1_1), econs(x_2_0, x_2_1)) <= _r_3(x_1_1)
  drop_elt(s(x_0_0), econs(x_1_0, x_1_1), enil) <= True
  drop_elt(s(x_0_0), enil, enil) <= True
  drop_elt(z, econs(x_1_0, x_1_1), econs(x_2_0, x_2_1)) <= True
  drop_elt(z, enil, enil) <= True
}
;
length_elt ->
{
  length_elt(econs(x_0_0, x_0_1), s(x_1_0)) <= True
  length_elt(enil, z) <= True
}
;
minus ->
{
  minus(s(x_0_0), s(x_1_0), s(x_2_0)) <= _r_2(x_0_0, x_2_0)
  minus(s(x_0_0), s(x_1_0), z) <= True
  minus(s(x_0_0), z, s(x_2_0)) <= _r_1(x_0_0, x_2_0)
  minus(s(x_0_0), z, s(x_2_0)) <= _r_2(x_0_0, x_2_0)
  minus(z, s(x_1_0), z) <= True
  minus(z, z, z) <= True
}

--
Equality automata are defined for: {elist, elt, nat}
_|


Answer of teacher:


drop_elt(s(u), enil, enil) <= True -> No: ()
drop_elt(z, l, l) <= True -> No: ()
length_elt(enil, z) <= True -> No: ()
minus(s(u), z, s(u)) <= True -> No: ()
minus(z, y, z) <= True -> No: ()
eq_nat(_ota, _qta) <= drop_elt(n, l, _pta) /\ length_elt(_pta, _ota) /\ length_elt(l, _rta) /\ minus(_rta, n, _qta) -> Yes: {
_ota -> z  ;  _pta -> enil  ;  _qta -> s(z)  ;  _rta -> s(s(v0_0))  ;  l -> econs(l_0, l_1)  ;  n -> s(n_0)
}
drop_elt(s(u), econs(x2, x3), _ata) <= drop_elt(u, x3, _ata) -> No: ()
length_elt(econs(x, ll), s(_fta)) <= length_elt(ll, _fta) -> No: ()
minus(s(u), s(x2), _jta) <= minus(u, x2, _jta) -> No: ()



-------------------------------------------
Step 6, which took 0.079850 s (model generation: 0.079458,  model checking: 0.000392):

Ground examples at the beginning of this step are:
{
drop_elt(s(z), econs(a, econs(a, enil)), econs(a, enil)) <= True
drop_elt(s(z), econs(a, enil), enil) <= True
drop_elt(s(z), enil, enil) <= True
drop_elt(z, econs(a, enil), econs(a, enil)) <= True
drop_elt(z, enil, enil) <= True
length_elt(econs(a, enil), s(z)) <= True
length_elt(enil, z) <= True
minus(s(s(s(z))), s(z), s(s(z))) <= True
minus(s(s(z)), s(z), s(z)) <= True
minus(s(s(z)), z, s(s(z))) <= True
minus(s(z), s(z), z) <= True
minus(s(z), z, s(z)) <= True
minus(z, s(z), z) <= True
minus(z, z, z) <= True
False <= drop_elt(s(z), econs(a, enil), econs(a, enil))
False <= length_elt(econs(a, enil), s(s(z)))
False <= minus(s(z), s(z), s(z))
False <= minus(s(z), z, s(s(z)))
}

Learner proposed model:
Found Model:
|_

_r_1 ->
{
  _r_1(s(x_0_0), s(x_1_0)) <= True
  _r_1(s(x_0_0), z) <= True
}
;
_r_2 ->
{
  _r_2(z, z) <= True
}
;
_r_3 ->
{
  _r_3(econs(x_0_0, x_0_1)) <= True
}
;
drop_elt ->
{
  drop_elt(s(x_0_0), econs(x_1_0, x_1_1), econs(x_2_0, x_2_1)) <= _r_3(x_1_1)
  drop_elt(s(x_0_0), econs(x_1_0, x_1_1), enil) <= True
  drop_elt(s(x_0_0), enil, enil) <= True
  drop_elt(z, econs(x_1_0, x_1_1), econs(x_2_0, x_2_1)) <= True
  drop_elt(z, enil, enil) <= True
}
;
length_elt ->
{
  length_elt(econs(x_0_0, x_0_1), s(x_1_0)) <= length_elt(x_0_1, x_1_0)
  length_elt(enil, z) <= True
}
;
minus ->
{
  minus(s(x_0_0), s(x_1_0), s(x_2_0)) <= _r_1(x_0_0, x_2_0)
  minus(s(x_0_0), s(x_1_0), z) <= True
  minus(s(x_0_0), z, s(x_2_0)) <= _r_1(x_0_0, x_2_0)
  minus(s(x_0_0), z, s(x_2_0)) <= _r_2(x_0_0, x_2_0)
  minus(z, s(x_1_0), z) <= True
  minus(z, z, z) <= True
}

--
Equality automata are defined for: {elist, elt, nat}
_|


Answer of teacher:


drop_elt(s(u), enil, enil) <= True -> No: ()
drop_elt(z, l, l) <= True -> No: ()
length_elt(enil, z) <= True -> No: ()
minus(s(u), z, s(u)) <= True -> No: ()
minus(z, y, z) <= True -> No: ()
eq_nat(_ota, _qta) <= drop_elt(n, l, _pta) /\ length_elt(_pta, _ota) /\ length_elt(l, _rta) /\ minus(_rta, n, _qta) -> Yes: {
_ota -> z  ;  _pta -> enil  ;  _qta -> s(z)  ;  _rta -> s(s(z))  ;  l -> econs(l_0, econs(v2_0, enil))  ;  n -> s(n_0)
}
drop_elt(s(u), econs(x2, x3), _ata) <= drop_elt(u, x3, _ata) -> No: ()
length_elt(econs(x, ll), s(_fta)) <= length_elt(ll, _fta) -> No: ()
minus(s(u), s(x2), _jta) <= minus(u, x2, _jta) -> No: ()



-------------------------------------------
Step 7, which took 0.074855 s (model generation: 0.074509,  model checking: 0.000346):

Ground examples at the beginning of this step are:
{
drop_elt(s(z), econs(a, econs(a, enil)), econs(a, enil)) <= True
drop_elt(s(z), econs(a, enil), enil) <= True
drop_elt(s(z), enil, enil) <= True
drop_elt(z, econs(a, enil), econs(a, enil)) <= True
drop_elt(z, enil, enil) <= True
length_elt(econs(a, enil), s(z)) <= True
length_elt(enil, z) <= True
minus(s(s(s(z))), s(z), s(s(z))) <= True
minus(s(s(z)), s(z), s(z)) <= True
minus(s(s(z)), z, s(s(z))) <= True
minus(s(z), s(z), z) <= True
minus(s(z), z, s(z)) <= True
minus(z, s(z), z) <= True
minus(z, z, z) <= True
False <= drop_elt(s(z), econs(a, econs(a, enil)), enil) /\ length_elt(econs(a, econs(a, enil)), s(s(z)))
False <= drop_elt(s(z), econs(a, enil), econs(a, enil))
False <= length_elt(econs(a, enil), s(s(z)))
False <= minus(s(z), s(z), s(z))
False <= minus(s(z), z, s(s(z)))
}

Learner proposed model:
Found Model:
|_

_r_1 ->
{
  _r_1(z) <= True
}
;
_r_2 ->
{
  _r_2(s(x_0_0)) <= True
}
;
_r_3 ->
{
  _r_3(econs(x_0_0, x_0_1)) <= True
}
;
drop_elt ->
{
  drop_elt(s(x_0_0), econs(x_1_0, x_1_1), econs(x_2_0, x_2_1)) <= _r_3(x_1_1)
  drop_elt(s(x_0_0), econs(x_1_0, x_1_1), enil) <= True
  drop_elt(s(x_0_0), enil, enil) <= True
  drop_elt(z, econs(x_1_0, x_1_1), econs(x_2_0, x_2_1)) <= True
  drop_elt(z, enil, enil) <= True
}
;
length_elt ->
{
  length_elt(econs(x_0_0, x_0_1), s(x_1_0)) <= _r_1(x_1_0)
  length_elt(enil, z) <= True
}
;
minus ->
{
  minus(s(x_0_0), s(x_1_0), s(x_2_0)) <= _r_2(x_0_0)
  minus(s(x_0_0), s(x_1_0), z) <= True
  minus(s(x_0_0), z, s(x_2_0)) <= _r_1(x_2_0)
  minus(s(x_0_0), z, s(x_2_0)) <= _r_2(x_0_0)
  minus(z, s(x_1_0), z) <= True
  minus(z, z, z) <= True
}

--
Equality automata are defined for: {elist, elt, nat}
_|


Answer of teacher:


drop_elt(s(u), enil, enil) <= True -> No: ()
drop_elt(z, l, l) <= True -> No: ()
length_elt(enil, z) <= True -> No: ()
minus(s(u), z, s(u)) <= True -> No: ()
minus(z, y, z) <= True -> No: ()
eq_nat(_ota, _qta) <= drop_elt(n, l, _pta) /\ length_elt(_pta, _ota) /\ length_elt(l, _rta) /\ minus(_rta, n, _qta) -> Yes: {
_ota -> s(z)  ;  _pta -> econs(_pta_0, _pta_1)  ;  _qta -> z  ;  _rta -> s(z)  ;  l -> econs(l_0, econs(v0_0, v0_1))  ;  n -> s(n_0)
}
drop_elt(s(u), econs(x2, x3), _ata) <= drop_elt(u, x3, _ata) -> No: ()
length_elt(econs(x, ll), s(_fta)) <= length_elt(ll, _fta) -> Yes: {
_fta -> s(z)  ;  ll -> econs(v1_0, v1_1)
}
minus(s(u), s(x2), _jta) <= minus(u, x2, _jta) -> No: ()



-------------------------------------------
Step 8, which took 0.158841 s (model generation: 0.158374,  model checking: 0.000467):

Ground examples at the beginning of this step are:
{
drop_elt(s(z), econs(a, econs(a, enil)), econs(a, enil)) <= True
drop_elt(s(z), econs(a, enil), enil) <= True
drop_elt(s(z), enil, enil) <= True
drop_elt(z, econs(a, enil), econs(a, enil)) <= True
drop_elt(z, enil, enil) <= True
length_elt(econs(a, econs(a, enil)), s(s(z))) <= True
length_elt(econs(a, enil), s(z)) <= True
length_elt(enil, z) <= True
minus(s(s(s(z))), s(z), s(s(z))) <= True
minus(s(s(z)), s(z), s(z)) <= True
minus(s(s(z)), z, s(s(z))) <= True
minus(s(z), s(z), z) <= True
minus(s(z), z, s(z)) <= True
minus(z, s(z), z) <= True
minus(z, z, z) <= True
False <= drop_elt(s(z), econs(a, econs(a, enil)), enil)
False <= drop_elt(s(z), econs(a, enil), econs(a, enil))
False <= length_elt(econs(a, econs(a, enil)), s(z))
False <= length_elt(econs(a, enil), s(s(z)))
False <= minus(s(z), s(z), s(z))
False <= minus(s(z), z, s(s(z)))
}

Learner proposed model:
Found Model:
|_

_r_1 ->
{
  _r_1(z, z) <= True
}
;
_r_2 ->
{
  _r_2(s(x_0_0), s(x_1_0)) <= True
  _r_2(s(x_0_0), z) <= True
}
;
_r_3 ->
{
  _r_3(enil) <= True
}
;
_r_4 ->
{
  _r_4(econs(x_0_0, x_0_1)) <= True
}
;
drop_elt ->
{
  drop_elt(s(x_0_0), econs(x_1_0, x_1_1), econs(x_2_0, x_2_1)) <= _r_4(x_1_1)
  drop_elt(s(x_0_0), econs(x_1_0, x_1_1), enil) <= _r_3(x_1_1)
  drop_elt(s(x_0_0), enil, enil) <= True
  drop_elt(z, econs(x_1_0, x_1_1), econs(x_2_0, x_2_1)) <= True
  drop_elt(z, enil, enil) <= True
}
;
length_elt ->
{
  length_elt(econs(x_0_0, x_0_1), s(x_1_0)) <= length_elt(x_0_1, x_1_0)
  length_elt(enil, z) <= True
}
;
minus ->
{
  minus(s(x_0_0), s(x_1_0), s(x_2_0)) <= _r_2(x_0_0, x_2_0)
  minus(s(x_0_0), s(x_1_0), z) <= True
  minus(s(x_0_0), z, s(x_2_0)) <= _r_1(x_0_0, x_2_0)
  minus(s(x_0_0), z, s(x_2_0)) <= _r_2(x_0_0, x_2_0)
  minus(z, s(x_1_0), z) <= True
  minus(z, z, z) <= True
}

--
Equality automata are defined for: {elist, elt, nat}
_|


Answer of teacher:


drop_elt(s(u), enil, enil) <= True -> No: ()
drop_elt(z, l, l) <= True -> No: ()
length_elt(enil, z) <= True -> No: ()
minus(s(u), z, s(u)) <= True -> No: ()
minus(z, y, z) <= True -> No: ()
eq_nat(_ota, _qta) <= drop_elt(n, l, _pta) /\ length_elt(_pta, _ota) /\ length_elt(l, _rta) /\ minus(_rta, n, _qta) -> Yes: {
_ota -> s(z)  ;  _pta -> econs(_pta_0, enil)  ;  _qta -> z  ;  _rta -> s(s(z))  ;  l -> econs(l_0, econs(v0_0, enil))  ;  n -> s(n_0)
}
drop_elt(s(u), econs(x2, x3), _ata) <= drop_elt(u, x3, _ata) -> Yes: {
_ata -> enil  ;  u -> s(u_0)  ;  x3 -> econs(x3_0, enil)
}
length_elt(econs(x, ll), s(_fta)) <= length_elt(ll, _fta) -> No: ()
minus(s(u), s(x2), _jta) <= minus(u, x2, _jta) -> No: ()



-------------------------------------------
Step 9, which took 0.159717 s (model generation: 0.159177,  model checking: 0.000540):

Ground examples at the beginning of this step are:
{
drop_elt(s(s(z)), econs(a, econs(a, enil)), enil) <= True
drop_elt(s(z), econs(a, econs(a, enil)), econs(a, enil)) <= True
drop_elt(s(z), econs(a, enil), enil) <= True
drop_elt(s(z), enil, enil) <= True
drop_elt(z, econs(a, enil), econs(a, enil)) <= True
drop_elt(z, enil, enil) <= True
length_elt(econs(a, econs(a, enil)), s(s(z))) <= True
length_elt(econs(a, enil), s(z)) <= True
length_elt(enil, z) <= True
minus(s(s(s(z))), s(z), s(s(z))) <= True
minus(s(s(z)), s(z), s(z)) <= True
minus(s(s(z)), z, s(s(z))) <= True
minus(s(z), s(z), z) <= True
minus(s(z), z, s(z)) <= True
minus(z, s(z), z) <= True
minus(z, z, z) <= True
False <= drop_elt(s(z), econs(a, econs(a, enil)), enil)
False <= drop_elt(s(z), econs(a, enil), econs(a, enil))
False <= length_elt(econs(a, econs(a, enil)), s(z))
False <= length_elt(econs(a, enil), s(s(z)))
False <= minus(s(s(z)), s(z), z)
False <= minus(s(z), s(z), s(z))
False <= minus(s(z), z, s(s(z)))
}

Learner proposed model:
Found Model:
|_

_r_1 ->
{
  _r_1(s(x_0_0), s(x_1_0)) <= True
  _r_1(z, z) <= True
}
;
_r_2 ->
{
  _r_2(s(x_0_0), z) <= True
}
;
_r_3 ->
{
  _r_3(s(x_0_0), econs(x_1_0, x_1_1)) <= True
  _r_3(z, enil) <= True
}
;
_r_4 ->
{
  _r_4(z, econs(x_1_0, x_1_1)) <= True
}
;
drop_elt ->
{
  drop_elt(s(x_0_0), econs(x_1_0, x_1_1), econs(x_2_0, x_2_1)) <= _r_4(x_0_0, x_1_1)
  drop_elt(s(x_0_0), econs(x_1_0, x_1_1), enil) <= _r_3(x_0_0, x_1_1)
  drop_elt(s(x_0_0), enil, enil) <= True
  drop_elt(z, econs(x_1_0, x_1_1), econs(x_2_0, x_2_1)) <= True
  drop_elt(z, enil, enil) <= True
}
;
length_elt ->
{
  length_elt(econs(x_0_0, x_0_1), s(x_1_0)) <= length_elt(x_0_1, x_1_0)
  length_elt(enil, z) <= True
}
;
minus ->
{
  minus(s(x_0_0), s(x_1_0), s(x_2_0)) <= _r_2(x_0_0, x_1_0)
  minus(s(x_0_0), s(x_1_0), z) <= _r_1(x_0_0, x_1_0)
  minus(s(x_0_0), z, s(x_2_0)) <= _r_1(x_0_0, x_2_0)
  minus(z, s(x_1_0), z) <= True
  minus(z, z, z) <= True
}

--
Equality automata are defined for: {elist, elt, nat}
_|


Answer of teacher:


drop_elt(s(u), enil, enil) <= True -> No: ()
drop_elt(z, l, l) <= True -> No: ()
length_elt(enil, z) <= True -> No: ()
minus(s(u), z, s(u)) <= True -> No: ()
minus(z, y, z) <= True -> No: ()
eq_nat(_ota, _qta) <= drop_elt(n, l, _pta) /\ length_elt(_pta, _ota) /\ length_elt(l, _rta) /\ minus(_rta, n, _qta) -> Yes: {
_ota -> s(z)  ;  _pta -> econs(_pta_0, enil)  ;  _qta -> s(s(v1_0))  ;  _rta -> s(s(z))  ;  l -> econs(l_0, econs(v2_0, enil))  ;  n -> s(z)
}
drop_elt(s(u), econs(x2, x3), _ata) <= drop_elt(u, x3, _ata) -> Yes: {
_ata -> enil  ;  u -> s(u_0)  ;  x3 -> enil
}
length_elt(econs(x, ll), s(_fta)) <= length_elt(ll, _fta) -> No: ()
minus(s(u), s(x2), _jta) <= minus(u, x2, _jta) -> Yes: {
_jta -> z  ;  u -> z  ;  x2 -> s(x2_0)
}



-------------------------------------------
Step 10, which took 0.172788 s (model generation: 0.171668,  model checking: 0.001120):

Ground examples at the beginning of this step are:
{
drop_elt(s(s(z)), econs(a, econs(a, enil)), enil) <= True
drop_elt(s(s(z)), econs(a, enil), enil) <= True
drop_elt(s(z), econs(a, econs(a, enil)), econs(a, enil)) <= True
drop_elt(s(z), econs(a, enil), enil) <= True
drop_elt(s(z), enil, enil) <= True
drop_elt(z, econs(a, enil), econs(a, enil)) <= True
drop_elt(z, enil, enil) <= True
length_elt(econs(a, econs(a, enil)), s(s(z))) <= True
length_elt(econs(a, enil), s(z)) <= True
length_elt(enil, z) <= True
minus(s(s(s(z))), s(z), s(s(z))) <= True
minus(s(s(z)), s(z), s(z)) <= True
minus(s(s(z)), z, s(s(z))) <= True
minus(s(z), s(s(z)), z) <= True
minus(s(z), s(z), z) <= True
minus(s(z), z, s(z)) <= True
minus(z, s(z), z) <= True
minus(z, z, z) <= True
False <= drop_elt(s(z), econs(a, econs(a, enil)), enil)
False <= drop_elt(s(z), econs(a, enil), econs(a, enil))
False <= length_elt(econs(a, econs(a, enil)), s(z))
False <= length_elt(econs(a, enil), s(s(z)))
False <= minus(s(s(z)), s(z), s(s(z)))
False <= minus(s(s(z)), s(z), z)
False <= minus(s(z), s(z), s(z))
False <= minus(s(z), z, s(s(z)))
}

Learner proposed model:
Found Model:
|_

_r_1 ->
{
  _r_1(z, econs(x_1_0, x_1_1)) <= True
}
;
_r_2 ->
{
  _r_2(s(x_0_0), econs(x_1_0, x_1_1)) <= True
  _r_2(s(x_0_0), enil) <= True
  _r_2(z, enil) <= True
}
;
_r_3 ->
{
  _r_3(s(x_0_0)) <= _r_4(x_0_0)
  _r_3(z) <= True
}
;
_r_4 ->
{
  _r_4(s(x_0_0)) <= True
}
;
drop_elt ->
{
  drop_elt(s(x_0_0), econs(x_1_0, x_1_1), econs(x_2_0, x_2_1)) <= _r_1(x_0_0, x_1_1)
  drop_elt(s(x_0_0), econs(x_1_0, x_1_1), enil) <= _r_2(x_0_0, x_1_1)
  drop_elt(s(x_0_0), enil, enil) <= True
  drop_elt(z, econs(x_1_0, x_1_1), econs(x_2_0, x_2_1)) <= True
  drop_elt(z, enil, enil) <= True
}
;
length_elt ->
{
  length_elt(econs(x_0_0, x_0_1), s(x_1_0)) <= length_elt(x_0_1, x_1_0)
  length_elt(enil, z) <= True
}
;
minus ->
{
  minus(s(x_0_0), s(x_1_0), s(x_2_0)) <= _r_3(x_0_0) /\ _r_4(x_2_0)
  minus(s(x_0_0), s(x_1_0), s(x_2_0)) <= _r_3(x_2_0) /\ _r_4(x_0_0)
  minus(s(x_0_0), s(x_1_0), z) <= _r_3(x_0_0)
  minus(s(x_0_0), z, s(x_2_0)) <= _r_3(x_2_0)
  minus(s(x_0_0), z, s(x_2_0)) <= _r_4(x_0_0)
  minus(z, s(x_1_0), z) <= True
  minus(z, z, z) <= True
}

--
Equality automata are defined for: {elist, elt, nat}
_|


Answer of teacher:


drop_elt(s(u), enil, enil) <= True -> No: ()
drop_elt(z, l, l) <= True -> No: ()
length_elt(enil, z) <= True -> No: ()
minus(s(u), z, s(u)) <= True -> No: ()
minus(z, y, z) <= True -> No: ()
eq_nat(_ota, _qta) <= drop_elt(n, l, _pta) /\ length_elt(_pta, _ota) /\ length_elt(l, _rta) /\ minus(_rta, n, _qta) -> Yes: {
_ota -> s(z)  ;  _pta -> econs(_pta_0, enil)  ;  _qta -> s(s(v1_0))  ;  _rta -> s(s(z))  ;  l -> econs(l_0, econs(v1_0, enil))  ;  n -> z
}
drop_elt(s(u), econs(x2, x3), _ata) <= drop_elt(u, x3, _ata) -> Yes: {
_ata -> econs(_ata_0, _ata_1)  ;  u -> s(z)  ;  x3 -> econs(x3_0, econs(v1_0, v1_1))
}
length_elt(econs(x, ll), s(_fta)) <= length_elt(ll, _fta) -> No: ()
minus(s(u), s(x2), _jta) <= minus(u, x2, _jta) -> Yes: {
_jta -> z  ;  u -> s(z)  ;  x2 -> s(x2_0)
}



-------------------------------------------
Step 11, which took 0.282159 s (model generation: 0.280954,  model checking: 0.001205):

Ground examples at the beginning of this step are:
{
drop_elt(s(s(z)), econs(a, econs(a, econs(a, enil))), econs(a, enil)) <= True
drop_elt(s(s(z)), econs(a, econs(a, enil)), enil) <= True
drop_elt(s(s(z)), econs(a, enil), enil) <= True
drop_elt(s(z), econs(a, econs(a, enil)), econs(a, enil)) <= True
drop_elt(s(z), econs(a, enil), enil) <= True
drop_elt(s(z), enil, enil) <= True
drop_elt(z, econs(a, enil), econs(a, enil)) <= True
drop_elt(z, enil, enil) <= True
length_elt(econs(a, econs(a, enil)), s(s(z))) <= True
length_elt(econs(a, enil), s(z)) <= True
length_elt(enil, z) <= True
minus(s(s(s(z))), s(z), s(s(z))) <= True
minus(s(s(z)), s(s(z)), z) <= True
minus(s(s(z)), s(z), s(z)) <= True
minus(s(s(z)), z, s(s(z))) <= True
minus(s(z), s(s(z)), z) <= True
minus(s(z), s(z), z) <= True
minus(s(z), z, s(z)) <= True
minus(z, s(z), z) <= True
minus(z, z, z) <= True
False <= drop_elt(s(z), econs(a, econs(a, enil)), enil)
False <= drop_elt(s(z), econs(a, enil), econs(a, enil))
False <= drop_elt(z, econs(a, econs(a, enil)), econs(a, enil))
False <= length_elt(econs(a, econs(a, enil)), s(z))
False <= length_elt(econs(a, enil), s(s(z)))
False <= minus(s(s(z)), s(z), s(s(z)))
False <= minus(s(s(z)), s(z), z)
False <= minus(s(z), s(z), s(z))
False <= minus(s(z), z, s(s(z)))
}

Learner proposed model:
Found Model:
|_

_r_1 ->
{
  _r_1(s(x_0_0)) <= _r_2(x_0_0)
  _r_1(z) <= True
}
;
_r_2 ->
{
  _r_2(s(x_0_0)) <= True
}
;
_r_3 ->
{
  _r_3(enil) <= True
}
;
_r_4 ->
{
  _r_4(econs(x_0_0, x_0_1)) <= True
}
;
drop_elt ->
{
  drop_elt(s(x_0_0), econs(x_1_0, x_1_1), econs(x_2_0, x_2_1)) <= _r_4(x_1_1)
  drop_elt(s(x_0_0), econs(x_1_0, x_1_1), enil) <= _r_2(x_0_0)
  drop_elt(s(x_0_0), econs(x_1_0, x_1_1), enil) <= _r_3(x_1_1)
  drop_elt(s(x_0_0), enil, enil) <= True
  drop_elt(z, econs(x_1_0, x_1_1), econs(x_2_0, x_2_1)) <= _r_3(x_1_1)
  drop_elt(z, enil, enil) <= True
}
;
length_elt ->
{
  length_elt(econs(x_0_0, x_0_1), s(x_1_0)) <= length_elt(x_0_1, x_1_0)
  length_elt(enil, z) <= True
}
;
minus ->
{
  minus(s(x_0_0), s(x_1_0), s(x_2_0)) <= _r_1(x_0_0) /\ _r_2(x_2_0)
  minus(s(x_0_0), s(x_1_0), s(x_2_0)) <= _r_1(x_2_0) /\ _r_2(x_0_0)
  minus(s(x_0_0), s(x_1_0), z) <= _r_1(x_0_0)
  minus(s(x_0_0), s(x_1_0), z) <= _r_2(x_1_0)
  minus(s(x_0_0), z, s(x_2_0)) <= _r_1(x_2_0)
  minus(s(x_0_0), z, s(x_2_0)) <= _r_2(x_0_0)
  minus(z, s(x_1_0), z) <= True
  minus(z, z, z) <= True
}

--
Equality automata are defined for: {elist, elt, nat}
_|


Answer of teacher:


drop_elt(s(u), enil, enil) <= True -> No: ()
drop_elt(z, l, l) <= True -> Yes: {
l -> econs(l_0, econs(v0_0, v0_1))
}
length_elt(enil, z) <= True -> No: ()
minus(s(u), z, s(u)) <= True -> No: ()
minus(z, y, z) <= True -> No: ()
eq_nat(_ota, _qta) <= drop_elt(n, l, _pta) /\ length_elt(_pta, _ota) /\ length_elt(l, _rta) /\ minus(_rta, n, _qta) -> Yes: {
_ota -> s(z)  ;  _pta -> econs(_pta_0, enil)  ;  _qta -> z  ;  _rta -> s(s(z))  ;  l -> econs(l_0, econs(v0_0, enil))  ;  n -> s(s(v0_0))
}
drop_elt(s(u), econs(x2, x3), _ata) <= drop_elt(u, x3, _ata) -> No: ()
length_elt(econs(x, ll), s(_fta)) <= length_elt(ll, _fta) -> No: ()
minus(s(u), s(x2), _jta) <= minus(u, x2, _jta) -> Yes: {
_jta -> s(s(z))  ;  u -> s(z)  ;  x2 -> s(x2_0)
}



-------------------------------------------
Step 12, which took 0.323444 s (model generation: 0.321396,  model checking: 0.002048):

Ground examples at the beginning of this step are:
{
drop_elt(s(s(z)), econs(a, econs(a, econs(a, enil))), econs(a, enil)) <= True
drop_elt(s(s(z)), econs(a, econs(a, enil)), enil) <= True
drop_elt(s(s(z)), econs(a, enil), enil) <= True
drop_elt(s(z), econs(a, econs(a, enil)), econs(a, enil)) <= True
drop_elt(s(z), econs(a, enil), enil) <= True
drop_elt(s(z), enil, enil) <= True
drop_elt(z, econs(a, econs(a, enil)), econs(a, econs(a, enil))) <= True
drop_elt(z, econs(a, enil), econs(a, enil)) <= True
drop_elt(z, enil, enil) <= True
length_elt(econs(a, econs(a, enil)), s(s(z))) <= True
length_elt(econs(a, enil), s(z)) <= True
length_elt(enil, z) <= True
minus(s(s(s(z))), s(z), s(s(z))) <= True
minus(s(s(z)), s(s(z)), z) <= True
minus(s(s(z)), s(z), s(z)) <= True
minus(s(s(z)), z, s(s(z))) <= True
minus(s(z), s(s(z)), z) <= True
minus(s(z), s(z), z) <= True
minus(s(z), z, s(z)) <= True
minus(z, s(z), z) <= True
minus(z, z, z) <= True
False <= drop_elt(s(s(z)), econs(a, econs(a, enil)), econs(a, enil))
False <= drop_elt(s(z), econs(a, econs(a, enil)), enil)
False <= drop_elt(s(z), econs(a, enil), econs(a, enil))
False <= drop_elt(z, econs(a, econs(a, enil)), econs(a, enil))
False <= length_elt(econs(a, econs(a, enil)), s(z))
False <= length_elt(econs(a, enil), s(s(z)))
False <= minus(s(s(z)), s(z), s(s(z)))
False <= minus(s(s(z)), s(z), z)
minus(s(s(z)), s(s(z)), s(s(z))) <= minus(s(z), s(z), s(s(z)))
False <= minus(s(z), s(z), s(z))
False <= minus(s(z), z, s(s(z)))
}

Learner proposed model:
Found Model:
|_

_r_1 ->
{
  _r_1(s(x_0_0)) <= _r_2(x_0_0)
  _r_1(z) <= True
}
;
_r_2 ->
{
  _r_2(s(x_0_0)) <= True
}
;
_r_3 ->
{
  _r_3(econs(x_0_0, x_0_1)) <= True
}
;
_r_4 ->
{
  _r_4(econs(x_0_0, x_0_1)) <= _r_3(x_0_1)
  _r_4(enil) <= True
}
;
drop_elt ->
{
  drop_elt(s(x_0_0), econs(x_1_0, x_1_1), econs(x_2_0, x_2_1)) <= _r_1(x_0_0) /\ _r_3(x_1_1)
  drop_elt(s(x_0_0), econs(x_1_0, x_1_1), econs(x_2_0, x_2_1)) <= _r_2(x_0_0) /\ _r_4(x_1_1)
  drop_elt(s(x_0_0), econs(x_1_0, x_1_1), enil) <= _r_2(x_0_0)
  drop_elt(s(x_0_0), econs(x_1_0, x_1_1), enil) <= _r_4(x_1_1)
  drop_elt(s(x_0_0), enil, enil) <= True
  drop_elt(z, econs(x_1_0, x_1_1), econs(x_2_0, x_2_1)) <= _r_3(x_2_1)
  drop_elt(z, econs(x_1_0, x_1_1), econs(x_2_0, x_2_1)) <= _r_4(x_1_1)
  drop_elt(z, enil, enil) <= True
}
;
length_elt ->
{
  length_elt(econs(x_0_0, x_0_1), s(x_1_0)) <= length_elt(x_0_1, x_1_0)
  length_elt(enil, z) <= True
}
;
minus ->
{
  minus(s(x_0_0), s(x_1_0), s(x_2_0)) <= _r_1(x_0_0) /\ _r_2(x_2_0)
  minus(s(x_0_0), s(x_1_0), s(x_2_0)) <= _r_1(x_2_0) /\ _r_2(x_0_0)
  minus(s(x_0_0), s(x_1_0), s(x_2_0)) <= _r_2(x_1_0)
  minus(s(x_0_0), s(x_1_0), z) <= _r_1(x_0_0)
  minus(s(x_0_0), s(x_1_0), z) <= _r_2(x_1_0)
  minus(s(x_0_0), z, s(x_2_0)) <= _r_1(x_2_0)
  minus(s(x_0_0), z, s(x_2_0)) <= _r_2(x_0_0)
  minus(z, s(x_1_0), z) <= True
  minus(z, z, z) <= True
}

--
Equality automata are defined for: {elist, elt, nat}
_|


Answer of teacher:


drop_elt(s(u), enil, enil) <= True -> No: ()
drop_elt(z, l, l) <= True -> No: ()
length_elt(enil, z) <= True -> No: ()
minus(s(u), z, s(u)) <= True -> No: ()
minus(z, y, z) <= True -> No: ()
eq_nat(_ota, _qta) <= drop_elt(n, l, _pta) /\ length_elt(_pta, _ota) /\ length_elt(l, _rta) /\ minus(_rta, n, _qta) -> Yes: {
_ota -> z  ;  _pta -> enil  ;  _qta -> s(_qta_0)  ;  _rta -> s(z)  ;  l -> econs(l_0, enil)  ;  n -> s(s(v0_0))
}
drop_elt(s(u), econs(x2, x3), _ata) <= drop_elt(u, x3, _ata) -> No: ()
length_elt(econs(x, ll), s(_fta)) <= length_elt(ll, _fta) -> No: ()
minus(s(u), s(x2), _jta) <= minus(u, x2, _jta) -> No: ()



-------------------------------------------
Step 13, which took 0.340285 s (model generation: 0.337875,  model checking: 0.002410):

Ground examples at the beginning of this step are:
{
drop_elt(s(s(z)), econs(a, econs(a, econs(a, enil))), econs(a, enil)) <= True
drop_elt(s(s(z)), econs(a, econs(a, enil)), enil) <= True
drop_elt(s(s(z)), econs(a, enil), enil) <= True
drop_elt(s(z), econs(a, econs(a, enil)), econs(a, enil)) <= True
drop_elt(s(z), econs(a, enil), enil) <= True
drop_elt(s(z), enil, enil) <= True
drop_elt(z, econs(a, econs(a, enil)), econs(a, econs(a, enil))) <= True
drop_elt(z, econs(a, enil), econs(a, enil)) <= True
drop_elt(z, enil, enil) <= True
length_elt(econs(a, econs(a, enil)), s(s(z))) <= True
length_elt(econs(a, enil), s(z)) <= True
length_elt(enil, z) <= True
minus(s(s(s(z))), s(z), s(s(z))) <= True
minus(s(s(z)), s(s(z)), z) <= True
minus(s(s(z)), s(z), s(z)) <= True
minus(s(s(z)), z, s(s(z))) <= True
minus(s(z), s(s(z)), z) <= True
minus(s(z), s(z), z) <= True
minus(s(z), z, s(z)) <= True
minus(z, s(z), z) <= True
minus(z, z, z) <= True
False <= drop_elt(s(s(z)), econs(a, econs(a, enil)), econs(a, enil))
False <= drop_elt(s(z), econs(a, econs(a, enil)), enil)
False <= drop_elt(s(z), econs(a, enil), econs(a, enil))
False <= drop_elt(z, econs(a, econs(a, enil)), econs(a, enil))
False <= length_elt(econs(a, econs(a, enil)), s(z))
False <= length_elt(econs(a, enil), s(s(z)))
False <= minus(s(s(z)), s(z), s(s(z)))
False <= minus(s(s(z)), s(z), z)
False <= minus(s(z), s(s(z)), s(z))
minus(s(s(z)), s(s(z)), s(s(z))) <= minus(s(z), s(z), s(s(z)))
False <= minus(s(z), s(z), s(z))
False <= minus(s(z), z, s(s(z)))
}

Learner proposed model:
Found Model:
|_

_r_1 ->
{
  _r_1(s(x_0_0)) <= _r_2(x_0_0)
  _r_1(z) <= True
}
;
_r_2 ->
{
  _r_2(s(x_0_0)) <= True
}
;
_r_3 ->
{
  _r_3(econs(x_0_0, x_0_1)) <= True
}
;
_r_4 ->
{
  _r_4(econs(x_0_0, x_0_1)) <= _r_3(x_0_1)
  _r_4(enil) <= True
}
;
drop_elt ->
{
  drop_elt(s(x_0_0), econs(x_1_0, x_1_1), econs(x_2_0, x_2_1)) <= _r_1(x_0_0) /\ _r_3(x_1_1)
  drop_elt(s(x_0_0), econs(x_1_0, x_1_1), econs(x_2_0, x_2_1)) <= _r_2(x_0_0) /\ _r_4(x_1_1)
  drop_elt(s(x_0_0), econs(x_1_0, x_1_1), enil) <= _r_2(x_0_0)
  drop_elt(s(x_0_0), econs(x_1_0, x_1_1), enil) <= _r_4(x_1_1)
  drop_elt(s(x_0_0), enil, enil) <= True
  drop_elt(z, econs(x_1_0, x_1_1), econs(x_2_0, x_2_1)) <= _r_3(x_2_1)
  drop_elt(z, econs(x_1_0, x_1_1), econs(x_2_0, x_2_1)) <= _r_4(x_1_1)
  drop_elt(z, enil, enil) <= True
}
;
length_elt ->
{
  length_elt(econs(x_0_0, x_0_1), s(x_1_0)) <= length_elt(x_0_1, x_1_0)
  length_elt(enil, z) <= True
}
;
minus ->
{
  minus(s(x_0_0), s(x_1_0), s(x_2_0)) <= _r_1(x_0_0) /\ _r_2(x_2_0)
  minus(s(x_0_0), s(x_1_0), s(x_2_0)) <= _r_1(x_2_0) /\ _r_2(x_0_0)
  minus(s(x_0_0), s(x_1_0), s(x_2_0)) <= _r_2(x_0_0) /\ _r_2(x_1_0)
  minus(s(x_0_0), s(x_1_0), z) <= _r_1(x_0_0)
  minus(s(x_0_0), s(x_1_0), z) <= _r_2(x_1_0)
  minus(s(x_0_0), z, s(x_2_0)) <= _r_1(x_2_0)
  minus(s(x_0_0), z, s(x_2_0)) <= _r_2(x_0_0)
  minus(z, s(x_1_0), z) <= True
  minus(z, z, z) <= True
}

--
Equality automata are defined for: {elist, elt, nat}
_|


Answer of teacher:


drop_elt(s(u), enil, enil) <= True -> No: ()
drop_elt(z, l, l) <= True -> No: ()
length_elt(enil, z) <= True -> No: ()
minus(s(u), z, s(u)) <= True -> No: ()
minus(z, y, z) <= True -> No: ()
eq_nat(_ota, _qta) <= drop_elt(n, l, _pta) /\ length_elt(_pta, _ota) /\ length_elt(l, _rta) /\ minus(_rta, n, _qta) -> Yes: {
_ota -> s(z)  ;  _pta -> econs(_pta_0, enil)  ;  _qta -> z  ;  _rta -> s(z)  ;  l -> econs(l_0, enil)  ;  n -> s(s(v0_0))
}
drop_elt(s(u), econs(x2, x3), _ata) <= drop_elt(u, x3, _ata) -> No: ()
length_elt(econs(x, ll), s(_fta)) <= length_elt(ll, _fta) -> No: ()
minus(s(u), s(x2), _jta) <= minus(u, x2, _jta) -> No: ()



-------------------------------------------
Step 14, which took 0.734480 s (model generation: 0.733264,  model checking: 0.001216):

Ground examples at the beginning of this step are:
{
drop_elt(s(s(z)), econs(a, econs(a, econs(a, enil))), econs(a, enil)) <= True
drop_elt(s(s(z)), econs(a, econs(a, enil)), enil) <= True
drop_elt(s(s(z)), econs(a, enil), enil) <= True
drop_elt(s(z), econs(a, econs(a, enil)), econs(a, enil)) <= True
drop_elt(s(z), econs(a, enil), enil) <= True
drop_elt(s(z), enil, enil) <= True
drop_elt(z, econs(a, econs(a, enil)), econs(a, econs(a, enil))) <= True
drop_elt(z, econs(a, enil), econs(a, enil)) <= True
drop_elt(z, enil, enil) <= True
length_elt(econs(a, econs(a, enil)), s(s(z))) <= True
length_elt(econs(a, enil), s(z)) <= True
length_elt(enil, z) <= True
minus(s(s(s(z))), s(z), s(s(z))) <= True
minus(s(s(z)), s(s(z)), z) <= True
minus(s(s(z)), s(z), s(z)) <= True
minus(s(s(z)), z, s(s(z))) <= True
minus(s(z), s(s(z)), z) <= True
minus(s(z), s(z), z) <= True
minus(s(z), z, s(z)) <= True
minus(z, s(z), z) <= True
minus(z, z, z) <= True
False <= drop_elt(s(s(z)), econs(a, econs(a, enil)), econs(a, enil))
False <= drop_elt(s(s(z)), econs(a, enil), econs(a, enil))
False <= drop_elt(s(z), econs(a, econs(a, enil)), enil)
False <= drop_elt(s(z), econs(a, enil), econs(a, enil))
False <= drop_elt(z, econs(a, econs(a, enil)), econs(a, enil))
False <= length_elt(econs(a, econs(a, enil)), s(z))
False <= length_elt(econs(a, enil), s(s(z)))
False <= minus(s(s(z)), s(z), s(s(z)))
False <= minus(s(s(z)), s(z), z)
False <= minus(s(z), s(s(z)), s(z))
minus(s(s(z)), s(s(z)), s(s(z))) <= minus(s(z), s(z), s(s(z)))
False <= minus(s(z), s(z), s(z))
False <= minus(s(z), z, s(s(z)))
}

Learner proposed model:
Found Model:
|_

_r_1 ->
{
  _r_1(s(x_0_0), s(x_1_0)) <= True
  _r_1(s(x_0_0), z) <= _r_5(x_0_0)
  _r_1(z, z) <= True
}
;
_r_2 ->
{
  _r_2(s(x_0_0), econs(x_1_0, x_1_1)) <= _r_2(x_0_0, x_1_1)
  _r_2(z, econs(x_1_0, x_1_1)) <= True
}
;
_r_3 ->
{
  _r_3(s(x_0_0), econs(x_1_0, x_1_1)) <= True
  _r_3(s(x_0_0), enil) <= True
  _r_3(z, enil) <= True
}
;
_r_4 ->
{
  _r_4(econs(x_0_0, x_0_1), econs(x_1_0, x_1_1)) <= True
  _r_4(enil, enil) <= True
}
;
_r_5 ->
{
  _r_5(s(x_0_0)) <= True
}
;
drop_elt ->
{
  drop_elt(s(x_0_0), econs(x_1_0, x_1_1), econs(x_2_0, x_2_1)) <= _r_2(x_0_0, x_1_1)
  drop_elt(s(x_0_0), econs(x_1_0, x_1_1), enil) <= _r_3(x_0_0, x_1_1)
  drop_elt(s(x_0_0), enil, enil) <= True
  drop_elt(z, econs(x_1_0, x_1_1), econs(x_2_0, x_2_1)) <= _r_4(x_1_1, x_2_1)
  drop_elt(z, enil, enil) <= True
}
;
length_elt ->
{
  length_elt(econs(x_0_0, x_0_1), s(x_1_0)) <= length_elt(x_0_1, x_1_0)
  length_elt(enil, z) <= True
}
;
minus ->
{
  minus(s(x_0_0), s(x_1_0), s(x_2_0)) <= _r_1(x_0_0, x_1_0) /\ _r_5(x_0_0)
  minus(s(x_0_0), s(x_1_0), s(x_2_0)) <= _r_1(x_1_0, x_2_0) /\ _r_5(x_0_0)
  minus(s(x_0_0), s(x_1_0), z) <= _r_1(x_0_0, x_1_0)
  minus(s(x_0_0), s(x_1_0), z) <= _r_5(x_1_0)
  minus(s(x_0_0), z, s(x_2_0)) <= _r_1(x_0_0, x_2_0)
  minus(z, s(x_1_0), z) <= True
  minus(z, z, z) <= True
}

--
Equality automata are defined for: {elist, elt, nat}
_|


Answer of teacher:


drop_elt(s(u), enil, enil) <= True -> No: ()
drop_elt(z, l, l) <= True -> No: ()
length_elt(enil, z) <= True -> No: ()
minus(s(u), z, s(u)) <= True -> No: ()
minus(z, y, z) <= True -> No: ()
eq_nat(_ota, _qta) <= drop_elt(n, l, _pta) /\ length_elt(_pta, _ota) /\ length_elt(l, _rta) /\ minus(_rta, n, _qta) -> Yes: {
_ota -> s(z)  ;  _pta -> econs(_pta_0, enil)  ;  _qta -> z  ;  _rta -> s(s(s(z)))  ;  l -> econs(l_0, econs(v1_0, econs(v1_0, enil)))  ;  n -> s(s(z))
}
drop_elt(s(u), econs(x2, x3), _ata) <= drop_elt(u, x3, _ata) -> No: ()
length_elt(econs(x, ll), s(_fta)) <= length_elt(ll, _fta) -> No: ()
minus(s(u), s(x2), _jta) <= minus(u, x2, _jta) -> No: ()



-------------------------------------------
Step 15, which took 0.783595 s (model generation: 0.781366,  model checking: 0.002229):

Ground examples at the beginning of this step are:
{
drop_elt(s(s(z)), econs(a, econs(a, econs(a, enil))), econs(a, enil)) <= True
drop_elt(s(s(z)), econs(a, econs(a, enil)), enil) <= True
drop_elt(s(s(z)), econs(a, enil), enil) <= True
drop_elt(s(z), econs(a, econs(a, enil)), econs(a, enil)) <= True
drop_elt(s(z), econs(a, enil), enil) <= True
drop_elt(s(z), enil, enil) <= True
drop_elt(z, econs(a, econs(a, enil)), econs(a, econs(a, enil))) <= True
drop_elt(z, econs(a, enil), econs(a, enil)) <= True
drop_elt(z, enil, enil) <= True
length_elt(econs(a, econs(a, enil)), s(s(z))) <= True
length_elt(econs(a, enil), s(z)) <= True
length_elt(enil, z) <= True
minus(s(s(s(z))), s(z), s(s(z))) <= True
minus(s(s(z)), s(s(z)), z) <= True
minus(s(s(z)), s(z), s(z)) <= True
minus(s(s(z)), z, s(s(z))) <= True
minus(s(z), s(s(z)), z) <= True
minus(s(z), s(z), z) <= True
minus(s(z), z, s(z)) <= True
minus(z, s(z), z) <= True
minus(z, z, z) <= True
False <= drop_elt(s(s(z)), econs(a, econs(a, enil)), econs(a, enil))
False <= drop_elt(s(s(z)), econs(a, enil), econs(a, enil))
False <= drop_elt(s(z), econs(a, econs(a, enil)), enil)
False <= drop_elt(s(z), econs(a, enil), econs(a, enil))
False <= drop_elt(z, econs(a, econs(a, enil)), econs(a, enil))
False <= length_elt(econs(a, econs(a, econs(a, enil))), s(s(s(z)))) /\ minus(s(s(s(z))), s(s(z)), z)
False <= length_elt(econs(a, econs(a, enil)), s(z))
False <= length_elt(econs(a, enil), s(s(z)))
False <= minus(s(s(z)), s(z), s(s(z)))
False <= minus(s(s(z)), s(z), z)
False <= minus(s(z), s(s(z)), s(z))
minus(s(s(z)), s(s(z)), s(s(z))) <= minus(s(z), s(z), s(s(z)))
False <= minus(s(z), s(z), s(z))
False <= minus(s(z), z, s(s(z)))
}

Learner proposed model:
Found Model:
|_

_r_1 ->
{
  _r_1(s(x_0_0), s(x_1_0)) <= True
  _r_1(s(x_0_0), z) <= _r_3(x_0_0)
  _r_1(z, z) <= True
}
;
_r_2 ->
{
  _r_2(s(x_0_0), econs(x_1_0, x_1_1)) <= _r_2(x_0_0, x_1_1)
  _r_2(z, econs(x_1_0, x_1_1)) <= True
}
;
_r_3 ->
{
  _r_3(s(x_0_0)) <= True
}
;
_r_4 ->
{
  _r_4(econs(x_0_0, x_0_1)) <= _r_5(x_0_1)
}
;
_r_5 ->
{
  _r_5(enil) <= True
}
;
drop_elt ->
{
  drop_elt(s(x_0_0), econs(x_1_0, x_1_1), econs(x_2_0, x_2_1)) <= _r_2(x_0_0, x_1_1)
  drop_elt(s(x_0_0), econs(x_1_0, x_1_1), enil) <= _r_3(x_0_0)
  drop_elt(s(x_0_0), econs(x_1_0, x_1_1), enil) <= _r_5(x_1_1)
  drop_elt(s(x_0_0), enil, enil) <= True
  drop_elt(z, econs(x_1_0, x_1_1), econs(x_2_0, x_2_1)) <= _r_4(x_2_1)
  drop_elt(z, econs(x_1_0, x_1_1), econs(x_2_0, x_2_1)) <= _r_5(x_1_1)
  drop_elt(z, enil, enil) <= True
}
;
length_elt ->
{
  length_elt(econs(x_0_0, x_0_1), s(x_1_0)) <= _r_4(x_0_1) /\ length_elt(x_0_1, x_1_0)
  length_elt(econs(x_0_0, x_0_1), s(x_1_0)) <= _r_5(x_0_1) /\ length_elt(x_0_1, x_1_0)
  length_elt(enil, z) <= True
}
;
minus ->
{
  minus(s(x_0_0), s(x_1_0), s(x_2_0)) <= _r_1(x_0_0, x_1_0) /\ _r_3(x_0_0)
  minus(s(x_0_0), s(x_1_0), s(x_2_0)) <= _r_1(x_1_0, x_2_0) /\ _r_3(x_0_0)
  minus(s(x_0_0), s(x_1_0), z) <= _r_1(x_0_0, x_1_0)
  minus(s(x_0_0), s(x_1_0), z) <= _r_3(x_1_0)
  minus(s(x_0_0), z, s(x_2_0)) <= _r_1(x_0_0, x_2_0)
  minus(z, s(x_1_0), z) <= True
  minus(z, z, z) <= True
}

--
Equality automata are defined for: {elist, elt, nat}
_|


Answer of teacher:


drop_elt(s(u), enil, enil) <= True -> No: ()
drop_elt(z, l, l) <= True -> Yes: {
l -> econs(l_0, econs(v0_0, econs(v0_0, v0_1)))
}
length_elt(enil, z) <= True -> No: ()
minus(s(u), z, s(u)) <= True -> No: ()
minus(z, y, z) <= True -> No: ()
eq_nat(_ota, _qta) <= drop_elt(n, l, _pta) /\ length_elt(_pta, _ota) /\ length_elt(l, _rta) /\ minus(_rta, n, _qta) -> Yes: {
_ota -> z  ;  _pta -> enil  ;  _qta -> s(s(v1_0))  ;  _rta -> s(s(z))  ;  l -> econs(l_0, econs(v1_0, enil))  ;  n -> s(s(v0_0))
}
drop_elt(s(u), econs(x2, x3), _ata) <= drop_elt(u, x3, _ata) -> No: ()
length_elt(econs(x, ll), s(_fta)) <= length_elt(ll, _fta) -> Yes: {
_fta -> s(s(z))  ;  ll -> econs(v0_0, econs(v0_0, enil))
}
minus(s(u), s(x2), _jta) <= minus(u, x2, _jta) -> No: ()



-------------------------------------------
Step 16, which took 3.208442 s (model generation: 3.207749,  model checking: 0.000693):

Ground examples at the beginning of this step are:
{
drop_elt(s(s(z)), econs(a, econs(a, econs(a, enil))), econs(a, enil)) <= True
drop_elt(s(s(z)), econs(a, econs(a, enil)), enil) <= True
drop_elt(s(s(z)), econs(a, enil), enil) <= True
drop_elt(s(z), econs(a, econs(a, enil)), econs(a, enil)) <= True
drop_elt(s(z), econs(a, enil), enil) <= True
drop_elt(s(z), enil, enil) <= True
drop_elt(z, econs(a, econs(a, econs(a, enil))), econs(a, econs(a, econs(a, enil)))) <= True
drop_elt(z, econs(a, econs(a, enil)), econs(a, econs(a, enil))) <= True
drop_elt(z, econs(a, enil), econs(a, enil)) <= True
drop_elt(z, enil, enil) <= True
length_elt(econs(a, econs(a, econs(a, enil))), s(s(s(z)))) <= True
length_elt(econs(a, econs(a, enil)), s(s(z))) <= True
length_elt(econs(a, enil), s(z)) <= True
length_elt(enil, z) <= True
minus(s(s(s(z))), s(z), s(s(z))) <= True
minus(s(s(z)), s(s(z)), z) <= True
minus(s(s(z)), s(z), s(z)) <= True
minus(s(s(z)), z, s(s(z))) <= True
minus(s(z), s(s(z)), z) <= True
minus(s(z), s(z), z) <= True
minus(s(z), z, s(z)) <= True
minus(z, s(z), z) <= True
minus(z, z, z) <= True
False <= drop_elt(s(s(z)), econs(a, econs(a, enil)), econs(a, enil))
False <= drop_elt(s(s(z)), econs(a, enil), econs(a, enil))
False <= drop_elt(s(z), econs(a, econs(a, enil)), enil)
False <= drop_elt(s(z), econs(a, enil), econs(a, enil))
False <= drop_elt(z, econs(a, econs(a, enil)), econs(a, enil))
False <= length_elt(econs(a, econs(a, enil)), s(z))
False <= length_elt(econs(a, enil), s(s(z)))
False <= minus(s(s(s(z))), s(s(z)), z)
False <= minus(s(s(z)), s(s(z)), s(s(z)))
False <= minus(s(s(z)), s(z), s(s(z)))
False <= minus(s(s(z)), s(z), z)
False <= minus(s(z), s(s(z)), s(z))
False <= minus(s(z), s(z), s(s(z)))
False <= minus(s(z), s(z), s(z))
False <= minus(s(z), z, s(s(z)))
}

Learner proposed model:
Found Model:
|_

_r_1 ->
{
  _r_1(s(x_0_0), s(x_1_0)) <= _r_2(x_0_0, x_1_0)
  _r_1(z, z) <= True
}
;
_r_2 ->
{
  _r_2(z, s(x_1_0)) <= True
  _r_2(z, z) <= True
}
;
_r_3 ->
{
  _r_3(s(x_0_0), s(x_1_0)) <= _r_3(x_0_0, x_1_0)
  _r_3(s(x_0_0), z) <= True
}
;
_r_4 ->
{
  _r_4(s(x_0_0), econs(x_1_0, x_1_1)) <= _r_4(x_0_0, x_1_1)
  _r_4(z, econs(x_1_0, x_1_1)) <= True
}
;
_r_5 ->
{
  _r_5(s(x_0_0), econs(x_1_0, x_1_1)) <= True
  _r_5(s(x_0_0), enil) <= True
  _r_5(z, enil) <= True
}
;
_r_6 ->
{
  _r_6(econs(x_0_0, x_0_1), econs(x_1_0, x_1_1)) <= True
  _r_6(enil, enil) <= True
}
;
drop_elt ->
{
  drop_elt(s(x_0_0), econs(x_1_0, x_1_1), econs(x_2_0, x_2_1)) <= _r_4(x_0_0, x_1_1)
  drop_elt(s(x_0_0), econs(x_1_0, x_1_1), enil) <= _r_5(x_0_0, x_1_1)
  drop_elt(s(x_0_0), enil, enil) <= True
  drop_elt(z, econs(x_1_0, x_1_1), econs(x_2_0, x_2_1)) <= _r_6(x_1_1, x_2_1)
  drop_elt(z, enil, enil) <= True
}
;
length_elt ->
{
  length_elt(econs(x_0_0, x_0_1), s(x_1_0)) <= length_elt(x_0_1, x_1_0)
  length_elt(enil, z) <= True
}
;
minus ->
{
  minus(s(x_0_0), s(x_1_0), s(x_2_0)) <= _r_3(x_0_0, x_2_0)
  minus(s(x_0_0), s(x_1_0), z) <= _r_1(x_0_0, x_1_0)
  minus(s(x_0_0), s(x_1_0), z) <= _r_2(x_0_0, x_1_0)
  minus(s(x_0_0), z, s(x_2_0)) <= _r_1(x_0_0, x_2_0)
  minus(z, s(x_1_0), z) <= True
  minus(z, z, z) <= True
}

--
Equality automata are defined for: {elist, elt, nat}
_|


Answer of teacher:


drop_elt(s(u), enil, enil) <= True -> No: ()
drop_elt(z, l, l) <= True -> No: ()
length_elt(enil, z) <= True -> No: ()
minus(s(u), z, s(u)) <= True -> Yes: {
u -> s(s(v0_0))
}
minus(z, y, z) <= True -> No: ()
eq_nat(_ota, _qta) <= drop_elt(n, l, _pta) /\ length_elt(_pta, _ota) /\ length_elt(l, _rta) /\ minus(_rta, n, _qta) -> Yes: {
_ota -> z  ;  _pta -> enil  ;  _qta -> s(z)  ;  _rta -> s(s(z))  ;  l -> econs(l_0, econs(v3_0, enil))  ;  n -> s(s(v2_0))
}
drop_elt(s(u), econs(x2, x3), _ata) <= drop_elt(u, x3, _ata) -> No: ()
length_elt(econs(x, ll), s(_fta)) <= length_elt(ll, _fta) -> No: ()
minus(s(u), s(x2), _jta) <= minus(u, x2, _jta) -> Yes: {
_jta -> s(s(s(z)))  ;  u -> s(s(z))  ;  x2 -> z
}



-------------------------------------------
Step 17, which took 4.738782 s (model generation: 4.737941,  model checking: 0.000841):

Ground examples at the beginning of this step are:
{
drop_elt(s(s(z)), econs(a, econs(a, econs(a, enil))), econs(a, enil)) <= True
drop_elt(s(s(z)), econs(a, econs(a, enil)), enil) <= True
drop_elt(s(s(z)), econs(a, enil), enil) <= True
drop_elt(s(z), econs(a, econs(a, enil)), econs(a, enil)) <= True
drop_elt(s(z), econs(a, enil), enil) <= True
drop_elt(s(z), enil, enil) <= True
drop_elt(z, econs(a, econs(a, econs(a, enil))), econs(a, econs(a, econs(a, enil)))) <= True
drop_elt(z, econs(a, econs(a, enil)), econs(a, econs(a, enil))) <= True
drop_elt(z, econs(a, enil), econs(a, enil)) <= True
drop_elt(z, enil, enil) <= True
length_elt(econs(a, econs(a, econs(a, enil))), s(s(s(z)))) <= True
length_elt(econs(a, econs(a, enil)), s(s(z))) <= True
length_elt(econs(a, enil), s(z)) <= True
length_elt(enil, z) <= True
minus(s(s(s(z))), s(z), s(s(z))) <= True
minus(s(s(s(z))), z, s(s(s(z)))) <= True
minus(s(s(z)), s(s(z)), z) <= True
minus(s(s(z)), s(z), s(z)) <= True
minus(s(s(z)), z, s(s(z))) <= True
minus(s(z), s(s(z)), z) <= True
minus(s(z), s(z), z) <= True
minus(s(z), z, s(z)) <= True
minus(z, s(z), z) <= True
minus(z, z, z) <= True
False <= drop_elt(s(s(z)), econs(a, econs(a, enil)), econs(a, enil))
False <= drop_elt(s(s(z)), econs(a, enil), econs(a, enil))
False <= drop_elt(s(z), econs(a, econs(a, enil)), enil)
False <= drop_elt(s(z), econs(a, enil), econs(a, enil))
False <= drop_elt(z, econs(a, econs(a, enil)), econs(a, enil))
False <= length_elt(econs(a, econs(a, enil)), s(z))
False <= length_elt(econs(a, enil), s(s(z)))
False <= minus(s(s(s(z))), s(s(z)), z)
False <= minus(s(s(z)), s(s(z)), s(s(z)))
False <= minus(s(s(z)), s(s(z)), s(z))
False <= minus(s(s(z)), s(z), s(s(z)))
False <= minus(s(s(z)), s(z), z)
minus(s(s(s(z))), s(z), s(s(s(z)))) <= minus(s(s(z)), z, s(s(s(z))))
False <= minus(s(z), s(s(z)), s(z))
False <= minus(s(z), s(z), s(s(z)))
False <= minus(s(z), s(z), s(z))
False <= minus(s(z), z, s(s(z)))
}

Learner proposed model:
Found Model:
|_

_r_1 ->
{
  _r_1(s(x_0_0), s(x_1_0)) <= _r_1(x_0_0, x_1_0)
  _r_1(s(x_0_0), z) <= True
}
;
_r_2 ->
{
  _r_2(s(x_0_0), s(x_1_0)) <= _r_2(x_0_0, x_1_0)
  _r_2(z, z) <= True
}
;
_r_3 ->
{
  _r_3(z, s(x_1_0)) <= True
}
;
_r_4 ->
{
  _r_4(s(x_0_0), econs(x_1_0, x_1_1)) <= _r_4(x_0_0, x_1_1)
  _r_4(z, econs(x_1_0, x_1_1)) <= True
}
;
_r_5 ->
{
  _r_5(s(x_0_0), econs(x_1_0, x_1_1)) <= True
  _r_5(s(x_0_0), enil) <= True
  _r_5(z, enil) <= True
}
;
_r_6 ->
{
  _r_6(econs(x_0_0, x_0_1), econs(x_1_0, x_1_1)) <= True
  _r_6(enil, enil) <= True
}
;
drop_elt ->
{
  drop_elt(s(x_0_0), econs(x_1_0, x_1_1), econs(x_2_0, x_2_1)) <= _r_4(x_0_0, x_1_1)
  drop_elt(s(x_0_0), econs(x_1_0, x_1_1), enil) <= _r_5(x_0_0, x_1_1)
  drop_elt(s(x_0_0), enil, enil) <= True
  drop_elt(z, econs(x_1_0, x_1_1), econs(x_2_0, x_2_1)) <= _r_6(x_1_1, x_2_1)
  drop_elt(z, enil, enil) <= True
}
;
length_elt ->
{
  length_elt(econs(x_0_0, x_0_1), s(x_1_0)) <= length_elt(x_0_1, x_1_0)
  length_elt(enil, z) <= True
}
;
minus ->
{
  minus(s(x_0_0), s(x_1_0), s(x_2_0)) <= _r_1(x_0_0, x_1_0) /\ _r_1(x_0_0, x_2_0)
  minus(s(x_0_0), s(x_1_0), z) <= _r_2(x_0_0, x_1_0)
  minus(s(x_0_0), s(x_1_0), z) <= _r_3(x_0_0, x_1_0)
  minus(s(x_0_0), z, s(x_2_0)) <= _r_2(x_0_0, x_2_0)
  minus(z, s(x_1_0), z) <= True
  minus(z, z, z) <= True
}

--
Equality automata are defined for: {elist, elt, nat}
_|


Answer of teacher:


drop_elt(s(u), enil, enil) <= True -> No: ()
drop_elt(z, l, l) <= True -> No: ()
length_elt(enil, z) <= True -> No: ()
minus(s(u), z, s(u)) <= True -> No: ()
minus(z, y, z) <= True -> No: ()
eq_nat(_ota, _qta) <= drop_elt(n, l, _pta) /\ length_elt(_pta, _ota) /\ length_elt(l, _rta) /\ minus(_rta, n, _qta) -> Yes: {
_ota -> z  ;  _pta -> enil  ;  _qta -> s(s(z))  ;  _rta -> s(s(s(z)))  ;  l -> econs(l_0, econs(v2_0, econs(v2_0, enil)))  ;  n -> s(s(z))
}
drop_elt(s(u), econs(x2, x3), _ata) <= drop_elt(u, x3, _ata) -> No: ()
length_elt(econs(x, ll), s(_fta)) <= length_elt(ll, _fta) -> No: ()
minus(s(u), s(x2), _jta) <= minus(u, x2, _jta) -> Yes: {
_jta -> z  ;  u -> s(z)  ;  x2 -> s(s(v1_0))
}



-------------------------------------------
Step 18, which took 4.182983 s (model generation: 4.181703,  model checking: 0.001280):

Ground examples at the beginning of this step are:
{
drop_elt(s(s(z)), econs(a, econs(a, econs(a, enil))), econs(a, enil)) <= True
drop_elt(s(s(z)), econs(a, econs(a, enil)), enil) <= True
drop_elt(s(s(z)), econs(a, enil), enil) <= True
drop_elt(s(z), econs(a, econs(a, enil)), econs(a, enil)) <= True
drop_elt(s(z), econs(a, enil), enil) <= True
drop_elt(s(z), enil, enil) <= True
drop_elt(z, econs(a, econs(a, econs(a, enil))), econs(a, econs(a, econs(a, enil)))) <= True
drop_elt(z, econs(a, econs(a, enil)), econs(a, econs(a, enil))) <= True
drop_elt(z, econs(a, enil), econs(a, enil)) <= True
drop_elt(z, enil, enil) <= True
length_elt(econs(a, econs(a, econs(a, enil))), s(s(s(z)))) <= True
length_elt(econs(a, econs(a, enil)), s(s(z))) <= True
length_elt(econs(a, enil), s(z)) <= True
length_elt(enil, z) <= True
minus(s(s(s(z))), s(z), s(s(z))) <= True
minus(s(s(s(z))), z, s(s(s(z)))) <= True
minus(s(s(z)), s(s(s(z))), z) <= True
minus(s(s(z)), s(s(z)), z) <= True
minus(s(s(z)), s(z), s(z)) <= True
minus(s(s(z)), z, s(s(z))) <= True
minus(s(z), s(s(z)), z) <= True
minus(s(z), s(z), z) <= True
minus(s(z), z, s(z)) <= True
minus(z, s(z), z) <= True
minus(z, z, z) <= True
False <= drop_elt(s(s(z)), econs(a, econs(a, econs(a, enil))), enil) /\ minus(s(s(s(z))), s(s(z)), s(s(z)))
False <= drop_elt(s(s(z)), econs(a, econs(a, enil)), econs(a, enil))
False <= drop_elt(s(s(z)), econs(a, enil), econs(a, enil))
False <= drop_elt(s(z), econs(a, econs(a, enil)), enil)
False <= drop_elt(s(z), econs(a, enil), econs(a, enil))
False <= drop_elt(z, econs(a, econs(a, enil)), econs(a, enil))
False <= length_elt(econs(a, econs(a, enil)), s(z))
False <= length_elt(econs(a, enil), s(s(z)))
False <= minus(s(s(s(z))), s(s(z)), z)
False <= minus(s(s(z)), s(s(z)), s(s(z)))
False <= minus(s(s(z)), s(s(z)), s(z))
False <= minus(s(s(z)), s(z), s(s(z)))
False <= minus(s(s(z)), s(z), z)
minus(s(s(s(z))), s(z), s(s(s(z)))) <= minus(s(s(z)), z, s(s(s(z))))
False <= minus(s(z), s(s(z)), s(z))
False <= minus(s(z), s(z), s(s(z)))
False <= minus(s(z), s(z), s(z))
False <= minus(s(z), z, s(s(z)))
}

Learner proposed model:
Found Model:
|_

_r_1 ->
{
  _r_1(s(x_0_0), z) <= _r_6(x_0_0)
  _r_1(z, z) <= True
}
;
_r_2 ->
{
  _r_2(s(x_0_0), s(x_1_0)) <= _r_2(x_0_0, x_1_0)
  _r_2(z, s(x_1_0)) <= True
  _r_2(z, z) <= True
}
;
_r_3 ->
{
  _r_3(s(x_0_0), econs(x_1_0, x_1_1)) <= True
  _r_3(s(x_0_0), enil) <= True
  _r_3(z, enil) <= True
}
;
_r_4 ->
{
  _r_4(s(x_0_0), econs(x_1_0, x_1_1)) <= _r_4(x_0_0, x_1_1)
  _r_4(z, econs(x_1_0, x_1_1)) <= True
}
;
_r_5 ->
{
  _r_5(econs(x_0_0, x_0_1), econs(x_1_0, x_1_1)) <= True
  _r_5(enil, enil) <= True
}
;
_r_6 ->
{
  _r_6(s(x_0_0)) <= True
}
;
drop_elt ->
{
  drop_elt(s(x_0_0), econs(x_1_0, x_1_1), econs(x_2_0, x_2_1)) <= _r_4(x_0_0, x_1_1)
  drop_elt(s(x_0_0), econs(x_1_0, x_1_1), enil) <= _r_3(x_0_0, x_1_1)
  drop_elt(s(x_0_0), enil, enil) <= True
  drop_elt(z, econs(x_1_0, x_1_1), econs(x_2_0, x_2_1)) <= _r_5(x_1_1, x_2_1)
  drop_elt(z, enil, enil) <= True
}
;
length_elt ->
{
  length_elt(econs(x_0_0, x_0_1), s(x_1_0)) <= length_elt(x_0_1, x_1_0)
  length_elt(enil, z) <= True
}
;
minus ->
{
  minus(s(x_0_0), s(x_1_0), s(x_2_0)) <= _r_1(x_0_0, x_1_0) /\ _r_2(x_1_0, x_2_0) /\ _r_6(x_0_0)
  minus(s(x_0_0), s(x_1_0), s(x_2_0)) <= _r_1(x_1_0, x_2_0) /\ _r_6(x_0_0)
  minus(s(x_0_0), s(x_1_0), z) <= _r_2(x_0_0, x_1_0)
  minus(s(x_0_0), z, s(x_2_0)) <= _r_1(x_0_0, x_2_0)
  minus(s(x_0_0), z, s(x_2_0)) <= _r_6(x_0_0)
  minus(z, s(x_1_0), z) <= True
  minus(z, z, z) <= True
}

--
Equality automata are defined for: {elist, elt, nat}
_|


Answer of teacher:


drop_elt(s(u), enil, enil) <= True -> No: ()
drop_elt(z, l, l) <= True -> No: ()
length_elt(enil, z) <= True -> No: ()
minus(s(u), z, s(u)) <= True -> No: ()
minus(z, y, z) <= True -> No: ()
eq_nat(_ota, _qta) <= drop_elt(n, l, _pta) /\ length_elt(_pta, _ota) /\ length_elt(l, _rta) /\ minus(_rta, n, _qta) -> Yes: {
_ota -> z  ;  _pta -> enil  ;  _qta -> s(z)  ;  _rta -> s(s(z))  ;  l -> econs(l_0, econs(v2_0, enil))  ;  n -> s(s(s(v0_0)))
}
drop_elt(s(u), econs(x2, x3), _ata) <= drop_elt(u, x3, _ata) -> No: ()
length_elt(econs(x, ll), s(_fta)) <= length_elt(ll, _fta) -> No: ()
minus(s(u), s(x2), _jta) <= minus(u, x2, _jta) -> Yes: {
_jta -> s(z)  ;  u -> s(s(v0_0))  ;  x2 -> s(z)
}



-------------------------------------------
Step 19, which took 8.111544 s (model generation: 8.108746,  model checking: 0.002798):

Ground examples at the beginning of this step are:
{
drop_elt(s(s(z)), econs(a, econs(a, econs(a, enil))), econs(a, enil)) <= True
drop_elt(s(s(z)), econs(a, econs(a, enil)), enil) <= True
drop_elt(s(s(z)), econs(a, enil), enil) <= True
drop_elt(s(z), econs(a, econs(a, enil)), econs(a, enil)) <= True
drop_elt(s(z), econs(a, enil), enil) <= True
drop_elt(s(z), enil, enil) <= True
drop_elt(z, econs(a, econs(a, econs(a, enil))), econs(a, econs(a, econs(a, enil)))) <= True
drop_elt(z, econs(a, econs(a, enil)), econs(a, econs(a, enil))) <= True
drop_elt(z, econs(a, enil), econs(a, enil)) <= True
drop_elt(z, enil, enil) <= True
length_elt(econs(a, econs(a, econs(a, enil))), s(s(s(z)))) <= True
length_elt(econs(a, econs(a, enil)), s(s(z))) <= True
length_elt(econs(a, enil), s(z)) <= True
length_elt(enil, z) <= True
minus(s(s(s(z))), s(s(z)), s(z)) <= True
minus(s(s(s(z))), s(z), s(s(z))) <= True
minus(s(s(s(z))), z, s(s(s(z)))) <= True
minus(s(s(z)), s(s(s(z))), z) <= True
minus(s(s(z)), s(s(z)), z) <= True
minus(s(s(z)), s(z), s(z)) <= True
minus(s(s(z)), z, s(s(z))) <= True
minus(s(z), s(s(z)), z) <= True
minus(s(z), s(z), z) <= True
minus(s(z), z, s(z)) <= True
minus(z, s(z), z) <= True
minus(z, z, z) <= True
False <= drop_elt(s(s(s(z))), econs(a, econs(a, enil)), enil) /\ minus(s(s(z)), s(s(s(z))), s(z))
False <= drop_elt(s(s(z)), econs(a, econs(a, econs(a, enil))), enil) /\ minus(s(s(s(z))), s(s(z)), s(s(z)))
False <= drop_elt(s(s(z)), econs(a, econs(a, enil)), econs(a, enil))
False <= drop_elt(s(s(z)), econs(a, enil), econs(a, enil))
False <= drop_elt(s(z), econs(a, econs(a, enil)), enil)
False <= drop_elt(s(z), econs(a, enil), econs(a, enil))
False <= drop_elt(z, econs(a, econs(a, enil)), econs(a, enil))
False <= length_elt(econs(a, econs(a, enil)), s(z))
False <= length_elt(econs(a, enil), s(s(z)))
False <= minus(s(s(s(z))), s(s(z)), z)
False <= minus(s(s(z)), s(s(z)), s(s(z)))
False <= minus(s(s(z)), s(s(z)), s(z))
False <= minus(s(s(z)), s(z), s(s(z)))
False <= minus(s(s(z)), s(z), z)
minus(s(s(s(z))), s(z), s(s(s(z)))) <= minus(s(s(z)), z, s(s(s(z))))
False <= minus(s(z), s(s(z)), s(z))
False <= minus(s(z), s(z), s(s(z)))
False <= minus(s(z), s(z), s(z))
False <= minus(s(z), z, s(s(z)))
}

Learner proposed model:
Found Model:
|_

_r_1 ->
{
  _r_1(s(x_0_0), s(x_1_0)) <= _r_6(x_0_0)
  _r_1(s(x_0_0), z) <= _r_5(x_0_0)
}
;
_r_2 ->
{
  _r_2(s(x_0_0), econs(x_1_0, x_1_1)) <= True
  _r_2(s(x_0_0), enil) <= True
  _r_2(z, enil) <= True
}
;
_r_3 ->
{
  _r_3(s(x_0_0), econs(x_1_0, x_1_1)) <= _r_3(x_0_0, x_1_1)
  _r_3(z, econs(x_1_0, x_1_1)) <= True
}
;
_r_4 ->
{
  _r_4(econs(x_0_0, x_0_1), econs(x_1_0, x_1_1)) <= True
  _r_4(enil, enil) <= True
}
;
_r_5 ->
{
  _r_5(s(x_0_0)) <= True
}
;
_r_6 ->
{
  _r_6(z) <= True
}
;
drop_elt ->
{
  drop_elt(s(x_0_0), econs(x_1_0, x_1_1), econs(x_2_0, x_2_1)) <= _r_3(x_0_0, x_1_1)
  drop_elt(s(x_0_0), econs(x_1_0, x_1_1), enil) <= _r_2(x_0_0, x_1_1)
  drop_elt(s(x_0_0), enil, enil) <= True
  drop_elt(z, econs(x_1_0, x_1_1), econs(x_2_0, x_2_1)) <= _r_4(x_1_1, x_2_1)
  drop_elt(z, enil, enil) <= True
}
;
length_elt ->
{
  length_elt(econs(x_0_0, x_0_1), s(x_1_0)) <= length_elt(x_0_1, x_1_0)
  length_elt(enil, z) <= True
}
;
minus ->
{
  minus(s(x_0_0), s(x_1_0), s(x_2_0)) <= _r_1(x_0_0, x_1_0) /\ _r_6(x_1_0)
  minus(s(x_0_0), s(x_1_0), s(x_2_0)) <= _r_1(x_0_0, x_2_0) /\ _r_6(x_2_0)
  minus(s(x_0_0), s(x_1_0), s(x_2_0)) <= _r_5(x_0_0) /\ _r_6(x_1_0) /\ _r_6(x_2_0)
  minus(s(x_0_0), s(x_1_0), z) <= _r_1(x_0_0, x_1_0)
  minus(s(x_0_0), s(x_1_0), z) <= _r_6(x_0_0)
  minus(s(x_0_0), z, s(x_2_0)) <= _r_5(x_0_0)
  minus(s(x_0_0), z, s(x_2_0)) <= _r_6(x_2_0)
  minus(z, s(x_1_0), z) <= True
  minus(z, z, z) <= True
}

--
Equality automata are defined for: {elist, elt, nat}
_|


Answer of teacher:


drop_elt(s(u), enil, enil) <= True -> No: ()
drop_elt(z, l, l) <= True -> No: ()
length_elt(enil, z) <= True -> No: ()
minus(s(u), z, s(u)) <= True -> No: ()
minus(z, y, z) <= True -> No: ()
eq_nat(_ota, _qta) <= drop_elt(n, l, _pta) /\ length_elt(_pta, _ota) /\ length_elt(l, _rta) /\ minus(_rta, n, _qta) -> Yes: {
_ota -> s(z)  ;  _pta -> econs(_pta_0, enil)  ;  _qta -> z  ;  _rta -> s(s(s(z)))  ;  l -> econs(l_0, econs(v2_0, econs(v1_0, enil)))  ;  n -> s(z)
}
drop_elt(s(u), econs(x2, x3), _ata) <= drop_elt(u, x3, _ata) -> No: ()
length_elt(econs(x, ll), s(_fta)) <= length_elt(ll, _fta) -> No: ()
minus(s(u), s(x2), _jta) <= minus(u, x2, _jta) -> Yes: {
_jta -> z  ;  u -> s(s(s(v0_0)))  ;  x2 -> s(z)
}



-------------------------------------------
Step 20, which took 4.207929 s (model generation: 4.204944,  model checking: 0.002985):

Ground examples at the beginning of this step are:
{
drop_elt(s(s(z)), econs(a, econs(a, econs(a, enil))), econs(a, enil)) <= True
drop_elt(s(s(z)), econs(a, econs(a, enil)), enil) <= True
drop_elt(s(s(z)), econs(a, enil), enil) <= True
drop_elt(s(z), econs(a, econs(a, enil)), econs(a, enil)) <= True
drop_elt(s(z), econs(a, enil), enil) <= True
drop_elt(s(z), enil, enil) <= True
drop_elt(z, econs(a, econs(a, econs(a, enil))), econs(a, econs(a, econs(a, enil)))) <= True
drop_elt(z, econs(a, econs(a, enil)), econs(a, econs(a, enil))) <= True
drop_elt(z, econs(a, enil), econs(a, enil)) <= True
drop_elt(z, enil, enil) <= True
length_elt(econs(a, econs(a, econs(a, enil))), s(s(s(z)))) <= True
length_elt(econs(a, econs(a, enil)), s(s(z))) <= True
length_elt(econs(a, enil), s(z)) <= True
length_elt(enil, z) <= True
minus(s(s(s(z))), s(s(z)), s(z)) <= True
minus(s(s(s(z))), s(z), s(s(z))) <= True
minus(s(s(s(z))), z, s(s(s(z)))) <= True
minus(s(s(z)), s(s(s(z))), z) <= True
minus(s(s(z)), s(s(z)), z) <= True
minus(s(s(z)), s(z), s(z)) <= True
minus(s(s(z)), z, s(s(z))) <= True
minus(s(z), s(s(z)), z) <= True
minus(s(z), s(z), z) <= True
minus(s(z), z, s(z)) <= True
minus(z, s(z), z) <= True
minus(z, z, z) <= True
False <= drop_elt(s(s(s(z))), econs(a, econs(a, enil)), enil) /\ minus(s(s(z)), s(s(s(z))), s(z))
False <= drop_elt(s(s(z)), econs(a, econs(a, econs(a, enil))), enil) /\ minus(s(s(s(z))), s(s(z)), s(s(z)))
False <= drop_elt(s(s(z)), econs(a, econs(a, enil)), econs(a, enil))
False <= drop_elt(s(s(z)), econs(a, enil), econs(a, enil))
False <= drop_elt(s(z), econs(a, econs(a, econs(a, enil))), econs(a, enil)) /\ minus(s(s(s(z))), s(z), z)
False <= drop_elt(s(z), econs(a, econs(a, enil)), enil)
False <= drop_elt(s(z), econs(a, enil), econs(a, enil))
False <= drop_elt(z, econs(a, econs(a, enil)), econs(a, enil))
False <= length_elt(econs(a, econs(a, enil)), s(z))
False <= length_elt(econs(a, enil), s(s(z)))
False <= minus(s(s(s(z))), s(s(z)), z)
minus(s(s(s(s(z)))), s(s(z)), z) <= minus(s(s(s(z))), s(z), z)
False <= minus(s(s(z)), s(s(z)), s(s(z)))
False <= minus(s(s(z)), s(s(z)), s(z))
False <= minus(s(s(z)), s(z), s(s(z)))
False <= minus(s(s(z)), s(z), z)
minus(s(s(s(z))), s(z), s(s(s(z)))) <= minus(s(s(z)), z, s(s(s(z))))
False <= minus(s(z), s(s(z)), s(z))
False <= minus(s(z), s(z), s(s(z)))
False <= minus(s(z), s(z), s(z))
False <= minus(s(z), z, s(s(z)))
}

Learner proposed model:
Found Model:
|_

_r_1 ->
{
  _r_1(s(x_0_0), econs(x_1_0, x_1_1)) <= True
  _r_1(s(x_0_0), enil) <= True
  _r_1(z, enil) <= True
}
;
_r_2 ->
{
  _r_2(s(x_0_0), econs(x_1_0, x_1_1)) <= _r_2(x_0_0, x_1_1)
  _r_2(z, econs(x_1_0, x_1_1)) <= True
}
;
_r_3 ->
{
  _r_3(econs(x_0_0, x_0_1), econs(x_1_0, x_1_1)) <= True
  _r_3(enil, enil) <= True
}
;
_r_4 ->
{
  _r_4(s(x_0_0)) <= _r_6(x_0_0)
}
;
_r_5 ->
{
  _r_5(s(x_0_0)) <= _r_4(x_0_0)
}
;
_r_6 ->
{
  _r_6(z) <= True
}
;
drop_elt ->
{
  drop_elt(s(x_0_0), econs(x_1_0, x_1_1), econs(x_2_0, x_2_1)) <= _r_1(x_0_0, x_2_1) /\ _r_2(x_0_0, x_1_1)
  drop_elt(s(x_0_0), econs(x_1_0, x_1_1), econs(x_2_0, x_2_1)) <= _r_2(x_0_0, x_1_1)
  drop_elt(s(x_0_0), econs(x_1_0, x_1_1), enil) <= _r_1(x_0_0, x_1_1)
  drop_elt(s(x_0_0), enil, enil) <= True
  drop_elt(z, econs(x_1_0, x_1_1), econs(x_2_0, x_2_1)) <= _r_3(x_1_1, x_2_1)
  drop_elt(z, enil, enil) <= True
}
;
length_elt ->
{
  length_elt(econs(x_0_0, x_0_1), s(x_1_0)) <= length_elt(x_0_1, x_1_0)
  length_elt(enil, z) <= True
}
;
minus ->
{
  minus(s(x_0_0), s(x_1_0), s(x_2_0)) <= _r_4(x_0_0) /\ _r_6(x_1_0) /\ _r_6(x_2_0)
  minus(s(x_0_0), s(x_1_0), s(x_2_0)) <= _r_5(x_0_0) /\ _r_6(x_1_0)
  minus(s(x_0_0), s(x_1_0), s(x_2_0)) <= _r_5(x_0_0) /\ _r_6(x_2_0)
  minus(s(x_0_0), s(x_1_0), z) <= _r_4(x_0_0) /\ _r_4(x_1_0)
  minus(s(x_0_0), s(x_1_0), z) <= _r_5(x_1_0)
  minus(s(x_0_0), s(x_1_0), z) <= _r_6(x_0_0)
  minus(s(x_0_0), z, s(x_2_0)) <= _r_4(x_0_0)
  minus(s(x_0_0), z, s(x_2_0)) <= _r_5(x_2_0)
  minus(s(x_0_0), z, s(x_2_0)) <= _r_6(x_2_0)
  minus(z, s(x_1_0), z) <= True
  minus(z, z, z) <= True
}

--
Equality automata are defined for: {elist, elt, nat}
_|


Answer of teacher:


drop_elt(s(u), enil, enil) <= True -> No: ()
drop_elt(z, l, l) <= True -> No: ()
length_elt(enil, z) <= True -> No: ()
minus(s(u), z, s(u)) <= True -> Yes: {
u -> s(s(s(v0_0)))
}
minus(z, y, z) <= True -> No: ()
eq_nat(_ota, _qta) <= drop_elt(n, l, _pta) /\ length_elt(_pta, _ota) /\ length_elt(l, _rta) /\ minus(_rta, n, _qta) -> Yes: {
_ota -> s(s(z))  ;  _pta -> econs(_pta_0, econs(v2_0, enil))  ;  _qta -> s(z)  ;  _rta -> s(s(z))  ;  l -> econs(l_0, econs(v1_0, enil))  ;  n -> s(z)
}
drop_elt(s(u), econs(x2, x3), _ata) <= drop_elt(u, x3, _ata) -> No: ()
length_elt(econs(x, ll), s(_fta)) <= length_elt(ll, _fta) -> No: ()
minus(s(u), s(x2), _jta) <= minus(u, x2, _jta) -> Yes: {
_jta -> s(s(v0_0))  ;  u -> s(s(s(z)))  ;  x2 -> s(z)
}



-------------------------------------------
Step 21, which took 7.462868 s (model generation: 7.461623,  model checking: 0.001245):

Ground examples at the beginning of this step are:
{
drop_elt(s(s(z)), econs(a, econs(a, econs(a, enil))), econs(a, enil)) <= True
drop_elt(s(s(z)), econs(a, econs(a, enil)), enil) <= True
drop_elt(s(s(z)), econs(a, enil), enil) <= True
drop_elt(s(z), econs(a, econs(a, enil)), econs(a, enil)) <= True
drop_elt(s(z), econs(a, enil), enil) <= True
drop_elt(s(z), enil, enil) <= True
drop_elt(z, econs(a, econs(a, econs(a, enil))), econs(a, econs(a, econs(a, enil)))) <= True
drop_elt(z, econs(a, econs(a, enil)), econs(a, econs(a, enil))) <= True
drop_elt(z, econs(a, enil), econs(a, enil)) <= True
drop_elt(z, enil, enil) <= True
length_elt(econs(a, econs(a, econs(a, enil))), s(s(s(z)))) <= True
length_elt(econs(a, econs(a, enil)), s(s(z))) <= True
length_elt(econs(a, enil), s(z)) <= True
length_elt(enil, z) <= True
minus(s(s(s(s(z)))), s(s(z)), s(s(z))) <= True
minus(s(s(s(s(z)))), z, s(s(s(s(z))))) <= True
minus(s(s(s(z))), s(s(z)), s(z)) <= True
minus(s(s(s(z))), s(z), s(s(z))) <= True
minus(s(s(s(z))), z, s(s(s(z)))) <= True
minus(s(s(z)), s(s(s(z))), z) <= True
minus(s(s(z)), s(s(z)), z) <= True
minus(s(s(z)), s(z), s(z)) <= True
minus(s(s(z)), z, s(s(z))) <= True
minus(s(z), s(s(z)), z) <= True
minus(s(z), s(z), z) <= True
minus(s(z), z, s(z)) <= True
minus(z, s(z), z) <= True
minus(z, z, z) <= True
False <= drop_elt(s(s(s(z))), econs(a, econs(a, enil)), enil) /\ minus(s(s(z)), s(s(s(z))), s(z))
False <= drop_elt(s(s(z)), econs(a, econs(a, econs(a, enil))), enil) /\ minus(s(s(s(z))), s(s(z)), s(s(z)))
False <= drop_elt(s(s(z)), econs(a, econs(a, enil)), econs(a, enil))
False <= drop_elt(s(s(z)), econs(a, enil), econs(a, enil))
False <= drop_elt(s(z), econs(a, econs(a, econs(a, enil))), econs(a, enil)) /\ minus(s(s(s(z))), s(z), z)
False <= drop_elt(s(z), econs(a, econs(a, enil)), econs(a, econs(a, enil)))
False <= drop_elt(s(z), econs(a, econs(a, enil)), enil)
False <= drop_elt(s(z), econs(a, enil), econs(a, enil))
False <= drop_elt(z, econs(a, econs(a, enil)), econs(a, enil))
False <= length_elt(econs(a, econs(a, enil)), s(z))
False <= length_elt(econs(a, enil), s(s(z)))
False <= minus(s(s(s(z))), s(s(z)), z)
minus(s(s(s(s(z)))), s(s(z)), z) <= minus(s(s(s(z))), s(z), z)
False <= minus(s(s(z)), s(s(z)), s(s(z)))
False <= minus(s(s(z)), s(s(z)), s(z))
False <= minus(s(s(z)), s(z), s(s(z)))
False <= minus(s(s(z)), s(z), z)
minus(s(s(s(z))), s(z), s(s(s(z)))) <= minus(s(s(z)), z, s(s(s(z))))
False <= minus(s(z), s(s(z)), s(z))
False <= minus(s(z), s(z), s(s(z)))
False <= minus(s(z), s(z), s(z))
False <= minus(s(z), z, s(s(z)))
}

Learner proposed model:
Found Model:
|_

_r_1 ->
{
  _r_1(s(x_0_0), s(x_1_0)) <= _r_6(x_0_0)
  _r_1(s(x_0_0), z) <= True
  _r_1(z, z) <= True
}
;
_r_2 ->
{
  _r_2(s(x_0_0), s(x_1_0)) <= _r_2(x_0_0, x_1_0)
  _r_2(z, s(x_1_0)) <= True
  _r_2(z, z) <= True
}
;
_r_3 ->
{
  _r_3(s(x_0_0), econs(x_1_0, x_1_1)) <= _r_3(x_0_0, x_1_1)
  _r_3(s(x_0_0), enil) <= True
  _r_3(z, enil) <= True
}
;
_r_4 ->
{
  _r_4(s(x_0_0), econs(x_1_0, x_1_1)) <= _r_4(x_0_0, x_1_1)
  _r_4(z, econs(x_1_0, x_1_1)) <= True
}
;
_r_5 ->
{
  _r_5(econs(x_0_0, x_0_1), econs(x_1_0, x_1_1)) <= True
  _r_5(enil, enil) <= True
}
;
_r_6 ->
{
  _r_6(s(x_0_0)) <= True
}
;
drop_elt ->
{
  drop_elt(s(x_0_0), econs(x_1_0, x_1_1), econs(x_2_0, x_2_1)) <= _r_3(x_0_0, x_2_1) /\ _r_4(x_0_0, x_1_1)
  drop_elt(s(x_0_0), econs(x_1_0, x_1_1), enil) <= _r_3(x_0_0, x_1_1)
  drop_elt(s(x_0_0), enil, enil) <= True
  drop_elt(z, econs(x_1_0, x_1_1), econs(x_2_0, x_2_1)) <= _r_5(x_1_1, x_2_1)
  drop_elt(z, enil, enil) <= True
}
;
length_elt ->
{
  length_elt(econs(x_0_0, x_0_1), s(x_1_0)) <= length_elt(x_0_1, x_1_0)
  length_elt(enil, z) <= True
}
;
minus ->
{
  minus(s(x_0_0), s(x_1_0), s(x_2_0)) <= _r_1(x_0_0, x_1_0) /\ _r_1(x_0_0, x_2_0) /\ _r_6(x_0_0)
  minus(s(x_0_0), s(x_1_0), z) <= _r_2(x_0_0, x_1_0)
  minus(s(x_0_0), z, s(x_2_0)) <= _r_1(x_0_0, x_2_0)
  minus(s(x_0_0), z, s(x_2_0)) <= _r_2(x_0_0, x_2_0) /\ _r_6(x_0_0)
  minus(z, s(x_1_0), z) <= True
  minus(z, z, z) <= True
}

--
Equality automata are defined for: {elist, elt, nat}
_|


Answer of teacher:


drop_elt(s(u), enil, enil) <= True -> No: ()
drop_elt(z, l, l) <= True -> No: ()
length_elt(enil, z) <= True -> No: ()
minus(s(u), z, s(u)) <= True -> No: ()
minus(z, y, z) <= True -> No: ()
eq_nat(_ota, _qta) <= drop_elt(n, l, _pta) /\ length_elt(_pta, _ota) /\ length_elt(l, _rta) /\ minus(_rta, n, _qta) -> Yes: {
_ota -> s(s(z))  ;  _pta -> econs(_pta_0, econs(v4_0, enil))  ;  _qta -> s(z)  ;  _rta -> s(s(z))  ;  l -> econs(l_0, econs(v3_0, enil))  ;  n -> z
}
drop_elt(s(u), econs(x2, x3), _ata) <= drop_elt(u, x3, _ata) -> Yes: {
_ata -> econs(_ata_0, econs(v0_0, v0_1))  ;  u -> z  ;  x3 -> econs(x3_0, econs(v1_0, v1_1))
}
length_elt(econs(x, ll), s(_fta)) <= length_elt(ll, _fta) -> No: ()
minus(s(u), s(x2), _jta) <= minus(u, x2, _jta) -> No: ()



-------------------------------------------
Step 22, which took 4.131558 s (model generation: 4.124617,  model checking: 0.006941):

Ground examples at the beginning of this step are:
{
drop_elt(s(s(z)), econs(a, econs(a, econs(a, enil))), econs(a, enil)) <= True
drop_elt(s(s(z)), econs(a, econs(a, enil)), enil) <= True
drop_elt(s(s(z)), econs(a, enil), enil) <= True
drop_elt(s(z), econs(a, econs(a, econs(a, enil))), econs(a, econs(a, enil))) <= True
drop_elt(s(z), econs(a, econs(a, enil)), econs(a, enil)) <= True
drop_elt(s(z), econs(a, enil), enil) <= True
drop_elt(s(z), enil, enil) <= True
drop_elt(z, econs(a, econs(a, econs(a, enil))), econs(a, econs(a, econs(a, enil)))) <= True
drop_elt(z, econs(a, econs(a, enil)), econs(a, econs(a, enil))) <= True
drop_elt(z, econs(a, enil), econs(a, enil)) <= True
drop_elt(z, enil, enil) <= True
length_elt(econs(a, econs(a, econs(a, enil))), s(s(s(z)))) <= True
length_elt(econs(a, econs(a, enil)), s(s(z))) <= True
length_elt(econs(a, enil), s(z)) <= True
length_elt(enil, z) <= True
minus(s(s(s(s(z)))), s(s(z)), s(s(z))) <= True
minus(s(s(s(s(z)))), z, s(s(s(s(z))))) <= True
minus(s(s(s(z))), s(s(z)), s(z)) <= True
minus(s(s(s(z))), s(z), s(s(z))) <= True
minus(s(s(s(z))), z, s(s(s(z)))) <= True
minus(s(s(z)), s(s(s(z))), z) <= True
minus(s(s(z)), s(s(z)), z) <= True
minus(s(s(z)), s(z), s(z)) <= True
minus(s(s(z)), z, s(s(z))) <= True
minus(s(z), s(s(z)), z) <= True
minus(s(z), s(z), z) <= True
minus(s(z), z, s(z)) <= True
minus(z, s(z), z) <= True
minus(z, z, z) <= True
False <= drop_elt(s(s(s(z))), econs(a, econs(a, enil)), enil) /\ minus(s(s(z)), s(s(s(z))), s(z))
False <= drop_elt(s(s(z)), econs(a, econs(a, econs(a, enil))), enil) /\ minus(s(s(s(z))), s(s(z)), s(s(z)))
False <= drop_elt(s(s(z)), econs(a, econs(a, enil)), econs(a, enil))
False <= drop_elt(s(s(z)), econs(a, enil), econs(a, enil))
False <= drop_elt(s(z), econs(a, econs(a, econs(a, enil))), econs(a, enil)) /\ minus(s(s(s(z))), s(z), z)
False <= drop_elt(s(z), econs(a, econs(a, enil)), econs(a, econs(a, enil)))
False <= drop_elt(s(z), econs(a, econs(a, enil)), enil)
False <= drop_elt(s(z), econs(a, enil), econs(a, enil))
False <= drop_elt(z, econs(a, econs(a, enil)), econs(a, enil))
False <= length_elt(econs(a, econs(a, enil)), s(z))
False <= length_elt(econs(a, enil), s(s(z)))
False <= minus(s(s(s(z))), s(s(z)), z)
minus(s(s(s(s(z)))), s(s(z)), z) <= minus(s(s(s(z))), s(z), z)
False <= minus(s(s(z)), s(s(z)), s(s(z)))
False <= minus(s(s(z)), s(s(z)), s(z))
False <= minus(s(s(z)), s(z), s(s(z)))
False <= minus(s(s(z)), s(z), z)
minus(s(s(s(z))), s(z), s(s(s(z)))) <= minus(s(s(z)), z, s(s(s(z))))
False <= minus(s(s(z)), z, s(z))
False <= minus(s(z), s(s(z)), s(z))
False <= minus(s(z), s(z), s(s(z)))
False <= minus(s(z), s(z), s(z))
False <= minus(s(z), z, s(s(z)))
}

Learner proposed model:
Found Model:
|_

_r_1 ->
{
  _r_1(s(x_0_0)) <= _r_2(x_0_0)
}
;
_r_2 ->
{
  _r_2(s(x_0_0)) <= _r_3(x_0_0)
}
;
_r_3 ->
{
  _r_3(s(x_0_0)) <= _r_1(x_0_0)
  _r_3(z) <= True
}
;
_r_4 ->
{
  _r_4(econs(x_0_0, x_0_1)) <= True
}
;
_r_5 ->
{
  _r_5(enil) <= True
}
;
_r_6 ->
{
  _r_6(econs(x_0_0, x_0_1)) <= _r_4(x_0_1)
}
;
drop_elt ->
{
  drop_elt(s(x_0_0), econs(x_1_0, x_1_1), econs(x_2_0, x_2_1)) <= _r_3(x_0_0) /\ _r_4(x_1_1) /\ _r_5(x_2_1)
  drop_elt(s(x_0_0), econs(x_1_0, x_1_1), econs(x_2_0, x_2_1)) <= _r_6(x_1_1)
  drop_elt(s(x_0_0), econs(x_1_0, x_1_1), enil) <= _r_2(x_0_0)
  drop_elt(s(x_0_0), econs(x_1_0, x_1_1), enil) <= _r_5(x_1_1)
  drop_elt(s(x_0_0), enil, enil) <= True
  drop_elt(z, econs(x_1_0, x_1_1), econs(x_2_0, x_2_1)) <= _r_4(x_2_1)
  drop_elt(z, econs(x_1_0, x_1_1), econs(x_2_0, x_2_1)) <= _r_5(x_1_1)
  drop_elt(z, enil, enil) <= True
}
;
length_elt ->
{
  length_elt(econs(x_0_0, x_0_1), s(x_1_0)) <= length_elt(x_0_1, x_1_0)
  length_elt(enil, z) <= True
}
;
minus ->
{
  minus(s(x_0_0), s(x_1_0), s(x_2_0)) <= _r_1(x_0_0) /\ _r_3(x_1_0)
  minus(s(x_0_0), s(x_1_0), s(x_2_0)) <= _r_1(x_0_0) /\ _r_3(x_2_0)
  minus(s(x_0_0), s(x_1_0), s(x_2_0)) <= _r_2(x_0_0) /\ _r_3(x_1_0) /\ _r_3(x_2_0)
  minus(s(x_0_0), s(x_1_0), s(x_2_0)) <= _r_2(x_1_0) /\ _r_2(x_2_0) /\ _r_3(x_0_0)
  minus(s(x_0_0), s(x_1_0), z) <= _r_1(x_1_0)
  minus(s(x_0_0), s(x_1_0), z) <= _r_2(x_0_0) /\ _r_2(x_1_0)
  minus(s(x_0_0), s(x_1_0), z) <= _r_3(x_0_0)
  minus(s(x_0_0), z, s(x_2_0)) <= _r_1(x_0_0)
  minus(s(x_0_0), z, s(x_2_0)) <= _r_2(x_0_0) /\ _r_2(x_2_0)
  minus(s(x_0_0), z, s(x_2_0)) <= _r_3(x_0_0) /\ _r_3(x_2_0)
  minus(z, s(x_1_0), z) <= True
  minus(z, z, z) <= True
}

--
Equality automata are defined for: {elist, elt, nat}
_|


Answer of teacher:


drop_elt(s(u), enil, enil) <= True -> No: ()
drop_elt(z, l, l) <= True -> No: ()
length_elt(enil, z) <= True -> No: ()
minus(s(u), z, s(u)) <= True -> No: ()
minus(z, y, z) <= True -> No: ()
eq_nat(_ota, _qta) <= drop_elt(n, l, _pta) /\ length_elt(_pta, _ota) /\ length_elt(l, _rta) /\ minus(_rta, n, _qta) -> Yes: {
_ota -> z  ;  _pta -> enil  ;  _qta -> s(s(z))  ;  _rta -> s(z)  ;  l -> econs(l_0, enil)  ;  n -> s(s(z))
}
drop_elt(s(u), econs(x2, x3), _ata) <= drop_elt(u, x3, _ata) -> Yes: {
_ata -> econs(_ata_0, econs(v0_0, v0_1))  ;  u -> z  ;  x3 -> econs(x3_0, enil)
}
length_elt(econs(x, ll), s(_fta)) <= length_elt(ll, _fta) -> No: ()



Ground examples:
{
drop_elt(s(s(z)), econs(a, econs(a, econs(a, enil))), econs(a, enil)) <= True
drop_elt(s(s(z)), econs(a, econs(a, enil)), enil) <= True
drop_elt(s(s(z)), econs(a, enil), enil) <= True
drop_elt(s(z), econs(a, econs(a, econs(a, enil))), econs(a, econs(a, enil))) <= True
drop_elt(s(z), econs(a, econs(a, enil)), econs(a, enil)) <= True
drop_elt(s(z), econs(a, enil), enil) <= True
drop_elt(s(z), enil, enil) <= True
drop_elt(z, econs(a, econs(a, econs(a, enil))), econs(a, econs(a, econs(a, enil)))) <= True
drop_elt(z, econs(a, econs(a, enil)), econs(a, econs(a, enil))) <= True
drop_elt(z, econs(a, enil), econs(a, enil)) <= True
drop_elt(z, enil, enil) <= True
length_elt(econs(a, econs(a, econs(a, enil))), s(s(s(z)))) <= True
length_elt(econs(a, econs(a, enil)), s(s(z))) <= True
length_elt(econs(a, enil), s(z)) <= True
length_elt(enil, z) <= True
minus(s(s(s(s(z)))), s(s(z)), s(s(z))) <= True
minus(s(s(s(s(z)))), z, s(s(s(s(z))))) <= True
minus(s(s(s(z))), s(s(z)), s(z)) <= True
minus(s(s(s(z))), s(z), s(s(z))) <= True
minus(s(s(s(z))), z, s(s(s(z)))) <= True
minus(s(s(z)), s(s(s(z))), z) <= True
minus(s(s(z)), s(s(z)), z) <= True
minus(s(s(z)), s(z), s(z)) <= True
minus(s(s(z)), z, s(s(z))) <= True
minus(s(z), s(s(z)), z) <= True
minus(s(z), s(z), z) <= True
minus(s(z), z, s(z)) <= True
minus(z, s(z), z) <= True
minus(z, z, z) <= True
False <= drop_elt(s(s(s(z))), econs(a, econs(a, enil)), enil) /\ minus(s(s(z)), s(s(s(z))), s(z))
False <= drop_elt(s(s(z)), econs(a, econs(a, econs(a, enil))), enil) /\ minus(s(s(s(z))), s(s(z)), s(s(z)))
False <= drop_elt(s(s(z)), econs(a, econs(a, enil)), econs(a, enil))
False <= drop_elt(s(s(z)), econs(a, enil), econs(a, enil))
False <= drop_elt(s(z), econs(a, econs(a, econs(a, enil))), econs(a, enil)) /\ minus(s(s(s(z))), s(z), z)
False <= drop_elt(s(z), econs(a, econs(a, enil)), econs(a, econs(a, enil)))
False <= drop_elt(s(z), econs(a, econs(a, enil)), enil)
False <= drop_elt(s(z), econs(a, enil), econs(a, enil))
False <= drop_elt(z, econs(a, econs(a, enil)), econs(a, enil))
False <= drop_elt(z, econs(a, enil), econs(a, econs(a, enil)))
False <= length_elt(econs(a, econs(a, enil)), s(z))
False <= length_elt(econs(a, enil), s(s(z)))
False <= minus(s(s(s(z))), s(s(z)), z)
minus(s(s(s(s(z)))), s(s(z)), z) <= minus(s(s(s(z))), s(z), z)
False <= minus(s(s(z)), s(s(z)), s(s(z)))
False <= minus(s(s(z)), s(s(z)), s(z))
False <= minus(s(s(z)), s(z), s(s(z)))
False <= minus(s(s(z)), s(z), z)
minus(s(s(s(z))), s(z), s(s(s(z)))) <= minus(s(s(z)), z, s(s(s(z))))
False <= minus(s(s(z)), z, s(z))
False <= minus(s(z), s(s(z)), s(s(z)))
False <= minus(s(z), s(s(z)), s(z))
False <= minus(s(z), s(z), s(s(z)))
False <= minus(s(z), s(z), s(z))
False <= minus(s(z), z, s(s(z)))
}

Learner output:
Maybe

Last ice step stopped before teacher could answer
Total time: 40.329140
Learner time: 39.283859
Teacher time: 0.029730
Reasons for stopping: Maybe:  timeout during learner
Last solver state:

Clauses:
{
drop_elt(s(u), enil, enil) <= True
drop_elt(z, l, l) <= True
length_elt(enil, z) <= True
minus(s(u), z, s(u)) <= True
minus(z, y, z) <= True
eq_nat(_ota, _qta) <= drop_elt(n, l, _pta) /\ length_elt(_pta, _ota) /\ length_elt(l, _rta) /\ minus(_rta, n, _qta)
drop_elt(s(u), econs(x2, x3), _ata) <= drop_elt(u, x3, _ata)
length_elt(econs(x, ll), s(_fta)) <= length_elt(ll, _fta)
minus(s(u), s(x2), _jta) <= minus(u, x2, _jta)
}

Accumulated learning constraints:
{
drop_elt(s(s(z)), econs(a, econs(a, econs(a, enil))), econs(a, enil)) <= True
drop_elt(s(s(z)), econs(a, econs(a, enil)), enil) <= True
drop_elt(s(s(z)), econs(a, enil), enil) <= True
drop_elt(s(z), econs(a, econs(a, econs(a, enil))), econs(a, econs(a, enil))) <= True
drop_elt(s(z), econs(a, econs(a, enil)), econs(a, enil)) <= True
drop_elt(s(z), econs(a, enil), enil) <= True
drop_elt(s(z), enil, enil) <= True
drop_elt(z, econs(a, econs(a, econs(a, enil))), econs(a, econs(a, econs(a, enil)))) <= True
drop_elt(z, econs(a, econs(a, enil)), econs(a, econs(a, enil))) <= True
drop_elt(z, econs(a, enil), econs(a, enil)) <= True
drop_elt(z, enil, enil) <= True
length_elt(econs(a, econs(a, econs(a, enil))), s(s(s(z)))) <= True
length_elt(econs(a, econs(a, enil)), s(s(z))) <= True
length_elt(econs(a, enil), s(z)) <= True
length_elt(enil, z) <= True
minus(s(s(s(s(z)))), s(s(z)), s(s(z))) <= True
minus(s(s(s(s(z)))), z, s(s(s(s(z))))) <= True
minus(s(s(s(z))), s(s(z)), s(z)) <= True
minus(s(s(s(z))), s(z), s(s(z))) <= True
minus(s(s(s(z))), z, s(s(s(z)))) <= True
minus(s(s(z)), s(s(s(z))), z) <= True
minus(s(s(z)), s(s(z)), z) <= True
minus(s(s(z)), s(z), s(z)) <= True
minus(s(s(z)), z, s(s(z))) <= True
minus(s(z), s(s(z)), z) <= True
minus(s(z), s(z), z) <= True
minus(s(z), z, s(z)) <= True
minus(z, s(z), z) <= True
minus(z, z, z) <= True
False <= drop_elt(s(s(s(z))), econs(a, econs(a, enil)), enil) /\ minus(s(s(z)), s(s(s(z))), s(z))
False <= drop_elt(s(s(z)), econs(a, econs(a, econs(a, enil))), enil) /\ minus(s(s(s(z))), s(s(z)), s(s(z)))
False <= drop_elt(s(s(z)), econs(a, econs(a, enil)), econs(a, enil))
False <= drop_elt(s(s(z)), econs(a, enil), econs(a, enil))
False <= drop_elt(s(z), econs(a, econs(a, econs(a, enil))), econs(a, enil)) /\ minus(s(s(s(z))), s(z), z)
False <= drop_elt(s(z), econs(a, econs(a, enil)), econs(a, econs(a, enil)))
False <= drop_elt(s(z), econs(a, econs(a, enil)), enil)
False <= drop_elt(s(z), econs(a, enil), econs(a, enil))
False <= drop_elt(z, econs(a, econs(a, enil)), econs(a, enil))
False <= drop_elt(z, econs(a, enil), econs(a, econs(a, enil)))
False <= length_elt(econs(a, econs(a, enil)), s(z))
False <= length_elt(econs(a, enil), s(s(z)))
False <= minus(s(s(s(z))), s(s(z)), z)
minus(s(s(s(s(z)))), s(s(z)), z) <= minus(s(s(s(z))), s(z), z)
False <= minus(s(s(z)), s(s(z)), s(s(z)))
False <= minus(s(s(z)), s(s(z)), s(z))
False <= minus(s(s(z)), s(z), s(s(z)))
False <= minus(s(s(z)), s(z), z)
minus(s(s(s(z))), s(z), s(s(s(z)))) <= minus(s(s(z)), z, s(s(s(z))))
False <= minus(s(s(z)), z, s(z))
False <= minus(s(z), s(s(z)), s(s(z)))
False <= minus(s(z), s(s(z)), s(z))
False <= minus(s(z), s(z), s(s(z)))
False <= minus(s(z), s(z), s(z))
False <= minus(s(z), z, s(s(z)))
}

Current best model:
|_

_r_1 ->
{
  _r_1(s(x_0_0)) <= _r_2(x_0_0)
}
;
_r_2 ->
{
  _r_2(s(x_0_0)) <= _r_3(x_0_0)
}
;
_r_3 ->
{
  _r_3(s(x_0_0)) <= _r_1(x_0_0)
  _r_3(z) <= True
}
;
_r_4 ->
{
  _r_4(econs(x_0_0, x_0_1)) <= True
}
;
_r_5 ->
{
  _r_5(enil) <= True
}
;
_r_6 ->
{
  _r_6(econs(x_0_0, x_0_1)) <= _r_4(x_0_1)
}
;
drop_elt ->
{
  drop_elt(s(x_0_0), econs(x_1_0, x_1_1), econs(x_2_0, x_2_1)) <= _r_3(x_0_0) /\ _r_4(x_1_1) /\ _r_5(x_2_1)
  drop_elt(s(x_0_0), econs(x_1_0, x_1_1), econs(x_2_0, x_2_1)) <= _r_6(x_1_1)
  drop_elt(s(x_0_0), econs(x_1_0, x_1_1), enil) <= _r_2(x_0_0)
  drop_elt(s(x_0_0), econs(x_1_0, x_1_1), enil) <= _r_5(x_1_1)
  drop_elt(s(x_0_0), enil, enil) <= True
  drop_elt(z, econs(x_1_0, x_1_1), econs(x_2_0, x_2_1)) <= _r_4(x_2_1)
  drop_elt(z, econs(x_1_0, x_1_1), econs(x_2_0, x_2_1)) <= _r_5(x_1_1)
  drop_elt(z, enil, enil) <= True
}
;
length_elt ->
{
  length_elt(econs(x_0_0, x_0_1), s(x_1_0)) <= length_elt(x_0_1, x_1_0)
  length_elt(enil, z) <= True
}
;
minus ->
{
  minus(s(x_0_0), s(x_1_0), s(x_2_0)) <= _r_1(x_0_0) /\ _r_3(x_1_0)
  minus(s(x_0_0), s(x_1_0), s(x_2_0)) <= _r_1(x_0_0) /\ _r_3(x_2_0)
  minus(s(x_0_0), s(x_1_0), s(x_2_0)) <= _r_2(x_0_0) /\ _r_3(x_1_0) /\ _r_3(x_2_0)
  minus(s(x_0_0), s(x_1_0), s(x_2_0)) <= _r_2(x_1_0) /\ _r_2(x_2_0) /\ _r_3(x_0_0)
  minus(s(x_0_0), s(x_1_0), z) <= _r_1(x_1_0)
  minus(s(x_0_0), s(x_1_0), z) <= _r_2(x_0_0) /\ _r_2(x_1_0)
  minus(s(x_0_0), s(x_1_0), z) <= _r_3(x_0_0)
  minus(s(x_0_0), z, s(x_2_0)) <= _r_1(x_0_0)
  minus(s(x_0_0), z, s(x_2_0)) <= _r_2(x_0_0) /\ _r_2(x_2_0)
  minus(s(x_0_0), z, s(x_2_0)) <= _r_3(x_0_0) /\ _r_3(x_2_0)
  minus(z, s(x_1_0), z) <= True
  minus(z, z, z) <= True
}

--
Equality automata are defined for: {elist, elt, nat}
_|








