Solving ../../../../benchmarks/smtlib/true/isaplanner_prop79.smt2...

Inference procedure has parameters:
Timeout: Some(60.) (sec)
Approximation method: remove every clause that can be safely removed



Learning problem is:

env: {
nat -> {s, z}
}
definition:
{
(minus, F:
{
minus(s(u), z, s(u)) <= True
minus(z, y, z) <= True
minus(s(u), s(x2), _vpa) <= minus(u, x2, _vpa)
}
eq_nat(_ypa, _zpa) <= minus(_wpa, _xpa, _ypa) /\ minus(_wpa, _xpa, _zpa)
)
}

properties:
{
eq_nat(_aqa, _cqa) <= minus(_bqa, s(k), _aqa) /\ minus(_dqa, k, _cqa) /\ minus(m, n, _dqa) /\ minus(s(m), n, _bqa)
}


over-approximation: {minus}
under-approximation: {}

Clause system for inference is:

{
minus(s(u), z, s(u)) <= True
minus(z, y, z) <= True
eq_nat(_aqa, _cqa) <= minus(_bqa, s(k), _aqa) /\ minus(_dqa, k, _cqa) /\ minus(m, n, _dqa) /\ minus(s(m), n, _bqa)
minus(s(u), s(x2), _vpa) <= minus(u, x2, _vpa)
}


Solving took 60.150026 seconds.
No: Contradictory set of ground constraints:
{
minus(s(s(s(s(z)))), s(s(s(z))), s(z)) <= True
minus(s(s(s(s(z)))), s(s(z)), s(s(z))) <= True
minus(s(s(s(s(z)))), s(z), s(s(s(z)))) <= True
minus(s(s(s(s(z)))), z, s(s(s(s(z))))) <= True
minus(s(s(s(z))), s(s(s(z))), z) <= True
minus(s(s(s(z))), s(s(z)), s(z)) <= True
minus(s(s(s(z))), s(z), s(s(z))) <= True
minus(s(s(s(z))), z, s(s(s(z)))) <= True
minus(s(s(z)), s(s(s(z))), z) <= True
minus(s(s(z)), s(s(z)), z) <= True
minus(s(s(z)), s(z), s(z)) <= True
minus(s(s(z)), z, s(s(z))) <= True
minus(s(z), s(s(s(z))), z) <= True
minus(s(z), s(s(z)), z) <= True
minus(s(z), s(z), z) <= True
minus(s(z), z, s(z)) <= True
minus(z, s(s(z)), z) <= True
minus(z, s(z), z) <= True
minus(z, z, z) <= True
False <= minus(s(s(s(s(z)))), s(s(s(z))), z) /\ minus(s(s(s(z))), s(s(s(z))), s(s(z)))
False <= minus(s(s(s(s(z)))), s(s(s(z))), z) /\ minus(s(s(s(z))), s(s(s(z))), s(z))
False <= minus(s(s(s(s(z)))), s(s(z)), s(z)) /\ minus(s(s(s(z))), s(s(z)), s(s(s(z))))
False <= minus(s(s(s(s(z)))), s(s(z)), z) /\ minus(s(s(s(z))), s(s(z)), s(s(z)))
minus(s(s(s(s(z)))), s(s(s(z))), s(s(z))) <= minus(s(s(s(z))), s(s(z)), s(s(z)))
False <= minus(s(s(s(z))), s(s(z)), z) /\ minus(s(s(z)), s(s(z)), s(s(z)))
False <= minus(s(s(s(z))), s(s(z)), z) /\ minus(s(s(z)), s(s(z)), s(z))
minus(s(s(s(s(z)))), s(s(z)), s(s(s(z)))) <= minus(s(s(s(z))), s(z), s(s(s(z))))
False <= minus(s(s(s(z))), s(z), s(z))
False <= minus(s(s(s(z))), s(z), z)
False <= minus(s(s(s(z))), z, s(z))
False <= minus(s(s(z)), s(s(s(z))), s(s(z))) /\ minus(s(s(z)), s(z), s(s(s(z))))
minus(s(s(s(z))), s(s(s(z))), s(s(s(z)))) <= minus(s(s(z)), s(s(z)), s(s(s(z))))
minus(s(s(s(z))), s(s(s(z))), s(s(z))) <= minus(s(s(z)), s(s(z)), s(s(z)))
minus(s(s(s(z))), s(s(s(z))), s(z)) <= minus(s(s(z)), s(s(z)), s(z))
False <= minus(s(s(z)), s(z), s(s(z)))
minus(s(s(s(z))), s(s(z)), z) <= minus(s(s(z)), s(z), z)
False <= minus(s(s(z)), z, s(s(s(z))))
False <= minus(s(s(z)), z, s(z))
False <= minus(s(s(z)), z, z)
False <= minus(s(z), s(s(s(z))), s(z)) /\ minus(z, s(s(s(s(z)))), z)
False <= minus(s(z), s(s(z)), s(s(z)))
False <= minus(s(z), s(s(z)), s(z))
False <= minus(s(z), s(z), s(s(s(z))))
minus(s(s(z)), s(s(z)), s(s(z))) <= minus(s(z), s(z), s(s(z)))
False <= minus(s(z), s(z), s(z))
False <= minus(s(z), z, s(s(z)))
minus(s(s(z)), s(z), z) <= minus(s(z), z, z)
}
-------------------
STEPS:
-------------------------------------------
Step 0, which took 0.020477 s (model generation: 0.020356,  model checking: 0.000121):

Ground examples at the beginning of this step are:
{
minus(s(z), z, s(z)) <= True
minus(z, z, z) <= True
minus(s(z), s(z), z) <= minus(z, z, z)
}

Learner proposed model:
Found Model:
|_

minus ->
{
  minus(s(x_0_0), s(x_1_0), z) <= True
  minus(s(x_0_0), z, s(x_2_0)) <= True
  minus(z, z, z) <= True
}

--
Equality automata are defined for: {nat}
_|


Answer of teacher:


minus(s(u), z, s(u)) <= True -> No: ()
minus(z, y, z) <= True -> Yes: {
y -> s(_kmdk_0)
}
eq_nat(_aqa, _cqa) <= minus(_bqa, s(k), _aqa) /\ minus(_dqa, k, _cqa) /\ minus(m, n, _dqa) /\ minus(s(m), n, _bqa) -> Yes: {
_aqa -> z  ;  _bqa -> s(_mmdk_0)  ;  _cqa -> s(_nmdk_0)  ;  _dqa -> s(_omdk_0)  ;  k -> z  ;  m -> s(_qmdk_0)  ;  n -> z
}
minus(s(u), s(x2), _vpa) <= minus(u, x2, _vpa) -> Yes: {
_vpa -> s(_smdk_0)  ;  u -> s(_tmdk_0)  ;  x2 -> z
}



-------------------------------------------
Step 1, which took 0.025928 s (model generation: 0.024961,  model checking: 0.000967):

Ground examples at the beginning of this step are:
{
minus(s(s(z)), s(z), s(z)) <= True
minus(s(z), s(z), z) <= True
minus(s(z), z, s(z)) <= True
minus(z, s(z), z) <= True
minus(z, z, z) <= True
False <= minus(s(s(z)), z, s(z))
}

Learner proposed model:
Found Model:
|_

_r_1 ->
{
  _r_1(z) <= True
}
;
minus ->
{
  minus(s(x_0_0), s(x_1_0), s(x_2_0)) <= True
  minus(s(x_0_0), s(x_1_0), z) <= True
  minus(s(x_0_0), z, s(x_2_0)) <= _r_1(x_0_0)
  minus(z, s(x_1_0), z) <= True
  minus(z, z, z) <= True
}

--
Equality automata are defined for: {nat}
_|


Answer of teacher:


minus(s(u), z, s(u)) <= True -> Yes: {
u -> s(_rrdk_0)
}
minus(z, y, z) <= True -> No: ()
eq_nat(_aqa, _cqa) <= minus(_bqa, s(k), _aqa) /\ minus(_dqa, k, _cqa) /\ minus(m, n, _dqa) /\ minus(s(m), n, _bqa) -> Yes: {
_aqa -> z  ;  _bqa -> z  ;  _cqa -> s(_frdk_0)  ;  _dqa -> s(_grdk_0)  ;  k -> s(_hrdk_0)  ;  m -> s(_irdk_0)  ;  n -> s(_jrdk_0)
}
minus(s(u), s(x2), _vpa) <= minus(u, x2, _vpa) -> No: ()



-------------------------------------------
Step 2, which took 0.014580 s (model generation: 0.013790,  model checking: 0.000790):

Ground examples at the beginning of this step are:
{
minus(s(s(z)), s(z), s(z)) <= True
minus(s(s(z)), z, s(s(z))) <= True
minus(s(z), s(z), z) <= True
minus(s(z), z, s(z)) <= True
minus(z, s(z), z) <= True
minus(z, z, z) <= True
False <= minus(s(s(z)), s(z), z) /\ minus(s(z), s(z), s(z)) /\ minus(z, s(s(z)), z)
False <= minus(s(s(z)), z, s(z))
}

Learner proposed model:
Found Model:
|_

_r_1 ->
{
  _r_1(s(x_0_0), s(x_1_0)) <= True
  _r_1(z, z) <= True
}
;
minus ->
{
  minus(s(x_0_0), s(x_1_0), s(x_2_0)) <= True
  minus(s(x_0_0), s(x_1_0), z) <= _r_1(x_0_0, x_1_0)
  minus(s(x_0_0), z, s(x_2_0)) <= _r_1(x_0_0, x_2_0)
  minus(z, s(x_1_0), z) <= True
  minus(z, z, z) <= True
}

--
Equality automata are defined for: {nat}
_|


Answer of teacher:


minus(s(u), z, s(u)) <= True -> No: ()
minus(z, y, z) <= True -> No: ()
eq_nat(_aqa, _cqa) <= minus(_bqa, s(k), _aqa) /\ minus(_dqa, k, _cqa) /\ minus(m, n, _dqa) /\ minus(s(m), n, _bqa) -> Yes: {
_aqa -> s(_ptdk_0)  ;  _bqa -> s(_qtdk_0)  ;  _cqa -> z  ;  _dqa -> z  ;  k -> s(_ttdk_0)  ;  m -> z  ;  n -> s(_vtdk_0)
}
minus(s(u), s(x2), _vpa) <= minus(u, x2, _vpa) -> Yes: {
_vpa -> z  ;  u -> z  ;  x2 -> s(_twdk_0)
}



-------------------------------------------
Step 3, which took 0.017481 s (model generation: 0.016490,  model checking: 0.000991):

Ground examples at the beginning of this step are:
{
minus(s(s(z)), s(z), s(z)) <= True
minus(s(s(z)), z, s(s(z))) <= True
minus(s(z), s(s(z)), z) <= True
minus(s(z), s(z), z) <= True
minus(s(z), z, s(z)) <= True
minus(z, s(z), z) <= True
minus(z, z, z) <= True
False <= minus(s(s(z)), s(z), z) /\ minus(s(z), s(z), s(z)) /\ minus(z, s(s(z)), z)
False <= minus(s(s(z)), z, s(z))
False <= minus(s(z), s(s(z)), s(z)) /\ minus(s(z), s(z), s(z))
}

Learner proposed model:
Found Model:
|_

_r_1 ->
{
  _r_1(s(x_0_0), s(x_1_0)) <= True
  _r_1(z, s(x_1_0)) <= True
  _r_1(z, z) <= True
}
;
minus ->
{
  minus(s(x_0_0), s(x_1_0), s(x_2_0)) <= _r_1(x_1_0, x_2_0)
  minus(s(x_0_0), s(x_1_0), z) <= _r_1(x_0_0, x_1_0)
  minus(s(x_0_0), z, s(x_2_0)) <= _r_1(x_0_0, x_2_0)
  minus(z, s(x_1_0), z) <= True
  minus(z, z, z) <= True
}

--
Equality automata are defined for: {nat}
_|


Answer of teacher:


minus(s(u), z, s(u)) <= True -> No: ()
minus(z, y, z) <= True -> No: ()
eq_nat(_aqa, _cqa) <= minus(_bqa, s(k), _aqa) /\ minus(_dqa, k, _cqa) /\ minus(m, n, _dqa) /\ minus(s(m), n, _bqa) -> Yes: {
_aqa -> s(s(_ocek_0))  ;  _bqa -> s(z)  ;  _cqa -> z  ;  _dqa -> z  ;  k -> s(_yydk_0)  ;  m -> z  ;  n -> s(z)
}
minus(s(u), s(x2), _vpa) <= minus(u, x2, _vpa) -> Yes: {
_vpa -> s(z)  ;  u -> s(_ubek_0)  ;  x2 -> s(z)
}



-------------------------------------------
Step 4, which took 0.023608 s (model generation: 0.022537,  model checking: 0.001071):

Ground examples at the beginning of this step are:
{
minus(s(s(z)), s(z), s(z)) <= True
minus(s(s(z)), z, s(s(z))) <= True
minus(s(z), s(s(z)), z) <= True
minus(s(z), s(z), z) <= True
minus(s(z), z, s(z)) <= True
minus(z, s(z), z) <= True
minus(z, z, z) <= True
False <= minus(s(s(z)), s(z), z) /\ minus(s(z), s(z), s(z)) /\ minus(z, s(s(z)), z)
False <= minus(s(s(z)), z, s(z))
False <= minus(s(z), s(s(z)), s(s(z))) /\ minus(s(z), s(z), s(z))
False <= minus(s(z), s(s(z)), s(z)) /\ minus(s(z), s(z), s(z))
minus(s(s(z)), s(s(z)), s(z)) <= minus(s(z), s(z), s(z))
}

Learner proposed model:
Found Model:
|_

_r_1 ->
{
  _r_1(s(x_0_0)) <= True
}
;
_r_2 ->
{
  _r_2(z) <= True
}
;
minus ->
{
  minus(s(x_0_0), s(x_1_0), s(x_2_0)) <= _r_1(x_0_0)
  minus(s(x_0_0), s(x_1_0), z) <= True
  minus(s(x_0_0), z, s(x_2_0)) <= _r_1(x_2_0)
  minus(s(x_0_0), z, s(x_2_0)) <= _r_2(x_0_0)
  minus(z, s(x_1_0), z) <= True
  minus(z, z, z) <= True
}

--
Equality automata are defined for: {nat}
_|


Answer of teacher:


minus(s(u), z, s(u)) <= True -> No: ()
minus(z, y, z) <= True -> No: ()
eq_nat(_aqa, _cqa) <= minus(_bqa, s(k), _aqa) /\ minus(_dqa, k, _cqa) /\ minus(m, n, _dqa) /\ minus(s(m), n, _bqa) -> Yes: {
_aqa -> z  ;  _bqa -> z  ;  _cqa -> s(s(_qpek_0))  ;  _dqa -> s(_qoek_0)  ;  k -> z  ;  m -> s(s(_qpek_0))  ;  n -> s(_toek_0)
}
minus(s(u), s(x2), _vpa) <= minus(u, x2, _vpa) -> No: ()



-------------------------------------------
Step 5, which took 0.028840 s (model generation: 0.028153,  model checking: 0.000687):

Ground examples at the beginning of this step are:
{
minus(s(s(z)), s(z), s(z)) <= True
minus(s(s(z)), z, s(s(z))) <= True
minus(s(z), s(s(z)), z) <= True
minus(s(z), s(z), z) <= True
minus(s(z), z, s(z)) <= True
minus(z, s(z), z) <= True
minus(z, z, z) <= True
False <= minus(s(s(s(z))), s(z), z) /\ minus(s(z), z, s(s(z)))
False <= minus(s(s(z)), s(z), z) /\ minus(s(z), s(z), s(z)) /\ minus(z, s(s(z)), z)
False <= minus(s(s(z)), z, s(z))
False <= minus(s(z), s(s(z)), s(s(z))) /\ minus(s(z), s(z), s(z))
False <= minus(s(z), s(s(z)), s(z)) /\ minus(s(z), s(z), s(z))
minus(s(s(z)), s(s(z)), s(z)) <= minus(s(z), s(z), s(z))
}

Learner proposed model:
Found Model:
|_

_r_1 ->
{
  _r_1(s(x_0_0), s(x_1_0)) <= _r_1(x_0_0, x_1_0)
  _r_1(z, z) <= True
}
;
_r_2 ->
{
  _r_2(s(x_0_0)) <= True
}
;
minus ->
{
  minus(s(x_0_0), s(x_1_0), s(x_2_0)) <= _r_2(x_0_0)
  minus(s(x_0_0), s(x_1_0), z) <= True
  minus(s(x_0_0), z, s(x_2_0)) <= _r_1(x_0_0, x_2_0)
  minus(z, s(x_1_0), z) <= True
  minus(z, z, z) <= True
}

--
Equality automata are defined for: {nat}
_|


Answer of teacher:


minus(s(u), z, s(u)) <= True -> No: ()
minus(z, y, z) <= True -> No: ()
eq_nat(_aqa, _cqa) <= minus(_bqa, s(k), _aqa) /\ minus(_dqa, k, _cqa) /\ minus(m, n, _dqa) /\ minus(s(m), n, _bqa) -> Yes: {
_aqa -> z  ;  _bqa -> z  ;  _cqa -> s(z)  ;  _dqa -> s(z)  ;  k -> z  ;  m -> s(s(_evek_0))  ;  n -> s(_muek_0)
}
minus(s(u), s(x2), _vpa) <= minus(u, x2, _vpa) -> No: ()



-------------------------------------------
Step 6, which took 0.026176 s (model generation: 0.025015,  model checking: 0.001161):

Ground examples at the beginning of this step are:
{
minus(s(s(z)), s(z), s(z)) <= True
minus(s(s(z)), z, s(s(z))) <= True
minus(s(z), s(s(z)), z) <= True
minus(s(z), s(z), z) <= True
minus(s(z), z, s(z)) <= True
minus(z, s(z), z) <= True
minus(z, z, z) <= True
False <= minus(s(s(s(z))), s(z), z)
False <= minus(s(s(z)), s(z), z) /\ minus(s(z), s(z), s(z)) /\ minus(z, s(s(z)), z)
False <= minus(s(s(z)), z, s(z))
False <= minus(s(z), s(s(z)), s(s(z))) /\ minus(s(z), s(z), s(z))
False <= minus(s(z), s(s(z)), s(z)) /\ minus(s(z), s(z), s(z))
minus(s(s(z)), s(s(z)), s(z)) <= minus(s(z), s(z), s(z))
}

Learner proposed model:
Found Model:
|_

_r_1 ->
{
  _r_1(s(x_0_0)) <= True
}
;
_r_2 ->
{
  _r_2(z) <= True
}
;
minus ->
{
  minus(s(x_0_0), s(x_1_0), s(x_2_0)) <= _r_1(x_0_0)
  minus(s(x_0_0), s(x_1_0), z) <= _r_2(x_0_0)
  minus(s(x_0_0), z, s(x_2_0)) <= _r_1(x_2_0)
  minus(s(x_0_0), z, s(x_2_0)) <= _r_2(x_0_0)
  minus(z, s(x_1_0), z) <= True
  minus(z, z, z) <= True
}

--
Equality automata are defined for: {nat}
_|


Answer of teacher:


minus(s(u), z, s(u)) <= True -> No: ()
minus(z, y, z) <= True -> No: ()
eq_nat(_aqa, _cqa) <= minus(_bqa, s(k), _aqa) /\ minus(_dqa, k, _cqa) /\ minus(m, n, _dqa) /\ minus(s(m), n, _bqa) -> Yes: {
_aqa -> s(z)  ;  _bqa -> s(s(_nifk_0))  ;  _cqa -> s(s(_mifk_0))  ;  _dqa -> s(s(_nifk_0))  ;  k -> s(_qvek_0)  ;  m -> s(_rvek_0)  ;  n -> z
}
minus(s(u), s(x2), _vpa) <= minus(u, x2, _vpa) -> Yes: {
_vpa -> z  ;  u -> s(z)  ;  x2 -> s(_uhfk_0)
}



-------------------------------------------
Step 7, which took 0.030807 s (model generation: 0.029542,  model checking: 0.001265):

Ground examples at the beginning of this step are:
{
minus(s(s(z)), s(s(z)), z) <= True
minus(s(s(z)), s(z), s(z)) <= True
minus(s(s(z)), z, s(s(z))) <= True
minus(s(z), s(s(z)), z) <= True
minus(s(z), s(z), z) <= True
minus(s(z), z, s(z)) <= True
minus(z, s(z), z) <= True
minus(z, z, z) <= True
False <= minus(s(s(s(z))), s(z), z)
False <= minus(s(s(z)), s(s(z)), s(z)) /\ minus(s(s(z)), s(z), s(s(z))) /\ minus(s(z), z, s(s(z)))
False <= minus(s(s(z)), s(z), z) /\ minus(s(z), s(z), s(z)) /\ minus(z, s(s(z)), z)
False <= minus(s(s(z)), z, s(z))
False <= minus(s(z), s(s(z)), s(s(z))) /\ minus(s(z), s(z), s(z))
False <= minus(s(z), s(s(z)), s(z)) /\ minus(s(z), s(z), s(z))
minus(s(s(z)), s(s(z)), s(z)) <= minus(s(z), s(z), s(z))
}

Learner proposed model:
Found Model:
|_

_r_1 ->
{
  _r_1(s(x_0_0), s(x_1_0)) <= True
  _r_1(z, z) <= True
}
;
_r_2 ->
{
  _r_2(s(x_0_0)) <= True
}
;
minus ->
{
  minus(s(x_0_0), s(x_1_0), s(x_2_0)) <= _r_2(x_0_0)
  minus(s(x_0_0), s(x_1_0), z) <= _r_1(x_0_0, x_1_0)
  minus(s(x_0_0), s(x_1_0), z) <= _r_2(x_1_0)
  minus(s(x_0_0), z, s(x_2_0)) <= _r_1(x_0_0, x_2_0)
  minus(z, s(x_1_0), z) <= True
  minus(z, z, z) <= True
}

--
Equality automata are defined for: {nat}
_|


Answer of teacher:


minus(s(u), z, s(u)) <= True -> No: ()
minus(z, y, z) <= True -> No: ()
eq_nat(_aqa, _cqa) <= minus(_bqa, s(k), _aqa) /\ minus(_dqa, k, _cqa) /\ minus(m, n, _dqa) /\ minus(s(m), n, _bqa) -> Yes: {
_aqa -> z  ;  _bqa -> z  ;  _cqa -> s(z)  ;  _dqa -> s(z)  ;  k -> z  ;  m -> s(s(_hrfk_0))  ;  n -> s(s(_hrfk_0))
}
minus(s(u), s(x2), _vpa) <= minus(u, x2, _vpa) -> No: ()



-------------------------------------------
Step 8, which took 0.028727 s (model generation: 0.028035,  model checking: 0.000692):

Ground examples at the beginning of this step are:
{
minus(s(s(z)), s(s(z)), z) <= True
minus(s(s(z)), s(z), s(z)) <= True
minus(s(s(z)), z, s(s(z))) <= True
minus(s(z), s(s(z)), z) <= True
minus(s(z), s(z), z) <= True
minus(s(z), z, s(z)) <= True
minus(z, s(z), z) <= True
minus(z, z, z) <= True
False <= minus(s(s(s(z))), s(s(z)), z) /\ minus(s(s(z)), s(s(z)), s(z))
False <= minus(s(s(s(z))), s(z), z)
False <= minus(s(s(z)), s(s(z)), s(z)) /\ minus(s(s(z)), s(z), s(s(z))) /\ minus(s(z), z, s(s(z)))
False <= minus(s(s(z)), s(z), z) /\ minus(s(z), s(z), s(z)) /\ minus(z, s(s(z)), z)
False <= minus(s(s(z)), z, s(z))
False <= minus(s(z), s(s(z)), s(s(z))) /\ minus(s(z), s(z), s(z))
False <= minus(s(z), s(s(z)), s(z)) /\ minus(s(z), s(z), s(z))
minus(s(s(z)), s(s(z)), s(z)) <= minus(s(z), s(z), s(z))
}

Learner proposed model:
Found Model:
|_

_r_1 ->
{
  _r_1(s(x_0_0), s(x_1_0)) <= _r_1(x_0_0, x_1_0)
  _r_1(z, s(x_1_0)) <= True
  _r_1(z, z) <= True
}
;
_r_2 ->
{
  _r_2(s(x_0_0), z) <= True
}
;
minus ->
{
  minus(s(x_0_0), s(x_1_0), s(x_2_0)) <= _r_2(x_0_0, x_2_0)
  minus(s(x_0_0), s(x_1_0), z) <= _r_1(x_0_0, x_1_0)
  minus(s(x_0_0), z, s(x_2_0)) <= _r_1(x_0_0, x_2_0)
  minus(z, s(x_1_0), z) <= True
  minus(z, z, z) <= True
}

--
Equality automata are defined for: {nat}
_|


Answer of teacher:


minus(s(u), z, s(u)) <= True -> No: ()
minus(z, y, z) <= True -> No: ()
eq_nat(_aqa, _cqa) <= minus(_bqa, s(k), _aqa) /\ minus(_dqa, k, _cqa) /\ minus(m, n, _dqa) /\ minus(s(m), n, _bqa) -> Yes: {
_aqa -> s(z)  ;  _bqa -> s(s(_uwfk_0))  ;  _cqa -> z  ;  _dqa -> z  ;  k -> s(_qtfk_0)  ;  m -> z  ;  n -> z
}
minus(s(u), s(x2), _vpa) <= minus(u, x2, _vpa) -> Yes: {
_vpa -> s(s(_zwfk_0))  ;  u -> s(z)  ;  x2 -> z
}



-------------------------------------------
Step 9, which took 0.032418 s (model generation: 0.031576,  model checking: 0.000842):

Ground examples at the beginning of this step are:
{
minus(s(s(z)), s(s(z)), z) <= True
minus(s(s(z)), s(z), s(z)) <= True
minus(s(s(z)), z, s(s(z))) <= True
minus(s(z), s(s(z)), z) <= True
minus(s(z), s(z), z) <= True
minus(s(z), z, s(z)) <= True
minus(z, s(z), z) <= True
minus(z, z, z) <= True
False <= minus(s(s(s(z))), s(s(z)), z) /\ minus(s(s(z)), s(s(z)), s(z))
False <= minus(s(s(s(z))), s(z), z)
False <= minus(s(s(z)), s(s(z)), s(z)) /\ minus(s(s(z)), s(z), s(s(z))) /\ minus(s(z), z, s(s(z)))
False <= minus(s(s(z)), s(s(z)), s(z)) /\ minus(s(z), z, s(s(z)))
False <= minus(s(s(z)), s(z), z) /\ minus(s(z), s(z), s(z)) /\ minus(z, s(s(z)), z)
False <= minus(s(s(z)), z, s(z))
False <= minus(s(z), s(s(z)), s(s(z))) /\ minus(s(z), s(z), s(z))
False <= minus(s(z), s(s(z)), s(z)) /\ minus(s(z), s(z), s(z))
minus(s(s(z)), s(s(z)), s(z)) <= minus(s(z), s(z), s(z))
minus(s(s(z)), s(z), s(s(z))) <= minus(s(z), z, s(s(z)))
}

Learner proposed model:
Found Model:
|_

_r_1 ->
{
  _r_1(s(x_0_0), s(x_1_0)) <= _r_1(x_0_0, x_1_0)
  _r_1(z, s(x_1_0)) <= True
  _r_1(z, z) <= True
}
;
_r_2 ->
{
  _r_2(s(x_0_0), z) <= True
}
;
minus ->
{
  minus(s(x_0_0), s(x_1_0), s(x_2_0)) <= _r_2(x_0_0, x_1_0)
  minus(s(x_0_0), s(x_1_0), z) <= _r_1(x_0_0, x_1_0)
  minus(s(x_0_0), z, s(x_2_0)) <= _r_1(x_0_0, x_2_0)
  minus(z, s(x_1_0), z) <= True
  minus(z, z, z) <= True
}

--
Equality automata are defined for: {nat}
_|


Answer of teacher:


minus(s(u), z, s(u)) <= True -> No: ()
minus(z, y, z) <= True -> No: ()
eq_nat(_aqa, _cqa) <= minus(_bqa, s(k), _aqa) /\ minus(_dqa, k, _cqa) /\ minus(m, n, _dqa) /\ minus(s(m), n, _bqa) -> Yes: {
_aqa -> z  ;  _bqa -> s(z)  ;  _cqa -> s(z)  ;  _dqa -> s(z)  ;  k -> z  ;  m -> s(s(_cdgk_0))  ;  n -> s(z)
}
minus(s(u), s(x2), _vpa) <= minus(u, x2, _vpa) -> Yes: {
_vpa -> s(_wbgk_0)  ;  u -> s(s(_zcgk_0))  ;  x2 -> s(z)
}



-------------------------------------------
Step 10, which took 0.045448 s (model generation: 0.040340,  model checking: 0.005108):

Ground examples at the beginning of this step are:
{
minus(s(s(s(z))), s(s(z)), s(z)) <= True
minus(s(s(z)), s(s(z)), z) <= True
minus(s(s(z)), s(z), s(z)) <= True
minus(s(s(z)), z, s(s(z))) <= True
minus(s(z), s(s(z)), z) <= True
minus(s(z), s(z), z) <= True
minus(s(z), z, s(z)) <= True
minus(z, s(z), z) <= True
minus(z, z, z) <= True
False <= minus(s(s(s(z))), s(s(z)), z) /\ minus(s(s(z)), s(s(z)), s(z))
False <= minus(s(s(s(z))), s(z), s(z))
False <= minus(s(s(s(z))), s(z), z)
False <= minus(s(s(z)), s(s(z)), s(z)) /\ minus(s(s(z)), s(z), s(s(z))) /\ minus(s(z), z, s(s(z)))
False <= minus(s(s(z)), s(s(z)), s(z)) /\ minus(s(z), z, s(s(z)))
False <= minus(s(s(z)), s(z), z) /\ minus(s(z), s(z), s(z)) /\ minus(z, s(s(z)), z)
False <= minus(s(s(z)), z, s(z))
False <= minus(s(z), s(s(z)), s(s(z))) /\ minus(s(z), s(z), s(z))
False <= minus(s(z), s(s(z)), s(z)) /\ minus(s(z), s(z), s(z))
minus(s(s(z)), s(s(z)), s(z)) <= minus(s(z), s(z), s(z))
minus(s(s(z)), s(z), s(s(z))) <= minus(s(z), z, s(s(z)))
}

Learner proposed model:
Found Model:
|_

_r_1 ->
{
  _r_1(z) <= True
}
;
_r_2 ->
{
  _r_2(s(x_0_0)) <= _r_1(x_0_0)
}
;
minus ->
{
  minus(s(x_0_0), s(x_1_0), s(x_2_0)) <= _r_2(x_0_0)
  minus(s(x_0_0), s(x_1_0), s(x_2_0)) <= _r_2(x_1_0)
  minus(s(x_0_0), s(x_1_0), z) <= _r_1(x_0_0)
  minus(s(x_0_0), s(x_1_0), z) <= _r_2(x_0_0)
  minus(s(x_0_0), z, s(x_2_0)) <= _r_1(x_0_0) /\ _r_1(x_2_0)
  minus(s(x_0_0), z, s(x_2_0)) <= _r_2(x_0_0) /\ _r_2(x_2_0)
  minus(z, s(x_1_0), z) <= True
  minus(z, z, z) <= True
}

--
Equality automata are defined for: {nat}
_|


Answer of teacher:


minus(s(u), z, s(u)) <= True -> Yes: {
u -> s(s(_kiik_0))
}
minus(z, y, z) <= True -> No: ()
eq_nat(_aqa, _cqa) <= minus(_bqa, s(k), _aqa) /\ minus(_dqa, k, _cqa) /\ minus(m, n, _dqa) /\ minus(s(m), n, _bqa) -> Yes: {
_aqa -> z  ;  _bqa -> s(z)  ;  _cqa -> s(s(z))  ;  _dqa -> s(s(z))  ;  k -> z  ;  m -> s(_cthk_0)  ;  n -> s(s(z))
}
minus(s(u), s(x2), _vpa) <= minus(u, x2, _vpa) -> Yes: {
_vpa -> z  ;  u -> s(s(z))  ;  x2 -> s(_phik_0)
}



-------------------------------------------
Step 11, which took 0.120002 s (model generation: 0.118703,  model checking: 0.001299):

Ground examples at the beginning of this step are:
{
minus(s(s(s(z))), s(s(z)), s(z)) <= True
minus(s(s(s(z))), z, s(s(s(z)))) <= True
minus(s(s(z)), s(s(z)), z) <= True
minus(s(s(z)), s(z), s(z)) <= True
minus(s(s(z)), z, s(s(z))) <= True
minus(s(z), s(s(z)), z) <= True
minus(s(z), s(z), z) <= True
minus(s(z), z, s(z)) <= True
minus(z, s(z), z) <= True
minus(z, z, z) <= True
False <= minus(s(s(s(z))), s(s(z)), z) /\ minus(s(s(z)), s(s(z)), s(z))
False <= minus(s(s(s(z))), s(z), s(z))
False <= minus(s(s(s(z))), s(z), z)
False <= minus(s(s(z)), s(s(z)), s(z)) /\ minus(s(s(z)), s(z), s(s(z))) /\ minus(s(z), z, s(s(z)))
False <= minus(s(s(z)), s(s(z)), s(z)) /\ minus(s(z), s(s(z)), s(s(z)))
False <= minus(s(s(z)), s(s(z)), s(z)) /\ minus(s(z), z, s(s(z)))
minus(s(s(s(z))), s(s(z)), z) <= minus(s(s(z)), s(z), z)
False <= minus(s(s(z)), s(z), z) /\ minus(s(z), s(z), s(z)) /\ minus(z, s(s(z)), z)
False <= minus(s(s(z)), z, s(z))
False <= minus(s(z), s(s(z)), s(s(z))) /\ minus(s(z), s(z), s(z))
False <= minus(s(z), s(s(z)), s(z)) /\ minus(s(z), s(z), s(z))
minus(s(s(z)), s(s(z)), s(z)) <= minus(s(z), s(z), s(z))
minus(s(s(z)), s(z), s(s(z))) <= minus(s(z), z, s(s(z)))
}

Learner proposed model:
Found Model:
|_

_r_1 ->
{
  _r_1(s(x_0_0), s(x_1_0)) <= _r_1(x_0_0, x_1_0)
  _r_1(z, s(x_1_0)) <= True
  _r_1(z, z) <= True
}
;
_r_2 ->
{
  _r_2(s(x_0_0), s(x_1_0)) <= _r_2(x_0_0, x_1_0)
  _r_2(s(x_0_0), z) <= _r_3(x_0_0)
}
;
_r_3 ->
{
  _r_3(z) <= True
}
;
minus ->
{
  minus(s(x_0_0), s(x_1_0), s(x_2_0)) <= _r_2(x_0_0, x_1_0)
  minus(s(x_0_0), s(x_1_0), z) <= _r_1(x_0_0, x_1_0)
  minus(s(x_0_0), z, s(x_2_0)) <= _r_1(x_0_0, x_2_0)
  minus(z, s(x_1_0), z) <= True
  minus(z, z, z) <= True
}

--
Equality automata are defined for: {nat}
_|


Answer of teacher:


minus(s(u), z, s(u)) <= True -> No: ()
minus(z, y, z) <= True -> No: ()
eq_nat(_aqa, _cqa) <= minus(_bqa, s(k), _aqa) /\ minus(_dqa, k, _cqa) /\ minus(m, n, _dqa) /\ minus(s(m), n, _bqa) -> Yes: {
_aqa -> s(_mlik_0)  ;  _bqa -> s(s(z))  ;  _cqa -> z  ;  _dqa -> z  ;  k -> z  ;  m -> z  ;  n -> z
}
minus(s(u), s(x2), _vpa) <= minus(u, x2, _vpa) -> Yes: {
_vpa -> s(s(z))  ;  u -> s(s(z))  ;  x2 -> z
}



-------------------------------------------
Step 12, which took 0.132494 s (model generation: 0.127714,  model checking: 0.004780):

Ground examples at the beginning of this step are:
{
minus(s(s(s(z))), s(s(z)), s(z)) <= True
minus(s(s(s(z))), s(z), s(s(z))) <= True
minus(s(s(s(z))), z, s(s(s(z)))) <= True
minus(s(s(z)), s(s(z)), z) <= True
minus(s(s(z)), s(z), s(z)) <= True
minus(s(s(z)), z, s(s(z))) <= True
minus(s(z), s(s(z)), z) <= True
minus(s(z), s(z), z) <= True
minus(s(z), z, s(z)) <= True
minus(z, s(z), z) <= True
minus(z, z, z) <= True
False <= minus(s(s(s(z))), s(s(z)), z) /\ minus(s(s(z)), s(s(z)), s(z))
False <= minus(s(s(s(z))), s(z), s(z))
False <= minus(s(s(s(z))), s(z), z)
False <= minus(s(s(z)), s(s(z)), s(z)) /\ minus(s(z), s(s(z)), s(s(z)))
minus(s(s(s(z))), s(s(z)), z) <= minus(s(s(z)), s(z), z)
False <= minus(s(s(z)), s(z), z) /\ minus(s(z), s(z), s(z)) /\ minus(z, s(s(z)), z)
False <= minus(s(s(z)), z, s(z))
False <= minus(s(z), s(s(z)), s(s(z))) /\ minus(s(z), s(z), s(z))
False <= minus(s(z), s(s(z)), s(z)) /\ minus(s(z), s(z), s(z))
minus(s(s(z)), s(s(z)), s(z)) <= minus(s(z), s(z), s(z))
False <= minus(s(z), z, s(s(z)))
}

Learner proposed model:
Found Model:
|_

_r_1 ->
{
  _r_1(s(x_0_0), s(x_1_0)) <= _r_1(x_0_0, x_1_0)
  _r_1(z, z) <= True
}
;
_r_2 ->
{
  _r_2(s(x_0_0), z) <= True
  _r_2(z, s(x_1_0)) <= True
}
;
_r_3 ->
{
  _r_3(z) <= True
}
;
minus ->
{
  minus(s(x_0_0), s(x_1_0), s(x_2_0)) <= _r_2(x_0_0, x_1_0) /\ minus(x_0_0, x_1_0, x_2_0)
  minus(s(x_0_0), s(x_1_0), s(x_2_0)) <= _r_2(x_1_0, x_2_0)
  minus(s(x_0_0), s(x_1_0), z) <= _r_1(x_0_0, x_1_0)
  minus(s(x_0_0), s(x_1_0), z) <= _r_3(x_0_0)
  minus(s(x_0_0), z, s(x_2_0)) <= _r_1(x_0_0, x_2_0)
  minus(s(x_0_0), z, z) <= _r_3(x_0_0)
  minus(z, s(x_1_0), z) <= True
  minus(z, z, z) <= True
}

--
Equality automata are defined for: {nat}
_|


Answer of teacher:


minus(s(u), z, s(u)) <= True -> No: ()
minus(z, y, z) <= True -> No: ()
eq_nat(_aqa, _cqa) <= minus(_bqa, s(k), _aqa) /\ minus(_dqa, k, _cqa) /\ minus(m, n, _dqa) /\ minus(s(m), n, _bqa) -> Yes: {
_aqa -> s(z)  ;  _bqa -> s(z)  ;  _cqa -> z  ;  _dqa -> z  ;  k -> s(_xmjk_0)  ;  m -> z  ;  n -> z
}
minus(s(u), s(x2), _vpa) <= minus(u, x2, _vpa) -> Yes: {
_vpa -> s(s(z))  ;  u -> s(z)  ;  x2 -> s(z)
}



-------------------------------------------
Step 13, which took 0.194685 s (model generation: 0.179645,  model checking: 0.015040):

Ground examples at the beginning of this step are:
{
minus(s(s(s(z))), s(s(z)), s(z)) <= True
minus(s(s(s(z))), s(z), s(s(z))) <= True
minus(s(s(s(z))), z, s(s(s(z)))) <= True
minus(s(s(z)), s(s(z)), z) <= True
minus(s(s(z)), s(z), s(z)) <= True
minus(s(s(z)), z, s(s(z))) <= True
minus(s(z), s(s(z)), z) <= True
minus(s(z), s(z), z) <= True
minus(s(z), z, s(z)) <= True
minus(z, s(z), z) <= True
minus(z, z, z) <= True
False <= minus(s(s(s(z))), s(s(z)), z) /\ minus(s(s(z)), s(s(z)), s(z))
False <= minus(s(s(s(z))), s(z), s(z))
False <= minus(s(s(s(z))), s(z), z)
False <= minus(s(s(z)), s(s(z)), s(z)) /\ minus(s(z), s(s(z)), s(s(z)))
minus(s(s(s(z))), s(s(z)), z) <= minus(s(s(z)), s(z), z)
False <= minus(s(s(z)), s(z), z) /\ minus(s(z), s(z), s(z)) /\ minus(z, s(s(z)), z)
False <= minus(s(s(z)), z, s(z))
False <= minus(s(z), s(s(z)), s(s(z))) /\ minus(s(z), s(z), s(z))
False <= minus(s(z), s(s(z)), s(z))
minus(s(s(z)), s(s(z)), s(s(z))) <= minus(s(z), s(z), s(s(z)))
minus(s(s(z)), s(s(z)), s(z)) <= minus(s(z), s(z), s(z))
False <= minus(s(z), z, s(s(z)))
}

Learner proposed model:
Found Model:
|_

_r_1 ->
{
  _r_1(s(x_0_0), s(x_1_0)) <= True
}
;
_r_2 ->
{
  _r_2(s(x_0_0), s(x_1_0)) <= _r_2(x_0_0, x_1_0)
  _r_2(z, z) <= True
}
;
_r_3 ->
{
  _r_3(z) <= True
}
;
minus ->
{
  minus(s(x_0_0), s(x_1_0), s(x_2_0)) <= _r_1(x_0_0, x_1_0)
  minus(s(x_0_0), s(x_1_0), s(x_2_0)) <= _r_1(x_0_0, x_2_0)
  minus(s(x_0_0), s(x_1_0), s(x_2_0)) <= _r_3(x_1_0) /\ minus(x_0_0, x_1_0, x_2_0)
  minus(s(x_0_0), s(x_1_0), z) <= _r_2(x_0_0, x_1_0)
  minus(s(x_0_0), s(x_1_0), z) <= _r_3(x_0_0)
  minus(s(x_0_0), z, s(x_2_0)) <= _r_2(x_0_0, x_2_0)
  minus(s(x_0_0), z, z) <= _r_3(x_0_0)
  minus(z, s(x_1_0), z) <= True
  minus(z, z, z) <= True
}

--
Equality automata are defined for: {nat}
_|


Answer of teacher:


minus(s(u), z, s(u)) <= True -> No: ()
minus(z, y, z) <= True -> No: ()
eq_nat(_aqa, _cqa) <= minus(_bqa, s(k), _aqa) /\ minus(_dqa, k, _cqa) /\ minus(m, n, _dqa) /\ minus(s(m), n, _bqa) -> Yes: {
_aqa -> s(z)  ;  _bqa -> s(z)  ;  _cqa -> z  ;  _dqa -> z  ;  k -> z  ;  m -> z  ;  n -> z
}
minus(s(u), s(x2), _vpa) <= minus(u, x2, _vpa) -> Yes: {
_vpa -> z  ;  u -> s(z)  ;  x2 -> z
}



-------------------------------------------
Step 14, which took 0.154235 s (model generation: 0.150275,  model checking: 0.003960):

Ground examples at the beginning of this step are:
{
minus(s(s(s(z))), s(s(z)), s(z)) <= True
minus(s(s(s(z))), s(z), s(s(z))) <= True
minus(s(s(s(z))), z, s(s(s(z)))) <= True
minus(s(s(z)), s(s(z)), z) <= True
minus(s(s(z)), s(z), s(z)) <= True
minus(s(s(z)), z, s(s(z))) <= True
minus(s(z), s(s(z)), z) <= True
minus(s(z), s(z), z) <= True
minus(s(z), z, s(z)) <= True
minus(z, s(z), z) <= True
minus(z, z, z) <= True
False <= minus(s(s(s(z))), s(s(z)), z) /\ minus(s(s(z)), s(s(z)), s(z))
False <= minus(s(s(s(z))), s(z), s(z))
False <= minus(s(s(s(z))), s(z), z)
False <= minus(s(s(z)), s(s(z)), s(z)) /\ minus(s(z), s(s(z)), s(s(z)))
minus(s(s(s(z))), s(s(z)), z) <= minus(s(s(z)), s(z), z)
False <= minus(s(s(z)), z, s(z))
False <= minus(s(z), s(s(z)), s(z))
minus(s(s(z)), s(s(z)), s(s(z))) <= minus(s(z), s(z), s(s(z)))
False <= minus(s(z), s(z), s(z))
False <= minus(s(z), z, s(s(z)))
minus(s(s(z)), s(z), z) <= minus(s(z), z, z)
}

Learner proposed model:
Found Model:
|_

_r_1 ->
{
  _r_1(s(x_0_0), s(x_1_0)) <= True
  _r_1(s(x_0_0), z) <= _r_3(x_0_0)
}
;
_r_2 ->
{
  _r_2(s(x_0_0), s(x_1_0)) <= _r_2(x_0_0, x_1_0)
  _r_2(z, z) <= True
}
;
_r_3 ->
{
  _r_3(z) <= True
}
;
minus ->
{
  minus(s(x_0_0), s(x_1_0), s(x_2_0)) <= _r_1(x_0_0, x_1_0)
  minus(s(x_0_0), s(x_1_0), s(x_2_0)) <= _r_1(x_0_0, x_2_0)
  minus(s(x_0_0), s(x_1_0), z) <= _r_2(x_0_0, x_1_0)
  minus(s(x_0_0), s(x_1_0), z) <= _r_3(x_0_0)
  minus(s(x_0_0), z, s(x_2_0)) <= _r_2(x_0_0, x_2_0)
  minus(z, s(x_1_0), z) <= True
  minus(z, z, z) <= True
}

--
Equality automata are defined for: {nat}
_|


Answer of teacher:


minus(s(u), z, s(u)) <= True -> No: ()
minus(z, y, z) <= True -> No: ()
eq_nat(_aqa, _cqa) <= minus(_bqa, s(k), _aqa) /\ minus(_dqa, k, _cqa) /\ minus(m, n, _dqa) /\ minus(s(m), n, _bqa) -> Yes: {
_aqa -> s(s(_rmpk_0))  ;  _bqa -> s(s(_qmpk_0))  ;  _cqa -> z  ;  _dqa -> z  ;  k -> z  ;  m -> s(z)  ;  n -> s(s(_gnpk_0))
}
minus(s(u), s(x2), _vpa) <= minus(u, x2, _vpa) -> Yes: {
_vpa -> z  ;  u -> s(z)  ;  x2 -> s(s(_bnpk_0))
}



-------------------------------------------
Step 15, which took 0.153150 s (model generation: 0.147435,  model checking: 0.005715):

Ground examples at the beginning of this step are:
{
minus(s(s(s(z))), s(s(z)), s(z)) <= True
minus(s(s(s(z))), s(z), s(s(z))) <= True
minus(s(s(s(z))), z, s(s(s(z)))) <= True
minus(s(s(z)), s(s(s(z))), z) <= True
minus(s(s(z)), s(s(z)), z) <= True
minus(s(s(z)), s(z), s(z)) <= True
minus(s(s(z)), z, s(s(z))) <= True
minus(s(z), s(s(z)), z) <= True
minus(s(z), s(z), z) <= True
minus(s(z), z, s(z)) <= True
minus(z, s(z), z) <= True
minus(z, z, z) <= True
False <= minus(s(s(s(z))), s(s(z)), z) /\ minus(s(s(z)), s(s(z)), s(z))
False <= minus(s(s(s(z))), s(z), s(z))
False <= minus(s(s(s(z))), s(z), z)
False <= minus(s(s(z)), s(s(z)), s(s(z))) /\ minus(s(s(z)), s(z), s(s(z)))
False <= minus(s(s(z)), s(s(z)), s(z)) /\ minus(s(z), s(s(z)), s(s(z)))
minus(s(s(s(z))), s(s(z)), z) <= minus(s(s(z)), s(z), z)
False <= minus(s(s(z)), z, s(z))
False <= minus(s(z), s(s(z)), s(z))
minus(s(s(z)), s(s(z)), s(s(z))) <= minus(s(z), s(z), s(s(z)))
False <= minus(s(z), s(z), s(z))
False <= minus(s(z), z, s(s(z)))
minus(s(s(z)), s(z), z) <= minus(s(z), z, z)
}

Learner proposed model:
Found Model:
|_

_r_1 ->
{
  _r_1(s(x_0_0), s(x_1_0)) <= True
  _r_1(z, z) <= True
}
;
_r_2 ->
{
  _r_2(s(x_0_0), s(x_1_0)) <= _r_2(x_0_0, x_1_0)
  _r_2(s(x_0_0), z) <= _r_3(x_0_0)
}
;
_r_3 ->
{
  _r_3(z) <= True
}
;
minus ->
{
  minus(s(x_0_0), s(x_1_0), s(x_2_0)) <= _r_2(x_0_0, x_1_0)
  minus(s(x_0_0), s(x_1_0), s(x_2_0)) <= _r_2(x_0_0, x_2_0) /\ _r_3(x_1_0)
  minus(s(x_0_0), s(x_1_0), z) <= _r_1(x_0_0, x_1_0)
  minus(s(x_0_0), s(x_1_0), z) <= _r_3(x_0_0)
  minus(s(x_0_0), z, s(x_2_0)) <= _r_1(x_0_0, x_2_0)
  minus(z, s(x_1_0), z) <= True
  minus(z, z, z) <= True
}

--
Equality automata are defined for: {nat}
_|


Answer of teacher:


minus(s(u), z, s(u)) <= True -> No: ()
minus(z, y, z) <= True -> No: ()
eq_nat(_aqa, _cqa) <= minus(_bqa, s(k), _aqa) /\ minus(_dqa, k, _cqa) /\ minus(m, n, _dqa) /\ minus(s(m), n, _bqa) -> Yes: {
_aqa -> s(z)  ;  _bqa -> s(s(z))  ;  _cqa -> z  ;  _dqa -> z  ;  k -> z  ;  m -> s(z)  ;  n -> s(z)
}
minus(s(u), s(x2), _vpa) <= minus(u, x2, _vpa) -> Yes: {
_vpa -> s(s(s(z)))  ;  u -> s(s(z))  ;  x2 -> z
}



-------------------------------------------
Step 16, which took 0.166326 s (model generation: 0.139049,  model checking: 0.027277):

Ground examples at the beginning of this step are:
{
minus(s(s(s(z))), s(s(z)), s(z)) <= True
minus(s(s(s(z))), s(z), s(s(z))) <= True
minus(s(s(s(z))), z, s(s(s(z)))) <= True
minus(s(s(z)), s(s(s(z))), z) <= True
minus(s(s(z)), s(s(z)), z) <= True
minus(s(s(z)), s(z), s(z)) <= True
minus(s(s(z)), z, s(s(z))) <= True
minus(s(z), s(s(z)), z) <= True
minus(s(z), s(z), z) <= True
minus(s(z), z, s(z)) <= True
minus(z, s(z), z) <= True
minus(z, z, z) <= True
False <= minus(s(s(s(z))), s(s(z)), z) /\ minus(s(s(z)), s(s(z)), s(z))
False <= minus(s(s(s(z))), s(z), s(z))
False <= minus(s(s(s(z))), s(z), z)
False <= minus(s(s(z)), s(s(z)), s(z)) /\ minus(s(z), s(s(z)), s(s(z)))
False <= minus(s(s(z)), s(z), s(s(z)))
minus(s(s(s(z))), s(s(z)), z) <= minus(s(s(z)), s(z), z)
minus(s(s(s(z))), s(z), s(s(s(z)))) <= minus(s(s(z)), z, s(s(s(z))))
False <= minus(s(s(z)), z, s(z))
False <= minus(s(z), s(s(z)), s(z))
minus(s(s(z)), s(s(z)), s(s(z))) <= minus(s(z), s(z), s(s(z)))
False <= minus(s(z), s(z), s(z))
False <= minus(s(z), z, s(s(z)))
minus(s(s(z)), s(z), z) <= minus(s(z), z, z)
}

Learner proposed model:
Found Model:
|_

_r_1 ->
{
  _r_1(s(x_0_0), s(x_1_0)) <= _r_2(x_0_0)
  _r_1(z, z) <= True
}
;
_r_2 ->
{
  _r_2(s(x_0_0)) <= _r_3(x_0_0)
}
;
_r_3 ->
{
  _r_3(z) <= True
}
;
minus ->
{
  minus(s(x_0_0), s(x_1_0), s(x_2_0)) <= _r_1(x_0_0, x_1_0) /\ _r_2(x_1_0)
  minus(s(x_0_0), s(x_1_0), s(x_2_0)) <= _r_1(x_0_0, x_2_0) /\ _r_2(x_2_0)
  minus(s(x_0_0), s(x_1_0), s(x_2_0)) <= _r_1(x_1_0, x_2_0) /\ _r_2(x_0_0)
  minus(s(x_0_0), s(x_1_0), z) <= _r_1(x_0_0, x_1_0)
  minus(s(x_0_0), s(x_1_0), z) <= _r_2(x_0_0)
  minus(s(x_0_0), s(x_1_0), z) <= _r_2(x_1_0)
  minus(s(x_0_0), z, s(x_2_0)) <= _r_1(x_0_0, x_2_0)
  minus(s(x_0_0), z, s(x_2_0)) <= _r_2(x_0_0) /\ _r_2(x_2_0)
  minus(z, s(x_1_0), z) <= True
  minus(z, z, z) <= True
}

--
Equality automata are defined for: {nat}
_|


Answer of teacher:


minus(s(u), z, s(u)) <= True -> Yes: {
u -> s(s(s(_gsxk_0)))
}
minus(z, y, z) <= True -> No: ()
eq_nat(_aqa, _cqa) <= minus(_bqa, s(k), _aqa) /\ minus(_dqa, k, _cqa) /\ minus(m, n, _dqa) /\ minus(s(m), n, _bqa) -> Yes: {
_aqa -> z  ;  _bqa -> z  ;  _cqa -> s(s(z))  ;  _dqa -> s(s(z))  ;  k -> z  ;  m -> s(s(s(z)))  ;  n -> s(s(z))
}
minus(s(u), s(x2), _vpa) <= minus(u, x2, _vpa) -> Yes: {
_vpa -> z  ;  u -> z  ;  x2 -> s(s(_gsxk_0))
}



-------------------------------------------
Step 17, which took 0.401104 s (model generation: 0.394149,  model checking: 0.006955):

Ground examples at the beginning of this step are:
{
minus(s(s(s(s(z)))), z, s(s(s(s(z))))) <= True
minus(s(s(s(z))), s(s(z)), s(z)) <= True
minus(s(s(s(z))), s(z), s(s(z))) <= True
minus(s(s(s(z))), z, s(s(s(z)))) <= True
minus(s(s(z)), s(s(s(z))), z) <= True
minus(s(s(z)), s(s(z)), z) <= True
minus(s(s(z)), s(z), s(z)) <= True
minus(s(s(z)), z, s(s(z))) <= True
minus(s(z), s(s(z)), z) <= True
minus(s(z), s(z), z) <= True
minus(s(z), z, s(z)) <= True
minus(z, s(z), z) <= True
minus(z, z, z) <= True
False <= minus(s(s(s(s(z)))), s(s(z)), z) /\ minus(s(s(s(z))), s(s(z)), s(s(z)))
False <= minus(s(s(s(z))), s(s(z)), z) /\ minus(s(s(z)), s(s(z)), s(z))
False <= minus(s(s(s(z))), s(z), s(z))
False <= minus(s(s(s(z))), s(z), z)
False <= minus(s(s(z)), s(s(z)), s(z)) /\ minus(s(z), s(s(z)), s(s(z)))
False <= minus(s(s(z)), s(z), s(s(z)))
minus(s(s(s(z))), s(s(z)), z) <= minus(s(s(z)), s(z), z)
minus(s(s(s(z))), s(z), s(s(s(z)))) <= minus(s(s(z)), z, s(s(s(z))))
False <= minus(s(s(z)), z, s(z))
False <= minus(s(z), s(s(z)), s(z))
minus(s(s(z)), s(s(z)), s(s(z))) <= minus(s(z), s(z), s(s(z)))
False <= minus(s(z), s(z), s(z))
False <= minus(s(z), z, s(s(z)))
minus(s(s(z)), s(z), z) <= minus(s(z), z, z)
minus(s(z), s(s(s(z))), z) <= minus(z, s(s(z)), z)
}

Learner proposed model:
Found Model:
|_

_r_1 ->
{
  _r_1(s(x_0_0), s(x_1_0)) <= _r_3(x_0_0)
  _r_1(s(x_0_0), z) <= _r_2(x_0_0)
}
;
_r_2 ->
{
  _r_2(z) <= True
}
;
_r_3 ->
{
  _r_3(s(x_0_0)) <= True
}
;
minus ->
{
  minus(s(x_0_0), s(x_1_0), s(x_2_0)) <= _r_1(x_0_0, x_1_0) /\ _r_2(x_2_0)
  minus(s(x_0_0), s(x_1_0), s(x_2_0)) <= _r_1(x_0_0, x_2_0) /\ _r_2(x_1_0)
  minus(s(x_0_0), s(x_1_0), z) <= _r_2(x_0_0)
  minus(s(x_0_0), s(x_1_0), z) <= _r_3(x_1_0)
  minus(s(x_0_0), z, s(x_2_0)) <= _r_2(x_0_0) /\ _r_2(x_2_0)
  minus(s(x_0_0), z, s(x_2_0)) <= _r_3(x_0_0) /\ _r_3(x_2_0)
  minus(z, s(x_1_0), z) <= True
  minus(z, z, z) <= True
}

--
Equality automata are defined for: {nat}
_|


Answer of teacher:


minus(s(u), z, s(u)) <= True -> No: ()
minus(z, y, z) <= True -> No: ()
eq_nat(_aqa, _cqa) <= minus(_bqa, s(k), _aqa) /\ minus(_dqa, k, _cqa) /\ minus(m, n, _dqa) /\ minus(s(m), n, _bqa) -> Yes: {
_aqa -> s(z)  ;  _bqa -> s(s(s(_gbal_0)))  ;  _cqa -> z  ;  _dqa -> s(z)  ;  k -> s(_qnyk_0)  ;  m -> s(z)  ;  n -> z
}
minus(s(u), s(x2), _vpa) <= minus(u, x2, _vpa) -> Yes: {
_vpa -> s(s(_rbal_0))  ;  u -> s(s(s(_gbal_0)))  ;  x2 -> s(z)
}



-------------------------------------------
Step 18, which took 0.343009 s (model generation: 0.317426,  model checking: 0.025583):

Ground examples at the beginning of this step are:
{
minus(s(s(s(s(z)))), s(s(z)), s(s(z))) <= True
minus(s(s(s(s(z)))), z, s(s(s(s(z))))) <= True
minus(s(s(s(z))), s(s(z)), s(z)) <= True
minus(s(s(s(z))), s(z), s(s(z))) <= True
minus(s(s(s(z))), z, s(s(s(z)))) <= True
minus(s(s(z)), s(s(s(z))), z) <= True
minus(s(s(z)), s(s(z)), z) <= True
minus(s(s(z)), s(z), s(z)) <= True
minus(s(s(z)), z, s(s(z))) <= True
minus(s(z), s(s(z)), z) <= True
minus(s(z), s(z), z) <= True
minus(s(z), z, s(z)) <= True
minus(z, s(z), z) <= True
minus(z, z, z) <= True
False <= minus(s(s(s(s(z)))), s(s(z)), z) /\ minus(s(s(s(z))), s(s(z)), s(s(z)))
False <= minus(s(s(s(z))), s(s(z)), z) /\ minus(s(s(z)), s(s(z)), s(z))
False <= minus(s(s(s(z))), s(z), s(z))
False <= minus(s(s(s(z))), s(z), z)
False <= minus(s(s(z)), s(s(z)), s(z)) /\ minus(s(z), s(s(z)), s(s(z)))
False <= minus(s(s(z)), s(z), s(s(z)))
minus(s(s(s(z))), s(s(z)), z) <= minus(s(s(z)), s(z), z)
False <= minus(s(s(z)), z, s(s(s(z))))
False <= minus(s(s(z)), z, s(z))
False <= minus(s(z), s(s(z)), s(z))
minus(s(s(z)), s(s(z)), s(s(z))) <= minus(s(z), s(z), s(s(z)))
False <= minus(s(z), s(z), s(z))
False <= minus(s(z), z, s(s(z)))
minus(s(s(z)), s(z), z) <= minus(s(z), z, z)
minus(s(z), s(s(s(z))), z) <= minus(z, s(s(z)), z)
}

Learner proposed model:
Found Model:
|_

_r_1 ->
{
  _r_1(z) <= True
}
;
_r_2 ->
{
  _r_2(s(x_0_0)) <= _r_1(x_0_0)
}
;
_r_3 ->
{
  _r_3(s(x_0_0)) <= _r_2(x_0_0)
  _r_3(s(x_0_0)) <= _r_3(x_0_0)
}
;
minus ->
{
  minus(s(x_0_0), s(x_1_0), s(x_2_0)) <= _r_1(x_2_0) /\ _r_2(x_0_0)
  minus(s(x_0_0), s(x_1_0), s(x_2_0)) <= _r_2(x_1_0) /\ _r_3(x_0_0)
  minus(s(x_0_0), s(x_1_0), s(x_2_0)) <= _r_2(x_2_0) /\ _r_3(x_0_0)
  minus(s(x_0_0), s(x_1_0), z) <= _r_1(x_0_0)
  minus(s(x_0_0), s(x_1_0), z) <= _r_2(x_0_0) /\ _r_2(x_1_0)
  minus(s(x_0_0), s(x_1_0), z) <= _r_3(x_1_0)
  minus(s(x_0_0), z, s(x_2_0)) <= _r_1(x_0_0) /\ _r_1(x_2_0)
  minus(s(x_0_0), z, s(x_2_0)) <= _r_2(x_0_0) /\ _r_2(x_2_0)
  minus(s(x_0_0), z, s(x_2_0)) <= _r_3(x_0_0)
  minus(z, s(x_1_0), z) <= True
  minus(z, z, z) <= True
}

--
Equality automata are defined for: {nat}
_|


Answer of teacher:


minus(s(u), z, s(u)) <= True -> No: ()
minus(z, y, z) <= True -> No: ()
eq_nat(_aqa, _cqa) <= minus(_bqa, s(k), _aqa) /\ minus(_dqa, k, _cqa) /\ minus(m, n, _dqa) /\ minus(s(m), n, _bqa) -> Yes: {
_aqa -> z  ;  _bqa -> z  ;  _cqa -> s(s(z))  ;  _dqa -> s(s(z))  ;  k -> z  ;  m -> s(s(s(z)))  ;  n -> s(s(s(z)))
}
minus(s(u), s(x2), _vpa) <= minus(u, x2, _vpa) -> Yes: {
_vpa -> s(z)  ;  u -> s(s(z))  ;  x2 -> s(s(_nfkl_0))
}



-------------------------------------------
Step 19, which took 0.343522 s (model generation: 0.294760,  model checking: 0.048762):

Ground examples at the beginning of this step are:
{
minus(s(s(s(s(z)))), s(s(z)), s(s(z))) <= True
minus(s(s(s(s(z)))), z, s(s(s(s(z))))) <= True
minus(s(s(s(z))), s(s(z)), s(z)) <= True
minus(s(s(s(z))), s(z), s(s(z))) <= True
minus(s(s(s(z))), z, s(s(s(z)))) <= True
minus(s(s(z)), s(s(s(z))), z) <= True
minus(s(s(z)), s(s(z)), z) <= True
minus(s(s(z)), s(z), s(z)) <= True
minus(s(s(z)), z, s(s(z))) <= True
minus(s(z), s(s(z)), z) <= True
minus(s(z), s(z), z) <= True
minus(s(z), z, s(z)) <= True
minus(z, s(z), z) <= True
minus(z, z, z) <= True
False <= minus(s(s(s(s(z)))), s(s(s(z))), z) /\ minus(s(s(s(z))), s(s(s(z))), s(s(z)))
False <= minus(s(s(s(s(z)))), s(s(z)), z) /\ minus(s(s(s(z))), s(s(z)), s(s(z)))
False <= minus(s(s(s(z))), s(s(z)), z) /\ minus(s(s(z)), s(s(z)), s(z))
False <= minus(s(s(s(z))), s(z), s(z))
False <= minus(s(s(s(z))), s(z), z)
minus(s(s(s(z))), s(s(s(z))), s(z)) <= minus(s(s(z)), s(s(z)), s(z))
False <= minus(s(s(z)), s(s(z)), s(z)) /\ minus(s(z), s(s(z)), s(s(z)))
False <= minus(s(s(z)), s(z), s(s(z)))
minus(s(s(s(z))), s(s(z)), z) <= minus(s(s(z)), s(z), z)
False <= minus(s(s(z)), z, s(s(s(z))))
False <= minus(s(s(z)), z, s(z))
False <= minus(s(z), s(s(z)), s(z))
minus(s(s(z)), s(s(z)), s(s(z))) <= minus(s(z), s(z), s(s(z)))
False <= minus(s(z), s(z), s(z))
False <= minus(s(z), z, s(s(z)))
minus(s(s(z)), s(z), z) <= minus(s(z), z, z)
minus(s(z), s(s(s(z))), z) <= minus(z, s(s(z)), z)
}

Learner proposed model:
Found Model:
|_

_r_1 ->
{
  _r_1(s(x_0_0), s(x_1_0)) <= _r_1(x_0_0, x_1_0)
  _r_1(s(x_0_0), s(x_1_0)) <= _r_2(x_0_0)
}
;
_r_2 ->
{
  _r_2(s(x_0_0)) <= _r_3(x_0_0)
}
;
_r_3 ->
{
  _r_3(z) <= True
}
;
minus ->
{
  minus(s(x_0_0), s(x_1_0), s(x_2_0)) <= _r_1(x_0_0, x_1_0)
  minus(s(x_0_0), s(x_1_0), s(x_2_0)) <= _r_1(x_0_0, x_2_0)
  minus(s(x_0_0), s(x_1_0), s(x_2_0)) <= _r_2(x_0_0) /\ _r_3(x_1_0) /\ _r_3(x_2_0)
  minus(s(x_0_0), s(x_1_0), s(x_2_0)) <= _r_2(x_1_0) /\ _r_2(x_2_0)
  minus(s(x_0_0), s(x_1_0), z) <= _r_1(x_0_0, x_1_0) /\ _r_2(x_1_0)
  minus(s(x_0_0), s(x_1_0), z) <= _r_2(x_0_0)
  minus(s(x_0_0), s(x_1_0), z) <= _r_3(x_0_0)
  minus(s(x_0_0), z, s(x_2_0)) <= _r_1(x_0_0, x_2_0)
  minus(s(x_0_0), z, s(x_2_0)) <= _r_2(x_0_0) /\ _r_2(x_2_0)
  minus(s(x_0_0), z, s(x_2_0)) <= _r_3(x_0_0) /\ _r_3(x_2_0)
  minus(z, s(x_1_0), z) <= True
  minus(z, z, z) <= True
}

--
Equality automata are defined for: {nat}
_|


Answer of teacher:


minus(s(u), z, s(u)) <= True -> No: ()
minus(z, y, z) <= True -> No: ()
eq_nat(_aqa, _cqa) <= minus(_bqa, s(k), _aqa) /\ minus(_dqa, k, _cqa) /\ minus(m, n, _dqa) /\ minus(s(m), n, _bqa) -> Yes: {
_aqa -> z  ;  _bqa -> z  ;  _cqa -> s(s(z))  ;  _dqa -> s(s(z))  ;  k -> s(s(z))  ;  m -> s(z)  ;  n -> s(s(z))
}
minus(s(u), s(x2), _vpa) <= minus(u, x2, _vpa) -> Yes: {
_vpa -> z  ;  u -> s(s(z))  ;  x2 -> s(s(_pscm_0))
}



-------------------------------------------
Step 20, which took 0.392228 s (model generation: 0.361136,  model checking: 0.031092):

Ground examples at the beginning of this step are:
{
minus(s(s(s(s(z)))), s(s(z)), s(s(z))) <= True
minus(s(s(s(s(z)))), z, s(s(s(s(z))))) <= True
minus(s(s(s(z))), s(s(s(z))), z) <= True
minus(s(s(s(z))), s(s(z)), s(z)) <= True
minus(s(s(s(z))), s(z), s(s(z))) <= True
minus(s(s(s(z))), z, s(s(s(z)))) <= True
minus(s(s(z)), s(s(s(z))), z) <= True
minus(s(s(z)), s(s(z)), z) <= True
minus(s(s(z)), s(z), s(z)) <= True
minus(s(s(z)), z, s(s(z))) <= True
minus(s(z), s(s(z)), z) <= True
minus(s(z), s(z), z) <= True
minus(s(z), z, s(z)) <= True
minus(z, s(z), z) <= True
minus(z, z, z) <= True
False <= minus(s(s(s(s(z)))), s(s(s(z))), z) /\ minus(s(s(s(z))), s(s(s(z))), s(s(z)))
False <= minus(s(s(s(s(z)))), s(s(z)), z) /\ minus(s(s(s(z))), s(s(z)), s(s(z)))
False <= minus(s(s(s(z))), s(s(z)), z) /\ minus(s(s(z)), s(s(z)), s(z))
False <= minus(s(s(s(z))), s(z), s(z))
False <= minus(s(s(s(z))), s(z), z)
False <= minus(s(s(z)), s(s(z)), s(s(z))) /\ minus(s(z), s(s(z)), s(s(z))) /\ minus(z, s(s(s(z))), z)
minus(s(s(s(z))), s(s(s(z))), s(z)) <= minus(s(s(z)), s(s(z)), s(z))
False <= minus(s(s(z)), s(s(z)), s(z)) /\ minus(s(z), s(s(z)), s(s(z)))
False <= minus(s(s(z)), s(z), s(s(z)))
minus(s(s(s(z))), s(s(z)), z) <= minus(s(s(z)), s(z), z)
False <= minus(s(s(z)), z, s(s(s(z))))
False <= minus(s(s(z)), z, s(z))
False <= minus(s(z), s(s(z)), s(z))
minus(s(s(z)), s(s(z)), s(s(z))) <= minus(s(z), s(z), s(s(z)))
False <= minus(s(z), s(z), s(z))
False <= minus(s(z), z, s(s(z)))
minus(s(s(z)), s(z), z) <= minus(s(z), z, z)
minus(s(z), s(s(s(z))), z) <= minus(z, s(s(z)), z)
}

Learner proposed model:
Found Model:
|_

_r_1 ->
{
  _r_1(s(x_0_0)) <= _r_2(x_0_0)
}
;
_r_2 ->
{
  _r_2(z) <= True
}
;
_r_3 ->
{
  _r_3(s(x_0_0)) <= _r_1(x_0_0)
  _r_3(s(x_0_0)) <= _r_3(x_0_0)
}
;
minus ->
{
  minus(s(x_0_0), s(x_1_0), s(x_2_0)) <= _r_1(x_0_0) /\ _r_2(x_1_0) /\ _r_2(x_2_0)
  minus(s(x_0_0), s(x_1_0), s(x_2_0)) <= _r_1(x_1_0) /\ _r_3(x_0_0)
  minus(s(x_0_0), s(x_1_0), s(x_2_0)) <= _r_1(x_2_0) /\ _r_2(x_1_0) /\ _r_3(x_0_0)
  minus(s(x_0_0), s(x_1_0), z) <= _r_1(x_0_0) /\ _r_1(x_1_0)
  minus(s(x_0_0), s(x_1_0), z) <= _r_2(x_0_0)
  minus(s(x_0_0), s(x_1_0), z) <= _r_3(x_1_0)
  minus(s(x_0_0), z, s(x_2_0)) <= _r_1(x_0_0) /\ _r_1(x_2_0)
  minus(s(x_0_0), z, s(x_2_0)) <= _r_2(x_0_0) /\ _r_2(x_2_0)
  minus(s(x_0_0), z, s(x_2_0)) <= _r_3(x_0_0)
  minus(z, s(x_1_0), z) <= True
  minus(z, z, z) <= True
}

--
Equality automata are defined for: {nat}
_|


Answer of teacher:


minus(s(u), z, s(u)) <= True -> No: ()
minus(z, y, z) <= True -> No: ()
eq_nat(_aqa, _cqa) <= minus(_bqa, s(k), _aqa) /\ minus(_dqa, k, _cqa) /\ minus(m, n, _dqa) /\ minus(s(m), n, _bqa) -> Yes: {
_aqa -> z  ;  _bqa -> s(z)  ;  _cqa -> s(_abkm_0)  ;  _dqa -> s(s(s(z)))  ;  k -> s(s(z))  ;  m -> s(s(s(z)))  ;  n -> s(s(z))
}
minus(s(u), s(x2), _vpa) <= minus(u, x2, _vpa) -> Yes: {
_vpa -> s(s(s(_bdnm_0)))  ;  u -> s(s(s(z)))  ;  x2 -> z
}



-------------------------------------------
Step 21, which took 0.551931 s (model generation: 0.480807,  model checking: 0.071124):

Ground examples at the beginning of this step are:
{
minus(s(s(s(s(z)))), s(s(z)), s(s(z))) <= True
minus(s(s(s(s(z)))), s(z), s(s(s(z)))) <= True
minus(s(s(s(s(z)))), z, s(s(s(s(z))))) <= True
minus(s(s(s(z))), s(s(s(z))), z) <= True
minus(s(s(s(z))), s(s(z)), s(z)) <= True
minus(s(s(s(z))), s(z), s(s(z))) <= True
minus(s(s(s(z))), z, s(s(s(z)))) <= True
minus(s(s(z)), s(s(s(z))), z) <= True
minus(s(s(z)), s(s(z)), z) <= True
minus(s(s(z)), s(z), s(z)) <= True
minus(s(s(z)), z, s(s(z))) <= True
minus(s(z), s(s(z)), z) <= True
minus(s(z), s(z), z) <= True
minus(s(z), z, s(z)) <= True
minus(z, s(z), z) <= True
minus(z, z, z) <= True
False <= minus(s(s(s(s(z)))), s(s(s(z))), z) /\ minus(s(s(s(z))), s(s(s(z))), s(s(z)))
False <= minus(s(s(s(s(z)))), s(s(z)), s(z)) /\ minus(s(s(s(z))), s(s(z)), s(s(s(z)))) /\ minus(s(z), s(s(s(z))), z)
False <= minus(s(s(s(s(z)))), s(s(z)), z) /\ minus(s(s(s(z))), s(s(z)), s(s(z)))
False <= minus(s(s(s(z))), s(s(z)), z) /\ minus(s(s(z)), s(s(z)), s(z))
False <= minus(s(s(s(z))), s(z), s(z))
False <= minus(s(s(s(z))), s(z), z)
False <= minus(s(s(z)), s(s(z)), s(s(z))) /\ minus(s(z), s(s(z)), s(s(z))) /\ minus(z, s(s(s(z))), z)
minus(s(s(s(z))), s(s(s(z))), s(z)) <= minus(s(s(z)), s(s(z)), s(z))
False <= minus(s(s(z)), s(s(z)), s(z)) /\ minus(s(z), s(s(z)), s(s(z)))
False <= minus(s(s(z)), s(z), s(s(z)))
minus(s(s(s(z))), s(s(z)), z) <= minus(s(s(z)), s(z), z)
False <= minus(s(s(z)), z, s(s(s(z))))
False <= minus(s(s(z)), z, s(z))
False <= minus(s(z), s(s(z)), s(z))
minus(s(s(z)), s(s(z)), s(s(z))) <= minus(s(z), s(z), s(s(z)))
False <= minus(s(z), s(z), s(z))
False <= minus(s(z), z, s(s(z)))
minus(s(s(z)), s(z), z) <= minus(s(z), z, z)
minus(s(z), s(s(s(z))), z) <= minus(z, s(s(z)), z)
}

Learner proposed model:
Found Model:
|_

_r_1 ->
{
  _r_1(s(x_0_0), s(x_1_0)) <= _r_1(x_0_0, x_1_0)
  _r_1(s(x_0_0), s(x_1_0)) <= _r_3(x_0_0)
}
;
_r_2 ->
{
  _r_2(z) <= True
}
;
_r_3 ->
{
  _r_3(s(x_0_0)) <= _r_2(x_0_0)
}
;
minus ->
{
  minus(s(x_0_0), s(x_1_0), s(x_2_0)) <= _r_1(x_0_0, x_1_0) /\ minus(x_0_0, x_1_0, x_2_0)
  minus(s(x_0_0), s(x_1_0), s(x_2_0)) <= _r_1(x_0_0, x_2_0) /\ _r_2(x_1_0)
  minus(s(x_0_0), s(x_1_0), s(x_2_0)) <= _r_2(x_1_0) /\ _r_2(x_2_0) /\ _r_3(x_0_0)
  minus(s(x_0_0), s(x_1_0), s(x_2_0)) <= _r_3(x_1_0) /\ _r_3(x_2_0)
  minus(s(x_0_0), s(x_1_0), z) <= _r_1(x_0_0, x_1_0)
  minus(s(x_0_0), s(x_1_0), z) <= _r_2(x_0_0)
  minus(s(x_0_0), s(x_1_0), z) <= _r_3(x_0_0)
  minus(s(x_0_0), z, s(x_2_0)) <= _r_1(x_0_0, x_2_0)
  minus(s(x_0_0), z, s(x_2_0)) <= _r_2(x_0_0) /\ _r_2(x_2_0)
  minus(s(x_0_0), z, s(x_2_0)) <= _r_3(x_0_0) /\ _r_3(x_2_0)
  minus(z, s(x_1_0), z) <= _r_2(x_1_0)
  minus(z, z, z) <= True
}

--
Equality automata are defined for: {nat}
_|


Answer of teacher:


minus(s(u), z, s(u)) <= True -> No: ()
minus(z, y, z) <= True -> Yes: {
y -> s(s(_kdgn_0))
}
eq_nat(_aqa, _cqa) <= minus(_bqa, s(k), _aqa) /\ minus(_dqa, k, _cqa) /\ minus(m, n, _dqa) /\ minus(s(m), n, _bqa) -> Yes: {
_aqa -> z  ;  _bqa -> s(s(z))  ;  _cqa -> s(s(z))  ;  _dqa -> s(s(z))  ;  k -> s(s(z))  ;  m -> s(_cqdn_0)  ;  n -> s(s(z))
}
minus(s(u), s(x2), _vpa) <= minus(u, x2, _vpa) -> Yes: {
_vpa -> s(s(z))  ;  u -> s(z)  ;  x2 -> s(s(z))
}



-------------------------------------------
Step 22, which took 0.693062 s (model generation: 0.540195,  model checking: 0.152867):

Ground examples at the beginning of this step are:
{
minus(s(s(s(s(z)))), s(s(z)), s(s(z))) <= True
minus(s(s(s(s(z)))), s(z), s(s(s(z)))) <= True
minus(s(s(s(s(z)))), z, s(s(s(s(z))))) <= True
minus(s(s(s(z))), s(s(s(z))), z) <= True
minus(s(s(s(z))), s(s(z)), s(z)) <= True
minus(s(s(s(z))), s(z), s(s(z))) <= True
minus(s(s(s(z))), z, s(s(s(z)))) <= True
minus(s(s(z)), s(s(s(z))), z) <= True
minus(s(s(z)), s(s(z)), z) <= True
minus(s(s(z)), s(z), s(z)) <= True
minus(s(s(z)), z, s(s(z))) <= True
minus(s(z), s(s(s(z))), z) <= True
minus(s(z), s(s(z)), z) <= True
minus(s(z), s(z), z) <= True
minus(s(z), z, s(z)) <= True
minus(z, s(s(z)), z) <= True
minus(z, s(z), z) <= True
minus(z, z, z) <= True
False <= minus(s(s(s(s(z)))), s(s(s(z))), z) /\ minus(s(s(s(z))), s(s(s(z))), s(s(z)))
False <= minus(s(s(s(s(z)))), s(s(z)), s(z)) /\ minus(s(s(s(z))), s(s(z)), s(s(s(z))))
False <= minus(s(s(s(s(z)))), s(s(z)), z) /\ minus(s(s(s(z))), s(s(z)), s(s(z)))
False <= minus(s(s(s(z))), s(s(z)), z) /\ minus(s(s(z)), s(s(z)), s(z))
False <= minus(s(s(s(z))), s(z), s(z))
False <= minus(s(s(s(z))), s(z), z)
False <= minus(s(s(z)), s(s(z)), s(s(z))) /\ minus(s(z), s(s(z)), s(s(z)))
False <= minus(s(s(z)), s(s(z)), s(s(z))) /\ minus(s(z), s(s(z)), s(s(z))) /\ minus(z, s(s(s(z))), z)
minus(s(s(s(z))), s(s(s(z))), s(z)) <= minus(s(s(z)), s(s(z)), s(z))
False <= minus(s(s(z)), s(s(z)), s(z)) /\ minus(s(z), s(s(z)), s(s(z)))
False <= minus(s(s(z)), s(z), s(s(z)))
minus(s(s(s(z))), s(s(z)), z) <= minus(s(s(z)), s(z), z)
False <= minus(s(s(z)), z, s(s(s(z))))
False <= minus(s(s(z)), z, s(z))
minus(s(s(z)), s(s(s(z))), s(s(z))) <= minus(s(z), s(s(z)), s(s(z)))
False <= minus(s(z), s(s(z)), s(z))
minus(s(s(z)), s(s(z)), s(s(z))) <= minus(s(z), s(z), s(s(z)))
False <= minus(s(z), s(z), s(z))
False <= minus(s(z), z, s(s(z)))
minus(s(s(z)), s(z), z) <= minus(s(z), z, z)
}

Learner proposed model:
Found Model:
|_

_r_1 ->
{
  _r_1(s(x_0_0)) <= _r_1(x_0_0)
  _r_1(s(x_0_0)) <= _r_3(x_0_0)
}
;
_r_2 ->
{
  _r_2(z) <= True
}
;
_r_3 ->
{
  _r_3(s(x_0_0)) <= _r_2(x_0_0)
}
;
minus ->
{
  minus(s(x_0_0), s(x_1_0), s(x_2_0)) <= _r_1(x_0_0) /\ _r_2(x_1_0) /\ _r_3(x_2_0)
  minus(s(x_0_0), s(x_1_0), s(x_2_0)) <= _r_1(x_0_0) /\ _r_2(x_2_0) /\ _r_3(x_1_0)
  minus(s(x_0_0), s(x_1_0), s(x_2_0)) <= _r_1(x_0_0) /\ _r_3(x_1_0) /\ _r_3(x_2_0)
  minus(s(x_0_0), s(x_1_0), s(x_2_0)) <= _r_1(x_2_0) /\ minus(x_0_0, x_1_0, x_2_0)
  minus(s(x_0_0), s(x_1_0), s(x_2_0)) <= _r_2(x_1_0) /\ _r_2(x_2_0) /\ _r_3(x_0_0)
  minus(s(x_0_0), s(x_1_0), z) <= _r_1(x_1_0)
  minus(s(x_0_0), s(x_1_0), z) <= _r_2(x_0_0)
  minus(s(x_0_0), s(x_1_0), z) <= _r_3(x_0_0) /\ _r_3(x_1_0)
  minus(s(x_0_0), z, s(x_2_0)) <= _r_1(x_0_0)
  minus(s(x_0_0), z, s(x_2_0)) <= _r_2(x_0_0) /\ _r_2(x_2_0)
  minus(s(x_0_0), z, s(x_2_0)) <= _r_3(x_0_0) /\ _r_3(x_2_0)
  minus(z, s(x_1_0), z) <= True
  minus(z, z, z) <= True
}

--
Equality automata are defined for: {nat}
_|


Answer of teacher:


minus(s(u), z, s(u)) <= True -> No: ()
minus(z, y, z) <= True -> No: ()
eq_nat(_aqa, _cqa) <= minus(_bqa, s(k), _aqa) /\ minus(_dqa, k, _cqa) /\ minus(m, n, _dqa) /\ minus(s(m), n, _bqa) -> Yes: {
_aqa -> z  ;  _bqa -> s(z)  ;  _cqa -> s(s(z))  ;  _dqa -> s(s(z))  ;  k -> z  ;  m -> s(s(z))  ;  n -> z
}
minus(s(u), s(x2), _vpa) <= minus(u, x2, _vpa) -> Yes: {
_vpa -> s(z)  ;  u -> s(s(s(z)))  ;  x2 -> z
}



-------------------------------------------
Step 23, which took 0.627414 s (model generation: 0.514374,  model checking: 0.113040):

Ground examples at the beginning of this step are:
{
minus(s(s(s(s(z)))), s(s(z)), s(s(z))) <= True
minus(s(s(s(s(z)))), s(z), s(s(s(z)))) <= True
minus(s(s(s(s(z)))), z, s(s(s(s(z))))) <= True
minus(s(s(s(z))), s(s(s(z))), z) <= True
minus(s(s(s(z))), s(s(z)), s(z)) <= True
minus(s(s(s(z))), s(z), s(s(z))) <= True
minus(s(s(s(z))), z, s(s(s(z)))) <= True
minus(s(s(z)), s(s(s(z))), z) <= True
minus(s(s(z)), s(s(z)), z) <= True
minus(s(s(z)), s(z), s(z)) <= True
minus(s(s(z)), z, s(s(z))) <= True
minus(s(z), s(s(s(z))), z) <= True
minus(s(z), s(s(z)), z) <= True
minus(s(z), s(z), z) <= True
minus(s(z), z, s(z)) <= True
minus(z, s(s(z)), z) <= True
minus(z, s(z), z) <= True
minus(z, z, z) <= True
False <= minus(s(s(s(s(z)))), s(s(s(z))), z) /\ minus(s(s(s(z))), s(s(s(z))), s(s(z)))
False <= minus(s(s(s(s(z)))), s(s(z)), s(z)) /\ minus(s(s(s(z))), s(s(z)), s(s(s(z))))
False <= minus(s(s(s(s(z)))), s(s(z)), z) /\ minus(s(s(s(z))), s(s(z)), s(s(z)))
False <= minus(s(s(s(z))), s(s(z)), z) /\ minus(s(s(z)), s(s(z)), s(z))
False <= minus(s(s(s(z))), s(z), s(z))
False <= minus(s(s(s(z))), s(z), z)
False <= minus(s(s(s(z))), z, s(z))
False <= minus(s(s(z)), s(s(z)), s(s(z))) /\ minus(s(z), s(s(z)), s(s(z)))
False <= minus(s(s(z)), s(s(z)), s(s(z))) /\ minus(s(z), s(s(z)), s(s(z))) /\ minus(z, s(s(s(z))), z)
minus(s(s(s(z))), s(s(s(z))), s(z)) <= minus(s(s(z)), s(s(z)), s(z))
False <= minus(s(s(z)), s(s(z)), s(z)) /\ minus(s(z), s(s(z)), s(s(z)))
False <= minus(s(s(z)), s(z), s(s(z)))
minus(s(s(s(z))), s(s(z)), z) <= minus(s(s(z)), s(z), z)
False <= minus(s(s(z)), z, s(s(s(z))))
False <= minus(s(s(z)), z, s(z))
minus(s(s(z)), s(s(s(z))), s(s(z))) <= minus(s(z), s(s(z)), s(s(z)))
False <= minus(s(z), s(s(z)), s(z))
minus(s(s(z)), s(s(z)), s(s(z))) <= minus(s(z), s(z), s(s(z)))
False <= minus(s(z), s(z), s(z))
False <= minus(s(z), z, s(s(z)))
minus(s(s(z)), s(z), z) <= minus(s(z), z, z)
}

Learner proposed model:
Found Model:
|_

_r_1 ->
{
  _r_1(s(x_0_0)) <= _r_1(x_0_0)
  _r_1(s(x_0_0)) <= _r_3(x_0_0)
}
;
_r_2 ->
{
  _r_2(z) <= True
}
;
_r_3 ->
{
  _r_3(s(x_0_0)) <= _r_2(x_0_0)
}
;
minus ->
{
  minus(s(x_0_0), s(x_1_0), s(x_2_0)) <= _r_1(x_0_0) /\ _r_2(x_1_0) /\ _r_3(x_2_0)
  minus(s(x_0_0), s(x_1_0), s(x_2_0)) <= _r_1(x_0_0) /\ _r_2(x_2_0) /\ _r_3(x_1_0)
  minus(s(x_0_0), s(x_1_0), s(x_2_0)) <= _r_1(x_0_0) /\ _r_3(x_1_0) /\ _r_3(x_2_0)
  minus(s(x_0_0), s(x_1_0), s(x_2_0)) <= _r_1(x_2_0) /\ _r_2(x_1_0)
  minus(s(x_0_0), s(x_1_0), s(x_2_0)) <= _r_2(x_1_0) /\ _r_2(x_2_0) /\ _r_3(x_0_0)
  minus(s(x_0_0), s(x_1_0), z) <= _r_1(x_1_0)
  minus(s(x_0_0), s(x_1_0), z) <= _r_2(x_0_0)
  minus(s(x_0_0), s(x_1_0), z) <= _r_3(x_0_0) /\ _r_3(x_1_0)
  minus(s(x_0_0), z, s(x_2_0)) <= _r_1(x_0_0) /\ _r_1(x_2_0)
  minus(s(x_0_0), z, s(x_2_0)) <= _r_2(x_0_0) /\ _r_2(x_2_0)
  minus(s(x_0_0), z, s(x_2_0)) <= _r_3(x_0_0) /\ _r_3(x_2_0)
  minus(z, s(x_1_0), z) <= True
  minus(z, z, z) <= True
}

--
Equality automata are defined for: {nat}
_|


Answer of teacher:


minus(s(u), z, s(u)) <= True -> No: ()
minus(z, y, z) <= True -> No: ()
eq_nat(_aqa, _cqa) <= minus(_bqa, s(k), _aqa) /\ minus(_dqa, k, _cqa) /\ minus(m, n, _dqa) /\ minus(s(m), n, _bqa) -> Yes: {
_aqa -> s(s(z))  ;  _bqa -> s(s(s(z)))  ;  _cqa -> z  ;  _dqa -> z  ;  k -> z  ;  m -> z  ;  n -> s(z)
}
minus(s(u), s(x2), _vpa) <= minus(u, x2, _vpa) -> Yes: {
_vpa -> s(z)  ;  u -> s(s(s(z)))  ;  x2 -> s(s(z))
}



-------------------------------------------
Step 24, which took 1.231264 s (model generation: 0.967229,  model checking: 0.264035):

Ground examples at the beginning of this step are:
{
minus(s(s(s(s(z)))), s(s(s(z))), s(z)) <= True
minus(s(s(s(s(z)))), s(s(z)), s(s(z))) <= True
minus(s(s(s(s(z)))), s(z), s(s(s(z)))) <= True
minus(s(s(s(s(z)))), z, s(s(s(s(z))))) <= True
minus(s(s(s(z))), s(s(s(z))), z) <= True
minus(s(s(s(z))), s(s(z)), s(z)) <= True
minus(s(s(s(z))), s(z), s(s(z))) <= True
minus(s(s(s(z))), z, s(s(s(z)))) <= True
minus(s(s(z)), s(s(s(z))), z) <= True
minus(s(s(z)), s(s(z)), z) <= True
minus(s(s(z)), s(z), s(z)) <= True
minus(s(s(z)), z, s(s(z))) <= True
minus(s(z), s(s(s(z))), z) <= True
minus(s(z), s(s(z)), z) <= True
minus(s(z), s(z), z) <= True
minus(s(z), z, s(z)) <= True
minus(z, s(s(z)), z) <= True
minus(z, s(z), z) <= True
minus(z, z, z) <= True
False <= minus(s(s(s(s(z)))), s(s(s(z))), z) /\ minus(s(s(s(z))), s(s(s(z))), s(s(z)))
False <= minus(s(s(s(s(z)))), s(s(z)), s(z)) /\ minus(s(s(s(z))), s(s(z)), s(s(s(z))))
False <= minus(s(s(s(s(z)))), s(s(z)), z) /\ minus(s(s(s(z))), s(s(z)), s(s(z)))
False <= minus(s(s(s(z))), s(s(z)), z) /\ minus(s(s(z)), s(s(z)), s(z))
False <= minus(s(s(s(z))), s(z), s(z))
False <= minus(s(s(s(z))), s(z), z)
False <= minus(s(s(s(z))), z, s(z))
False <= minus(s(s(z)), s(s(z)), s(s(z))) /\ minus(s(z), s(s(z)), s(s(z)))
False <= minus(s(s(z)), s(s(z)), s(s(z))) /\ minus(s(z), s(s(z)), s(s(z))) /\ minus(z, s(s(s(z))), z)
minus(s(s(s(z))), s(s(s(z))), s(z)) <= minus(s(s(z)), s(s(z)), s(z))
False <= minus(s(s(z)), s(s(z)), s(z)) /\ minus(s(z), s(s(z)), s(s(z)))
False <= minus(s(s(z)), s(z), s(s(z)))
minus(s(s(s(z))), s(s(z)), z) <= minus(s(s(z)), s(z), z)
False <= minus(s(s(z)), z, s(s(s(z))))
False <= minus(s(s(z)), z, s(z))
minus(s(s(z)), s(s(s(z))), s(s(z))) <= minus(s(z), s(s(z)), s(s(z)))
False <= minus(s(z), s(s(z)), s(z))
False <= minus(s(z), s(z), s(s(s(z))))
minus(s(s(z)), s(s(z)), s(s(z))) <= minus(s(z), s(z), s(s(z)))
False <= minus(s(z), s(z), s(z))
False <= minus(s(z), z, s(s(z)))
minus(s(s(z)), s(z), z) <= minus(s(z), z, z)
}

Learner proposed model:
Found Model:
|_

_r_1 ->
{
  _r_1(s(x_0_0)) <= _r_3(x_0_0)
}
;
_r_2 ->
{
  _r_2(s(x_0_0)) <= _r_1(x_0_0)
  _r_2(s(x_0_0)) <= _r_2(x_0_0)
}
;
_r_3 ->
{
  _r_3(z) <= True
}
;
minus ->
{
  minus(s(x_0_0), s(x_1_0), s(x_2_0)) <= _r_1(x_0_0) /\ _r_3(x_2_0)
  minus(s(x_0_0), s(x_1_0), s(x_2_0)) <= _r_1(x_1_0) /\ _r_1(x_2_0) /\ _r_2(x_0_0)
  minus(s(x_0_0), s(x_1_0), s(x_2_0)) <= _r_1(x_1_0) /\ _r_2(x_0_0) /\ _r_3(x_2_0)
  minus(s(x_0_0), s(x_1_0), s(x_2_0)) <= _r_1(x_2_0) /\ _r_2(x_0_0) /\ _r_3(x_1_0)
  minus(s(x_0_0), s(x_1_0), s(x_2_0)) <= _r_2(x_0_0) /\ _r_2(x_2_0) /\ _r_3(x_1_0)
  minus(s(x_0_0), s(x_1_0), s(x_2_0)) <= _r_2(x_1_0) /\ _r_3(x_2_0)
  minus(s(x_0_0), s(x_1_0), z) <= _r_1(x_0_0) /\ _r_1(x_1_0)
  minus(s(x_0_0), s(x_1_0), z) <= _r_2(x_1_0)
  minus(s(x_0_0), s(x_1_0), z) <= _r_3(x_0_0)
  minus(s(x_0_0), z, s(x_2_0)) <= _r_1(x_0_0) /\ _r_1(x_2_0)
  minus(s(x_0_0), z, s(x_2_0)) <= _r_2(x_0_0) /\ _r_2(x_2_0)
  minus(s(x_0_0), z, s(x_2_0)) <= _r_3(x_0_0) /\ _r_3(x_2_0)
  minus(z, s(x_1_0), z) <= True
  minus(z, z, z) <= True
}

--
Equality automata are defined for: {nat}
_|


Answer of teacher:


minus(s(u), z, s(u)) <= True -> No: ()
minus(z, y, z) <= True -> No: ()
eq_nat(_aqa, _cqa) <= minus(_bqa, s(k), _aqa) /\ minus(_dqa, k, _cqa) /\ minus(m, n, _dqa) /\ minus(s(m), n, _bqa) -> Yes: {
_aqa -> z  ;  _bqa -> z  ;  _cqa -> s(z)  ;  _dqa -> s(z)  ;  k -> s(s(s(z)))  ;  m -> s(_azur_0)  ;  n -> s(s(s(z)))
}
minus(s(u), s(x2), _vpa) <= minus(u, x2, _vpa) -> Yes: {
_vpa -> s(s(z))  ;  u -> s(s(s(z)))  ;  x2 -> s(s(z))
}



-------------------------------------------
Step 25, which took 1.346587 s (model generation: 0.812078,  model checking: 0.534509):

Ground examples at the beginning of this step are:
{
minus(s(s(s(s(z)))), s(s(s(z))), s(z)) <= True
minus(s(s(s(s(z)))), s(s(z)), s(s(z))) <= True
minus(s(s(s(s(z)))), s(z), s(s(s(z)))) <= True
minus(s(s(s(s(z)))), z, s(s(s(s(z))))) <= True
minus(s(s(s(z))), s(s(s(z))), z) <= True
minus(s(s(s(z))), s(s(z)), s(z)) <= True
minus(s(s(s(z))), s(z), s(s(z))) <= True
minus(s(s(s(z))), z, s(s(s(z)))) <= True
minus(s(s(z)), s(s(s(z))), z) <= True
minus(s(s(z)), s(s(z)), z) <= True
minus(s(s(z)), s(z), s(z)) <= True
minus(s(s(z)), z, s(s(z))) <= True
minus(s(z), s(s(s(z))), z) <= True
minus(s(z), s(s(z)), z) <= True
minus(s(z), s(z), z) <= True
minus(s(z), z, s(z)) <= True
minus(z, s(s(z)), z) <= True
minus(z, s(z), z) <= True
minus(z, z, z) <= True
False <= minus(s(s(s(s(z)))), s(s(s(z))), z) /\ minus(s(s(s(z))), s(s(s(z))), s(s(z)))
False <= minus(s(s(s(s(z)))), s(s(z)), s(z)) /\ minus(s(s(s(z))), s(s(z)), s(s(s(z))))
False <= minus(s(s(s(s(z)))), s(s(z)), z) /\ minus(s(s(s(z))), s(s(z)), s(s(z)))
minus(s(s(s(s(z)))), s(s(s(z))), s(s(z))) <= minus(s(s(s(z))), s(s(z)), s(s(z)))
False <= minus(s(s(s(z))), s(s(z)), z) /\ minus(s(s(z)), s(s(z)), s(z))
False <= minus(s(s(s(z))), s(z), s(z))
False <= minus(s(s(s(z))), s(z), z)
False <= minus(s(s(s(z))), z, s(z))
False <= minus(s(s(z)), s(s(z)), s(s(z))) /\ minus(s(z), s(s(z)), s(s(z)))
False <= minus(s(s(z)), s(s(z)), s(s(z))) /\ minus(s(z), s(s(z)), s(s(z))) /\ minus(z, s(s(s(z))), z)
minus(s(s(s(z))), s(s(s(z))), s(z)) <= minus(s(s(z)), s(s(z)), s(z))
False <= minus(s(s(z)), s(s(z)), s(z)) /\ minus(s(z), s(s(z)), s(s(z)))
False <= minus(s(s(z)), s(z), s(s(z)))
minus(s(s(s(z))), s(s(z)), z) <= minus(s(s(z)), s(z), z)
False <= minus(s(s(z)), z, s(s(s(z))))
False <= minus(s(s(z)), z, s(z))
False <= minus(s(z), s(s(s(z))), s(z)) /\ minus(z, s(s(s(s(z)))), z)
minus(s(s(z)), s(s(s(z))), s(s(z))) <= minus(s(z), s(s(z)), s(s(z)))
False <= minus(s(z), s(s(z)), s(z))
False <= minus(s(z), s(z), s(s(s(z))))
minus(s(s(z)), s(s(z)), s(s(z))) <= minus(s(z), s(z), s(s(z)))
False <= minus(s(z), s(z), s(z))
False <= minus(s(z), z, s(s(z)))
minus(s(s(z)), s(z), z) <= minus(s(z), z, z)
}

Learner proposed model:
Found Model:
|_

_r_1 ->
{
  _r_1(s(x_0_0)) <= _r_1(x_0_0)
  _r_1(s(x_0_0)) <= _r_2(x_0_0)
}
;
_r_2 ->
{
  _r_2(s(x_0_0)) <= _r_3(x_0_0)
}
;
_r_3 ->
{
  _r_3(z) <= True
}
;
minus ->
{
  minus(s(x_0_0), s(x_1_0), s(x_2_0)) <= _r_1(x_0_0) /\ _r_1(x_1_0) /\ _r_3(x_2_0)
  minus(s(x_0_0), s(x_1_0), s(x_2_0)) <= _r_1(x_0_0) /\ _r_2(x_1_0) /\ _r_2(x_2_0)
  minus(s(x_0_0), s(x_1_0), s(x_2_0)) <= _r_1(x_0_0) /\ _r_2(x_1_0) /\ _r_3(x_2_0)
  minus(s(x_0_0), s(x_1_0), s(x_2_0)) <= _r_1(x_0_0) /\ _r_2(x_2_0) /\ _r_3(x_1_0)
  minus(s(x_0_0), s(x_1_0), s(x_2_0)) <= _r_1(x_0_0) /\ minus(x_0_0, x_1_0, x_2_0)
  minus(s(x_0_0), s(x_1_0), s(x_2_0)) <= _r_2(x_0_0) /\ _r_3(x_1_0) /\ _r_3(x_2_0)
  minus(s(x_0_0), s(x_1_0), z) <= _r_1(x_1_0)
  minus(s(x_0_0), s(x_1_0), z) <= _r_2(x_0_0) /\ _r_2(x_1_0)
  minus(s(x_0_0), s(x_1_0), z) <= _r_3(x_0_0)
  minus(s(x_0_0), z, s(x_2_0)) <= _r_1(x_0_0) /\ _r_1(x_2_0)
  minus(s(x_0_0), z, s(x_2_0)) <= _r_1(x_0_0) /\ _r_2(x_2_0)
  minus(s(x_0_0), z, s(x_2_0)) <= _r_2(x_0_0) /\ _r_2(x_2_0)
  minus(s(x_0_0), z, s(x_2_0)) <= _r_3(x_0_0) /\ _r_3(x_2_0)
  minus(z, s(x_1_0), z) <= True
  minus(z, z, z) <= True
}

--
Equality automata are defined for: {nat}
_|


Answer of teacher:


minus(s(u), z, s(u)) <= True -> No: ()
minus(z, y, z) <= True -> No: ()
eq_nat(_aqa, _cqa) <= minus(_bqa, s(k), _aqa) /\ minus(_dqa, k, _cqa) /\ minus(m, n, _dqa) /\ minus(s(m), n, _bqa) -> Yes: {
_aqa -> z  ;  _bqa -> z  ;  _cqa -> s(z)  ;  _dqa -> s(z)  ;  k -> z  ;  m -> s(s(s(z)))  ;  n -> s(s(s(z)))
}



-------------------------------------------
Step 26, which took 1.051365 s (model generation: 0.830187,  model checking: 0.221178):

Ground examples at the beginning of this step are:
{
minus(s(s(s(s(z)))), s(s(s(z))), s(z)) <= True
minus(s(s(s(s(z)))), s(s(z)), s(s(z))) <= True
minus(s(s(s(s(z)))), s(z), s(s(s(z)))) <= True
minus(s(s(s(s(z)))), z, s(s(s(s(z))))) <= True
minus(s(s(s(z))), s(s(s(z))), z) <= True
minus(s(s(s(z))), s(s(z)), s(z)) <= True
minus(s(s(s(z))), s(z), s(s(z))) <= True
minus(s(s(s(z))), z, s(s(s(z)))) <= True
minus(s(s(z)), s(s(s(z))), z) <= True
minus(s(s(z)), s(s(z)), z) <= True
minus(s(s(z)), s(z), s(z)) <= True
minus(s(s(z)), z, s(s(z))) <= True
minus(s(z), s(s(s(z))), z) <= True
minus(s(z), s(s(z)), z) <= True
minus(s(z), s(z), z) <= True
minus(s(z), z, s(z)) <= True
minus(z, s(s(z)), z) <= True
minus(z, s(z), z) <= True
minus(z, z, z) <= True
False <= minus(s(s(s(s(z)))), s(s(s(z))), z) /\ minus(s(s(s(z))), s(s(s(z))), s(s(z)))
False <= minus(s(s(s(s(z)))), s(s(s(z))), z) /\ minus(s(s(s(z))), s(s(s(z))), s(z))
False <= minus(s(s(s(s(z)))), s(s(z)), s(z)) /\ minus(s(s(s(z))), s(s(z)), s(s(s(z))))
False <= minus(s(s(s(s(z)))), s(s(z)), z) /\ minus(s(s(s(z))), s(s(z)), s(s(z)))
minus(s(s(s(s(z)))), s(s(s(z))), s(s(z))) <= minus(s(s(s(z))), s(s(z)), s(s(z)))
False <= minus(s(s(s(z))), s(s(z)), z) /\ minus(s(s(z)), s(s(z)), s(z))
False <= minus(s(s(s(z))), s(z), s(z))
False <= minus(s(s(s(z))), s(z), z)
False <= minus(s(s(s(z))), z, s(z))
False <= minus(s(s(z)), s(s(z)), s(s(z))) /\ minus(s(z), s(s(z)), s(s(z)))
False <= minus(s(s(z)), s(s(z)), s(s(z))) /\ minus(s(z), s(s(z)), s(s(z))) /\ minus(z, s(s(s(z))), z)
minus(s(s(s(z))), s(s(s(z))), s(z)) <= minus(s(s(z)), s(s(z)), s(z))
False <= minus(s(s(z)), s(s(z)), s(z)) /\ minus(s(z), s(s(z)), s(s(z)))
False <= minus(s(s(z)), s(z), s(s(z)))
minus(s(s(s(z))), s(s(z)), z) <= minus(s(s(z)), s(z), z)
False <= minus(s(s(z)), z, s(s(s(z))))
False <= minus(s(s(z)), z, s(z))
False <= minus(s(z), s(s(s(z))), s(z)) /\ minus(z, s(s(s(s(z)))), z)
minus(s(s(z)), s(s(s(z))), s(s(z))) <= minus(s(z), s(s(z)), s(s(z)))
False <= minus(s(z), s(s(z)), s(z))
False <= minus(s(z), s(z), s(s(s(z))))
minus(s(s(z)), s(s(z)), s(s(z))) <= minus(s(z), s(z), s(s(z)))
False <= minus(s(z), s(z), s(z))
False <= minus(s(z), z, s(s(z)))
minus(s(s(z)), s(z), z) <= minus(s(z), z, z)
}

Learner proposed model:
Found Model:
|_

_r_1 ->
{
  _r_1(s(x_0_0)) <= _r_2(x_0_0)
  _r_1(s(x_0_0)) <= _r_3(x_0_0)
}
;
_r_2 ->
{
  _r_2(z) <= True
}
;
_r_3 ->
{
  _r_3(s(x_0_0)) <= _r_1(x_0_0)
}
;
minus ->
{
  minus(s(x_0_0), s(x_1_0), s(x_2_0)) <= _r_1(x_0_0) /\ _r_1(x_1_0) /\ _r_1(x_2_0)
  minus(s(x_0_0), s(x_1_0), s(x_2_0)) <= _r_1(x_0_0) /\ _r_2(x_1_0) /\ _r_2(x_2_0)
  minus(s(x_0_0), s(x_1_0), s(x_2_0)) <= _r_1(x_0_0) /\ _r_3(x_1_0)
  minus(s(x_0_0), s(x_1_0), s(x_2_0)) <= _r_1(x_0_0) /\ _r_3(x_2_0)
  minus(s(x_0_0), s(x_1_0), s(x_2_0)) <= _r_1(x_1_0) /\ _r_2(x_2_0) /\ _r_3(x_0_0)
  minus(s(x_0_0), s(x_1_0), s(x_2_0)) <= _r_1(x_2_0) /\ _r_2(x_1_0) /\ _r_3(x_0_0)
  minus(s(x_0_0), s(x_1_0), z) <= _r_1(x_1_0)
  minus(s(x_0_0), s(x_1_0), z) <= _r_2(x_0_0)
  minus(s(x_0_0), s(x_1_0), z) <= _r_3(x_1_0)
  minus(s(x_0_0), z, s(x_2_0)) <= _r_1(x_0_0) /\ _r_1(x_2_0)
  minus(s(x_0_0), z, s(x_2_0)) <= _r_2(x_0_0) /\ _r_2(x_2_0)
  minus(s(x_0_0), z, s(x_2_0)) <= _r_3(x_0_0) /\ _r_3(x_2_0)
  minus(z, s(x_1_0), z) <= True
  minus(z, z, z) <= True
}

--
Equality automata are defined for: {nat}
_|


Answer of teacher:


minus(s(u), z, s(u)) <= True -> No: ()
minus(z, y, z) <= True -> No: ()
eq_nat(_aqa, _cqa) <= minus(_bqa, s(k), _aqa) /\ minus(_dqa, k, _cqa) /\ minus(m, n, _dqa) /\ minus(s(m), n, _bqa) -> Yes: {
_aqa -> z  ;  _bqa -> z  ;  _cqa -> s(s(z))  ;  _dqa -> s(s(z))  ;  k -> z  ;  m -> s(s(z))  ;  n -> s(s(z))
}
minus(s(u), s(x2), _vpa) <= minus(u, x2, _vpa) -> Yes: {
_vpa -> s(s(s(z)))  ;  u -> s(s(z))  ;  x2 -> s(s(z))
}



-------------------------------------------
Step 27, which took 1.226347 s (model generation: 0.992533,  model checking: 0.233814):

Ground examples at the beginning of this step are:
{
minus(s(s(s(s(z)))), s(s(s(z))), s(z)) <= True
minus(s(s(s(s(z)))), s(s(z)), s(s(z))) <= True
minus(s(s(s(s(z)))), s(z), s(s(s(z)))) <= True
minus(s(s(s(s(z)))), z, s(s(s(s(z))))) <= True
minus(s(s(s(z))), s(s(s(z))), z) <= True
minus(s(s(s(z))), s(s(z)), s(z)) <= True
minus(s(s(s(z))), s(z), s(s(z))) <= True
minus(s(s(s(z))), z, s(s(s(z)))) <= True
minus(s(s(z)), s(s(s(z))), z) <= True
minus(s(s(z)), s(s(z)), z) <= True
minus(s(s(z)), s(z), s(z)) <= True
minus(s(s(z)), z, s(s(z))) <= True
minus(s(z), s(s(s(z))), z) <= True
minus(s(z), s(s(z)), z) <= True
minus(s(z), s(z), z) <= True
minus(s(z), z, s(z)) <= True
minus(z, s(s(z)), z) <= True
minus(z, s(z), z) <= True
minus(z, z, z) <= True
False <= minus(s(s(s(s(z)))), s(s(s(z))), z) /\ minus(s(s(s(z))), s(s(s(z))), s(s(z)))
False <= minus(s(s(s(s(z)))), s(s(s(z))), z) /\ minus(s(s(s(z))), s(s(s(z))), s(z))
False <= minus(s(s(s(s(z)))), s(s(z)), s(z)) /\ minus(s(s(s(z))), s(s(z)), s(s(s(z))))
False <= minus(s(s(s(s(z)))), s(s(z)), z) /\ minus(s(s(s(z))), s(s(z)), s(s(z)))
minus(s(s(s(s(z)))), s(s(s(z))), s(s(z))) <= minus(s(s(s(z))), s(s(z)), s(s(z)))
False <= minus(s(s(s(z))), s(s(z)), z) /\ minus(s(s(z)), s(s(z)), s(s(z)))
False <= minus(s(s(s(z))), s(s(z)), z) /\ minus(s(s(z)), s(s(z)), s(z))
False <= minus(s(s(s(z))), s(z), s(z))
False <= minus(s(s(s(z))), s(z), z)
False <= minus(s(s(s(z))), z, s(z))
minus(s(s(s(z))), s(s(s(z))), s(s(s(z)))) <= minus(s(s(z)), s(s(z)), s(s(s(z))))
False <= minus(s(s(z)), s(s(z)), s(s(z))) /\ minus(s(z), s(s(z)), s(s(z)))
False <= minus(s(s(z)), s(s(z)), s(s(z))) /\ minus(s(z), s(s(z)), s(s(z))) /\ minus(z, s(s(s(z))), z)
minus(s(s(s(z))), s(s(s(z))), s(z)) <= minus(s(s(z)), s(s(z)), s(z))
False <= minus(s(s(z)), s(s(z)), s(z)) /\ minus(s(z), s(s(z)), s(s(z)))
False <= minus(s(s(z)), s(z), s(s(z)))
minus(s(s(s(z))), s(s(z)), z) <= minus(s(s(z)), s(z), z)
False <= minus(s(s(z)), z, s(s(s(z))))
False <= minus(s(s(z)), z, s(z))
False <= minus(s(z), s(s(s(z))), s(z)) /\ minus(z, s(s(s(s(z)))), z)
minus(s(s(z)), s(s(s(z))), s(s(z))) <= minus(s(z), s(s(z)), s(s(z)))
False <= minus(s(z), s(s(z)), s(z))
False <= minus(s(z), s(z), s(s(s(z))))
minus(s(s(z)), s(s(z)), s(s(z))) <= minus(s(z), s(z), s(s(z)))
False <= minus(s(z), s(z), s(z))
False <= minus(s(z), z, s(s(z)))
minus(s(s(z)), s(z), z) <= minus(s(z), z, z)
}

Learner proposed model:
Found Model:
|_

_r_1 ->
{
  _r_1(s(x_0_0)) <= _r_3(x_0_0)
}
;
_r_2 ->
{
  _r_2(z) <= True
}
;
_r_3 ->
{
  _r_3(s(x_0_0)) <= _r_1(x_0_0)
  _r_3(s(x_0_0)) <= _r_2(x_0_0)
}
;
minus ->
{
  minus(s(x_0_0), s(x_1_0), s(x_2_0)) <= _r_1(x_0_0) /\ _r_2(x_1_0) /\ _r_3(x_2_0)
  minus(s(x_0_0), s(x_1_0), s(x_2_0)) <= _r_1(x_0_0) /\ _r_2(x_2_0) /\ _r_3(x_1_0)
  minus(s(x_0_0), s(x_1_0), s(x_2_0)) <= _r_1(x_1_0) /\ _r_3(x_0_0)
  minus(s(x_0_0), s(x_1_0), s(x_2_0)) <= _r_1(x_2_0) /\ _r_2(x_1_0) /\ _r_3(x_0_0)
  minus(s(x_0_0), s(x_1_0), s(x_2_0)) <= _r_2(x_1_0) /\ _r_2(x_2_0) /\ _r_3(x_0_0)
  minus(s(x_0_0), s(x_1_0), s(x_2_0)) <= _r_3(x_0_0) /\ _r_3(x_1_0) /\ _r_3(x_2_0)
  minus(s(x_0_0), s(x_1_0), z) <= _r_1(x_1_0)
  minus(s(x_0_0), s(x_1_0), z) <= _r_2(x_0_0)
  minus(s(x_0_0), s(x_1_0), z) <= _r_3(x_0_0) /\ _r_3(x_1_0)
  minus(s(x_0_0), z, s(x_2_0)) <= _r_1(x_0_0) /\ _r_1(x_2_0)
  minus(s(x_0_0), z, s(x_2_0)) <= _r_2(x_0_0) /\ _r_2(x_2_0)
  minus(s(x_0_0), z, s(x_2_0)) <= _r_3(x_0_0) /\ _r_3(x_2_0)
  minus(z, s(x_1_0), z) <= True
  minus(z, z, z) <= True
}

--
Equality automata are defined for: {nat}
_|


Answer of teacher:


minus(s(u), z, s(u)) <= True -> No: ()
minus(z, y, z) <= True -> No: ()
eq_nat(_aqa, _cqa) <= minus(_bqa, s(k), _aqa) /\ minus(_dqa, k, _cqa) /\ minus(m, n, _dqa) /\ minus(s(m), n, _bqa) -> Yes: {
_aqa -> z  ;  _bqa -> z  ;  _cqa -> s(s(s(z)))  ;  _dqa -> s(s(z))  ;  k -> s(z)  ;  m -> s(s(z))  ;  n -> s(s(s(z)))
}
minus(s(u), s(x2), _vpa) <= minus(u, x2, _vpa) -> Yes: {
_vpa -> s(s(z))  ;  u -> s(s(z))  ;  x2 -> s(s(z))
}



-------------------------------------------
Step 28, which took 1.616610 s (model generation: 1.332213,  model checking: 0.284397):

Ground examples at the beginning of this step are:
{
minus(s(s(s(s(z)))), s(s(s(z))), s(z)) <= True
minus(s(s(s(s(z)))), s(s(z)), s(s(z))) <= True
minus(s(s(s(s(z)))), s(z), s(s(s(z)))) <= True
minus(s(s(s(s(z)))), z, s(s(s(s(z))))) <= True
minus(s(s(s(z))), s(s(s(z))), z) <= True
minus(s(s(s(z))), s(s(z)), s(z)) <= True
minus(s(s(s(z))), s(z), s(s(z))) <= True
minus(s(s(s(z))), z, s(s(s(z)))) <= True
minus(s(s(z)), s(s(s(z))), z) <= True
minus(s(s(z)), s(s(z)), z) <= True
minus(s(s(z)), s(z), s(z)) <= True
minus(s(s(z)), z, s(s(z))) <= True
minus(s(z), s(s(s(z))), z) <= True
minus(s(z), s(s(z)), z) <= True
minus(s(z), s(z), z) <= True
minus(s(z), z, s(z)) <= True
minus(z, s(s(z)), z) <= True
minus(z, s(z), z) <= True
minus(z, z, z) <= True
False <= minus(s(s(s(s(z)))), s(s(s(z))), z) /\ minus(s(s(s(z))), s(s(s(z))), s(s(z)))
False <= minus(s(s(s(s(z)))), s(s(s(z))), z) /\ minus(s(s(s(z))), s(s(s(z))), s(z))
False <= minus(s(s(s(s(z)))), s(s(z)), s(z)) /\ minus(s(s(s(z))), s(s(z)), s(s(s(z))))
False <= minus(s(s(s(s(z)))), s(s(z)), z) /\ minus(s(s(s(z))), s(s(z)), s(s(z)))
minus(s(s(s(s(z)))), s(s(s(z))), s(s(z))) <= minus(s(s(s(z))), s(s(z)), s(s(z)))
False <= minus(s(s(s(z))), s(s(z)), z) /\ minus(s(s(z)), s(s(z)), s(s(z)))
False <= minus(s(s(s(z))), s(s(z)), z) /\ minus(s(s(z)), s(s(z)), s(z))
False <= minus(s(s(s(z))), s(z), s(z))
False <= minus(s(s(s(z))), s(z), z)
False <= minus(s(s(s(z))), z, s(z))
False <= minus(s(s(z)), s(s(s(z))), s(s(z))) /\ minus(s(s(z)), s(z), s(s(s(z))))
minus(s(s(s(z))), s(s(s(z))), s(s(s(z)))) <= minus(s(s(z)), s(s(z)), s(s(s(z))))
minus(s(s(s(z))), s(s(s(z))), s(s(z))) <= minus(s(s(z)), s(s(z)), s(s(z)))
False <= minus(s(s(z)), s(s(z)), s(s(z))) /\ minus(s(z), s(s(z)), s(s(z)))
False <= minus(s(s(z)), s(s(z)), s(s(z))) /\ minus(s(z), s(s(z)), s(s(z))) /\ minus(z, s(s(s(z))), z)
minus(s(s(s(z))), s(s(s(z))), s(z)) <= minus(s(s(z)), s(s(z)), s(z))
False <= minus(s(s(z)), s(s(z)), s(z)) /\ minus(s(z), s(s(z)), s(s(z)))
False <= minus(s(s(z)), s(z), s(s(z)))
minus(s(s(s(z))), s(s(z)), z) <= minus(s(s(z)), s(z), z)
False <= minus(s(s(z)), z, s(s(s(z))))
False <= minus(s(s(z)), z, s(z))
False <= minus(s(z), s(s(s(z))), s(z)) /\ minus(z, s(s(s(s(z)))), z)
minus(s(s(z)), s(s(s(z))), s(s(z))) <= minus(s(z), s(s(z)), s(s(z)))
False <= minus(s(z), s(s(z)), s(z))
False <= minus(s(z), s(z), s(s(s(z))))
minus(s(s(z)), s(s(z)), s(s(z))) <= minus(s(z), s(z), s(s(z)))
False <= minus(s(z), s(z), s(z))
False <= minus(s(z), z, s(s(z)))
minus(s(s(z)), s(z), z) <= minus(s(z), z, z)
}

Learner proposed model:
Found Model:
|_

_r_1 ->
{
  _r_1(s(x_0_0)) <= _r_1(x_0_0)
  _r_1(s(x_0_0)) <= _r_3(x_0_0)
}
;
_r_2 ->
{
  _r_2(s(x_0_0)) <= _r_1(x_0_0)
  _r_2(z) <= True
}
;
_r_3 ->
{
  _r_3(s(x_0_0)) <= _r_1(x_0_0)
  _r_3(s(x_0_0)) <= _r_2(x_0_0)
}
;
minus ->
{
  minus(s(x_0_0), s(x_1_0), s(x_2_0)) <= _r_1(x_0_0) /\ _r_1(x_2_0) /\ _r_2(x_1_0)
  minus(s(x_0_0), s(x_1_0), s(x_2_0)) <= _r_1(x_0_0) /\ _r_2(x_1_0) /\ _r_3(x_2_0)
  minus(s(x_0_0), s(x_1_0), s(x_2_0)) <= _r_1(x_0_0) /\ _r_2(x_2_0) /\ _r_3(x_1_0)
  minus(s(x_0_0), s(x_1_0), s(x_2_0)) <= _r_1(x_1_0) /\ _r_3(x_0_0)
  minus(s(x_0_0), s(x_1_0), s(x_2_0)) <= _r_2(x_0_0) /\ _r_3(x_1_0) /\ _r_3(x_2_0)
  minus(s(x_0_0), s(x_1_0), s(x_2_0)) <= _r_2(x_1_0) /\ _r_2(x_2_0) /\ _r_3(x_0_0)
  minus(s(x_0_0), s(x_1_0), z) <= _r_1(x_1_0)
  minus(s(x_0_0), s(x_1_0), z) <= _r_2(x_0_0)
  minus(s(x_0_0), s(x_1_0), z) <= _r_3(x_1_0)
  minus(s(x_0_0), z, s(x_2_0)) <= _r_1(x_0_0) /\ _r_1(x_2_0)
  minus(s(x_0_0), z, s(x_2_0)) <= _r_2(x_0_0) /\ _r_2(x_2_0)
  minus(s(x_0_0), z, s(x_2_0)) <= _r_3(x_0_0) /\ _r_3(x_2_0)
  minus(z, s(x_1_0), z) <= True
  minus(z, z, z) <= True
}

--
Equality automata are defined for: {nat}
_|


Answer of teacher:


minus(s(u), z, s(u)) <= True -> No: ()
minus(z, y, z) <= True -> No: ()
eq_nat(_aqa, _cqa) <= minus(_bqa, s(k), _aqa) /\ minus(_dqa, k, _cqa) /\ minus(m, n, _dqa) /\ minus(s(m), n, _bqa) -> Yes: {
_aqa -> z  ;  _bqa -> z  ;  _cqa -> s(z)  ;  _dqa -> s(s(z))  ;  k -> s(z)  ;  m -> s(z)  ;  n -> s(s(z))
}
minus(s(u), s(x2), _vpa) <= minus(u, x2, _vpa) -> Yes: {
_vpa -> s(s(s(z)))  ;  u -> s(s(s(z)))  ;  x2 -> s(z)
}



-------------------------------------------
Step 29, which took 48.096020 s (model generation: 48.074060,  model checking: 0.021960):

Ground examples at the beginning of this step are:
{
minus(s(s(s(s(z)))), s(s(s(z))), s(z)) <= True
minus(s(s(s(s(z)))), s(s(z)), s(s(z))) <= True
minus(s(s(s(s(z)))), s(z), s(s(s(z)))) <= True
minus(s(s(s(s(z)))), z, s(s(s(s(z))))) <= True
minus(s(s(s(z))), s(s(s(z))), z) <= True
minus(s(s(s(z))), s(s(z)), s(z)) <= True
minus(s(s(s(z))), s(z), s(s(z))) <= True
minus(s(s(s(z))), z, s(s(s(z)))) <= True
minus(s(s(z)), s(s(s(z))), z) <= True
minus(s(s(z)), s(s(z)), z) <= True
minus(s(s(z)), s(z), s(z)) <= True
minus(s(s(z)), z, s(s(z))) <= True
minus(s(z), s(s(s(z))), z) <= True
minus(s(z), s(s(z)), z) <= True
minus(s(z), s(z), z) <= True
minus(s(z), z, s(z)) <= True
minus(z, s(s(z)), z) <= True
minus(z, s(z), z) <= True
minus(z, z, z) <= True
False <= minus(s(s(s(s(z)))), s(s(s(z))), z) /\ minus(s(s(s(z))), s(s(s(z))), s(s(z)))
False <= minus(s(s(s(s(z)))), s(s(s(z))), z) /\ minus(s(s(s(z))), s(s(s(z))), s(z))
False <= minus(s(s(s(s(z)))), s(s(z)), s(z)) /\ minus(s(s(s(z))), s(s(z)), s(s(s(z))))
False <= minus(s(s(s(s(z)))), s(s(z)), z) /\ minus(s(s(s(z))), s(s(z)), s(s(z)))
minus(s(s(s(s(z)))), s(s(s(z))), s(s(z))) <= minus(s(s(s(z))), s(s(z)), s(s(z)))
False <= minus(s(s(s(z))), s(s(z)), z) /\ minus(s(s(z)), s(s(z)), s(s(z)))
False <= minus(s(s(s(z))), s(s(z)), z) /\ minus(s(s(z)), s(s(z)), s(z))
minus(s(s(s(s(z)))), s(s(z)), s(s(s(z)))) <= minus(s(s(s(z))), s(z), s(s(s(z))))
False <= minus(s(s(s(z))), s(z), s(z))
False <= minus(s(s(s(z))), s(z), z)
False <= minus(s(s(s(z))), z, s(z))
False <= minus(s(s(z)), s(s(s(z))), s(s(z))) /\ minus(s(s(z)), s(z), s(s(s(z))))
minus(s(s(s(z))), s(s(s(z))), s(s(s(z)))) <= minus(s(s(z)), s(s(z)), s(s(s(z))))
minus(s(s(s(z))), s(s(s(z))), s(s(z))) <= minus(s(s(z)), s(s(z)), s(s(z)))
minus(s(s(s(z))), s(s(s(z))), s(z)) <= minus(s(s(z)), s(s(z)), s(z))
False <= minus(s(s(z)), s(z), s(s(z)))
minus(s(s(s(z))), s(s(z)), z) <= minus(s(s(z)), s(z), z)
False <= minus(s(s(z)), z, s(s(s(z))))
False <= minus(s(s(z)), z, s(z))
False <= minus(s(z), s(s(s(z))), s(z)) /\ minus(z, s(s(s(s(z)))), z)
False <= minus(s(z), s(s(z)), s(s(z)))
False <= minus(s(z), s(s(z)), s(z))
False <= minus(s(z), s(z), s(s(s(z))))
minus(s(s(z)), s(s(z)), s(s(z))) <= minus(s(z), s(z), s(s(z)))
False <= minus(s(z), s(z), s(z))
False <= minus(s(z), z, s(s(z)))
minus(s(s(z)), s(z), z) <= minus(s(z), z, z)
}

Learner proposed model:
Found Model:
|_

_r_1 ->
{
  _r_1(s(x_0_0), s(x_1_0)) <= _r_1(x_0_0, x_1_0)
  _r_1(s(x_0_0), z) <= True
}
;
_r_2 ->
{
  _r_2(s(x_0_0), s(x_1_0)) <= _r_2(x_0_0, x_1_0)
  _r_2(s(x_0_0), s(x_1_0)) <= _r_4(x_0_0)
  _r_2(s(x_0_0), z) <= _r_4(x_0_0)
  _r_2(z, s(x_1_0)) <= True
}
;
_r_3 ->
{
  _r_3(s(x_0_0), s(x_1_0)) <= _r_3(x_0_0, x_1_0)
  _r_3(z, z) <= True
}
;
_r_4 ->
{
  _r_4(z) <= True
}
;
minus ->
{
  minus(s(x_0_0), s(x_1_0), s(x_2_0)) <= _r_1(x_0_0, x_1_0) /\ _r_1(x_0_0, x_2_0) /\ _r_2(x_1_0, x_2_0)
  minus(s(x_0_0), s(x_1_0), s(x_2_0)) <= _r_1(x_0_0, x_1_0) /\ _r_1(x_1_0, x_2_0)
  minus(s(x_0_0), s(x_1_0), s(x_2_0)) <= _r_2(x_0_0, x_1_0) /\ _r_3(x_1_0, x_2_0) /\ minus(x_0_0, x_1_0, x_2_0)
  minus(s(x_0_0), s(x_1_0), z) <= _r_2(x_0_0, x_1_0)
  minus(s(x_0_0), s(x_1_0), z) <= _r_3(x_0_0, x_1_0)
  minus(s(x_0_0), z, s(x_2_0)) <= _r_3(x_0_0, x_2_0)
  minus(s(x_0_0), z, z) <= True
  minus(z, s(x_1_0), z) <= True
  minus(z, z, z) <= True
}

--
Equality automata are defined for: {nat}
_|


Answer of teacher:


minus(s(u), z, s(u)) <= True -> No: ()
minus(z, y, z) <= True -> No: ()
eq_nat(_aqa, _cqa) <= minus(_bqa, s(k), _aqa) /\ minus(_dqa, k, _cqa) /\ minus(m, n, _dqa) /\ minus(s(m), n, _bqa) -> Yes: {
_aqa -> z  ;  _bqa -> z  ;  _cqa -> s(z)  ;  _dqa -> s(z)  ;  k -> z  ;  m -> s(z)  ;  n -> z
}



Ground examples:
{
minus(s(s(s(s(z)))), s(s(s(z))), s(z)) <= True
minus(s(s(s(s(z)))), s(s(z)), s(s(z))) <= True
minus(s(s(s(s(z)))), s(z), s(s(s(z)))) <= True
minus(s(s(s(s(z)))), z, s(s(s(s(z))))) <= True
minus(s(s(s(z))), s(s(s(z))), z) <= True
minus(s(s(s(z))), s(s(z)), s(z)) <= True
minus(s(s(s(z))), s(z), s(s(z))) <= True
minus(s(s(s(z))), z, s(s(s(z)))) <= True
minus(s(s(z)), s(s(s(z))), z) <= True
minus(s(s(z)), s(s(z)), z) <= True
minus(s(s(z)), s(z), s(z)) <= True
minus(s(s(z)), z, s(s(z))) <= True
minus(s(z), s(s(s(z))), z) <= True
minus(s(z), s(s(z)), z) <= True
minus(s(z), s(z), z) <= True
minus(s(z), z, s(z)) <= True
minus(z, s(s(z)), z) <= True
minus(z, s(z), z) <= True
minus(z, z, z) <= True
False <= minus(s(s(s(s(z)))), s(s(s(z))), z) /\ minus(s(s(s(z))), s(s(s(z))), s(s(z)))
False <= minus(s(s(s(s(z)))), s(s(s(z))), z) /\ minus(s(s(s(z))), s(s(s(z))), s(z))
False <= minus(s(s(s(s(z)))), s(s(z)), s(z)) /\ minus(s(s(s(z))), s(s(z)), s(s(s(z))))
False <= minus(s(s(s(s(z)))), s(s(z)), z) /\ minus(s(s(s(z))), s(s(z)), s(s(z)))
minus(s(s(s(s(z)))), s(s(s(z))), s(s(z))) <= minus(s(s(s(z))), s(s(z)), s(s(z)))
False <= minus(s(s(s(z))), s(s(z)), z) /\ minus(s(s(z)), s(s(z)), s(s(z)))
False <= minus(s(s(s(z))), s(s(z)), z) /\ minus(s(s(z)), s(s(z)), s(z))
minus(s(s(s(s(z)))), s(s(z)), s(s(s(z)))) <= minus(s(s(s(z))), s(z), s(s(s(z))))
False <= minus(s(s(s(z))), s(z), s(z))
False <= minus(s(s(s(z))), s(z), z)
False <= minus(s(s(s(z))), z, s(z))
False <= minus(s(s(z)), s(s(s(z))), s(s(z))) /\ minus(s(s(z)), s(z), s(s(s(z))))
minus(s(s(s(z))), s(s(s(z))), s(s(s(z)))) <= minus(s(s(z)), s(s(z)), s(s(s(z))))
minus(s(s(s(z))), s(s(s(z))), s(s(z))) <= minus(s(s(z)), s(s(z)), s(s(z)))
minus(s(s(s(z))), s(s(s(z))), s(z)) <= minus(s(s(z)), s(s(z)), s(z))
False <= minus(s(s(z)), s(z), s(s(z)))
minus(s(s(s(z))), s(s(z)), z) <= minus(s(s(z)), s(z), z)
False <= minus(s(s(z)), z, s(s(s(z))))
False <= minus(s(s(z)), z, s(z))
False <= minus(s(s(z)), z, z)
False <= minus(s(z), s(s(s(z))), s(z)) /\ minus(z, s(s(s(s(z)))), z)
False <= minus(s(z), s(s(z)), s(s(z)))
False <= minus(s(z), s(s(z)), s(z))
False <= minus(s(z), s(z), s(s(s(z))))
minus(s(s(z)), s(s(z)), s(s(z))) <= minus(s(z), s(z), s(s(z)))
False <= minus(s(z), s(z), s(z))
False <= minus(s(z), z, s(s(z)))
minus(s(s(z)), s(z), z) <= minus(s(z), z, z)
}

Learner output:
Contradictory ground constraints

Last ice step stopped before teacher could answer
Total time: 60.150026
Learner time: 57.054762
Teacher time: 2.081083
Reasons for stopping: No: Contradictory set of ground constraints:
{
minus(s(s(s(s(z)))), s(s(s(z))), s(z)) <= True
minus(s(s(s(s(z)))), s(s(z)), s(s(z))) <= True
minus(s(s(s(s(z)))), s(z), s(s(s(z)))) <= True
minus(s(s(s(s(z)))), z, s(s(s(s(z))))) <= True
minus(s(s(s(z))), s(s(s(z))), z) <= True
minus(s(s(s(z))), s(s(z)), s(z)) <= True
minus(s(s(s(z))), s(z), s(s(z))) <= True
minus(s(s(s(z))), z, s(s(s(z)))) <= True
minus(s(s(z)), s(s(s(z))), z) <= True
minus(s(s(z)), s(s(z)), z) <= True
minus(s(s(z)), s(z), s(z)) <= True
minus(s(s(z)), z, s(s(z))) <= True
minus(s(z), s(s(s(z))), z) <= True
minus(s(z), s(s(z)), z) <= True
minus(s(z), s(z), z) <= True
minus(s(z), z, s(z)) <= True
minus(z, s(s(z)), z) <= True
minus(z, s(z), z) <= True
minus(z, z, z) <= True
False <= minus(s(s(s(s(z)))), s(s(s(z))), z) /\ minus(s(s(s(z))), s(s(s(z))), s(s(z)))
False <= minus(s(s(s(s(z)))), s(s(s(z))), z) /\ minus(s(s(s(z))), s(s(s(z))), s(z))
False <= minus(s(s(s(s(z)))), s(s(z)), s(z)) /\ minus(s(s(s(z))), s(s(z)), s(s(s(z))))
False <= minus(s(s(s(s(z)))), s(s(z)), z) /\ minus(s(s(s(z))), s(s(z)), s(s(z)))
minus(s(s(s(s(z)))), s(s(s(z))), s(s(z))) <= minus(s(s(s(z))), s(s(z)), s(s(z)))
False <= minus(s(s(s(z))), s(s(z)), z) /\ minus(s(s(z)), s(s(z)), s(s(z)))
False <= minus(s(s(s(z))), s(s(z)), z) /\ minus(s(s(z)), s(s(z)), s(z))
minus(s(s(s(s(z)))), s(s(z)), s(s(s(z)))) <= minus(s(s(s(z))), s(z), s(s(s(z))))
False <= minus(s(s(s(z))), s(z), s(z))
False <= minus(s(s(s(z))), s(z), z)
False <= minus(s(s(s(z))), z, s(z))
False <= minus(s(s(z)), s(s(s(z))), s(s(z))) /\ minus(s(s(z)), s(z), s(s(s(z))))
minus(s(s(s(z))), s(s(s(z))), s(s(s(z)))) <= minus(s(s(z)), s(s(z)), s(s(s(z))))
minus(s(s(s(z))), s(s(s(z))), s(s(z))) <= minus(s(s(z)), s(s(z)), s(s(z)))
minus(s(s(s(z))), s(s(s(z))), s(z)) <= minus(s(s(z)), s(s(z)), s(z))
False <= minus(s(s(z)), s(z), s(s(z)))
minus(s(s(s(z))), s(s(z)), z) <= minus(s(s(z)), s(z), z)
False <= minus(s(s(z)), z, s(s(s(z))))
False <= minus(s(s(z)), z, s(z))
False <= minus(s(s(z)), z, z)
False <= minus(s(z), s(s(s(z))), s(z)) /\ minus(z, s(s(s(s(z)))), z)
False <= minus(s(z), s(s(z)), s(s(z)))
False <= minus(s(z), s(s(z)), s(z))
False <= minus(s(z), s(z), s(s(s(z))))
minus(s(s(z)), s(s(z)), s(s(z))) <= minus(s(z), s(z), s(s(z)))
False <= minus(s(z), s(z), s(z))
False <= minus(s(z), z, s(s(z)))
minus(s(s(z)), s(z), z) <= minus(s(z), z, z)
}


