Solving ../../../../benchmarks/smtlib/true/isaplanner_prop79.smt2...

Inference procedure has parameters:
Timeout: Some(40.) (sec)
Approximation method: remove functionnality constraint where possible



Learning problem is:

env: {
nat -> {s, z}
}
definition:
{
(minus, F:
{
minus(s(u), z, s(u)) <= True
minus(z, y, z) <= True
minus(s(u), s(x2), _goa) <= minus(u, x2, _goa)
}
eq_nat(_joa, _koa) <= minus(_hoa, _ioa, _joa) /\ minus(_hoa, _ioa, _koa)
)
}

properties:
{
eq_nat(_loa, _noa) <= minus(_moa, s(k), _loa) /\ minus(_ooa, k, _noa) /\ minus(m, n, _ooa) /\ minus(s(m), n, _moa)
}


over-approximation: {minus}
under-approximation: {}

Clause system for inference is:

{
minus(s(u), z, s(u)) <= True
minus(z, y, z) <= True
eq_nat(_loa, _noa) <= minus(_moa, s(k), _loa) /\ minus(_ooa, k, _noa) /\ minus(m, n, _ooa) /\ minus(s(m), n, _moa)
minus(s(u), s(x2), _goa) <= minus(u, x2, _goa)
}


Solving took 40.276405 seconds.
Maybe:  other: Some clauses could not be checked:
{
{minus([s(u), z, s(u)])} -> out of time
{minus([z, y, z])} -> out of time
{eq_nat([_loa, _noa]), ~minus([_moa, s(k), _loa]), ~minus([_ooa, k, _noa]), ~minus([m, n, _ooa]), ~minus([s(m), n, _moa])} -> out of time
{minus([s(u), s(x2), _goa]), ~minus([u, x2, _goa])} -> out of time
}

Last solver state:

Clauses:
{
minus(s(u), z, s(u)) <= True
minus(z, y, z) <= True
eq_nat(_loa, _noa) <= minus(_moa, s(k), _loa) /\ minus(_ooa, k, _noa) /\ minus(m, n, _ooa) /\ minus(s(m), n, _moa)
minus(s(u), s(x2), _goa) <= minus(u, x2, _goa)
}

Accumulated learning constraints:
{
minus(s(s(s(s(z)))), s(s(z)), s(s(z))) <= True
minus(s(s(s(z))), s(s(s(z))), z) <= True
minus(s(s(s(z))), s(s(z)), s(z)) <= True
minus(s(s(s(z))), s(z), s(s(z))) <= True
minus(s(s(s(z))), z, s(s(s(z)))) <= True
minus(s(s(z)), s(s(s(z))), z) <= True
minus(s(s(z)), s(s(z)), z) <= True
minus(s(s(z)), s(z), s(z)) <= True
minus(s(s(z)), z, s(s(z))) <= True
minus(s(z), s(s(z)), z) <= True
minus(s(z), s(z), z) <= True
minus(s(z), z, s(z)) <= True
minus(z, s(s(z)), z) <= True
minus(z, s(z), z) <= True
minus(z, z, z) <= True
False <= minus(s(s(s(s(z)))), s(s(z)), z)
False <= minus(s(s(s(s(z)))), s(z), s(z)) /\ minus(s(s(s(z))), s(z), s(s(s(z)))) /\ minus(s(s(s(z))), s(z), s(z))
False <= minus(s(s(s(z))), s(s(z)), s(s(z)))
False <= minus(s(s(s(z))), s(s(z)), z) /\ minus(s(s(z)), s(s(z)), s(s(z)))
False <= minus(s(s(s(z))), s(s(z)), z) /\ minus(s(s(z)), s(s(z)), s(z))
minus(s(s(s(s(z)))), s(s(z)), s(s(s(s(s(z)))))) <= minus(s(s(s(z))), s(z), s(s(s(s(s(z))))))
False <= minus(s(s(s(z))), s(z), z)
False <= minus(s(s(z)), s(s(s(z))), s(z))
False <= minus(s(s(z)), s(s(z)), s(s(s(z))))
minus(s(s(s(z))), s(s(s(z))), s(z)) <= minus(s(s(z)), s(s(z)), s(z))
False <= minus(s(s(z)), s(z), s(s(z)))
minus(s(s(s(z))), s(s(z)), z) <= minus(s(s(z)), s(z), z)
minus(s(s(s(z))), s(z), s(s(s(z)))) <= minus(s(s(z)), z, s(s(s(z))))
False <= minus(s(s(z)), z, s(z))
False <= minus(s(s(z)), z, z)
False <= minus(s(z), s(z), s(s(z)))
False <= minus(s(z), s(z), s(z))
False <= minus(s(z), z, s(s(z)))
}

Current best model:
|_

_r_1 ->
{
  _r_1(s(x_0_0), s(x_1_0), s(x_2_0)) <= _r_1(x_0_0, x_1_0, x_2_0)
  _r_1(s(x_0_0), s(x_1_0), z) <= _r_4(x_0_0)
  _r_1(s(x_0_0), z, s(x_2_0)) <= _r_4(x_0_0)
  _r_1(s(x_0_0), z, z) <= _r_4(x_0_0)
}
;
_r_2 ->
{
  _r_2(z) <= True
}
;
_r_3 ->
{
  _r_3(s(x_0_0)) <= _r_2(x_0_0)
  _r_3(z) <= True
}
;
_r_4 ->
{
  _r_4(s(x_0_0)) <= _r_3(x_0_0)
}
;
minus ->
{
  minus(s(x_0_0), s(x_1_0), s(x_2_0)) <= _r_1(x_0_0, x_1_0, x_2_0) /\ _r_4(x_0_0)
  minus(s(x_0_0), s(x_1_0), s(x_2_0)) <= _r_1(x_0_0, x_1_0, x_2_0) /\ _r_4(x_1_0)
  minus(s(x_0_0), s(x_1_0), s(x_2_0)) <= _r_2(x_1_0) /\ _r_2(x_2_0) /\ _r_4(x_0_0)
  minus(s(x_0_0), s(x_1_0), z) <= _r_3(x_0_0)
  minus(s(x_0_0), s(x_1_0), z) <= _r_4(x_0_0) /\ _r_4(x_1_0)
  minus(s(x_0_0), z, s(x_2_0)) <= _r_2(x_0_0) /\ _r_2(x_2_0)
  minus(s(x_0_0), z, s(x_2_0)) <= _r_4(x_0_0) /\ _r_4(x_2_0)
  minus(z, s(x_1_0), z) <= True
  minus(z, z, z) <= True
}

--
Equality automata are defined for: {nat}
_|






-------------------
STEPS:
-------------------------------------------
Step 0, which took 0.005816 s (model generation: 0.005774,  model checking: 0.000042):

Ground examples at the beginning of this step are:
{

}

Learner proposed model:
Found Model:
|_

minus ->
{
  
}

--
Equality automata are defined for: {nat}
_|


Answer of teacher:


minus(s(u), z, s(u)) <= True -> Yes: {

}
minus(z, y, z) <= True -> Yes: {
y -> z
}
eq_nat(_loa, _noa) <= minus(_moa, s(k), _loa) /\ minus(_ooa, k, _noa) /\ minus(m, n, _ooa) /\ minus(s(m), n, _moa) -> No: ()
minus(s(u), s(x2), _goa) <= minus(u, x2, _goa) -> No: ()



-------------------------------------------
Step 1, which took 0.010163 s (model generation: 0.009788,  model checking: 0.000375):

Ground examples at the beginning of this step are:
{
minus(s(z), z, s(z)) <= True
minus(z, z, z) <= True
}

Learner proposed model:
Found Model:
|_

minus ->
{
  minus(s(x_0_0), z, s(x_2_0)) <= True
  minus(z, z, z) <= True
}

--
Equality automata are defined for: {nat}
_|


Answer of teacher:


minus(s(u), z, s(u)) <= True -> No: ()
minus(z, y, z) <= True -> Yes: {
y -> s(y_0)
}
eq_nat(_loa, _noa) <= minus(_moa, s(k), _loa) /\ minus(_ooa, k, _noa) /\ minus(m, n, _ooa) /\ minus(s(m), n, _moa) -> No: ()
minus(s(u), s(x2), _goa) <= minus(u, x2, _goa) -> Yes: {
_goa -> z  ;  u -> z  ;  x2 -> z
}



-------------------------------------------
Step 2, which took 0.011233 s (model generation: 0.011119,  model checking: 0.000114):

Ground examples at the beginning of this step are:
{
minus(s(z), s(z), z) <= True
minus(s(z), z, s(z)) <= True
minus(z, s(z), z) <= True
minus(z, z, z) <= True
}

Learner proposed model:
Found Model:
|_

minus ->
{
  minus(s(x_0_0), s(x_1_0), z) <= True
  minus(s(x_0_0), z, s(x_2_0)) <= True
  minus(z, s(x_1_0), z) <= True
  minus(z, z, z) <= True
}

--
Equality automata are defined for: {nat}
_|


Answer of teacher:


minus(s(u), z, s(u)) <= True -> No: ()
minus(z, y, z) <= True -> No: ()
eq_nat(_loa, _noa) <= minus(_moa, s(k), _loa) /\ minus(_ooa, k, _noa) /\ minus(m, n, _ooa) /\ minus(s(m), n, _moa) -> Yes: {
_loa -> z  ;  _moa -> s(_moa_0)  ;  _noa -> s(_noa_0)  ;  _ooa -> s(_ooa_0)  ;  k -> z  ;  m -> s(m_0)  ;  n -> z
}
minus(s(u), s(x2), _goa) <= minus(u, x2, _goa) -> Yes: {
_goa -> s(_goa_0)  ;  u -> s(u_0)  ;  x2 -> z
}



-------------------------------------------
Step 3, which took 0.023812 s (model generation: 0.023473,  model checking: 0.000339):

Ground examples at the beginning of this step are:
{
minus(s(s(z)), s(z), s(z)) <= True
minus(s(z), s(z), z) <= True
minus(s(z), z, s(z)) <= True
minus(z, s(z), z) <= True
minus(z, z, z) <= True
False <= minus(s(s(z)), z, s(z))
}

Learner proposed model:
Found Model:
|_

_r_1 ->
{
  _r_1(z) <= True
}
;
minus ->
{
  minus(s(x_0_0), s(x_1_0), s(x_2_0)) <= True
  minus(s(x_0_0), s(x_1_0), z) <= True
  minus(s(x_0_0), z, s(x_2_0)) <= _r_1(x_0_0)
  minus(z, s(x_1_0), z) <= True
  minus(z, z, z) <= True
}

--
Equality automata are defined for: {nat}
_|


Answer of teacher:


minus(s(u), z, s(u)) <= True -> Yes: {
u -> s(v0_0)
}
minus(z, y, z) <= True -> No: ()
eq_nat(_loa, _noa) <= minus(_moa, s(k), _loa) /\ minus(_ooa, k, _noa) /\ minus(m, n, _ooa) /\ minus(s(m), n, _moa) -> Yes: {
_loa -> z  ;  _moa -> z  ;  _noa -> s(_noa_0)  ;  _ooa -> s(_ooa_0)  ;  k -> s(k_0)  ;  m -> s(m_0)  ;  n -> s(n_0)
}
minus(s(u), s(x2), _goa) <= minus(u, x2, _goa) -> No: ()



-------------------------------------------
Step 4, which took 0.018924 s (model generation: 0.018412,  model checking: 0.000512):

Ground examples at the beginning of this step are:
{
minus(s(s(z)), s(z), s(z)) <= True
minus(s(s(z)), z, s(s(z))) <= True
minus(s(z), s(z), z) <= True
minus(s(z), z, s(z)) <= True
minus(z, s(z), z) <= True
minus(z, z, z) <= True
False <= minus(s(s(z)), s(z), z) /\ minus(s(z), s(z), s(z)) /\ minus(z, s(s(z)), z)
False <= minus(s(s(z)), z, s(z))
}

Learner proposed model:
Found Model:
|_

_r_1 ->
{
  _r_1(s(x_0_0), s(x_1_0)) <= True
  _r_1(z, z) <= True
}
;
minus ->
{
  minus(s(x_0_0), s(x_1_0), s(x_2_0)) <= True
  minus(s(x_0_0), s(x_1_0), z) <= _r_1(x_0_0, x_1_0)
  minus(s(x_0_0), z, s(x_2_0)) <= _r_1(x_0_0, x_2_0)
  minus(z, s(x_1_0), z) <= True
  minus(z, z, z) <= True
}

--
Equality automata are defined for: {nat}
_|


Answer of teacher:


minus(s(u), z, s(u)) <= True -> No: ()
minus(z, y, z) <= True -> No: ()
eq_nat(_loa, _noa) <= minus(_moa, s(k), _loa) /\ minus(_ooa, k, _noa) /\ minus(m, n, _ooa) /\ minus(s(m), n, _moa) -> Yes: {
_loa -> s(_loa_0)  ;  _moa -> s(_moa_0)  ;  _noa -> z  ;  _ooa -> z  ;  k -> z  ;  m -> z  ;  n -> s(n_0)
}
minus(s(u), s(x2), _goa) <= minus(u, x2, _goa) -> Yes: {
_goa -> z  ;  u -> z  ;  x2 -> s(x2_0)
}



-------------------------------------------
Step 5, which took 0.024000 s (model generation: 0.023200,  model checking: 0.000800):

Ground examples at the beginning of this step are:
{
minus(s(s(z)), s(z), s(z)) <= True
minus(s(s(z)), z, s(s(z))) <= True
minus(s(z), s(s(z)), z) <= True
minus(s(z), s(z), z) <= True
minus(s(z), z, s(z)) <= True
minus(z, s(z), z) <= True
minus(z, z, z) <= True
False <= minus(s(s(z)), z, s(z))
False <= minus(s(z), s(z), s(z))
}

Learner proposed model:
Found Model:
|_

_r_1 ->
{
  _r_1(s(x_0_0), z) <= True
}
;
_r_2 ->
{
  _r_2(s(x_0_0), s(x_1_0)) <= True
  _r_2(z, z) <= True
}
;
minus ->
{
  minus(s(x_0_0), s(x_1_0), s(x_2_0)) <= _r_1(x_0_0, x_2_0)
  minus(s(x_0_0), s(x_1_0), z) <= True
  minus(s(x_0_0), z, s(x_2_0)) <= _r_2(x_0_0, x_2_0)
  minus(z, s(x_1_0), z) <= True
  minus(z, z, z) <= True
}

--
Equality automata are defined for: {nat}
_|


Answer of teacher:


minus(s(u), z, s(u)) <= True -> No: ()
minus(z, y, z) <= True -> No: ()
eq_nat(_loa, _noa) <= minus(_moa, s(k), _loa) /\ minus(_ooa, k, _noa) /\ minus(m, n, _ooa) /\ minus(s(m), n, _moa) -> Yes: {
_loa -> z  ;  _moa -> z  ;  _noa -> s(z)  ;  _ooa -> s(z)  ;  k -> z  ;  m -> s(s(v0_0))  ;  n -> s(n_0)
}
minus(s(u), s(x2), _goa) <= minus(u, x2, _goa) -> Yes: {
_goa -> s(s(v1_0))  ;  u -> s(s(v0_0))  ;  x2 -> z
}



-------------------------------------------
Step 6, which took 0.027191 s (model generation: 0.026038,  model checking: 0.001153):

Ground examples at the beginning of this step are:
{
minus(s(s(s(z))), s(z), s(s(z))) <= True
minus(s(s(z)), s(z), s(z)) <= True
minus(s(s(z)), z, s(s(z))) <= True
minus(s(z), s(s(z)), z) <= True
minus(s(z), s(z), z) <= True
minus(s(z), z, s(z)) <= True
minus(z, s(z), z) <= True
minus(z, z, z) <= True
False <= minus(s(s(s(z))), s(z), z)
False <= minus(s(s(z)), z, s(z))
False <= minus(s(z), s(z), s(z))
}

Learner proposed model:
Found Model:
|_

_r_1 ->
{
  _r_1(s(x_0_0)) <= True
}
;
_r_2 ->
{
  _r_2(z) <= True
}
;
minus ->
{
  minus(s(x_0_0), s(x_1_0), s(x_2_0)) <= _r_1(x_0_0)
  minus(s(x_0_0), s(x_1_0), z) <= _r_2(x_0_0)
  minus(s(x_0_0), z, s(x_2_0)) <= _r_1(x_2_0)
  minus(s(x_0_0), z, s(x_2_0)) <= _r_2(x_0_0)
  minus(z, s(x_1_0), z) <= True
  minus(z, z, z) <= True
}

--
Equality automata are defined for: {nat}
_|


Answer of teacher:


minus(s(u), z, s(u)) <= True -> No: ()
minus(z, y, z) <= True -> No: ()
eq_nat(_loa, _noa) <= minus(_moa, s(k), _loa) /\ minus(_ooa, k, _noa) /\ minus(m, n, _ooa) /\ minus(s(m), n, _moa) -> Yes: {
_loa -> s(_loa_0)  ;  _moa -> s(s(v0_0))  ;  _noa -> z  ;  _ooa -> z  ;  k -> z  ;  m -> z  ;  n -> z
}
minus(s(u), s(x2), _goa) <= minus(u, x2, _goa) -> Yes: {
_goa -> z  ;  u -> s(z)  ;  x2 -> s(x2_0)
}



-------------------------------------------
Step 7, which took 0.027189 s (model generation: 0.026170,  model checking: 0.001019):

Ground examples at the beginning of this step are:
{
minus(s(s(s(z))), s(z), s(s(z))) <= True
minus(s(s(z)), s(s(z)), z) <= True
minus(s(s(z)), s(z), s(z)) <= True
minus(s(s(z)), z, s(s(z))) <= True
minus(s(z), s(s(z)), z) <= True
minus(s(z), s(z), z) <= True
minus(s(z), z, s(z)) <= True
minus(z, s(z), z) <= True
minus(z, z, z) <= True
False <= minus(s(s(s(z))), s(z), z)
False <= minus(s(s(z)), z, s(z))
False <= minus(s(z), s(z), s(z))
False <= minus(s(z), z, s(s(z)))
}

Learner proposed model:
Found Model:
|_

_r_1 ->
{
  _r_1(s(x_0_0), s(x_1_0)) <= True
  _r_1(z, z) <= True
}
;
_r_2 ->
{
  _r_2(s(x_0_0)) <= True
}
;
minus ->
{
  minus(s(x_0_0), s(x_1_0), s(x_2_0)) <= _r_2(x_0_0)
  minus(s(x_0_0), s(x_1_0), z) <= _r_1(x_0_0, x_1_0)
  minus(s(x_0_0), s(x_1_0), z) <= _r_2(x_1_0)
  minus(s(x_0_0), z, s(x_2_0)) <= _r_1(x_0_0, x_2_0)
  minus(z, s(x_1_0), z) <= True
  minus(z, z, z) <= True
}

--
Equality automata are defined for: {nat}
_|


Answer of teacher:


minus(s(u), z, s(u)) <= True -> No: ()
minus(z, y, z) <= True -> No: ()
eq_nat(_loa, _noa) <= minus(_moa, s(k), _loa) /\ minus(_ooa, k, _noa) /\ minus(m, n, _ooa) /\ minus(s(m), n, _moa) -> Yes: {
_loa -> z  ;  _moa -> z  ;  _noa -> s(_noa_0)  ;  _ooa -> s(s(v0_0))  ;  k -> s(k_0)  ;  m -> s(s(v0_0))  ;  n -> s(s(v0_0))
}
minus(s(u), s(x2), _goa) <= minus(u, x2, _goa) -> No: ()



-------------------------------------------
Step 8, which took 0.027965 s (model generation: 0.025999,  model checking: 0.001966):

Ground examples at the beginning of this step are:
{
minus(s(s(s(z))), s(z), s(s(z))) <= True
minus(s(s(z)), s(s(z)), z) <= True
minus(s(s(z)), s(z), s(z)) <= True
minus(s(s(z)), z, s(s(z))) <= True
minus(s(z), s(s(z)), z) <= True
minus(s(z), s(z), z) <= True
minus(s(z), z, s(z)) <= True
minus(z, s(z), z) <= True
minus(z, z, z) <= True
False <= minus(s(s(s(z))), s(s(z)), z) /\ minus(s(s(z)), s(s(z)), s(s(z))) /\ minus(z, s(s(z)), z)
False <= minus(s(s(s(z))), s(z), z)
False <= minus(s(s(z)), z, s(z))
False <= minus(s(z), s(z), s(z))
False <= minus(s(z), z, s(s(z)))
}

Learner proposed model:
Found Model:
|_

_r_1 ->
{
  _r_1(z) <= True
}
;
_r_2 ->
{
  _r_2(s(x_0_0)) <= True
}
;
minus ->
{
  minus(s(x_0_0), s(x_1_0), s(x_2_0)) <= _r_2(x_0_0)
  minus(s(x_0_0), s(x_1_0), z) <= _r_1(x_0_0)
  minus(s(x_0_0), s(x_1_0), z) <= _r_2(x_1_0)
  minus(s(x_0_0), z, s(x_2_0)) <= _r_1(x_0_0) /\ _r_1(x_2_0)
  minus(s(x_0_0), z, s(x_2_0)) <= _r_2(x_0_0) /\ _r_2(x_2_0)
  minus(z, s(x_1_0), z) <= _r_1(x_1_0)
  minus(z, z, z) <= True
}

--
Equality automata are defined for: {nat}
_|


Answer of teacher:


minus(s(u), z, s(u)) <= True -> No: ()
minus(z, y, z) <= True -> Yes: {
y -> s(s(v0_0))
}
eq_nat(_loa, _noa) <= minus(_moa, s(k), _loa) /\ minus(_ooa, k, _noa) /\ minus(m, n, _ooa) /\ minus(s(m), n, _moa) -> Yes: {
_loa -> z  ;  _moa -> z  ;  _noa -> s(s(v0_0))  ;  _ooa -> s(s(v0_0))  ;  k -> z  ;  m -> s(s(v0_0))  ;  n -> s(s(v0_0))
}
minus(s(u), s(x2), _goa) <= minus(u, x2, _goa) -> No: ()



-------------------------------------------
Step 9, which took 0.029211 s (model generation: 0.026968,  model checking: 0.002243):

Ground examples at the beginning of this step are:
{
minus(s(s(s(z))), s(z), s(s(z))) <= True
minus(s(s(z)), s(s(z)), z) <= True
minus(s(s(z)), s(z), s(z)) <= True
minus(s(s(z)), z, s(s(z))) <= True
minus(s(z), s(s(z)), z) <= True
minus(s(z), s(z), z) <= True
minus(s(z), z, s(z)) <= True
minus(z, s(s(z)), z) <= True
minus(z, s(z), z) <= True
minus(z, z, z) <= True
False <= minus(s(s(s(z))), s(s(z)), z) /\ minus(s(s(z)), s(s(z)), s(s(z)))
False <= minus(s(s(s(z))), s(z), z)
False <= minus(s(s(z)), z, s(z))
False <= minus(s(z), s(z), s(z))
False <= minus(s(z), z, s(s(z)))
}

Learner proposed model:
Found Model:
|_

_r_1 ->
{
  _r_1(s(x_0_0)) <= True
}
;
_r_2 ->
{
  _r_2(z) <= True
}
;
minus ->
{
  minus(s(x_0_0), s(x_1_0), s(x_2_0)) <= _r_1(x_0_0) /\ _r_2(x_1_0)
  minus(s(x_0_0), s(x_1_0), z) <= _r_1(x_1_0)
  minus(s(x_0_0), s(x_1_0), z) <= _r_2(x_0_0)
  minus(s(x_0_0), z, s(x_2_0)) <= _r_1(x_0_0) /\ _r_1(x_2_0)
  minus(s(x_0_0), z, s(x_2_0)) <= _r_2(x_0_0) /\ _r_2(x_2_0)
  minus(z, s(x_1_0), z) <= True
  minus(z, z, z) <= True
}

--
Equality automata are defined for: {nat}
_|


Answer of teacher:


minus(s(u), z, s(u)) <= True -> No: ()
minus(z, y, z) <= True -> No: ()
eq_nat(_loa, _noa) <= minus(_moa, s(k), _loa) /\ minus(_ooa, k, _noa) /\ minus(m, n, _ooa) /\ minus(s(m), n, _moa) -> Yes: {
_loa -> s(_loa_0)  ;  _moa -> s(s(v0_0))  ;  _noa -> z  ;  _ooa -> z  ;  k -> z  ;  m -> s(z)  ;  n -> s(z)
}
minus(s(u), s(x2), _goa) <= minus(u, x2, _goa) -> Yes: {
_goa -> s(_goa_0)  ;  u -> s(s(v0_0))  ;  x2 -> s(z)
}



-------------------------------------------
Step 10, which took 0.055502 s (model generation: 0.029410,  model checking: 0.026092):

Ground examples at the beginning of this step are:
{
minus(s(s(s(z))), s(s(z)), s(z)) <= True
minus(s(s(s(z))), s(z), s(s(z))) <= True
minus(s(s(z)), s(s(z)), z) <= True
minus(s(s(z)), s(z), s(z)) <= True
minus(s(s(z)), z, s(s(z))) <= True
minus(s(z), s(s(z)), z) <= True
minus(s(z), s(z), z) <= True
minus(s(z), z, s(z)) <= True
minus(z, s(s(z)), z) <= True
minus(z, s(z), z) <= True
minus(z, z, z) <= True
False <= minus(s(s(s(z))), s(s(z)), z) /\ minus(s(s(z)), s(s(z)), s(s(z)))
False <= minus(s(s(s(z))), s(z), z)
False <= minus(s(s(z)), s(z), s(s(z)))
False <= minus(s(s(z)), z, s(z))
False <= minus(s(z), s(z), s(z))
False <= minus(s(z), z, s(s(z)))
}

Learner proposed model:
Found Model:
|_

_r_1 ->
{
  _r_1(s(x_0_0), s(x_1_0)) <= _r_2(x_0_0)
  _r_1(z, z) <= True
}
;
_r_2 ->
{
  _r_2(s(x_0_0)) <= True
}
;
minus ->
{
  minus(s(x_0_0), s(x_1_0), s(x_2_0)) <= _r_1(x_0_0, x_1_0) /\ _r_2(x_1_0)
  minus(s(x_0_0), s(x_1_0), s(x_2_0)) <= _r_1(x_0_0, x_2_0) /\ _r_2(x_0_0)
  minus(s(x_0_0), s(x_1_0), s(x_2_0)) <= _r_1(x_1_0, x_2_0) /\ _r_2(x_0_0)
  minus(s(x_0_0), s(x_1_0), z) <= _r_1(x_0_0, x_1_0)
  minus(s(x_0_0), s(x_1_0), z) <= _r_2(x_1_0)
  minus(s(x_0_0), z, s(x_2_0)) <= _r_1(x_0_0, x_2_0)
  minus(s(x_0_0), z, s(x_2_0)) <= _r_2(x_0_0) /\ _r_2(x_2_0)
  minus(z, s(x_1_0), z) <= True
  minus(z, z, z) <= True
}

--
Equality automata are defined for: {nat}
_|


Answer of teacher:


minus(s(u), z, s(u)) <= True -> No: ()
minus(z, y, z) <= True -> No: ()
eq_nat(_loa, _noa) <= minus(_moa, s(k), _loa) /\ minus(_ooa, k, _noa) /\ minus(m, n, _ooa) /\ minus(s(m), n, _moa) -> Yes: {
_loa -> s(z)  ;  _moa -> s(s(v1_0))  ;  _noa -> z  ;  _ooa -> z  ;  k -> z  ;  m -> s(s(v0_0))  ;  n -> s(s(v1_0))
}
minus(s(u), s(x2), _goa) <= minus(u, x2, _goa) -> No: ()



-------------------------------------------
Step 11, which took 0.084087 s (model generation: 0.078893,  model checking: 0.005194):

Ground examples at the beginning of this step are:
{
minus(s(s(s(z))), s(s(z)), s(z)) <= True
minus(s(s(s(z))), s(z), s(s(z))) <= True
minus(s(s(z)), s(s(z)), z) <= True
minus(s(s(z)), s(z), s(z)) <= True
minus(s(s(z)), z, s(s(z))) <= True
minus(s(z), s(s(z)), z) <= True
minus(s(z), s(z), z) <= True
minus(s(z), z, s(z)) <= True
minus(z, s(s(z)), z) <= True
minus(z, s(z), z) <= True
minus(z, z, z) <= True
False <= minus(s(s(s(z))), s(s(z)), s(s(z)))
False <= minus(s(s(s(z))), s(s(z)), z) /\ minus(s(s(z)), s(s(z)), s(s(z)))
False <= minus(s(s(s(z))), s(z), z)
False <= minus(s(s(z)), s(z), s(s(z)))
False <= minus(s(s(z)), z, s(z))
False <= minus(s(z), s(z), s(z))
False <= minus(s(z), z, s(s(z)))
}

Learner proposed model:
Found Model:
|_

_r_1 ->
{
  _r_1(s(x_0_0), s(x_1_0)) <= True
  _r_1(z, z) <= True
}
;
_r_2 ->
{
  _r_2(s(x_0_0), s(x_1_0)) <= _r_3(x_0_0, x_1_0)
  _r_2(z, s(x_1_0)) <= True
}
;
_r_3 ->
{
  _r_3(s(x_0_0), z) <= True
}
;
minus ->
{
  minus(s(x_0_0), s(x_1_0), s(x_2_0)) <= _r_2(x_0_0, x_2_0) /\ _r_3(x_0_0, x_1_0)
  minus(s(x_0_0), s(x_1_0), s(x_2_0)) <= _r_3(x_0_0, x_2_0)
  minus(s(x_0_0), s(x_1_0), z) <= _r_1(x_0_0, x_1_0)
  minus(s(x_0_0), s(x_1_0), z) <= _r_2(x_0_0, x_1_0)
  minus(s(x_0_0), z, s(x_2_0)) <= _r_1(x_0_0, x_2_0)
  minus(z, s(x_1_0), z) <= True
  minus(z, z, z) <= True
}

--
Equality automata are defined for: {nat}
_|


Answer of teacher:


minus(s(u), z, s(u)) <= True -> No: ()
minus(z, y, z) <= True -> No: ()
eq_nat(_loa, _noa) <= minus(_moa, s(k), _loa) /\ minus(_ooa, k, _noa) /\ minus(m, n, _ooa) /\ minus(s(m), n, _moa) -> Yes: {
_loa -> z  ;  _moa -> z  ;  _noa -> s(z)  ;  _ooa -> s(z)  ;  k -> z  ;  m -> s(s(v2_0))  ;  n -> s(s(v3_0))
}
minus(s(u), s(x2), _goa) <= minus(u, x2, _goa) -> Yes: {
_goa -> s(s(s(v1_0)))  ;  u -> s(s(v0_0))  ;  x2 -> z
}



-------------------------------------------
Step 12, which took 0.186110 s (model generation: 0.184662,  model checking: 0.001448):

Ground examples at the beginning of this step are:
{
minus(s(s(s(z))), s(s(z)), s(z)) <= True
minus(s(s(s(z))), s(z), s(s(z))) <= True
minus(s(s(z)), s(s(z)), z) <= True
minus(s(s(z)), s(z), s(z)) <= True
minus(s(s(z)), z, s(s(z))) <= True
minus(s(z), s(s(z)), z) <= True
minus(s(z), s(z), z) <= True
minus(s(z), z, s(z)) <= True
minus(z, s(s(z)), z) <= True
minus(z, s(z), z) <= True
minus(z, z, z) <= True
False <= minus(s(s(s(z))), s(s(z)), s(s(z)))
False <= minus(s(s(s(z))), s(s(z)), z) /\ minus(s(s(z)), s(s(z)), s(s(z)))
False <= minus(s(s(s(z))), s(s(z)), z) /\ minus(s(s(z)), s(s(z)), s(z))
False <= minus(s(s(s(z))), s(z), z)
False <= minus(s(s(z)), s(z), s(s(z)))
minus(s(s(s(z))), s(z), s(s(s(z)))) <= minus(s(s(z)), z, s(s(s(z))))
False <= minus(s(s(z)), z, s(z))
False <= minus(s(z), s(z), s(z))
False <= minus(s(z), z, s(s(z)))
}

Learner proposed model:
Found Model:
|_

_r_1 ->
{
  _r_1(s(x_0_0), s(x_1_0), z) <= _r_3(x_0_0)
  _r_1(s(x_0_0), z, s(x_2_0)) <= _r_3(x_0_0)
  _r_1(s(x_0_0), z, z) <= True
}
;
_r_2 ->
{
  _r_2(s(x_0_0), s(x_1_0)) <= True
  _r_2(z, z) <= True
}
;
_r_3 ->
{
  _r_3(s(x_0_0)) <= True
}
;
minus ->
{
  minus(s(x_0_0), s(x_1_0), s(x_2_0)) <= _r_1(x_0_0, x_1_0, x_2_0)
  minus(s(x_0_0), s(x_1_0), z) <= _r_2(x_0_0, x_1_0)
  minus(s(x_0_0), s(x_1_0), z) <= _r_3(x_1_0)
  minus(s(x_0_0), z, s(x_2_0)) <= _r_2(x_0_0, x_2_0)
  minus(z, s(x_1_0), z) <= True
  minus(z, z, z) <= True
}

--
Equality automata are defined for: {nat}
_|


Answer of teacher:


minus(s(u), z, s(u)) <= True -> No: ()
minus(z, y, z) <= True -> No: ()
eq_nat(_loa, _noa) <= minus(_moa, s(k), _loa) /\ minus(_ooa, k, _noa) /\ minus(m, n, _ooa) /\ minus(s(m), n, _moa) -> Yes: {
_loa -> z  ;  _moa -> z  ;  _noa -> s(z)  ;  _ooa -> s(z)  ;  k -> z  ;  m -> s(s(s(v0_0)))  ;  n -> s(s(v1_0))
}
minus(s(u), s(x2), _goa) <= minus(u, x2, _goa) -> Yes: {
_goa -> s(s(v2_0))  ;  u -> s(s(s(v0_0)))  ;  x2 -> s(z)
}



-------------------------------------------
Step 13, which took 0.182677 s (model generation: 0.179220,  model checking: 0.003457):

Ground examples at the beginning of this step are:
{
minus(s(s(s(s(z)))), s(s(z)), s(s(z))) <= True
minus(s(s(s(z))), s(s(z)), s(z)) <= True
minus(s(s(s(z))), s(z), s(s(z))) <= True
minus(s(s(z)), s(s(z)), z) <= True
minus(s(s(z)), s(z), s(z)) <= True
minus(s(s(z)), z, s(s(z))) <= True
minus(s(z), s(s(z)), z) <= True
minus(s(z), s(z), z) <= True
minus(s(z), z, s(z)) <= True
minus(z, s(s(z)), z) <= True
minus(z, s(z), z) <= True
minus(z, z, z) <= True
False <= minus(s(s(s(s(z)))), s(s(z)), z)
False <= minus(s(s(s(z))), s(s(z)), s(s(z)))
False <= minus(s(s(s(z))), s(s(z)), z) /\ minus(s(s(z)), s(s(z)), s(s(z)))
False <= minus(s(s(s(z))), s(s(z)), z) /\ minus(s(s(z)), s(s(z)), s(z))
False <= minus(s(s(s(z))), s(z), z)
False <= minus(s(s(z)), s(z), s(s(z)))
minus(s(s(s(z))), s(z), s(s(s(z)))) <= minus(s(s(z)), z, s(s(s(z))))
False <= minus(s(s(z)), z, s(z))
False <= minus(s(z), s(z), s(z))
False <= minus(s(z), z, s(s(z)))
}

Learner proposed model:
Found Model:
|_

_r_1 ->
{
  _r_1(s(x_0_0), s(x_1_0), s(x_2_0)) <= minus(x_0_0, x_1_0, x_2_0)
  _r_1(s(x_0_0), s(x_1_0), z) <= True
  _r_1(s(x_0_0), z, s(x_2_0)) <= _r_3(x_0_0)
  _r_1(s(x_0_0), z, z) <= True
}
;
_r_2 ->
{
  _r_2(z) <= True
}
;
_r_3 ->
{
  _r_3(s(x_0_0)) <= _r_2(x_0_0)
}
;
minus ->
{
  minus(s(x_0_0), s(x_1_0), s(x_2_0)) <= _r_1(x_0_0, x_1_0, x_2_0)
  minus(s(x_0_0), s(x_1_0), z) <= _r_2(x_0_0)
  minus(s(x_0_0), s(x_1_0), z) <= _r_3(x_0_0)
  minus(s(x_0_0), z, s(x_2_0)) <= _r_2(x_0_0) /\ _r_2(x_2_0)
  minus(s(x_0_0), z, s(x_2_0)) <= _r_3(x_0_0) /\ _r_3(x_2_0)
  minus(s(x_0_0), z, z) <= _r_3(x_0_0)
  minus(z, s(x_1_0), z) <= True
  minus(z, z, z) <= True
}

--
Equality automata are defined for: {nat}
_|


Answer of teacher:


minus(s(u), z, s(u)) <= True -> Yes: {
u -> s(s(v0_0))
}
minus(z, y, z) <= True -> No: ()
eq_nat(_loa, _noa) <= minus(_moa, s(k), _loa) /\ minus(_ooa, k, _noa) /\ minus(m, n, _ooa) /\ minus(s(m), n, _moa) -> Yes: {
_loa -> z  ;  _moa -> z  ;  _noa -> s(z)  ;  _ooa -> s(z)  ;  k -> z  ;  m -> s(z)  ;  n -> z
}
minus(s(u), s(x2), _goa) <= minus(u, x2, _goa) -> Yes: {
_goa -> s(s(s(s(s(v0_0)))))  ;  u -> s(s(s(z)))  ;  x2 -> s(z)
}



-------------------------------------------
Step 14, which took 0.472458 s (model generation: 0.459821,  model checking: 0.012637):

Ground examples at the beginning of this step are:
{
minus(s(s(s(s(z)))), s(s(z)), s(s(z))) <= True
minus(s(s(s(z))), s(s(z)), s(z)) <= True
minus(s(s(s(z))), s(z), s(s(z))) <= True
minus(s(s(s(z))), z, s(s(s(z)))) <= True
minus(s(s(z)), s(s(z)), z) <= True
minus(s(s(z)), s(z), s(z)) <= True
minus(s(s(z)), z, s(s(z))) <= True
minus(s(z), s(s(z)), z) <= True
minus(s(z), s(z), z) <= True
minus(s(z), z, s(z)) <= True
minus(z, s(s(z)), z) <= True
minus(z, s(z), z) <= True
minus(z, z, z) <= True
False <= minus(s(s(s(s(z)))), s(s(z)), z)
False <= minus(s(s(s(z))), s(s(z)), s(s(z)))
False <= minus(s(s(s(z))), s(s(z)), z) /\ minus(s(s(z)), s(s(z)), s(s(z)))
False <= minus(s(s(s(z))), s(s(z)), z) /\ minus(s(s(z)), s(s(z)), s(z))
minus(s(s(s(s(z)))), s(s(z)), s(s(s(s(s(z)))))) <= minus(s(s(s(z))), s(z), s(s(s(s(s(z))))))
False <= minus(s(s(s(z))), s(z), z)
False <= minus(s(s(z)), s(z), s(s(z)))
minus(s(s(s(z))), s(z), s(s(s(z)))) <= minus(s(s(z)), z, s(s(s(z))))
False <= minus(s(s(z)), z, s(z))
False <= minus(s(s(z)), z, z)
False <= minus(s(z), s(z), s(z))
False <= minus(s(z), z, s(s(z)))
}

Learner proposed model:
Found Model:
|_

_r_1 ->
{
  _r_1(s(x_0_0), s(x_1_0)) <= _r_1(x_0_0, x_1_0)
  _r_1(s(x_0_0), z) <= _r_3(x_0_0)
  _r_1(z, z) <= True
}
;
_r_2 ->
{
  _r_2(z) <= True
}
;
_r_3 ->
{
  _r_3(s(x_0_0)) <= _r_2(x_0_0)
}
;
minus ->
{
  minus(s(x_0_0), s(x_1_0), s(x_2_0)) <= _r_1(x_0_0, x_1_0) /\ _r_3(x_2_0)
  minus(s(x_0_0), s(x_1_0), s(x_2_0)) <= _r_1(x_0_0, x_2_0) /\ _r_3(x_1_0)
  minus(s(x_0_0), s(x_1_0), s(x_2_0)) <= _r_2(x_2_0) /\ _r_3(x_0_0)
  minus(s(x_0_0), s(x_1_0), z) <= _r_2(x_0_0)
  minus(s(x_0_0), s(x_1_0), z) <= _r_3(x_0_0)
  minus(s(x_0_0), z, s(x_2_0)) <= _r_1(x_0_0, x_2_0)
  minus(z, s(x_1_0), z) <= True
  minus(z, z, z) <= True
}

--
Equality automata are defined for: {nat}
_|


Answer of teacher:


minus(s(u), z, s(u)) <= True -> No: ()
minus(z, y, z) <= True -> No: ()
eq_nat(_loa, _noa) <= minus(_moa, s(k), _loa) /\ minus(_ooa, k, _noa) /\ minus(m, n, _ooa) /\ minus(s(m), n, _moa) -> Yes: {
_loa -> s(z)  ;  _moa -> s(s(z))  ;  _noa -> z  ;  _ooa -> z  ;  k -> z  ;  m -> z  ;  n -> s(z)
}
minus(s(u), s(x2), _goa) <= minus(u, x2, _goa) -> Yes: {
_goa -> s(z)  ;  u -> s(s(z))  ;  x2 -> s(s(z))
}



-------------------------------------------
Step 15, which took 0.711296 s (model generation: 0.677926,  model checking: 0.033370):

Ground examples at the beginning of this step are:
{
minus(s(s(s(s(z)))), s(s(z)), s(s(z))) <= True
minus(s(s(s(z))), s(s(z)), s(z)) <= True
minus(s(s(s(z))), s(z), s(s(z))) <= True
minus(s(s(s(z))), z, s(s(s(z)))) <= True
minus(s(s(z)), s(s(z)), z) <= True
minus(s(s(z)), s(z), s(z)) <= True
minus(s(s(z)), z, s(s(z))) <= True
minus(s(z), s(s(z)), z) <= True
minus(s(z), s(z), z) <= True
minus(s(z), z, s(z)) <= True
minus(z, s(s(z)), z) <= True
minus(z, s(z), z) <= True
minus(z, z, z) <= True
False <= minus(s(s(s(s(z)))), s(s(z)), z)
False <= minus(s(s(s(z))), s(s(z)), s(s(z)))
False <= minus(s(s(s(z))), s(s(z)), z) /\ minus(s(s(z)), s(s(z)), s(s(z)))
False <= minus(s(s(s(z))), s(s(z)), z) /\ minus(s(s(z)), s(s(z)), s(z))
minus(s(s(s(s(z)))), s(s(z)), s(s(s(s(s(z)))))) <= minus(s(s(s(z))), s(z), s(s(s(s(s(z))))))
False <= minus(s(s(s(z))), s(z), z)
minus(s(s(s(z))), s(s(s(z))), s(z)) <= minus(s(s(z)), s(s(z)), s(z))
False <= minus(s(s(z)), s(z), s(s(z)))
minus(s(s(s(z))), s(z), s(s(s(z)))) <= minus(s(s(z)), z, s(s(s(z))))
False <= minus(s(s(z)), z, s(z))
False <= minus(s(s(z)), z, z)
False <= minus(s(z), s(z), s(s(z)))
False <= minus(s(z), s(z), s(z))
False <= minus(s(z), z, s(s(z)))
}

Learner proposed model:
Found Model:
|_

_r_1 ->
{
  _r_1(s(x_0_0), s(x_1_0)) <= _r_1(x_0_0, x_1_0) /\ _r_3(x_0_0)
  _r_1(s(x_0_0), z) <= _r_3(x_0_0)
  _r_1(z, z) <= True
}
;
_r_2 ->
{
  _r_2(s(x_0_0), s(x_1_0)) <= _r_2(x_0_0, x_1_0)
  _r_2(z, s(x_1_0)) <= True
  _r_2(z, z) <= True
}
;
_r_3 ->
{
  _r_3(s(x_0_0)) <= True
}
;
minus ->
{
  minus(s(x_0_0), s(x_1_0), s(x_2_0)) <= _r_1(x_0_0, x_1_0) /\ _r_3(x_0_0)
  minus(s(x_0_0), s(x_1_0), s(x_2_0)) <= _r_1(x_0_0, x_2_0) /\ _r_3(x_0_0)
  minus(s(x_0_0), s(x_1_0), s(x_2_0)) <= _r_1(x_1_0, x_2_0) /\ _r_3(x_0_0)
  minus(s(x_0_0), s(x_1_0), z) <= _r_2(x_0_0, x_1_0)
  minus(s(x_0_0), z, s(x_2_0)) <= _r_1(x_0_0, x_2_0)
  minus(s(x_0_0), z, s(x_2_0)) <= _r_2(x_0_0, x_2_0) /\ _r_3(x_0_0)
  minus(z, s(x_1_0), z) <= True
  minus(z, z, z) <= True
}

--
Equality automata are defined for: {nat}
_|


Answer of teacher:


minus(s(u), z, s(u)) <= True -> No: ()
minus(z, y, z) <= True -> No: ()
eq_nat(_loa, _noa) <= minus(_moa, s(k), _loa) /\ minus(_ooa, k, _noa) /\ minus(m, n, _ooa) /\ minus(s(m), n, _moa) -> Yes: {
_loa -> z  ;  _moa -> z  ;  _noa -> s(z)  ;  _ooa -> s(z)  ;  k -> z  ;  m -> s(s(z))  ;  n -> s(s(s(z)))
}
minus(s(u), s(x2), _goa) <= minus(u, x2, _goa) -> No: ()



-------------------------------------------
Step 16, which took 0.400568 s (model generation: 0.373784,  model checking: 0.026784):

Ground examples at the beginning of this step are:
{
minus(s(s(s(s(z)))), s(s(z)), s(s(z))) <= True
minus(s(s(s(z))), s(s(z)), s(z)) <= True
minus(s(s(s(z))), s(z), s(s(z))) <= True
minus(s(s(s(z))), z, s(s(s(z)))) <= True
minus(s(s(z)), s(s(z)), z) <= True
minus(s(s(z)), s(z), s(z)) <= True
minus(s(s(z)), z, s(s(z))) <= True
minus(s(z), s(s(z)), z) <= True
minus(s(z), s(z), z) <= True
minus(s(z), z, s(z)) <= True
minus(z, s(s(z)), z) <= True
minus(z, s(z), z) <= True
minus(z, z, z) <= True
False <= minus(s(s(s(s(z)))), s(s(z)), z)
False <= minus(s(s(s(z))), s(s(s(z))), z) /\ minus(s(s(z)), s(s(s(z))), s(z))
False <= minus(s(s(s(z))), s(s(z)), s(s(z)))
False <= minus(s(s(s(z))), s(s(z)), z) /\ minus(s(s(z)), s(s(z)), s(s(z)))
False <= minus(s(s(s(z))), s(s(z)), z) /\ minus(s(s(z)), s(s(z)), s(z))
minus(s(s(s(s(z)))), s(s(z)), s(s(s(s(s(z)))))) <= minus(s(s(s(z))), s(z), s(s(s(s(s(z))))))
False <= minus(s(s(s(z))), s(z), z)
minus(s(s(s(z))), s(s(s(z))), s(z)) <= minus(s(s(z)), s(s(z)), s(z))
False <= minus(s(s(z)), s(z), s(s(z)))
minus(s(s(s(z))), s(z), s(s(s(z)))) <= minus(s(s(z)), z, s(s(s(z))))
False <= minus(s(s(z)), z, s(z))
False <= minus(s(s(z)), z, z)
False <= minus(s(z), s(z), s(s(z)))
False <= minus(s(z), s(z), s(z))
False <= minus(s(z), z, s(s(z)))
}

Learner proposed model:
Found Model:
|_

_r_1 ->
{
  _r_1(s(x_0_0), s(x_1_0)) <= _r_1(x_0_0, x_1_0)
  _r_1(s(x_0_0), s(x_1_0)) <= _r_3(x_1_0)
  _r_1(s(x_0_0), z) <= _r_3(x_0_0)
}
;
_r_2 ->
{
  _r_2(z) <= True
}
;
_r_3 ->
{
  _r_3(s(x_0_0)) <= _r_2(x_0_0)
}
;
minus ->
{
  minus(s(x_0_0), s(x_1_0), s(x_2_0)) <= _r_1(x_0_0, x_1_0)
  minus(s(x_0_0), s(x_1_0), s(x_2_0)) <= _r_1(x_0_0, x_2_0)
  minus(s(x_0_0), s(x_1_0), s(x_2_0)) <= _r_2(x_2_0) /\ _r_3(x_0_0)
  minus(s(x_0_0), s(x_1_0), z) <= _r_2(x_0_0)
  minus(s(x_0_0), s(x_1_0), z) <= _r_3(x_0_0)
  minus(s(x_0_0), z, s(x_2_0)) <= _r_1(x_0_0, x_2_0)
  minus(s(x_0_0), z, s(x_2_0)) <= _r_2(x_0_0) /\ _r_2(x_2_0)
  minus(s(x_0_0), z, s(x_2_0)) <= _r_3(x_0_0) /\ _r_3(x_2_0)
  minus(z, s(x_1_0), z) <= True
  minus(z, z, z) <= True
}

--
Equality automata are defined for: {nat}
_|


Answer of teacher:


minus(s(u), z, s(u)) <= True -> No: ()
minus(z, y, z) <= True -> No: ()
eq_nat(_loa, _noa) <= minus(_moa, s(k), _loa) /\ minus(_ooa, k, _noa) /\ minus(m, n, _ooa) /\ minus(s(m), n, _moa) -> Yes: {
_loa -> z  ;  _moa -> s(s(z))  ;  _noa -> s(z)  ;  _ooa -> s(z)  ;  k -> z  ;  m -> s(s(z))  ;  n -> s(s(s(z)))
}
minus(s(u), s(x2), _goa) <= minus(u, x2, _goa) -> Yes: {
_goa -> z  ;  u -> s(s(z))  ;  x2 -> s(x2_0)
}



-------------------------------------------
Step 17, which took 0.440556 s (model generation: 0.411960,  model checking: 0.028596):

Ground examples at the beginning of this step are:
{
minus(s(s(s(s(z)))), s(s(z)), s(s(z))) <= True
minus(s(s(s(z))), s(s(z)), s(z)) <= True
minus(s(s(s(z))), s(z), s(s(z))) <= True
minus(s(s(s(z))), z, s(s(s(z)))) <= True
minus(s(s(z)), s(s(z)), z) <= True
minus(s(s(z)), s(z), s(z)) <= True
minus(s(s(z)), z, s(s(z))) <= True
minus(s(z), s(s(z)), z) <= True
minus(s(z), s(z), z) <= True
minus(s(z), z, s(z)) <= True
minus(z, s(s(z)), z) <= True
minus(z, s(z), z) <= True
minus(z, z, z) <= True
False <= minus(s(s(s(s(z)))), s(s(z)), z)
False <= minus(s(s(s(z))), s(s(s(z))), s(s(z))) /\ minus(s(s(z)), s(s(s(z))), s(z)) /\ minus(s(s(z)), s(z), z)
False <= minus(s(s(s(z))), s(s(s(z))), z) /\ minus(s(s(z)), s(s(s(z))), s(z))
False <= minus(s(s(s(z))), s(s(z)), s(s(z)))
False <= minus(s(s(s(z))), s(s(z)), z) /\ minus(s(s(z)), s(s(z)), s(s(z)))
False <= minus(s(s(s(z))), s(s(z)), z) /\ minus(s(s(z)), s(s(z)), s(z))
minus(s(s(s(s(z)))), s(s(z)), s(s(s(s(s(z)))))) <= minus(s(s(s(z))), s(z), s(s(s(s(s(z))))))
False <= minus(s(s(s(z))), s(z), z)
minus(s(s(s(z))), s(s(s(z))), s(z)) <= minus(s(s(z)), s(s(z)), s(z))
False <= minus(s(s(z)), s(z), s(s(z)))
minus(s(s(s(z))), s(s(z)), z) <= minus(s(s(z)), s(z), z)
minus(s(s(s(z))), s(z), s(s(s(z)))) <= minus(s(s(z)), z, s(s(s(z))))
False <= minus(s(s(z)), z, s(z))
False <= minus(s(s(z)), z, z)
False <= minus(s(z), s(z), s(s(z)))
False <= minus(s(z), s(z), s(z))
False <= minus(s(z), z, s(s(z)))
}

Learner proposed model:
Found Model:
|_

_r_1 ->
{
  _r_1(s(x_0_0), s(x_1_0)) <= _r_1(x_0_0, x_1_0)
  _r_1(s(x_0_0), s(x_1_0)) <= _r_3(x_1_0)
  _r_1(s(x_0_0), z) <= _r_3(x_0_0)
}
;
_r_2 ->
{
  _r_2(z) <= True
}
;
_r_3 ->
{
  _r_3(s(x_0_0)) <= _r_2(x_0_0)
}
;
minus ->
{
  minus(s(x_0_0), s(x_1_0), s(x_2_0)) <= _r_1(x_0_0, x_1_0)
  minus(s(x_0_0), s(x_1_0), s(x_2_0)) <= _r_1(x_0_0, x_2_0)
  minus(s(x_0_0), s(x_1_0), s(x_2_0)) <= _r_2(x_2_0) /\ _r_3(x_0_0)
  minus(s(x_0_0), s(x_1_0), z) <= _r_2(x_0_0)
  minus(s(x_0_0), s(x_1_0), z) <= _r_3(x_0_0) /\ _r_3(x_1_0)
  minus(s(x_0_0), z, s(x_2_0)) <= _r_1(x_0_0, x_2_0)
  minus(s(x_0_0), z, s(x_2_0)) <= _r_2(x_0_0) /\ _r_2(x_2_0)
  minus(s(x_0_0), z, s(x_2_0)) <= _r_3(x_0_0) /\ _r_3(x_2_0)
  minus(z, s(x_1_0), z) <= True
  minus(z, z, z) <= True
}

--
Equality automata are defined for: {nat}
_|


Answer of teacher:


minus(s(u), z, s(u)) <= True -> No: ()
minus(z, y, z) <= True -> No: ()
eq_nat(_loa, _noa) <= minus(_moa, s(k), _loa) /\ minus(_ooa, k, _noa) /\ minus(m, n, _ooa) /\ minus(s(m), n, _moa) -> Yes: {
_loa -> z  ;  _moa -> s(z)  ;  _noa -> s(z)  ;  _ooa -> s(z)  ;  k -> z  ;  m -> s(s(z))  ;  n -> s(s(s(z)))
}
minus(s(u), s(x2), _goa) <= minus(u, x2, _goa) -> Yes: {
_goa -> z  ;  u -> s(z)  ;  x2 -> s(s(v0_0))
}



-------------------------------------------
Step 18, which took 0.435212 s (model generation: 0.397483,  model checking: 0.037729):

Ground examples at the beginning of this step are:
{
minus(s(s(s(s(z)))), s(s(z)), s(s(z))) <= True
minus(s(s(s(z))), s(s(z)), s(z)) <= True
minus(s(s(s(z))), s(z), s(s(z))) <= True
minus(s(s(s(z))), z, s(s(s(z)))) <= True
minus(s(s(z)), s(s(s(z))), z) <= True
minus(s(s(z)), s(s(z)), z) <= True
minus(s(s(z)), s(z), s(z)) <= True
minus(s(s(z)), z, s(s(z))) <= True
minus(s(z), s(s(z)), z) <= True
minus(s(z), s(z), z) <= True
minus(s(z), z, s(z)) <= True
minus(z, s(s(z)), z) <= True
minus(z, s(z), z) <= True
minus(z, z, z) <= True
False <= minus(s(s(s(s(z)))), s(s(z)), z)
False <= minus(s(s(s(z))), s(s(s(z))), s(s(z))) /\ minus(s(s(z)), s(s(s(z))), s(z)) /\ minus(s(s(z)), s(z), z)
False <= minus(s(s(s(z))), s(s(s(z))), s(z)) /\ minus(s(s(z)), s(s(s(z))), s(z))
False <= minus(s(s(s(z))), s(s(s(z))), z) /\ minus(s(s(z)), s(s(s(z))), s(z))
False <= minus(s(s(s(z))), s(s(z)), s(s(z)))
False <= minus(s(s(s(z))), s(s(z)), z) /\ minus(s(s(z)), s(s(z)), s(s(z)))
False <= minus(s(s(s(z))), s(s(z)), z) /\ minus(s(s(z)), s(s(z)), s(z))
minus(s(s(s(s(z)))), s(s(z)), s(s(s(s(s(z)))))) <= minus(s(s(s(z))), s(z), s(s(s(s(s(z))))))
False <= minus(s(s(s(z))), s(z), z)
minus(s(s(s(z))), s(s(s(z))), s(z)) <= minus(s(s(z)), s(s(z)), s(z))
False <= minus(s(s(z)), s(z), s(s(z)))
minus(s(s(s(z))), s(s(z)), z) <= minus(s(s(z)), s(z), z)
minus(s(s(s(z))), s(z), s(s(s(z)))) <= minus(s(s(z)), z, s(s(s(z))))
False <= minus(s(s(z)), z, s(z))
False <= minus(s(s(z)), z, z)
False <= minus(s(z), s(z), s(s(z)))
False <= minus(s(z), s(z), s(z))
False <= minus(s(z), z, s(s(z)))
}

Learner proposed model:
Found Model:
|_

_r_1 ->
{
  _r_1(s(x_0_0), s(x_1_0)) <= _r_1(x_0_0, x_1_0)
  _r_1(s(x_0_0), s(x_1_0)) <= _r_3(x_1_0)
  _r_1(s(x_0_0), z) <= _r_3(x_0_0)
}
;
_r_2 ->
{
  _r_2(z) <= True
}
;
_r_3 ->
{
  _r_3(s(x_0_0)) <= _r_2(x_0_0)
}
;
minus ->
{
  minus(s(x_0_0), s(x_1_0), s(x_2_0)) <= _r_1(x_0_0, x_1_0) /\ _r_3(x_2_0)
  minus(s(x_0_0), s(x_1_0), s(x_2_0)) <= _r_1(x_0_0, x_2_0)
  minus(s(x_0_0), s(x_1_0), s(x_2_0)) <= _r_2(x_1_0) /\ _r_2(x_2_0) /\ _r_3(x_0_0)
  minus(s(x_0_0), s(x_1_0), z) <= _r_1(x_0_0, x_1_0) /\ _r_3(x_0_0)
  minus(s(x_0_0), s(x_1_0), z) <= _r_2(x_0_0)
  minus(s(x_0_0), s(x_1_0), z) <= _r_3(x_0_0) /\ _r_3(x_1_0)
  minus(s(x_0_0), z, s(x_2_0)) <= _r_1(x_0_0, x_2_0)
  minus(s(x_0_0), z, s(x_2_0)) <= _r_2(x_0_0) /\ _r_2(x_2_0)
  minus(s(x_0_0), z, s(x_2_0)) <= _r_3(x_0_0) /\ _r_3(x_2_0)
  minus(z, s(x_1_0), z) <= True
  minus(z, z, z) <= True
}

--
Equality automata are defined for: {nat}
_|


Answer of teacher:


minus(s(u), z, s(u)) <= True -> No: ()
minus(z, y, z) <= True -> No: ()
eq_nat(_loa, _noa) <= minus(_moa, s(k), _loa) /\ minus(_ooa, k, _noa) /\ minus(m, n, _ooa) /\ minus(s(m), n, _moa) -> Yes: {
_loa -> s(s(s(z)))  ;  _moa -> s(s(z))  ;  _noa -> z  ;  _ooa -> s(z)  ;  k -> s(k_0)  ;  m -> s(z)  ;  n -> z
}
minus(s(u), s(x2), _goa) <= minus(u, x2, _goa) -> Yes: {
_goa -> z  ;  u -> s(s(z))  ;  x2 -> s(s(z))
}



-------------------------------------------
Step 19, which took 36.065387 s (model generation: 36.043580,  model checking: 0.021807):

Ground examples at the beginning of this step are:
{
minus(s(s(s(s(z)))), s(s(z)), s(s(z))) <= True
minus(s(s(s(z))), s(s(s(z))), z) <= True
minus(s(s(s(z))), s(s(z)), s(z)) <= True
minus(s(s(s(z))), s(z), s(s(z))) <= True
minus(s(s(s(z))), z, s(s(s(z)))) <= True
minus(s(s(z)), s(s(s(z))), z) <= True
minus(s(s(z)), s(s(z)), z) <= True
minus(s(s(z)), s(z), s(z)) <= True
minus(s(s(z)), z, s(s(z))) <= True
minus(s(z), s(s(z)), z) <= True
minus(s(z), s(z), z) <= True
minus(s(z), z, s(z)) <= True
minus(z, s(s(z)), z) <= True
minus(z, s(z), z) <= True
minus(z, z, z) <= True
False <= minus(s(s(s(s(z)))), s(s(z)), z)
False <= minus(s(s(s(z))), s(s(z)), s(s(z)))
False <= minus(s(s(s(z))), s(s(z)), z) /\ minus(s(s(z)), s(s(z)), s(s(z)))
False <= minus(s(s(s(z))), s(s(z)), z) /\ minus(s(s(z)), s(s(z)), s(z))
minus(s(s(s(s(z)))), s(s(z)), s(s(s(s(s(z)))))) <= minus(s(s(s(z))), s(z), s(s(s(s(s(z))))))
False <= minus(s(s(s(z))), s(z), z)
False <= minus(s(s(z)), s(s(s(z))), s(z))
False <= minus(s(s(z)), s(s(z)), s(s(s(z))))
minus(s(s(s(z))), s(s(s(z))), s(z)) <= minus(s(s(z)), s(s(z)), s(z))
False <= minus(s(s(z)), s(z), s(s(z)))
minus(s(s(s(z))), s(s(z)), z) <= minus(s(s(z)), s(z), z)
minus(s(s(s(z))), s(z), s(s(s(z)))) <= minus(s(s(z)), z, s(s(s(z))))
False <= minus(s(s(z)), z, s(z))
False <= minus(s(s(z)), z, z)
False <= minus(s(z), s(z), s(s(z)))
False <= minus(s(z), s(z), s(z))
False <= minus(s(z), z, s(s(z)))
}

Learner proposed model:
Found Model:
|_

_r_1 ->
{
  _r_1(z, z) <= True
}
;
_r_2 ->
{
  _r_2(s(x_0_0), s(x_1_0)) <= _r_2(x_0_0, x_1_0)
  _r_2(s(x_0_0), z) <= _r_4(x_0_0)
}
;
_r_3 ->
{
  _r_3(s(x_0_0), s(x_1_0)) <= _r_3(x_0_0, x_1_0)
  _r_3(z, s(x_1_0)) <= True
  _r_3(z, z) <= True
}
;
_r_4 ->
{
  _r_4(s(x_0_0)) <= True
}
;
minus ->
{
  minus(s(x_0_0), s(x_1_0), s(x_2_0)) <= _r_1(x_1_0, x_2_0) /\ _r_4(x_0_0)
  minus(s(x_0_0), s(x_1_0), s(x_2_0)) <= _r_2(x_0_0, x_1_0)
  minus(s(x_0_0), s(x_1_0), s(x_2_0)) <= _r_2(x_0_0, x_2_0)
  minus(s(x_0_0), s(x_1_0), z) <= _r_3(x_0_0, x_1_0)
  minus(s(x_0_0), z, s(x_2_0)) <= _r_1(x_0_0, x_2_0)
  minus(s(x_0_0), z, s(x_2_0)) <= _r_3(x_0_0, x_2_0) /\ _r_4(x_0_0)
  minus(z, s(x_1_0), z) <= True
  minus(z, z, z) <= True
}

--
Equality automata are defined for: {nat}
_|


Answer of teacher:


minus(s(u), z, s(u)) <= True -> No: ()
minus(z, y, z) <= True -> No: ()
eq_nat(_loa, _noa) <= minus(_moa, s(k), _loa) /\ minus(_ooa, k, _noa) /\ minus(m, n, _ooa) /\ minus(s(m), n, _moa) -> Yes: {
_loa -> z  ;  _moa -> s(z)  ;  _noa -> s(_noa_0)  ;  _ooa -> s(s(s(v0_0)))  ;  k -> s(z)  ;  m -> s(s(s(v0_0)))  ;  n -> s(z)
}
minus(s(u), s(x2), _goa) <= minus(u, x2, _goa) -> No: ()



-------------------------------------------
Step 20, which took 1.036002 s (model generation: 1.035987,  model checking: 0.000015):

Ground examples at the beginning of this step are:
{
minus(s(s(s(s(z)))), s(s(z)), s(s(z))) <= True
minus(s(s(s(z))), s(s(s(z))), z) <= True
minus(s(s(s(z))), s(s(z)), s(z)) <= True
minus(s(s(s(z))), s(z), s(s(z))) <= True
minus(s(s(s(z))), z, s(s(s(z)))) <= True
minus(s(s(z)), s(s(s(z))), z) <= True
minus(s(s(z)), s(s(z)), z) <= True
minus(s(s(z)), s(z), s(z)) <= True
minus(s(s(z)), z, s(s(z))) <= True
minus(s(z), s(s(z)), z) <= True
minus(s(z), s(z), z) <= True
minus(s(z), z, s(z)) <= True
minus(z, s(s(z)), z) <= True
minus(z, s(z), z) <= True
minus(z, z, z) <= True
False <= minus(s(s(s(s(z)))), s(s(z)), z)
False <= minus(s(s(s(s(z)))), s(z), s(z)) /\ minus(s(s(s(z))), s(z), s(s(s(z)))) /\ minus(s(s(s(z))), s(z), s(z))
False <= minus(s(s(s(z))), s(s(z)), s(s(z)))
False <= minus(s(s(s(z))), s(s(z)), z) /\ minus(s(s(z)), s(s(z)), s(s(z)))
False <= minus(s(s(s(z))), s(s(z)), z) /\ minus(s(s(z)), s(s(z)), s(z))
minus(s(s(s(s(z)))), s(s(z)), s(s(s(s(s(z)))))) <= minus(s(s(s(z))), s(z), s(s(s(s(s(z))))))
False <= minus(s(s(s(z))), s(z), z)
False <= minus(s(s(z)), s(s(s(z))), s(z))
False <= minus(s(s(z)), s(s(z)), s(s(s(z))))
minus(s(s(s(z))), s(s(s(z))), s(z)) <= minus(s(s(z)), s(s(z)), s(z))
False <= minus(s(s(z)), s(z), s(s(z)))
minus(s(s(s(z))), s(s(z)), z) <= minus(s(s(z)), s(z), z)
minus(s(s(s(z))), s(z), s(s(s(z)))) <= minus(s(s(z)), z, s(s(s(z))))
False <= minus(s(s(z)), z, s(z))
False <= minus(s(s(z)), z, z)
False <= minus(s(z), s(z), s(s(z)))
False <= minus(s(z), s(z), s(z))
False <= minus(s(z), z, s(s(z)))
}

Learner proposed model:
Found Model:
|_

_r_1 ->
{
  _r_1(s(x_0_0), s(x_1_0), s(x_2_0)) <= _r_1(x_0_0, x_1_0, x_2_0)
  _r_1(s(x_0_0), s(x_1_0), z) <= _r_4(x_0_0)
  _r_1(s(x_0_0), z, s(x_2_0)) <= _r_4(x_0_0)
  _r_1(s(x_0_0), z, z) <= _r_4(x_0_0)
}
;
_r_2 ->
{
  _r_2(z) <= True
}
;
_r_3 ->
{
  _r_3(s(x_0_0)) <= _r_2(x_0_0)
  _r_3(z) <= True
}
;
_r_4 ->
{
  _r_4(s(x_0_0)) <= _r_3(x_0_0)
}
;
minus ->
{
  minus(s(x_0_0), s(x_1_0), s(x_2_0)) <= _r_1(x_0_0, x_1_0, x_2_0) /\ _r_4(x_0_0)
  minus(s(x_0_0), s(x_1_0), s(x_2_0)) <= _r_1(x_0_0, x_1_0, x_2_0) /\ _r_4(x_1_0)
  minus(s(x_0_0), s(x_1_0), s(x_2_0)) <= _r_2(x_1_0) /\ _r_2(x_2_0) /\ _r_4(x_0_0)
  minus(s(x_0_0), s(x_1_0), z) <= _r_3(x_0_0)
  minus(s(x_0_0), s(x_1_0), z) <= _r_4(x_0_0) /\ _r_4(x_1_0)
  minus(s(x_0_0), z, s(x_2_0)) <= _r_2(x_0_0) /\ _r_2(x_2_0)
  minus(s(x_0_0), z, s(x_2_0)) <= _r_4(x_0_0) /\ _r_4(x_2_0)
  minus(z, s(x_1_0), z) <= True
  minus(z, z, z) <= True
}

--
Equality automata are defined for: {nat}
_|


Answer of teacher:


minus(s(u), z, s(u)) <= True -> Maybe: out of time
minus(z, y, z) <= True -> Maybe: out of time
eq_nat(_loa, _noa) <= minus(_moa, s(k), _loa) /\ minus(_ooa, k, _noa) /\ minus(m, n, _ooa) /\ minus(s(m), n, _moa) -> Maybe: out of time
minus(s(u), s(x2), _goa) <= minus(u, x2, _goa) -> Maybe: out of time




Total time: 40.276405
Learner time: 40.069668
Teacher time: 0.205692
Reasons for stopping: Maybe:  other: Some clauses could not be checked:
{
{minus([s(u), z, s(u)])} -> out of time
{minus([z, y, z])} -> out of time
{eq_nat([_loa, _noa]), ~minus([_moa, s(k), _loa]), ~minus([_ooa, k, _noa]), ~minus([m, n, _ooa]), ~minus([s(m), n, _moa])} -> out of time
{minus([s(u), s(x2), _goa]), ~minus([u, x2, _goa])} -> out of time
}

Last solver state:

Clauses:
{
minus(s(u), z, s(u)) <= True
minus(z, y, z) <= True
eq_nat(_loa, _noa) <= minus(_moa, s(k), _loa) /\ minus(_ooa, k, _noa) /\ minus(m, n, _ooa) /\ minus(s(m), n, _moa)
minus(s(u), s(x2), _goa) <= minus(u, x2, _goa)
}

Accumulated learning constraints:
{
minus(s(s(s(s(z)))), s(s(z)), s(s(z))) <= True
minus(s(s(s(z))), s(s(s(z))), z) <= True
minus(s(s(s(z))), s(s(z)), s(z)) <= True
minus(s(s(s(z))), s(z), s(s(z))) <= True
minus(s(s(s(z))), z, s(s(s(z)))) <= True
minus(s(s(z)), s(s(s(z))), z) <= True
minus(s(s(z)), s(s(z)), z) <= True
minus(s(s(z)), s(z), s(z)) <= True
minus(s(s(z)), z, s(s(z))) <= True
minus(s(z), s(s(z)), z) <= True
minus(s(z), s(z), z) <= True
minus(s(z), z, s(z)) <= True
minus(z, s(s(z)), z) <= True
minus(z, s(z), z) <= True
minus(z, z, z) <= True
False <= minus(s(s(s(s(z)))), s(s(z)), z)
False <= minus(s(s(s(s(z)))), s(z), s(z)) /\ minus(s(s(s(z))), s(z), s(s(s(z)))) /\ minus(s(s(s(z))), s(z), s(z))
False <= minus(s(s(s(z))), s(s(z)), s(s(z)))
False <= minus(s(s(s(z))), s(s(z)), z) /\ minus(s(s(z)), s(s(z)), s(s(z)))
False <= minus(s(s(s(z))), s(s(z)), z) /\ minus(s(s(z)), s(s(z)), s(z))
minus(s(s(s(s(z)))), s(s(z)), s(s(s(s(s(z)))))) <= minus(s(s(s(z))), s(z), s(s(s(s(s(z))))))
False <= minus(s(s(s(z))), s(z), z)
False <= minus(s(s(z)), s(s(s(z))), s(z))
False <= minus(s(s(z)), s(s(z)), s(s(s(z))))
minus(s(s(s(z))), s(s(s(z))), s(z)) <= minus(s(s(z)), s(s(z)), s(z))
False <= minus(s(s(z)), s(z), s(s(z)))
minus(s(s(s(z))), s(s(z)), z) <= minus(s(s(z)), s(z), z)
minus(s(s(s(z))), s(z), s(s(s(z)))) <= minus(s(s(z)), z, s(s(s(z))))
False <= minus(s(s(z)), z, s(z))
False <= minus(s(s(z)), z, z)
False <= minus(s(z), s(z), s(s(z)))
False <= minus(s(z), s(z), s(z))
False <= minus(s(z), z, s(s(z)))
}

Current best model:
|_

_r_1 ->
{
  _r_1(s(x_0_0), s(x_1_0), s(x_2_0)) <= _r_1(x_0_0, x_1_0, x_2_0)
  _r_1(s(x_0_0), s(x_1_0), z) <= _r_4(x_0_0)
  _r_1(s(x_0_0), z, s(x_2_0)) <= _r_4(x_0_0)
  _r_1(s(x_0_0), z, z) <= _r_4(x_0_0)
}
;
_r_2 ->
{
  _r_2(z) <= True
}
;
_r_3 ->
{
  _r_3(s(x_0_0)) <= _r_2(x_0_0)
  _r_3(z) <= True
}
;
_r_4 ->
{
  _r_4(s(x_0_0)) <= _r_3(x_0_0)
}
;
minus ->
{
  minus(s(x_0_0), s(x_1_0), s(x_2_0)) <= _r_1(x_0_0, x_1_0, x_2_0) /\ _r_4(x_0_0)
  minus(s(x_0_0), s(x_1_0), s(x_2_0)) <= _r_1(x_0_0, x_1_0, x_2_0) /\ _r_4(x_1_0)
  minus(s(x_0_0), s(x_1_0), s(x_2_0)) <= _r_2(x_1_0) /\ _r_2(x_2_0) /\ _r_4(x_0_0)
  minus(s(x_0_0), s(x_1_0), z) <= _r_3(x_0_0)
  minus(s(x_0_0), s(x_1_0), z) <= _r_4(x_0_0) /\ _r_4(x_1_0)
  minus(s(x_0_0), z, s(x_2_0)) <= _r_2(x_0_0) /\ _r_2(x_2_0)
  minus(s(x_0_0), z, s(x_2_0)) <= _r_4(x_0_0) /\ _r_4(x_2_0)
  minus(z, s(x_1_0), z) <= True
  minus(z, z, z) <= True
}

--
Equality automata are defined for: {nat}
_|








