Solving ../../../../benchmarks/smtlib/true/isaplanner_prop19.smt2...

Inference procedure has parameters:
Timeout: Some(40.) (sec)
Approximation method: remove functionnality constraint where possible



Learning problem is:

env: {
elt -> {a, b}  ;  eltlist -> {cons, nil}  ;  nat -> {s, z}
}
definition:
{
(drop, F:
{
drop(s(u), nil, nil) <= True
drop(z, l, l) <= True
drop(s(u), cons(x2, x3), _dya) <= drop(u, x3, _dya)
}
eq_eltlist(_gya, _hya) <= drop(_eya, _fya, _gya) /\ drop(_eya, _fya, _hya)
)
(length, F:
{
length(nil, z) <= True
length(cons(x, ll), s(_iya)) <= length(ll, _iya)
}
eq_nat(_kya, _lya) <= length(_jya, _kya) /\ length(_jya, _lya)
)
(minus, F:
{
minus(s(u), z, s(u)) <= True
minus(z, y, z) <= True
minus(s(u), s(x2), _mya) <= minus(u, x2, _mya)
}
eq_nat(_pya, _qya) <= minus(_nya, _oya, _pya) /\ minus(_nya, _oya, _qya)
)
}

properties:
{
eq_nat(_rya, _tya) <= drop(n, l1, _sya) /\ length(_sya, _rya) /\ length(l1, _uya) /\ minus(_uya, n, _tya)
}


over-approximation: {drop, length, minus}
under-approximation: {}

Clause system for inference is:

{
drop(s(u), nil, nil) <= True
drop(z, l, l) <= True
length(nil, z) <= True
minus(s(u), z, s(u)) <= True
minus(z, y, z) <= True
eq_nat(_rya, _tya) <= drop(n, l1, _sya) /\ length(_sya, _rya) /\ length(l1, _uya) /\ minus(_uya, n, _tya)
drop(s(u), cons(x2, x3), _dya) <= drop(u, x3, _dya)
length(cons(x, ll), s(_iya)) <= length(ll, _iya)
minus(s(u), s(x2), _mya) <= minus(u, x2, _mya)
}


Solving took 40.034535 seconds.
Maybe:  other: Some clauses could not be checked:
{
{drop([s(u), nil, nil])} -> out of time
{drop([z, l, l])} -> out of time
{length([nil, z])} -> out of time
{minus([s(u), z, s(u)])} -> out of time
{minus([z, y, z])} -> out of time
{eq_nat([_rya, _tya]), ~drop([n, l1, _sya]), ~length([_sya, _rya]), ~length([l1, _uya]), ~minus([_uya, n, _tya])} -> out of time
{drop([s(u), cons(x2, x3), _dya]), ~drop([u, x3, _dya])} -> out of time
{length([cons(x, ll), s(_iya)]), ~length([ll, _iya])} -> out of time
{minus([s(u), s(x2), _mya]), ~minus([u, x2, _mya])} -> out of time
}

Last solver state:

Clauses:
{
drop(s(u), nil, nil) <= True
drop(z, l, l) <= True
length(nil, z) <= True
minus(s(u), z, s(u)) <= True
minus(z, y, z) <= True
eq_nat(_rya, _tya) <= drop(n, l1, _sya) /\ length(_sya, _rya) /\ length(l1, _uya) /\ minus(_uya, n, _tya)
drop(s(u), cons(x2, x3), _dya) <= drop(u, x3, _dya)
length(cons(x, ll), s(_iya)) <= length(ll, _iya)
minus(s(u), s(x2), _mya) <= minus(u, x2, _mya)
}

Accumulated learning constraints:
{
drop(s(s(z)), cons(a, cons(a, cons(a, nil))), cons(a, nil)) <= True
drop(s(s(z)), cons(a, cons(a, nil)), nil) <= True
drop(s(s(z)), cons(a, nil), nil) <= True
drop(s(z), cons(a, cons(a, cons(a, nil))), cons(a, cons(a, nil))) <= True
drop(s(z), cons(a, cons(a, nil)), cons(a, nil)) <= True
drop(s(z), cons(a, nil), nil) <= True
drop(s(z), nil, nil) <= True
drop(z, cons(a, cons(a, cons(a, nil))), cons(a, cons(a, cons(a, nil)))) <= True
drop(z, cons(a, cons(a, nil)), cons(a, cons(a, nil))) <= True
drop(z, cons(a, nil), cons(a, nil)) <= True
drop(z, nil, nil) <= True
length(cons(a, cons(a, cons(a, nil))), s(s(s(z)))) <= True
length(cons(a, cons(a, nil)), s(s(z))) <= True
length(cons(a, nil), s(z)) <= True
length(nil, z) <= True
minus(s(s(s(s(z)))), s(s(z)), s(s(z))) <= True
minus(s(s(s(z))), s(s(z)), s(z)) <= True
minus(s(s(s(z))), s(z), s(s(z))) <= True
minus(s(s(s(z))), z, s(s(s(z)))) <= True
minus(s(s(z)), s(s(s(z))), z) <= True
minus(s(s(z)), s(s(z)), z) <= True
minus(s(s(z)), s(z), s(z)) <= True
minus(s(s(z)), z, s(s(z))) <= True
minus(s(z), s(s(z)), z) <= True
minus(s(z), s(z), z) <= True
minus(s(z), z, s(z)) <= True
minus(z, s(z), z) <= True
minus(z, z, z) <= True
False <= drop(s(s(s(z))), cons(a, cons(a, nil)), nil) /\ minus(s(s(z)), s(s(s(z))), s(z))
False <= drop(s(s(z)), cons(a, cons(a, cons(a, nil))), nil) /\ minus(s(s(s(z))), s(s(z)), s(s(z)))
False <= drop(s(s(z)), cons(a, cons(a, nil)), cons(a, nil))
False <= drop(s(s(z)), cons(a, nil), cons(a, nil))
False <= drop(s(z), cons(a, cons(a, cons(a, nil))), cons(a, nil))
False <= drop(s(z), cons(a, cons(a, nil)), nil)
False <= drop(s(z), cons(a, nil), cons(a, nil))
False <= drop(z, cons(a, cons(a, nil)), cons(a, nil))
False <= length(cons(a, cons(a, nil)), s(z))
False <= length(cons(a, nil), s(s(z)))
False <= minus(s(s(s(z))), s(s(z)), z)
False <= minus(s(s(z)), s(s(z)), s(s(z)))
False <= minus(s(s(z)), s(s(z)), s(z))
False <= minus(s(s(z)), s(z), s(s(z)))
False <= minus(s(s(z)), s(z), z)
minus(s(s(s(z))), s(z), s(s(s(z)))) <= minus(s(s(z)), z, s(s(s(z))))
False <= minus(s(z), s(s(z)), s(z))
False <= minus(s(z), s(z), s(s(z)))
False <= minus(s(z), s(z), s(z))
False <= minus(s(z), z, s(s(z)))
}

Current best model:
|_

_r_1 ->
{
  _r_1(s(x_0_0), s(x_1_0)) <= _r_5(x_0_0)
  _r_1(s(x_0_0), z) <= True
  _r_1(z, z) <= True
}
;
_r_2 ->
{
  _r_2(s(x_0_0), s(x_1_0)) <= _r_2(x_0_0, x_1_0)
  _r_2(s(x_0_0), z) <= _r_5(x_0_0)
  _r_2(z, s(x_1_0)) <= True
  _r_2(z, z) <= True
}
;
_r_3 ->
{
  _r_3(s(x_0_0), cons(x_1_0, x_1_1)) <= _r_3(x_0_0, x_1_1)
  _r_3(z, cons(x_1_0, x_1_1)) <= _r_6(x_1_1)
}
;
_r_4 ->
{
  _r_4(a, cons(x_1_0, x_1_1)) <= True
}
;
_r_5 ->
{
  _r_5(s(x_0_0)) <= True
}
;
_r_6 ->
{
  _r_6(nil) <= True
}
;
drop ->
{
  drop(s(x_0_0), cons(x_1_0, x_1_1), cons(x_2_0, x_2_1)) <= _r_3(x_0_0, x_1_1)
  drop(s(x_0_0), cons(x_1_0, x_1_1), cons(x_2_0, x_2_1)) <= _r_4(x_1_0, x_2_1)
  drop(s(x_0_0), cons(x_1_0, x_1_1), nil) <= _r_5(x_0_0)
  drop(s(x_0_0), cons(x_1_0, x_1_1), nil) <= _r_6(x_1_1)
  drop(s(x_0_0), nil, nil) <= True
  drop(z, cons(x_1_0, x_1_1), cons(x_2_0, x_2_1)) <= _r_4(x_1_0, x_2_1)
  drop(z, cons(x_1_0, x_1_1), cons(x_2_0, x_2_1)) <= _r_6(x_1_1)
  drop(z, nil, nil) <= True
}
;
length ->
{
  length(cons(x_0_0, x_0_1), s(x_1_0)) <= length(x_0_1, x_1_0)
  length(nil, z) <= True
}
;
minus ->
{
  minus(s(x_0_0), s(x_1_0), s(x_2_0)) <= _r_1(x_0_0, x_1_0) /\ _r_1(x_1_0, x_2_0) /\ _r_5(x_0_0)
  minus(s(x_0_0), s(x_1_0), s(x_2_0)) <= _r_1(x_0_0, x_2_0) /\ _r_2(x_0_0, x_1_0) /\ _r_5(x_2_0)
  minus(s(x_0_0), s(x_1_0), z) <= _r_2(x_0_0, x_1_0)
  minus(s(x_0_0), z, s(x_2_0)) <= _r_1(x_0_0, x_2_0)
  minus(s(x_0_0), z, s(x_2_0)) <= _r_5(x_0_0)
  minus(z, s(x_1_0), z) <= True
  minus(z, z, z) <= True
}

--
Equality automata are defined for: {elt, eltlist, nat}
_|






-------------------
STEPS:
-------------------------------------------
Step 0, which took 0.005779 s (model generation: 0.005699,  model checking: 0.000080):

Ground examples at the beginning of this step are:
{

}

Learner proposed model:
Found Model:
|_

drop ->
{
  
}
;
length ->
{
  
}
;
minus ->
{
  
}

--
Equality automata are defined for: {elt, eltlist, nat}
_|


Answer of teacher:


drop(s(u), nil, nil) <= True -> Yes: {

}
drop(z, l, l) <= True -> Yes: {
l -> nil
}
length(nil, z) <= True -> Yes: {

}
minus(s(u), z, s(u)) <= True -> Yes: {

}
minus(z, y, z) <= True -> Yes: {
y -> z
}
eq_nat(_rya, _tya) <= drop(n, l1, _sya) /\ length(_sya, _rya) /\ length(l1, _uya) /\ minus(_uya, n, _tya) -> No: ()
drop(s(u), cons(x2, x3), _dya) <= drop(u, x3, _dya) -> No: ()
length(cons(x, ll), s(_iya)) <= length(ll, _iya) -> No: ()
minus(s(u), s(x2), _mya) <= minus(u, x2, _mya) -> No: ()



-------------------------------------------
Step 1, which took 0.008162 s (model generation: 0.008024,  model checking: 0.000138):

Ground examples at the beginning of this step are:
{
drop(s(z), nil, nil) <= True
drop(z, nil, nil) <= True
length(nil, z) <= True
minus(s(z), z, s(z)) <= True
minus(z, z, z) <= True
}

Learner proposed model:
Found Model:
|_

drop ->
{
  drop(s(x_0_0), nil, nil) <= True
  drop(z, nil, nil) <= True
}
;
length ->
{
  length(nil, z) <= True
}
;
minus ->
{
  minus(s(x_0_0), z, s(x_2_0)) <= True
  minus(z, z, z) <= True
}

--
Equality automata are defined for: {elt, eltlist, nat}
_|


Answer of teacher:


drop(s(u), nil, nil) <= True -> No: ()
drop(z, l, l) <= True -> Yes: {
l -> cons(l_0, l_1)
}
length(nil, z) <= True -> No: ()
minus(s(u), z, s(u)) <= True -> No: ()
minus(z, y, z) <= True -> Yes: {
y -> s(y_0)
}
eq_nat(_rya, _tya) <= drop(n, l1, _sya) /\ length(_sya, _rya) /\ length(l1, _uya) /\ minus(_uya, n, _tya) -> No: ()
drop(s(u), cons(x2, x3), _dya) <= drop(u, x3, _dya) -> Yes: {
_dya -> nil  ;  u -> z  ;  x3 -> nil
}
length(cons(x, ll), s(_iya)) <= length(ll, _iya) -> Yes: {
_iya -> z  ;  ll -> nil
}
minus(s(u), s(x2), _mya) <= minus(u, x2, _mya) -> Yes: {
_mya -> z  ;  u -> z  ;  x2 -> z
}



-------------------------------------------
Step 2, which took 0.016760 s (model generation: 0.016589,  model checking: 0.000171):

Ground examples at the beginning of this step are:
{
drop(s(z), cons(a, nil), nil) <= True
drop(s(z), nil, nil) <= True
drop(z, cons(a, nil), cons(a, nil)) <= True
drop(z, nil, nil) <= True
length(cons(a, nil), s(z)) <= True
length(nil, z) <= True
minus(s(z), s(z), z) <= True
minus(s(z), z, s(z)) <= True
minus(z, s(z), z) <= True
minus(z, z, z) <= True
}

Learner proposed model:
Found Model:
|_

drop ->
{
  drop(s(x_0_0), cons(x_1_0, x_1_1), nil) <= True
  drop(s(x_0_0), nil, nil) <= True
  drop(z, cons(x_1_0, x_1_1), cons(x_2_0, x_2_1)) <= True
  drop(z, nil, nil) <= True
}
;
length ->
{
  length(cons(x_0_0, x_0_1), s(x_1_0)) <= True
  length(nil, z) <= True
}
;
minus ->
{
  minus(s(x_0_0), s(x_1_0), z) <= True
  minus(s(x_0_0), z, s(x_2_0)) <= True
  minus(z, s(x_1_0), z) <= True
  minus(z, z, z) <= True
}

--
Equality automata are defined for: {elt, eltlist, nat}
_|


Answer of teacher:


drop(s(u), nil, nil) <= True -> No: ()
drop(z, l, l) <= True -> No: ()
length(nil, z) <= True -> No: ()
minus(s(u), z, s(u)) <= True -> No: ()
minus(z, y, z) <= True -> No: ()
eq_nat(_rya, _tya) <= drop(n, l1, _sya) /\ length(_sya, _rya) /\ length(l1, _uya) /\ minus(_uya, n, _tya) -> Yes: {
_rya -> s(z)  ;  _sya -> cons(_sya_0, _sya_1)  ;  _tya -> s(s(v1_0))  ;  _uya -> s(_uya_0)  ;  l1 -> cons(l1_0, l1_1)  ;  n -> z
}
drop(s(u), cons(x2, x3), _dya) <= drop(u, x3, _dya) -> Yes: {
_dya -> cons(_dya_0, _dya_1)  ;  u -> z  ;  x3 -> cons(x3_0, x3_1)
}
length(cons(x, ll), s(_iya)) <= length(ll, _iya) -> No: ()
minus(s(u), s(x2), _mya) <= minus(u, x2, _mya) -> Yes: {
_mya -> s(_mya_0)  ;  u -> s(u_0)  ;  x2 -> z
}



-------------------------------------------
Step 3, which took 0.023367 s (model generation: 0.023254,  model checking: 0.000113):

Ground examples at the beginning of this step are:
{
drop(s(z), cons(a, cons(a, nil)), cons(a, nil)) <= True
drop(s(z), cons(a, nil), nil) <= True
drop(s(z), nil, nil) <= True
drop(z, cons(a, nil), cons(a, nil)) <= True
drop(z, nil, nil) <= True
length(cons(a, nil), s(z)) <= True
length(nil, z) <= True
minus(s(s(z)), s(z), s(z)) <= True
minus(s(z), s(z), z) <= True
minus(s(z), z, s(z)) <= True
minus(z, s(z), z) <= True
minus(z, z, z) <= True
False <= minus(s(z), z, s(s(z)))
}

Learner proposed model:
Found Model:
|_

_r_1 ->
{
  _r_1(z) <= True
}
;
drop ->
{
  drop(s(x_0_0), cons(x_1_0, x_1_1), cons(x_2_0, x_2_1)) <= True
  drop(s(x_0_0), cons(x_1_0, x_1_1), nil) <= True
  drop(s(x_0_0), nil, nil) <= True
  drop(z, cons(x_1_0, x_1_1), cons(x_2_0, x_2_1)) <= True
  drop(z, nil, nil) <= True
}
;
length ->
{
  length(cons(x_0_0, x_0_1), s(x_1_0)) <= True
  length(nil, z) <= True
}
;
minus ->
{
  minus(s(x_0_0), s(x_1_0), s(x_2_0)) <= True
  minus(s(x_0_0), s(x_1_0), z) <= True
  minus(s(x_0_0), z, s(x_2_0)) <= _r_1(x_2_0)
  minus(z, s(x_1_0), z) <= True
  minus(z, z, z) <= True
}

--
Equality automata are defined for: {elt, eltlist, nat}
_|


Answer of teacher:


drop(s(u), nil, nil) <= True -> No: ()
drop(z, l, l) <= True -> No: ()
length(nil, z) <= True -> No: ()
minus(s(u), z, s(u)) <= True -> Yes: {
u -> s(v0_0)
}
minus(z, y, z) <= True -> No: ()
eq_nat(_rya, _tya) <= drop(n, l1, _sya) /\ length(_sya, _rya) /\ length(l1, _uya) /\ minus(_uya, n, _tya) -> Yes: {
_rya -> z  ;  _sya -> nil  ;  _tya -> s(_tya_0)  ;  _uya -> s(_uya_0)  ;  l1 -> cons(l1_0, l1_1)  ;  n -> s(n_0)
}
drop(s(u), cons(x2, x3), _dya) <= drop(u, x3, _dya) -> No: ()
length(cons(x, ll), s(_iya)) <= length(ll, _iya) -> No: ()
minus(s(u), s(x2), _mya) <= minus(u, x2, _mya) -> No: ()



-------------------------------------------
Step 4, which took 0.029838 s (model generation: 0.029619,  model checking: 0.000219):

Ground examples at the beginning of this step are:
{
drop(s(z), cons(a, cons(a, nil)), cons(a, nil)) <= True
drop(s(z), cons(a, nil), nil) <= True
drop(s(z), nil, nil) <= True
drop(z, cons(a, nil), cons(a, nil)) <= True
drop(z, nil, nil) <= True
length(cons(a, nil), s(z)) <= True
length(nil, z) <= True
minus(s(s(z)), s(z), s(z)) <= True
minus(s(s(z)), z, s(s(z))) <= True
minus(s(z), s(z), z) <= True
minus(s(z), z, s(z)) <= True
minus(z, s(z), z) <= True
minus(z, z, z) <= True
False <= minus(s(z), s(z), s(z))
False <= minus(s(z), z, s(s(z)))
}

Learner proposed model:
Found Model:
|_

_r_1 ->
{
  _r_1(s(x_0_0), z) <= True
}
;
_r_2 ->
{
  _r_2(s(x_0_0), s(x_1_0)) <= True
  _r_2(z, z) <= True
}
;
drop ->
{
  drop(s(x_0_0), cons(x_1_0, x_1_1), cons(x_2_0, x_2_1)) <= True
  drop(s(x_0_0), cons(x_1_0, x_1_1), nil) <= True
  drop(s(x_0_0), nil, nil) <= True
  drop(z, cons(x_1_0, x_1_1), cons(x_2_0, x_2_1)) <= True
  drop(z, nil, nil) <= True
}
;
length ->
{
  length(cons(x_0_0, x_0_1), s(x_1_0)) <= True
  length(nil, z) <= True
}
;
minus ->
{
  minus(s(x_0_0), s(x_1_0), s(x_2_0)) <= _r_1(x_0_0, x_2_0)
  minus(s(x_0_0), s(x_1_0), z) <= True
  minus(s(x_0_0), z, s(x_2_0)) <= _r_2(x_0_0, x_2_0)
  minus(z, s(x_1_0), z) <= True
  minus(z, z, z) <= True
}

--
Equality automata are defined for: {elt, eltlist, nat}
_|


Answer of teacher:


drop(s(u), nil, nil) <= True -> No: ()
drop(z, l, l) <= True -> No: ()
length(nil, z) <= True -> No: ()
minus(s(u), z, s(u)) <= True -> No: ()
minus(z, y, z) <= True -> No: ()
eq_nat(_rya, _tya) <= drop(n, l1, _sya) /\ length(_sya, _rya) /\ length(l1, _uya) /\ minus(_uya, n, _tya) -> Yes: {
_rya -> s(_rya_0)  ;  _sya -> cons(_sya_0, _sya_1)  ;  _tya -> z  ;  _uya -> s(_uya_0)  ;  l1 -> cons(l1_0, l1_1)  ;  n -> s(n_0)
}
drop(s(u), cons(x2, x3), _dya) <= drop(u, x3, _dya) -> No: ()
length(cons(x, ll), s(_iya)) <= length(ll, _iya) -> No: ()
minus(s(u), s(x2), _mya) <= minus(u, x2, _mya) -> Yes: {
_mya -> s(s(v1_0))  ;  u -> s(s(v0_0))  ;  x2 -> z
}



-------------------------------------------
Step 5, which took 0.072618 s (model generation: 0.072392,  model checking: 0.000226):

Ground examples at the beginning of this step are:
{
drop(s(z), cons(a, cons(a, nil)), cons(a, nil)) <= True
drop(s(z), cons(a, nil), nil) <= True
drop(s(z), nil, nil) <= True
drop(z, cons(a, nil), cons(a, nil)) <= True
drop(z, nil, nil) <= True
length(cons(a, nil), s(z)) <= True
length(nil, z) <= True
minus(s(s(s(z))), s(z), s(s(z))) <= True
minus(s(s(z)), s(z), s(z)) <= True
minus(s(s(z)), z, s(s(z))) <= True
minus(s(z), s(z), z) <= True
minus(s(z), z, s(z)) <= True
minus(z, s(z), z) <= True
minus(z, z, z) <= True
False <= drop(s(z), cons(a, nil), cons(a, nil))
False <= minus(s(z), s(z), s(z))
False <= minus(s(z), z, s(s(z)))
}

Learner proposed model:
Found Model:
|_

_r_1 ->
{
  _r_1(s(x_0_0), s(x_1_0)) <= True
  _r_1(s(x_0_0), z) <= True
}
;
_r_2 ->
{
  _r_2(z, z) <= True
}
;
_r_3 ->
{
  _r_3(cons(x_0_0, x_0_1)) <= True
}
;
drop ->
{
  drop(s(x_0_0), cons(x_1_0, x_1_1), cons(x_2_0, x_2_1)) <= _r_3(x_1_1)
  drop(s(x_0_0), cons(x_1_0, x_1_1), nil) <= True
  drop(s(x_0_0), nil, nil) <= True
  drop(z, cons(x_1_0, x_1_1), cons(x_2_0, x_2_1)) <= True
  drop(z, nil, nil) <= True
}
;
length ->
{
  length(cons(x_0_0, x_0_1), s(x_1_0)) <= True
  length(nil, z) <= True
}
;
minus ->
{
  minus(s(x_0_0), s(x_1_0), s(x_2_0)) <= _r_1(x_0_0, x_2_0)
  minus(s(x_0_0), s(x_1_0), z) <= True
  minus(s(x_0_0), z, s(x_2_0)) <= _r_1(x_0_0, x_2_0)
  minus(s(x_0_0), z, s(x_2_0)) <= _r_2(x_0_0, x_2_0)
  minus(z, s(x_1_0), z) <= True
  minus(z, z, z) <= True
}

--
Equality automata are defined for: {elt, eltlist, nat}
_|


Answer of teacher:


drop(s(u), nil, nil) <= True -> No: ()
drop(z, l, l) <= True -> No: ()
length(nil, z) <= True -> No: ()
minus(s(u), z, s(u)) <= True -> No: ()
minus(z, y, z) <= True -> No: ()
eq_nat(_rya, _tya) <= drop(n, l1, _sya) /\ length(_sya, _rya) /\ length(l1, _uya) /\ minus(_uya, n, _tya) -> Yes: {
_rya -> z  ;  _sya -> nil  ;  _tya -> s(z)  ;  _uya -> s(s(v0_0))  ;  l1 -> cons(l1_0, l1_1)  ;  n -> s(n_0)
}
drop(s(u), cons(x2, x3), _dya) <= drop(u, x3, _dya) -> No: ()
length(cons(x, ll), s(_iya)) <= length(ll, _iya) -> No: ()
minus(s(u), s(x2), _mya) <= minus(u, x2, _mya) -> No: ()



-------------------------------------------
Step 6, which took 0.072952 s (model generation: 0.072558,  model checking: 0.000394):

Ground examples at the beginning of this step are:
{
drop(s(z), cons(a, cons(a, nil)), cons(a, nil)) <= True
drop(s(z), cons(a, nil), nil) <= True
drop(s(z), nil, nil) <= True
drop(z, cons(a, nil), cons(a, nil)) <= True
drop(z, nil, nil) <= True
length(cons(a, nil), s(z)) <= True
length(nil, z) <= True
minus(s(s(s(z))), s(z), s(s(z))) <= True
minus(s(s(z)), s(z), s(z)) <= True
minus(s(s(z)), z, s(s(z))) <= True
minus(s(z), s(z), z) <= True
minus(s(z), z, s(z)) <= True
minus(z, s(z), z) <= True
minus(z, z, z) <= True
False <= drop(s(z), cons(a, nil), cons(a, nil))
False <= length(cons(a, nil), s(s(z)))
False <= minus(s(z), s(z), s(z))
False <= minus(s(z), z, s(s(z)))
}

Learner proposed model:
Found Model:
|_

_r_1 ->
{
  _r_1(s(x_0_0), s(x_1_0)) <= True
  _r_1(s(x_0_0), z) <= True
}
;
_r_2 ->
{
  _r_2(z, z) <= True
}
;
_r_3 ->
{
  _r_3(cons(x_0_0, x_0_1)) <= True
}
;
drop ->
{
  drop(s(x_0_0), cons(x_1_0, x_1_1), cons(x_2_0, x_2_1)) <= _r_3(x_1_1)
  drop(s(x_0_0), cons(x_1_0, x_1_1), nil) <= True
  drop(s(x_0_0), nil, nil) <= True
  drop(z, cons(x_1_0, x_1_1), cons(x_2_0, x_2_1)) <= True
  drop(z, nil, nil) <= True
}
;
length ->
{
  length(cons(x_0_0, x_0_1), s(x_1_0)) <= length(x_0_1, x_1_0)
  length(nil, z) <= True
}
;
minus ->
{
  minus(s(x_0_0), s(x_1_0), s(x_2_0)) <= _r_1(x_0_0, x_2_0)
  minus(s(x_0_0), s(x_1_0), z) <= True
  minus(s(x_0_0), z, s(x_2_0)) <= _r_1(x_0_0, x_2_0)
  minus(s(x_0_0), z, s(x_2_0)) <= _r_2(x_0_0, x_2_0)
  minus(z, s(x_1_0), z) <= True
  minus(z, z, z) <= True
}

--
Equality automata are defined for: {elt, eltlist, nat}
_|


Answer of teacher:


drop(s(u), nil, nil) <= True -> No: ()
drop(z, l, l) <= True -> No: ()
length(nil, z) <= True -> No: ()
minus(s(u), z, s(u)) <= True -> No: ()
minus(z, y, z) <= True -> No: ()
eq_nat(_rya, _tya) <= drop(n, l1, _sya) /\ length(_sya, _rya) /\ length(l1, _uya) /\ minus(_uya, n, _tya) -> Yes: {
_rya -> z  ;  _sya -> nil  ;  _tya -> s(z)  ;  _uya -> s(s(z))  ;  l1 -> cons(l1_0, cons(v2_0, nil))  ;  n -> s(n_0)
}
drop(s(u), cons(x2, x3), _dya) <= drop(u, x3, _dya) -> No: ()
length(cons(x, ll), s(_iya)) <= length(ll, _iya) -> No: ()
minus(s(u), s(x2), _mya) <= minus(u, x2, _mya) -> No: ()



-------------------------------------------
Step 7, which took 0.070439 s (model generation: 0.070116,  model checking: 0.000323):

Ground examples at the beginning of this step are:
{
drop(s(z), cons(a, cons(a, nil)), cons(a, nil)) <= True
drop(s(z), cons(a, nil), nil) <= True
drop(s(z), nil, nil) <= True
drop(z, cons(a, nil), cons(a, nil)) <= True
drop(z, nil, nil) <= True
length(cons(a, nil), s(z)) <= True
length(nil, z) <= True
minus(s(s(s(z))), s(z), s(s(z))) <= True
minus(s(s(z)), s(z), s(z)) <= True
minus(s(s(z)), z, s(s(z))) <= True
minus(s(z), s(z), z) <= True
minus(s(z), z, s(z)) <= True
minus(z, s(z), z) <= True
minus(z, z, z) <= True
False <= drop(s(z), cons(a, cons(a, nil)), nil) /\ length(cons(a, cons(a, nil)), s(s(z)))
False <= drop(s(z), cons(a, nil), cons(a, nil))
False <= length(cons(a, nil), s(s(z)))
False <= minus(s(z), s(z), s(z))
False <= minus(s(z), z, s(s(z)))
}

Learner proposed model:
Found Model:
|_

_r_1 ->
{
  _r_1(z) <= True
}
;
_r_2 ->
{
  _r_2(s(x_0_0)) <= True
}
;
_r_3 ->
{
  _r_3(cons(x_0_0, x_0_1)) <= True
}
;
drop ->
{
  drop(s(x_0_0), cons(x_1_0, x_1_1), cons(x_2_0, x_2_1)) <= _r_3(x_1_1)
  drop(s(x_0_0), cons(x_1_0, x_1_1), nil) <= True
  drop(s(x_0_0), nil, nil) <= True
  drop(z, cons(x_1_0, x_1_1), cons(x_2_0, x_2_1)) <= True
  drop(z, nil, nil) <= True
}
;
length ->
{
  length(cons(x_0_0, x_0_1), s(x_1_0)) <= _r_1(x_1_0)
  length(nil, z) <= True
}
;
minus ->
{
  minus(s(x_0_0), s(x_1_0), s(x_2_0)) <= _r_2(x_0_0)
  minus(s(x_0_0), s(x_1_0), z) <= True
  minus(s(x_0_0), z, s(x_2_0)) <= _r_1(x_2_0)
  minus(s(x_0_0), z, s(x_2_0)) <= _r_2(x_0_0)
  minus(z, s(x_1_0), z) <= True
  minus(z, z, z) <= True
}

--
Equality automata are defined for: {elt, eltlist, nat}
_|


Answer of teacher:


drop(s(u), nil, nil) <= True -> No: ()
drop(z, l, l) <= True -> No: ()
length(nil, z) <= True -> No: ()
minus(s(u), z, s(u)) <= True -> No: ()
minus(z, y, z) <= True -> No: ()
eq_nat(_rya, _tya) <= drop(n, l1, _sya) /\ length(_sya, _rya) /\ length(l1, _uya) /\ minus(_uya, n, _tya) -> Yes: {
_rya -> s(z)  ;  _sya -> cons(_sya_0, _sya_1)  ;  _tya -> z  ;  _uya -> s(z)  ;  l1 -> cons(l1_0, cons(v0_0, v0_1))  ;  n -> s(n_0)
}
drop(s(u), cons(x2, x3), _dya) <= drop(u, x3, _dya) -> No: ()
length(cons(x, ll), s(_iya)) <= length(ll, _iya) -> Yes: {
_iya -> s(z)  ;  ll -> cons(v1_0, v1_1)
}
minus(s(u), s(x2), _mya) <= minus(u, x2, _mya) -> No: ()



-------------------------------------------
Step 8, which took 0.147698 s (model generation: 0.147293,  model checking: 0.000405):

Ground examples at the beginning of this step are:
{
drop(s(z), cons(a, cons(a, nil)), cons(a, nil)) <= True
drop(s(z), cons(a, nil), nil) <= True
drop(s(z), nil, nil) <= True
drop(z, cons(a, nil), cons(a, nil)) <= True
drop(z, nil, nil) <= True
length(cons(a, cons(a, nil)), s(s(z))) <= True
length(cons(a, nil), s(z)) <= True
length(nil, z) <= True
minus(s(s(s(z))), s(z), s(s(z))) <= True
minus(s(s(z)), s(z), s(z)) <= True
minus(s(s(z)), z, s(s(z))) <= True
minus(s(z), s(z), z) <= True
minus(s(z), z, s(z)) <= True
minus(z, s(z), z) <= True
minus(z, z, z) <= True
False <= drop(s(z), cons(a, cons(a, nil)), nil)
False <= drop(s(z), cons(a, nil), cons(a, nil))
False <= length(cons(a, cons(a, nil)), s(z))
False <= length(cons(a, nil), s(s(z)))
False <= minus(s(z), s(z), s(z))
False <= minus(s(z), z, s(s(z)))
}

Learner proposed model:
Found Model:
|_

_r_1 ->
{
  _r_1(s(x_0_0), s(x_1_0)) <= True
  _r_1(s(x_0_0), z) <= True
}
;
_r_2 ->
{
  _r_2(z, z) <= True
}
;
_r_3 ->
{
  _r_3(cons(x_0_0, x_0_1)) <= True
}
;
_r_4 ->
{
  _r_4(nil) <= True
}
;
drop ->
{
  drop(s(x_0_0), cons(x_1_0, x_1_1), cons(x_2_0, x_2_1)) <= _r_3(x_1_1)
  drop(s(x_0_0), cons(x_1_0, x_1_1), nil) <= _r_4(x_1_1)
  drop(s(x_0_0), nil, nil) <= True
  drop(z, cons(x_1_0, x_1_1), cons(x_2_0, x_2_1)) <= True
  drop(z, nil, nil) <= True
}
;
length ->
{
  length(cons(x_0_0, x_0_1), s(x_1_0)) <= length(x_0_1, x_1_0)
  length(nil, z) <= True
}
;
minus ->
{
  minus(s(x_0_0), s(x_1_0), s(x_2_0)) <= _r_1(x_0_0, x_2_0)
  minus(s(x_0_0), s(x_1_0), z) <= True
  minus(s(x_0_0), z, s(x_2_0)) <= _r_1(x_0_0, x_2_0)
  minus(s(x_0_0), z, s(x_2_0)) <= _r_2(x_0_0, x_2_0)
  minus(z, s(x_1_0), z) <= True
  minus(z, z, z) <= True
}

--
Equality automata are defined for: {elt, eltlist, nat}
_|


Answer of teacher:


drop(s(u), nil, nil) <= True -> No: ()
drop(z, l, l) <= True -> No: ()
length(nil, z) <= True -> No: ()
minus(s(u), z, s(u)) <= True -> No: ()
minus(z, y, z) <= True -> No: ()
eq_nat(_rya, _tya) <= drop(n, l1, _sya) /\ length(_sya, _rya) /\ length(l1, _uya) /\ minus(_uya, n, _tya) -> Yes: {
_rya -> s(z)  ;  _sya -> cons(_sya_0, nil)  ;  _tya -> z  ;  _uya -> s(s(z))  ;  l1 -> cons(l1_0, cons(v0_0, nil))  ;  n -> s(n_0)
}
drop(s(u), cons(x2, x3), _dya) <= drop(u, x3, _dya) -> Yes: {
_dya -> nil  ;  u -> s(u_0)  ;  x3 -> cons(x3_0, nil)
}
length(cons(x, ll), s(_iya)) <= length(ll, _iya) -> No: ()
minus(s(u), s(x2), _mya) <= minus(u, x2, _mya) -> No: ()



-------------------------------------------
Step 9, which took 0.165685 s (model generation: 0.165167,  model checking: 0.000518):

Ground examples at the beginning of this step are:
{
drop(s(s(z)), cons(a, cons(a, nil)), nil) <= True
drop(s(z), cons(a, cons(a, nil)), cons(a, nil)) <= True
drop(s(z), cons(a, nil), nil) <= True
drop(s(z), nil, nil) <= True
drop(z, cons(a, nil), cons(a, nil)) <= True
drop(z, nil, nil) <= True
length(cons(a, cons(a, nil)), s(s(z))) <= True
length(cons(a, nil), s(z)) <= True
length(nil, z) <= True
minus(s(s(s(z))), s(z), s(s(z))) <= True
minus(s(s(z)), s(z), s(z)) <= True
minus(s(s(z)), z, s(s(z))) <= True
minus(s(z), s(z), z) <= True
minus(s(z), z, s(z)) <= True
minus(z, s(z), z) <= True
minus(z, z, z) <= True
False <= drop(s(z), cons(a, cons(a, nil)), nil)
False <= drop(s(z), cons(a, nil), cons(a, nil))
False <= length(cons(a, cons(a, nil)), s(z))
False <= length(cons(a, nil), s(s(z)))
False <= minus(s(s(z)), s(z), z)
False <= minus(s(z), s(z), s(z))
False <= minus(s(z), z, s(s(z)))
}

Learner proposed model:
Found Model:
|_

_r_1 ->
{
  _r_1(s(x_0_0), z) <= True
}
;
_r_2 ->
{
  _r_2(s(x_0_0), s(x_1_0)) <= True
  _r_2(z, z) <= True
}
;
_r_3 ->
{
  _r_3(z, cons(x_1_0, x_1_1)) <= True
}
;
_r_4 ->
{
  _r_4(s(x_0_0), cons(x_1_0, x_1_1)) <= True
  _r_4(z, nil) <= True
}
;
drop ->
{
  drop(s(x_0_0), cons(x_1_0, x_1_1), cons(x_2_0, x_2_1)) <= _r_3(x_0_0, x_1_1)
  drop(s(x_0_0), cons(x_1_0, x_1_1), nil) <= _r_4(x_0_0, x_1_1)
  drop(s(x_0_0), nil, nil) <= True
  drop(z, cons(x_1_0, x_1_1), cons(x_2_0, x_2_1)) <= True
  drop(z, nil, nil) <= True
}
;
length ->
{
  length(cons(x_0_0, x_0_1), s(x_1_0)) <= length(x_0_1, x_1_0)
  length(nil, z) <= True
}
;
minus ->
{
  minus(s(x_0_0), s(x_1_0), s(x_2_0)) <= _r_1(x_0_0, x_1_0)
  minus(s(x_0_0), s(x_1_0), z) <= _r_2(x_0_0, x_1_0)
  minus(s(x_0_0), z, s(x_2_0)) <= _r_2(x_0_0, x_2_0)
  minus(z, s(x_1_0), z) <= True
  minus(z, z, z) <= True
}

--
Equality automata are defined for: {elt, eltlist, nat}
_|


Answer of teacher:


drop(s(u), nil, nil) <= True -> No: ()
drop(z, l, l) <= True -> No: ()
length(nil, z) <= True -> No: ()
minus(s(u), z, s(u)) <= True -> No: ()
minus(z, y, z) <= True -> No: ()
eq_nat(_rya, _tya) <= drop(n, l1, _sya) /\ length(_sya, _rya) /\ length(l1, _uya) /\ minus(_uya, n, _tya) -> Yes: {
_rya -> s(z)  ;  _sya -> cons(_sya_0, nil)  ;  _tya -> s(s(v1_0))  ;  _uya -> s(s(z))  ;  l1 -> cons(l1_0, cons(v2_0, nil))  ;  n -> s(z)
}
drop(s(u), cons(x2, x3), _dya) <= drop(u, x3, _dya) -> Yes: {
_dya -> nil  ;  u -> s(u_0)  ;  x3 -> nil
}
length(cons(x, ll), s(_iya)) <= length(ll, _iya) -> No: ()
minus(s(u), s(x2), _mya) <= minus(u, x2, _mya) -> Yes: {
_mya -> z  ;  u -> z  ;  x2 -> s(x2_0)
}



-------------------------------------------
Step 10, which took 0.177467 s (model generation: 0.176480,  model checking: 0.000987):

Ground examples at the beginning of this step are:
{
drop(s(s(z)), cons(a, cons(a, nil)), nil) <= True
drop(s(s(z)), cons(a, nil), nil) <= True
drop(s(z), cons(a, cons(a, nil)), cons(a, nil)) <= True
drop(s(z), cons(a, nil), nil) <= True
drop(s(z), nil, nil) <= True
drop(z, cons(a, nil), cons(a, nil)) <= True
drop(z, nil, nil) <= True
length(cons(a, cons(a, nil)), s(s(z))) <= True
length(cons(a, nil), s(z)) <= True
length(nil, z) <= True
minus(s(s(s(z))), s(z), s(s(z))) <= True
minus(s(s(z)), s(z), s(z)) <= True
minus(s(s(z)), z, s(s(z))) <= True
minus(s(z), s(s(z)), z) <= True
minus(s(z), s(z), z) <= True
minus(s(z), z, s(z)) <= True
minus(z, s(z), z) <= True
minus(z, z, z) <= True
False <= drop(s(z), cons(a, cons(a, nil)), nil)
False <= drop(s(z), cons(a, nil), cons(a, nil))
False <= length(cons(a, cons(a, nil)), s(z))
False <= length(cons(a, nil), s(s(z)))
False <= minus(s(s(z)), s(z), s(s(z)))
False <= minus(s(s(z)), s(z), z)
False <= minus(s(z), s(z), s(z))
False <= minus(s(z), z, s(s(z)))
}

Learner proposed model:
Found Model:
|_

_r_1 ->
{
  _r_1(z, cons(x_1_0, x_1_1)) <= True
}
;
_r_2 ->
{
  _r_2(s(x_0_0), cons(x_1_0, x_1_1)) <= True
  _r_2(s(x_0_0), nil) <= True
  _r_2(z, nil) <= True
}
;
_r_3 ->
{
  _r_3(s(x_0_0)) <= _r_4(x_0_0)
  _r_3(z) <= True
}
;
_r_4 ->
{
  _r_4(s(x_0_0)) <= True
}
;
drop ->
{
  drop(s(x_0_0), cons(x_1_0, x_1_1), cons(x_2_0, x_2_1)) <= _r_1(x_0_0, x_1_1)
  drop(s(x_0_0), cons(x_1_0, x_1_1), nil) <= _r_2(x_0_0, x_1_1)
  drop(s(x_0_0), nil, nil) <= True
  drop(z, cons(x_1_0, x_1_1), cons(x_2_0, x_2_1)) <= True
  drop(z, nil, nil) <= True
}
;
length ->
{
  length(cons(x_0_0, x_0_1), s(x_1_0)) <= length(x_0_1, x_1_0)
  length(nil, z) <= True
}
;
minus ->
{
  minus(s(x_0_0), s(x_1_0), s(x_2_0)) <= _r_3(x_0_0) /\ _r_4(x_2_0)
  minus(s(x_0_0), s(x_1_0), s(x_2_0)) <= _r_3(x_2_0) /\ _r_4(x_0_0)
  minus(s(x_0_0), s(x_1_0), z) <= _r_3(x_0_0)
  minus(s(x_0_0), z, s(x_2_0)) <= _r_3(x_2_0)
  minus(s(x_0_0), z, s(x_2_0)) <= _r_4(x_0_0)
  minus(z, s(x_1_0), z) <= True
  minus(z, z, z) <= True
}

--
Equality automata are defined for: {elt, eltlist, nat}
_|


Answer of teacher:


drop(s(u), nil, nil) <= True -> No: ()
drop(z, l, l) <= True -> No: ()
length(nil, z) <= True -> No: ()
minus(s(u), z, s(u)) <= True -> No: ()
minus(z, y, z) <= True -> No: ()
eq_nat(_rya, _tya) <= drop(n, l1, _sya) /\ length(_sya, _rya) /\ length(l1, _uya) /\ minus(_uya, n, _tya) -> Yes: {
_rya -> s(z)  ;  _sya -> cons(_sya_0, nil)  ;  _tya -> s(s(v1_0))  ;  _uya -> s(s(z))  ;  l1 -> cons(l1_0, cons(v1_0, nil))  ;  n -> z
}
drop(s(u), cons(x2, x3), _dya) <= drop(u, x3, _dya) -> Yes: {
_dya -> cons(_dya_0, _dya_1)  ;  u -> s(z)  ;  x3 -> cons(x3_0, cons(v1_0, v1_1))
}
length(cons(x, ll), s(_iya)) <= length(ll, _iya) -> No: ()
minus(s(u), s(x2), _mya) <= minus(u, x2, _mya) -> Yes: {
_mya -> z  ;  u -> s(z)  ;  x2 -> s(x2_0)
}



-------------------------------------------
Step 11, which took 0.268086 s (model generation: 0.267060,  model checking: 0.001026):

Ground examples at the beginning of this step are:
{
drop(s(s(z)), cons(a, cons(a, cons(a, nil))), cons(a, nil)) <= True
drop(s(s(z)), cons(a, cons(a, nil)), nil) <= True
drop(s(s(z)), cons(a, nil), nil) <= True
drop(s(z), cons(a, cons(a, nil)), cons(a, nil)) <= True
drop(s(z), cons(a, nil), nil) <= True
drop(s(z), nil, nil) <= True
drop(z, cons(a, nil), cons(a, nil)) <= True
drop(z, nil, nil) <= True
length(cons(a, cons(a, nil)), s(s(z))) <= True
length(cons(a, nil), s(z)) <= True
length(nil, z) <= True
minus(s(s(s(z))), s(z), s(s(z))) <= True
minus(s(s(z)), s(s(z)), z) <= True
minus(s(s(z)), s(z), s(z)) <= True
minus(s(s(z)), z, s(s(z))) <= True
minus(s(z), s(s(z)), z) <= True
minus(s(z), s(z), z) <= True
minus(s(z), z, s(z)) <= True
minus(z, s(z), z) <= True
minus(z, z, z) <= True
False <= drop(s(z), cons(a, cons(a, nil)), nil)
False <= drop(s(z), cons(a, nil), cons(a, nil))
False <= drop(z, cons(a, cons(a, nil)), cons(a, nil))
False <= length(cons(a, cons(a, nil)), s(z))
False <= length(cons(a, nil), s(s(z)))
False <= minus(s(s(z)), s(z), s(s(z)))
False <= minus(s(s(z)), s(z), z)
False <= minus(s(z), s(z), s(z))
False <= minus(s(z), z, s(s(z)))
}

Learner proposed model:
Found Model:
|_

_r_1 ->
{
  _r_1(s(x_0_0)) <= _r_2(x_0_0)
  _r_1(z) <= True
}
;
_r_2 ->
{
  _r_2(s(x_0_0)) <= True
}
;
_r_3 ->
{
  _r_3(cons(x_0_0, x_0_1)) <= True
}
;
_r_4 ->
{
  _r_4(nil) <= True
}
;
drop ->
{
  drop(s(x_0_0), cons(x_1_0, x_1_1), cons(x_2_0, x_2_1)) <= _r_3(x_1_1)
  drop(s(x_0_0), cons(x_1_0, x_1_1), nil) <= _r_2(x_0_0)
  drop(s(x_0_0), cons(x_1_0, x_1_1), nil) <= _r_4(x_1_1)
  drop(s(x_0_0), nil, nil) <= True
  drop(z, cons(x_1_0, x_1_1), cons(x_2_0, x_2_1)) <= _r_4(x_1_1)
  drop(z, nil, nil) <= True
}
;
length ->
{
  length(cons(x_0_0, x_0_1), s(x_1_0)) <= length(x_0_1, x_1_0)
  length(nil, z) <= True
}
;
minus ->
{
  minus(s(x_0_0), s(x_1_0), s(x_2_0)) <= _r_1(x_0_0) /\ _r_2(x_2_0)
  minus(s(x_0_0), s(x_1_0), s(x_2_0)) <= _r_1(x_2_0) /\ _r_2(x_0_0)
  minus(s(x_0_0), s(x_1_0), z) <= _r_1(x_0_0)
  minus(s(x_0_0), s(x_1_0), z) <= _r_2(x_1_0)
  minus(s(x_0_0), z, s(x_2_0)) <= _r_1(x_2_0)
  minus(s(x_0_0), z, s(x_2_0)) <= _r_2(x_0_0)
  minus(z, s(x_1_0), z) <= True
  minus(z, z, z) <= True
}

--
Equality automata are defined for: {elt, eltlist, nat}
_|


Answer of teacher:


drop(s(u), nil, nil) <= True -> No: ()
drop(z, l, l) <= True -> Yes: {
l -> cons(l_0, cons(v0_0, v0_1))
}
length(nil, z) <= True -> No: ()
minus(s(u), z, s(u)) <= True -> No: ()
minus(z, y, z) <= True -> No: ()
eq_nat(_rya, _tya) <= drop(n, l1, _sya) /\ length(_sya, _rya) /\ length(l1, _uya) /\ minus(_uya, n, _tya) -> Yes: {
_rya -> s(z)  ;  _sya -> cons(_sya_0, nil)  ;  _tya -> z  ;  _uya -> s(s(z))  ;  l1 -> cons(l1_0, cons(v0_0, nil))  ;  n -> s(s(v0_0))
}
drop(s(u), cons(x2, x3), _dya) <= drop(u, x3, _dya) -> No: ()
length(cons(x, ll), s(_iya)) <= length(ll, _iya) -> No: ()
minus(s(u), s(x2), _mya) <= minus(u, x2, _mya) -> Yes: {
_mya -> s(s(z))  ;  u -> s(z)  ;  x2 -> s(x2_0)
}



-------------------------------------------
Step 12, which took 0.302674 s (model generation: 0.300708,  model checking: 0.001966):

Ground examples at the beginning of this step are:
{
drop(s(s(z)), cons(a, cons(a, cons(a, nil))), cons(a, nil)) <= True
drop(s(s(z)), cons(a, cons(a, nil)), nil) <= True
drop(s(s(z)), cons(a, nil), nil) <= True
drop(s(z), cons(a, cons(a, nil)), cons(a, nil)) <= True
drop(s(z), cons(a, nil), nil) <= True
drop(s(z), nil, nil) <= True
drop(z, cons(a, cons(a, nil)), cons(a, cons(a, nil))) <= True
drop(z, cons(a, nil), cons(a, nil)) <= True
drop(z, nil, nil) <= True
length(cons(a, cons(a, nil)), s(s(z))) <= True
length(cons(a, nil), s(z)) <= True
length(nil, z) <= True
minus(s(s(s(z))), s(z), s(s(z))) <= True
minus(s(s(z)), s(s(z)), z) <= True
minus(s(s(z)), s(z), s(z)) <= True
minus(s(s(z)), z, s(s(z))) <= True
minus(s(z), s(s(z)), z) <= True
minus(s(z), s(z), z) <= True
minus(s(z), z, s(z)) <= True
minus(z, s(z), z) <= True
minus(z, z, z) <= True
False <= drop(s(s(z)), cons(a, cons(a, nil)), cons(a, nil))
False <= drop(s(z), cons(a, cons(a, nil)), nil)
False <= drop(s(z), cons(a, nil), cons(a, nil))
False <= drop(z, cons(a, cons(a, nil)), cons(a, nil))
False <= length(cons(a, cons(a, nil)), s(z))
False <= length(cons(a, nil), s(s(z)))
False <= minus(s(s(z)), s(z), s(s(z)))
False <= minus(s(s(z)), s(z), z)
minus(s(s(z)), s(s(z)), s(s(z))) <= minus(s(z), s(z), s(s(z)))
False <= minus(s(z), s(z), s(z))
False <= minus(s(z), z, s(s(z)))
}

Learner proposed model:
Found Model:
|_

_r_1 ->
{
  _r_1(s(x_0_0)) <= _r_2(x_0_0)
  _r_1(z) <= True
}
;
_r_2 ->
{
  _r_2(s(x_0_0)) <= True
}
;
_r_3 ->
{
  _r_3(cons(x_0_0, x_0_1)) <= _r_4(x_0_1)
  _r_3(nil) <= True
}
;
_r_4 ->
{
  _r_4(cons(x_0_0, x_0_1)) <= True
}
;
drop ->
{
  drop(s(x_0_0), cons(x_1_0, x_1_1), cons(x_2_0, x_2_1)) <= _r_1(x_0_0) /\ _r_4(x_1_1)
  drop(s(x_0_0), cons(x_1_0, x_1_1), cons(x_2_0, x_2_1)) <= _r_2(x_0_0) /\ _r_3(x_1_1)
  drop(s(x_0_0), cons(x_1_0, x_1_1), nil) <= _r_2(x_0_0)
  drop(s(x_0_0), cons(x_1_0, x_1_1), nil) <= _r_3(x_1_1)
  drop(s(x_0_0), nil, nil) <= True
  drop(z, cons(x_1_0, x_1_1), cons(x_2_0, x_2_1)) <= _r_3(x_1_1)
  drop(z, cons(x_1_0, x_1_1), cons(x_2_0, x_2_1)) <= _r_4(x_2_1)
  drop(z, nil, nil) <= True
}
;
length ->
{
  length(cons(x_0_0, x_0_1), s(x_1_0)) <= length(x_0_1, x_1_0)
  length(nil, z) <= True
}
;
minus ->
{
  minus(s(x_0_0), s(x_1_0), s(x_2_0)) <= _r_1(x_0_0) /\ _r_2(x_2_0)
  minus(s(x_0_0), s(x_1_0), s(x_2_0)) <= _r_1(x_2_0) /\ _r_2(x_0_0)
  minus(s(x_0_0), s(x_1_0), s(x_2_0)) <= _r_2(x_1_0)
  minus(s(x_0_0), s(x_1_0), z) <= _r_1(x_0_0)
  minus(s(x_0_0), s(x_1_0), z) <= _r_2(x_1_0)
  minus(s(x_0_0), z, s(x_2_0)) <= _r_1(x_2_0)
  minus(s(x_0_0), z, s(x_2_0)) <= _r_2(x_0_0)
  minus(z, s(x_1_0), z) <= True
  minus(z, z, z) <= True
}

--
Equality automata are defined for: {elt, eltlist, nat}
_|


Answer of teacher:


drop(s(u), nil, nil) <= True -> No: ()
drop(z, l, l) <= True -> No: ()
length(nil, z) <= True -> No: ()
minus(s(u), z, s(u)) <= True -> No: ()
minus(z, y, z) <= True -> No: ()
eq_nat(_rya, _tya) <= drop(n, l1, _sya) /\ length(_sya, _rya) /\ length(l1, _uya) /\ minus(_uya, n, _tya) -> Yes: {
_rya -> z  ;  _sya -> nil  ;  _tya -> s(_tya_0)  ;  _uya -> s(z)  ;  l1 -> cons(l1_0, nil)  ;  n -> s(s(v0_0))
}
drop(s(u), cons(x2, x3), _dya) <= drop(u, x3, _dya) -> No: ()
length(cons(x, ll), s(_iya)) <= length(ll, _iya) -> No: ()
minus(s(u), s(x2), _mya) <= minus(u, x2, _mya) -> No: ()



-------------------------------------------
Step 13, which took 0.317123 s (model generation: 0.314829,  model checking: 0.002294):

Ground examples at the beginning of this step are:
{
drop(s(s(z)), cons(a, cons(a, cons(a, nil))), cons(a, nil)) <= True
drop(s(s(z)), cons(a, cons(a, nil)), nil) <= True
drop(s(s(z)), cons(a, nil), nil) <= True
drop(s(z), cons(a, cons(a, nil)), cons(a, nil)) <= True
drop(s(z), cons(a, nil), nil) <= True
drop(s(z), nil, nil) <= True
drop(z, cons(a, cons(a, nil)), cons(a, cons(a, nil))) <= True
drop(z, cons(a, nil), cons(a, nil)) <= True
drop(z, nil, nil) <= True
length(cons(a, cons(a, nil)), s(s(z))) <= True
length(cons(a, nil), s(z)) <= True
length(nil, z) <= True
minus(s(s(s(z))), s(z), s(s(z))) <= True
minus(s(s(z)), s(s(z)), z) <= True
minus(s(s(z)), s(z), s(z)) <= True
minus(s(s(z)), z, s(s(z))) <= True
minus(s(z), s(s(z)), z) <= True
minus(s(z), s(z), z) <= True
minus(s(z), z, s(z)) <= True
minus(z, s(z), z) <= True
minus(z, z, z) <= True
False <= drop(s(s(z)), cons(a, cons(a, nil)), cons(a, nil))
False <= drop(s(z), cons(a, cons(a, nil)), nil)
False <= drop(s(z), cons(a, nil), cons(a, nil))
False <= drop(z, cons(a, cons(a, nil)), cons(a, nil))
False <= length(cons(a, cons(a, nil)), s(z))
False <= length(cons(a, nil), s(s(z)))
False <= minus(s(s(z)), s(z), s(s(z)))
False <= minus(s(s(z)), s(z), z)
False <= minus(s(z), s(s(z)), s(z))
minus(s(s(z)), s(s(z)), s(s(z))) <= minus(s(z), s(z), s(s(z)))
False <= minus(s(z), s(z), s(z))
False <= minus(s(z), z, s(s(z)))
}

Learner proposed model:
Found Model:
|_

_r_1 ->
{
  _r_1(s(x_0_0)) <= True
}
;
_r_2 ->
{
  _r_2(s(x_0_0)) <= _r_1(x_0_0)
  _r_2(z) <= True
}
;
_r_3 ->
{
  _r_3(cons(x_0_0, x_0_1)) <= _r_4(x_0_1)
  _r_3(nil) <= True
}
;
_r_4 ->
{
  _r_4(cons(x_0_0, x_0_1)) <= True
}
;
drop ->
{
  drop(s(x_0_0), cons(x_1_0, x_1_1), cons(x_2_0, x_2_1)) <= _r_1(x_0_0) /\ _r_3(x_1_1)
  drop(s(x_0_0), cons(x_1_0, x_1_1), cons(x_2_0, x_2_1)) <= _r_2(x_0_0) /\ _r_4(x_1_1)
  drop(s(x_0_0), cons(x_1_0, x_1_1), nil) <= _r_1(x_0_0)
  drop(s(x_0_0), cons(x_1_0, x_1_1), nil) <= _r_3(x_1_1)
  drop(s(x_0_0), nil, nil) <= True
  drop(z, cons(x_1_0, x_1_1), cons(x_2_0, x_2_1)) <= _r_3(x_1_1)
  drop(z, cons(x_1_0, x_1_1), cons(x_2_0, x_2_1)) <= _r_4(x_2_1)
  drop(z, nil, nil) <= True
}
;
length ->
{
  length(cons(x_0_0, x_0_1), s(x_1_0)) <= length(x_0_1, x_1_0)
  length(nil, z) <= True
}
;
minus ->
{
  minus(s(x_0_0), s(x_1_0), s(x_2_0)) <= _r_1(x_0_0) /\ _r_1(x_1_0)
  minus(s(x_0_0), s(x_1_0), s(x_2_0)) <= _r_1(x_0_0) /\ _r_2(x_2_0)
  minus(s(x_0_0), s(x_1_0), s(x_2_0)) <= _r_1(x_2_0) /\ _r_2(x_0_0)
  minus(s(x_0_0), s(x_1_0), z) <= _r_1(x_1_0)
  minus(s(x_0_0), s(x_1_0), z) <= _r_2(x_0_0)
  minus(s(x_0_0), z, s(x_2_0)) <= _r_1(x_0_0)
  minus(s(x_0_0), z, s(x_2_0)) <= _r_2(x_2_0)
  minus(z, s(x_1_0), z) <= True
  minus(z, z, z) <= True
}

--
Equality automata are defined for: {elt, eltlist, nat}
_|


Answer of teacher:


drop(s(u), nil, nil) <= True -> No: ()
drop(z, l, l) <= True -> No: ()
length(nil, z) <= True -> No: ()
minus(s(u), z, s(u)) <= True -> No: ()
minus(z, y, z) <= True -> No: ()
eq_nat(_rya, _tya) <= drop(n, l1, _sya) /\ length(_sya, _rya) /\ length(l1, _uya) /\ minus(_uya, n, _tya) -> Yes: {
_rya -> s(z)  ;  _sya -> cons(_sya_0, nil)  ;  _tya -> z  ;  _uya -> s(z)  ;  l1 -> cons(l1_0, nil)  ;  n -> s(s(v0_0))
}
drop(s(u), cons(x2, x3), _dya) <= drop(u, x3, _dya) -> No: ()
length(cons(x, ll), s(_iya)) <= length(ll, _iya) -> No: ()
minus(s(u), s(x2), _mya) <= minus(u, x2, _mya) -> No: ()



-------------------------------------------
Step 14, which took 0.792328 s (model generation: 0.791194,  model checking: 0.001134):

Ground examples at the beginning of this step are:
{
drop(s(s(z)), cons(a, cons(a, cons(a, nil))), cons(a, nil)) <= True
drop(s(s(z)), cons(a, cons(a, nil)), nil) <= True
drop(s(s(z)), cons(a, nil), nil) <= True
drop(s(z), cons(a, cons(a, nil)), cons(a, nil)) <= True
drop(s(z), cons(a, nil), nil) <= True
drop(s(z), nil, nil) <= True
drop(z, cons(a, cons(a, nil)), cons(a, cons(a, nil))) <= True
drop(z, cons(a, nil), cons(a, nil)) <= True
drop(z, nil, nil) <= True
length(cons(a, cons(a, nil)), s(s(z))) <= True
length(cons(a, nil), s(z)) <= True
length(nil, z) <= True
minus(s(s(s(z))), s(z), s(s(z))) <= True
minus(s(s(z)), s(s(z)), z) <= True
minus(s(s(z)), s(z), s(z)) <= True
minus(s(s(z)), z, s(s(z))) <= True
minus(s(z), s(s(z)), z) <= True
minus(s(z), s(z), z) <= True
minus(s(z), z, s(z)) <= True
minus(z, s(z), z) <= True
minus(z, z, z) <= True
False <= drop(s(s(z)), cons(a, cons(a, nil)), cons(a, nil))
False <= drop(s(s(z)), cons(a, nil), cons(a, nil))
False <= drop(s(z), cons(a, cons(a, nil)), nil)
False <= drop(s(z), cons(a, nil), cons(a, nil))
False <= drop(z, cons(a, cons(a, nil)), cons(a, nil))
False <= length(cons(a, cons(a, nil)), s(z))
False <= length(cons(a, nil), s(s(z)))
False <= minus(s(s(z)), s(z), s(s(z)))
False <= minus(s(s(z)), s(z), z)
False <= minus(s(z), s(s(z)), s(z))
minus(s(s(z)), s(s(z)), s(s(z))) <= minus(s(z), s(z), s(s(z)))
False <= minus(s(z), s(z), s(z))
False <= minus(s(z), z, s(s(z)))
}

Learner proposed model:
Found Model:
|_

_r_1 ->
{
  _r_1(s(x_0_0), s(x_1_0)) <= True
  _r_1(s(x_0_0), z) <= _r_5(x_0_0)
  _r_1(z, z) <= True
}
;
_r_2 ->
{
  _r_2(s(x_0_0), cons(x_1_0, x_1_1)) <= _r_2(x_0_0, x_1_1)
  _r_2(z, cons(x_1_0, x_1_1)) <= True
}
;
_r_3 ->
{
  _r_3(s(x_0_0), cons(x_1_0, x_1_1)) <= True
  _r_3(s(x_0_0), nil) <= True
  _r_3(z, nil) <= True
}
;
_r_4 ->
{
  _r_4(cons(x_0_0, x_0_1), cons(x_1_0, x_1_1)) <= True
  _r_4(nil, nil) <= True
}
;
_r_5 ->
{
  _r_5(s(x_0_0)) <= True
}
;
drop ->
{
  drop(s(x_0_0), cons(x_1_0, x_1_1), cons(x_2_0, x_2_1)) <= _r_2(x_0_0, x_1_1)
  drop(s(x_0_0), cons(x_1_0, x_1_1), nil) <= _r_3(x_0_0, x_1_1)
  drop(s(x_0_0), nil, nil) <= True
  drop(z, cons(x_1_0, x_1_1), cons(x_2_0, x_2_1)) <= _r_4(x_1_1, x_2_1)
  drop(z, nil, nil) <= True
}
;
length ->
{
  length(cons(x_0_0, x_0_1), s(x_1_0)) <= length(x_0_1, x_1_0)
  length(nil, z) <= True
}
;
minus ->
{
  minus(s(x_0_0), s(x_1_0), s(x_2_0)) <= _r_1(x_0_0, x_1_0) /\ _r_5(x_0_0)
  minus(s(x_0_0), s(x_1_0), s(x_2_0)) <= _r_1(x_1_0, x_2_0) /\ _r_5(x_0_0)
  minus(s(x_0_0), s(x_1_0), z) <= _r_1(x_0_0, x_1_0)
  minus(s(x_0_0), s(x_1_0), z) <= _r_5(x_1_0)
  minus(s(x_0_0), z, s(x_2_0)) <= _r_1(x_0_0, x_2_0)
  minus(z, s(x_1_0), z) <= True
  minus(z, z, z) <= True
}

--
Equality automata are defined for: {elt, eltlist, nat}
_|


Answer of teacher:


drop(s(u), nil, nil) <= True -> No: ()
drop(z, l, l) <= True -> No: ()
length(nil, z) <= True -> No: ()
minus(s(u), z, s(u)) <= True -> No: ()
minus(z, y, z) <= True -> No: ()
eq_nat(_rya, _tya) <= drop(n, l1, _sya) /\ length(_sya, _rya) /\ length(l1, _uya) /\ minus(_uya, n, _tya) -> Yes: {
_rya -> s(z)  ;  _sya -> cons(_sya_0, nil)  ;  _tya -> z  ;  _uya -> s(s(s(z)))  ;  l1 -> cons(l1_0, cons(v1_0, cons(v1_0, nil)))  ;  n -> s(s(z))
}
drop(s(u), cons(x2, x3), _dya) <= drop(u, x3, _dya) -> No: ()
length(cons(x, ll), s(_iya)) <= length(ll, _iya) -> No: ()
minus(s(u), s(x2), _mya) <= minus(u, x2, _mya) -> No: ()



-------------------------------------------
Step 15, which took 0.794057 s (model generation: 0.791833,  model checking: 0.002224):

Ground examples at the beginning of this step are:
{
drop(s(s(z)), cons(a, cons(a, cons(a, nil))), cons(a, nil)) <= True
drop(s(s(z)), cons(a, cons(a, nil)), nil) <= True
drop(s(s(z)), cons(a, nil), nil) <= True
drop(s(z), cons(a, cons(a, nil)), cons(a, nil)) <= True
drop(s(z), cons(a, nil), nil) <= True
drop(s(z), nil, nil) <= True
drop(z, cons(a, cons(a, nil)), cons(a, cons(a, nil))) <= True
drop(z, cons(a, nil), cons(a, nil)) <= True
drop(z, nil, nil) <= True
length(cons(a, cons(a, nil)), s(s(z))) <= True
length(cons(a, nil), s(z)) <= True
length(nil, z) <= True
minus(s(s(s(z))), s(z), s(s(z))) <= True
minus(s(s(z)), s(s(z)), z) <= True
minus(s(s(z)), s(z), s(z)) <= True
minus(s(s(z)), z, s(s(z))) <= True
minus(s(z), s(s(z)), z) <= True
minus(s(z), s(z), z) <= True
minus(s(z), z, s(z)) <= True
minus(z, s(z), z) <= True
minus(z, z, z) <= True
False <= drop(s(s(z)), cons(a, cons(a, nil)), cons(a, nil))
False <= drop(s(s(z)), cons(a, nil), cons(a, nil))
False <= drop(s(z), cons(a, cons(a, nil)), nil)
False <= drop(s(z), cons(a, nil), cons(a, nil))
False <= drop(z, cons(a, cons(a, nil)), cons(a, nil))
False <= length(cons(a, cons(a, cons(a, nil))), s(s(s(z)))) /\ minus(s(s(s(z))), s(s(z)), z)
False <= length(cons(a, cons(a, nil)), s(z))
False <= length(cons(a, nil), s(s(z)))
False <= minus(s(s(z)), s(z), s(s(z)))
False <= minus(s(s(z)), s(z), z)
False <= minus(s(z), s(s(z)), s(z))
minus(s(s(z)), s(s(z)), s(s(z))) <= minus(s(z), s(z), s(s(z)))
False <= minus(s(z), s(z), s(z))
False <= minus(s(z), z, s(s(z)))
}

Learner proposed model:
Found Model:
|_

_r_1 ->
{
  _r_1(s(x_0_0), s(x_1_0)) <= True
  _r_1(s(x_0_0), z) <= _r_3(x_0_0)
  _r_1(z, z) <= True
}
;
_r_2 ->
{
  _r_2(s(x_0_0), cons(x_1_0, x_1_1)) <= _r_2(x_0_0, x_1_1)
  _r_2(z, cons(x_1_0, x_1_1)) <= True
}
;
_r_3 ->
{
  _r_3(s(x_0_0)) <= True
}
;
_r_4 ->
{
  _r_4(nil) <= True
}
;
_r_5 ->
{
  _r_5(cons(x_0_0, x_0_1)) <= _r_4(x_0_1)
}
;
drop ->
{
  drop(s(x_0_0), cons(x_1_0, x_1_1), cons(x_2_0, x_2_1)) <= _r_2(x_0_0, x_1_1)
  drop(s(x_0_0), cons(x_1_0, x_1_1), nil) <= _r_3(x_0_0)
  drop(s(x_0_0), cons(x_1_0, x_1_1), nil) <= _r_4(x_1_1)
  drop(s(x_0_0), nil, nil) <= True
  drop(z, cons(x_1_0, x_1_1), cons(x_2_0, x_2_1)) <= _r_4(x_1_1)
  drop(z, cons(x_1_0, x_1_1), cons(x_2_0, x_2_1)) <= _r_5(x_2_1)
  drop(z, nil, nil) <= True
}
;
length ->
{
  length(cons(x_0_0, x_0_1), s(x_1_0)) <= _r_4(x_0_1) /\ length(x_0_1, x_1_0)
  length(cons(x_0_0, x_0_1), s(x_1_0)) <= _r_5(x_0_1) /\ length(x_0_1, x_1_0)
  length(nil, z) <= True
}
;
minus ->
{
  minus(s(x_0_0), s(x_1_0), s(x_2_0)) <= _r_1(x_0_0, x_1_0) /\ _r_3(x_0_0)
  minus(s(x_0_0), s(x_1_0), s(x_2_0)) <= _r_1(x_1_0, x_2_0) /\ _r_3(x_0_0)
  minus(s(x_0_0), s(x_1_0), z) <= _r_1(x_0_0, x_1_0)
  minus(s(x_0_0), s(x_1_0), z) <= _r_3(x_1_0)
  minus(s(x_0_0), z, s(x_2_0)) <= _r_1(x_0_0, x_2_0)
  minus(z, s(x_1_0), z) <= True
  minus(z, z, z) <= True
}

--
Equality automata are defined for: {elt, eltlist, nat}
_|


Answer of teacher:


drop(s(u), nil, nil) <= True -> No: ()
drop(z, l, l) <= True -> Yes: {
l -> cons(l_0, cons(v0_0, cons(v0_0, v0_1)))
}
length(nil, z) <= True -> No: ()
minus(s(u), z, s(u)) <= True -> No: ()
minus(z, y, z) <= True -> No: ()
eq_nat(_rya, _tya) <= drop(n, l1, _sya) /\ length(_sya, _rya) /\ length(l1, _uya) /\ minus(_uya, n, _tya) -> Yes: {
_rya -> z  ;  _sya -> nil  ;  _tya -> s(s(v1_0))  ;  _uya -> s(s(z))  ;  l1 -> cons(l1_0, cons(v1_0, nil))  ;  n -> s(s(v0_0))
}
drop(s(u), cons(x2, x3), _dya) <= drop(u, x3, _dya) -> No: ()
length(cons(x, ll), s(_iya)) <= length(ll, _iya) -> Yes: {
_iya -> s(s(z))  ;  ll -> cons(v0_0, cons(v0_0, nil))
}
minus(s(u), s(x2), _mya) <= minus(u, x2, _mya) -> No: ()



-------------------------------------------
Step 16, which took 3.042134 s (model generation: 3.041430,  model checking: 0.000704):

Ground examples at the beginning of this step are:
{
drop(s(s(z)), cons(a, cons(a, cons(a, nil))), cons(a, nil)) <= True
drop(s(s(z)), cons(a, cons(a, nil)), nil) <= True
drop(s(s(z)), cons(a, nil), nil) <= True
drop(s(z), cons(a, cons(a, nil)), cons(a, nil)) <= True
drop(s(z), cons(a, nil), nil) <= True
drop(s(z), nil, nil) <= True
drop(z, cons(a, cons(a, cons(a, nil))), cons(a, cons(a, cons(a, nil)))) <= True
drop(z, cons(a, cons(a, nil)), cons(a, cons(a, nil))) <= True
drop(z, cons(a, nil), cons(a, nil)) <= True
drop(z, nil, nil) <= True
length(cons(a, cons(a, cons(a, nil))), s(s(s(z)))) <= True
length(cons(a, cons(a, nil)), s(s(z))) <= True
length(cons(a, nil), s(z)) <= True
length(nil, z) <= True
minus(s(s(s(z))), s(z), s(s(z))) <= True
minus(s(s(z)), s(s(z)), z) <= True
minus(s(s(z)), s(z), s(z)) <= True
minus(s(s(z)), z, s(s(z))) <= True
minus(s(z), s(s(z)), z) <= True
minus(s(z), s(z), z) <= True
minus(s(z), z, s(z)) <= True
minus(z, s(z), z) <= True
minus(z, z, z) <= True
False <= drop(s(s(z)), cons(a, cons(a, nil)), cons(a, nil))
False <= drop(s(s(z)), cons(a, nil), cons(a, nil))
False <= drop(s(z), cons(a, cons(a, nil)), nil)
False <= drop(s(z), cons(a, nil), cons(a, nil))
False <= drop(z, cons(a, cons(a, nil)), cons(a, nil))
False <= length(cons(a, cons(a, nil)), s(z))
False <= length(cons(a, nil), s(s(z)))
False <= minus(s(s(s(z))), s(s(z)), z)
False <= minus(s(s(z)), s(s(z)), s(s(z)))
False <= minus(s(s(z)), s(z), s(s(z)))
False <= minus(s(s(z)), s(z), z)
False <= minus(s(z), s(s(z)), s(z))
False <= minus(s(z), s(z), s(s(z)))
False <= minus(s(z), s(z), s(z))
False <= minus(s(z), z, s(s(z)))
}

Learner proposed model:
Found Model:
|_

_r_1 ->
{
  _r_1(s(x_0_0), s(x_1_0)) <= _r_1(x_0_0, x_1_0)
  _r_1(s(x_0_0), z) <= True
}
;
_r_2 ->
{
  _r_2(z, s(x_1_0)) <= True
  _r_2(z, z) <= True
}
;
_r_3 ->
{
  _r_3(s(x_0_0), s(x_1_0)) <= _r_2(x_0_0, x_1_0)
  _r_3(z, z) <= True
}
;
_r_4 ->
{
  _r_4(s(x_0_0), cons(x_1_0, x_1_1)) <= _r_4(x_0_0, x_1_1)
  _r_4(z, cons(x_1_0, x_1_1)) <= True
}
;
_r_5 ->
{
  _r_5(s(x_0_0), cons(x_1_0, x_1_1)) <= True
  _r_5(s(x_0_0), nil) <= True
  _r_5(z, nil) <= True
}
;
_r_6 ->
{
  _r_6(cons(x_0_0, x_0_1), cons(x_1_0, x_1_1)) <= True
  _r_6(nil, nil) <= True
}
;
drop ->
{
  drop(s(x_0_0), cons(x_1_0, x_1_1), cons(x_2_0, x_2_1)) <= _r_4(x_0_0, x_1_1)
  drop(s(x_0_0), cons(x_1_0, x_1_1), nil) <= _r_5(x_0_0, x_1_1)
  drop(s(x_0_0), nil, nil) <= True
  drop(z, cons(x_1_0, x_1_1), cons(x_2_0, x_2_1)) <= _r_6(x_1_1, x_2_1)
  drop(z, nil, nil) <= True
}
;
length ->
{
  length(cons(x_0_0, x_0_1), s(x_1_0)) <= length(x_0_1, x_1_0)
  length(nil, z) <= True
}
;
minus ->
{
  minus(s(x_0_0), s(x_1_0), s(x_2_0)) <= _r_1(x_0_0, x_2_0)
  minus(s(x_0_0), s(x_1_0), z) <= _r_2(x_0_0, x_1_0)
  minus(s(x_0_0), s(x_1_0), z) <= _r_3(x_0_0, x_1_0)
  minus(s(x_0_0), z, s(x_2_0)) <= _r_3(x_0_0, x_2_0)
  minus(z, s(x_1_0), z) <= True
  minus(z, z, z) <= True
}

--
Equality automata are defined for: {elt, eltlist, nat}
_|


Answer of teacher:


drop(s(u), nil, nil) <= True -> No: ()
drop(z, l, l) <= True -> No: ()
length(nil, z) <= True -> No: ()
minus(s(u), z, s(u)) <= True -> Yes: {
u -> s(s(v0_0))
}
minus(z, y, z) <= True -> No: ()
eq_nat(_rya, _tya) <= drop(n, l1, _sya) /\ length(_sya, _rya) /\ length(l1, _uya) /\ minus(_uya, n, _tya) -> Yes: {
_rya -> z  ;  _sya -> nil  ;  _tya -> s(z)  ;  _uya -> s(s(z))  ;  l1 -> cons(l1_0, cons(v3_0, nil))  ;  n -> s(s(v2_0))
}
drop(s(u), cons(x2, x3), _dya) <= drop(u, x3, _dya) -> No: ()
length(cons(x, ll), s(_iya)) <= length(ll, _iya) -> No: ()
minus(s(u), s(x2), _mya) <= minus(u, x2, _mya) -> Yes: {
_mya -> s(s(s(z)))  ;  u -> s(s(z))  ;  x2 -> z
}



-------------------------------------------
Step 17, which took 3.858948 s (model generation: 3.858228,  model checking: 0.000720):

Ground examples at the beginning of this step are:
{
drop(s(s(z)), cons(a, cons(a, cons(a, nil))), cons(a, nil)) <= True
drop(s(s(z)), cons(a, cons(a, nil)), nil) <= True
drop(s(s(z)), cons(a, nil), nil) <= True
drop(s(z), cons(a, cons(a, nil)), cons(a, nil)) <= True
drop(s(z), cons(a, nil), nil) <= True
drop(s(z), nil, nil) <= True
drop(z, cons(a, cons(a, cons(a, nil))), cons(a, cons(a, cons(a, nil)))) <= True
drop(z, cons(a, cons(a, nil)), cons(a, cons(a, nil))) <= True
drop(z, cons(a, nil), cons(a, nil)) <= True
drop(z, nil, nil) <= True
length(cons(a, cons(a, cons(a, nil))), s(s(s(z)))) <= True
length(cons(a, cons(a, nil)), s(s(z))) <= True
length(cons(a, nil), s(z)) <= True
length(nil, z) <= True
minus(s(s(s(z))), s(z), s(s(z))) <= True
minus(s(s(s(z))), z, s(s(s(z)))) <= True
minus(s(s(z)), s(s(z)), z) <= True
minus(s(s(z)), s(z), s(z)) <= True
minus(s(s(z)), z, s(s(z))) <= True
minus(s(z), s(s(z)), z) <= True
minus(s(z), s(z), z) <= True
minus(s(z), z, s(z)) <= True
minus(z, s(z), z) <= True
minus(z, z, z) <= True
False <= drop(s(s(z)), cons(a, cons(a, nil)), cons(a, nil))
False <= drop(s(s(z)), cons(a, nil), cons(a, nil))
False <= drop(s(z), cons(a, cons(a, nil)), nil)
False <= drop(s(z), cons(a, nil), cons(a, nil))
False <= drop(z, cons(a, cons(a, nil)), cons(a, nil))
False <= length(cons(a, cons(a, nil)), s(z))
False <= length(cons(a, nil), s(s(z)))
False <= minus(s(s(s(z))), s(s(z)), z)
False <= minus(s(s(z)), s(s(z)), s(s(z)))
False <= minus(s(s(z)), s(s(z)), s(z))
False <= minus(s(s(z)), s(z), s(s(z)))
False <= minus(s(s(z)), s(z), z)
minus(s(s(s(z))), s(z), s(s(s(z)))) <= minus(s(s(z)), z, s(s(s(z))))
False <= minus(s(z), s(s(z)), s(z))
False <= minus(s(z), s(z), s(s(z)))
False <= minus(s(z), s(z), s(z))
False <= minus(s(z), z, s(s(z)))
}

Learner proposed model:
Found Model:
|_

_r_1 ->
{
  _r_1(s(x_0_0), s(x_1_0)) <= _r_1(x_0_0, x_1_0)
  _r_1(s(x_0_0), z) <= True
}
;
_r_2 ->
{
  _r_2(z, s(x_1_0)) <= True
}
;
_r_3 ->
{
  _r_3(s(x_0_0), s(x_1_0)) <= _r_3(x_0_0, x_1_0)
  _r_3(z, z) <= True
}
;
_r_4 ->
{
  _r_4(s(x_0_0), cons(x_1_0, x_1_1)) <= True
  _r_4(s(x_0_0), nil) <= True
  _r_4(z, nil) <= True
}
;
_r_5 ->
{
  _r_5(s(x_0_0), cons(x_1_0, x_1_1)) <= _r_5(x_0_0, x_1_1)
  _r_5(z, cons(x_1_0, x_1_1)) <= True
}
;
_r_6 ->
{
  _r_6(cons(x_0_0, x_0_1), cons(x_1_0, x_1_1)) <= True
  _r_6(nil, nil) <= True
}
;
drop ->
{
  drop(s(x_0_0), cons(x_1_0, x_1_1), cons(x_2_0, x_2_1)) <= _r_5(x_0_0, x_1_1)
  drop(s(x_0_0), cons(x_1_0, x_1_1), nil) <= _r_4(x_0_0, x_1_1)
  drop(s(x_0_0), nil, nil) <= True
  drop(z, cons(x_1_0, x_1_1), cons(x_2_0, x_2_1)) <= _r_6(x_1_1, x_2_1)
  drop(z, nil, nil) <= True
}
;
length ->
{
  length(cons(x_0_0, x_0_1), s(x_1_0)) <= length(x_0_1, x_1_0)
  length(nil, z) <= True
}
;
minus ->
{
  minus(s(x_0_0), s(x_1_0), s(x_2_0)) <= _r_1(x_0_0, x_1_0) /\ _r_1(x_0_0, x_2_0)
  minus(s(x_0_0), s(x_1_0), z) <= _r_2(x_0_0, x_1_0)
  minus(s(x_0_0), s(x_1_0), z) <= _r_3(x_0_0, x_1_0)
  minus(s(x_0_0), z, s(x_2_0)) <= _r_3(x_0_0, x_2_0)
  minus(z, s(x_1_0), z) <= True
  minus(z, z, z) <= True
}

--
Equality automata are defined for: {elt, eltlist, nat}
_|


Answer of teacher:


drop(s(u), nil, nil) <= True -> No: ()
drop(z, l, l) <= True -> No: ()
length(nil, z) <= True -> No: ()
minus(s(u), z, s(u)) <= True -> No: ()
minus(z, y, z) <= True -> No: ()
eq_nat(_rya, _tya) <= drop(n, l1, _sya) /\ length(_sya, _rya) /\ length(l1, _uya) /\ minus(_uya, n, _tya) -> Yes: {
_rya -> z  ;  _sya -> nil  ;  _tya -> s(s(z))  ;  _uya -> s(s(s(z)))  ;  l1 -> cons(l1_0, cons(v2_0, cons(v2_0, nil)))  ;  n -> s(s(z))
}
drop(s(u), cons(x2, x3), _dya) <= drop(u, x3, _dya) -> No: ()
length(cons(x, ll), s(_iya)) <= length(ll, _iya) -> No: ()
minus(s(u), s(x2), _mya) <= minus(u, x2, _mya) -> Yes: {
_mya -> z  ;  u -> s(z)  ;  x2 -> s(s(v1_0))
}



-------------------------------------------
Step 18, which took 6.924993 s (model generation: 6.923853,  model checking: 0.001140):

Ground examples at the beginning of this step are:
{
drop(s(s(z)), cons(a, cons(a, cons(a, nil))), cons(a, nil)) <= True
drop(s(s(z)), cons(a, cons(a, nil)), nil) <= True
drop(s(s(z)), cons(a, nil), nil) <= True
drop(s(z), cons(a, cons(a, nil)), cons(a, nil)) <= True
drop(s(z), cons(a, nil), nil) <= True
drop(s(z), nil, nil) <= True
drop(z, cons(a, cons(a, cons(a, nil))), cons(a, cons(a, cons(a, nil)))) <= True
drop(z, cons(a, cons(a, nil)), cons(a, cons(a, nil))) <= True
drop(z, cons(a, nil), cons(a, nil)) <= True
drop(z, nil, nil) <= True
length(cons(a, cons(a, cons(a, nil))), s(s(s(z)))) <= True
length(cons(a, cons(a, nil)), s(s(z))) <= True
length(cons(a, nil), s(z)) <= True
length(nil, z) <= True
minus(s(s(s(z))), s(z), s(s(z))) <= True
minus(s(s(s(z))), z, s(s(s(z)))) <= True
minus(s(s(z)), s(s(s(z))), z) <= True
minus(s(s(z)), s(s(z)), z) <= True
minus(s(s(z)), s(z), s(z)) <= True
minus(s(s(z)), z, s(s(z))) <= True
minus(s(z), s(s(z)), z) <= True
minus(s(z), s(z), z) <= True
minus(s(z), z, s(z)) <= True
minus(z, s(z), z) <= True
minus(z, z, z) <= True
False <= drop(s(s(z)), cons(a, cons(a, cons(a, nil))), nil) /\ minus(s(s(s(z))), s(s(z)), s(s(z)))
False <= drop(s(s(z)), cons(a, cons(a, nil)), cons(a, nil))
False <= drop(s(s(z)), cons(a, nil), cons(a, nil))
False <= drop(s(z), cons(a, cons(a, nil)), nil)
False <= drop(s(z), cons(a, nil), cons(a, nil))
False <= drop(z, cons(a, cons(a, nil)), cons(a, nil))
False <= length(cons(a, cons(a, nil)), s(z))
False <= length(cons(a, nil), s(s(z)))
False <= minus(s(s(s(z))), s(s(z)), z)
False <= minus(s(s(z)), s(s(z)), s(s(z)))
False <= minus(s(s(z)), s(s(z)), s(z))
False <= minus(s(s(z)), s(z), s(s(z)))
False <= minus(s(s(z)), s(z), z)
minus(s(s(s(z))), s(z), s(s(s(z)))) <= minus(s(s(z)), z, s(s(s(z))))
False <= minus(s(z), s(s(z)), s(z))
False <= minus(s(z), s(z), s(s(z)))
False <= minus(s(z), s(z), s(z))
False <= minus(s(z), z, s(s(z)))
}

Learner proposed model:
Found Model:
|_

_r_1 ->
{
  _r_1(s(x_0_0), z) <= _r_6(x_0_0)
  _r_1(z, z) <= True
}
;
_r_2 ->
{
  _r_2(s(x_0_0), s(x_1_0)) <= _r_2(x_0_0, x_1_0)
  _r_2(z, s(x_1_0)) <= True
  _r_2(z, z) <= True
}
;
_r_3 ->
{
  _r_3(s(x_0_0), cons(x_1_0, x_1_1)) <= _r_3(x_0_0, x_1_1)
  _r_3(z, cons(x_1_0, x_1_1)) <= True
}
;
_r_4 ->
{
  _r_4(s(x_0_0), cons(x_1_0, x_1_1)) <= True
  _r_4(s(x_0_0), nil) <= True
  _r_4(z, nil) <= True
}
;
_r_5 ->
{
  _r_5(cons(x_0_0, x_0_1), cons(x_1_0, x_1_1)) <= True
  _r_5(nil, nil) <= True
}
;
_r_6 ->
{
  _r_6(s(x_0_0)) <= True
}
;
drop ->
{
  drop(s(x_0_0), cons(x_1_0, x_1_1), cons(x_2_0, x_2_1)) <= _r_3(x_0_0, x_1_1)
  drop(s(x_0_0), cons(x_1_0, x_1_1), nil) <= _r_4(x_0_0, x_1_1)
  drop(s(x_0_0), nil, nil) <= True
  drop(z, cons(x_1_0, x_1_1), cons(x_2_0, x_2_1)) <= _r_5(x_1_1, x_2_1)
  drop(z, nil, nil) <= True
}
;
length ->
{
  length(cons(x_0_0, x_0_1), s(x_1_0)) <= length(x_0_1, x_1_0)
  length(nil, z) <= True
}
;
minus ->
{
  minus(s(x_0_0), s(x_1_0), s(x_2_0)) <= _r_1(x_0_0, x_1_0) /\ _r_6(x_0_0)
  minus(s(x_0_0), s(x_1_0), s(x_2_0)) <= _r_1(x_1_0, x_2_0) /\ _r_6(x_0_0)
  minus(s(x_0_0), s(x_1_0), z) <= _r_2(x_0_0, x_1_0)
  minus(s(x_0_0), z, s(x_2_0)) <= _r_1(x_0_0, x_2_0)
  minus(s(x_0_0), z, s(x_2_0)) <= _r_2(x_0_0, x_2_0) /\ _r_6(x_0_0)
  minus(z, s(x_1_0), z) <= True
  minus(z, z, z) <= True
}

--
Equality automata are defined for: {elt, eltlist, nat}
_|


Answer of teacher:


drop(s(u), nil, nil) <= True -> No: ()
drop(z, l, l) <= True -> No: ()
length(nil, z) <= True -> No: ()
minus(s(u), z, s(u)) <= True -> No: ()
minus(z, y, z) <= True -> No: ()
eq_nat(_rya, _tya) <= drop(n, l1, _sya) /\ length(_sya, _rya) /\ length(l1, _uya) /\ minus(_uya, n, _tya) -> Yes: {
_rya -> s(z)  ;  _sya -> cons(_sya_0, nil)  ;  _tya -> s(s(v1_0))  ;  _uya -> s(s(s(z)))  ;  l1 -> cons(l1_0, cons(v2_0, cons(v1_0, nil)))  ;  n -> s(z)
}
drop(s(u), cons(x2, x3), _dya) <= drop(u, x3, _dya) -> No: ()
length(cons(x, ll), s(_iya)) <= length(ll, _iya) -> No: ()
minus(s(u), s(x2), _mya) <= minus(u, x2, _mya) -> Yes: {
_mya -> s(z)  ;  u -> s(s(v0_0))  ;  x2 -> s(z)
}



-------------------------------------------
Step 19, which took 16.839887 s (model generation: 16.835336,  model checking: 0.004551):

Ground examples at the beginning of this step are:
{
drop(s(s(z)), cons(a, cons(a, cons(a, nil))), cons(a, nil)) <= True
drop(s(s(z)), cons(a, cons(a, nil)), nil) <= True
drop(s(s(z)), cons(a, nil), nil) <= True
drop(s(z), cons(a, cons(a, nil)), cons(a, nil)) <= True
drop(s(z), cons(a, nil), nil) <= True
drop(s(z), nil, nil) <= True
drop(z, cons(a, cons(a, cons(a, nil))), cons(a, cons(a, cons(a, nil)))) <= True
drop(z, cons(a, cons(a, nil)), cons(a, cons(a, nil))) <= True
drop(z, cons(a, nil), cons(a, nil)) <= True
drop(z, nil, nil) <= True
length(cons(a, cons(a, cons(a, nil))), s(s(s(z)))) <= True
length(cons(a, cons(a, nil)), s(s(z))) <= True
length(cons(a, nil), s(z)) <= True
length(nil, z) <= True
minus(s(s(s(z))), s(s(z)), s(z)) <= True
minus(s(s(s(z))), s(z), s(s(z))) <= True
minus(s(s(s(z))), z, s(s(s(z)))) <= True
minus(s(s(z)), s(s(s(z))), z) <= True
minus(s(s(z)), s(s(z)), z) <= True
minus(s(s(z)), s(z), s(z)) <= True
minus(s(s(z)), z, s(s(z))) <= True
minus(s(z), s(s(z)), z) <= True
minus(s(z), s(z), z) <= True
minus(s(z), z, s(z)) <= True
minus(z, s(z), z) <= True
minus(z, z, z) <= True
False <= drop(s(s(z)), cons(a, cons(a, cons(a, nil))), nil) /\ minus(s(s(s(z))), s(s(z)), s(s(z)))
False <= drop(s(s(z)), cons(a, cons(a, nil)), cons(a, nil))
False <= drop(s(s(z)), cons(a, nil), cons(a, nil))
False <= drop(s(z), cons(a, cons(a, cons(a, nil))), cons(a, nil))
False <= drop(s(z), cons(a, cons(a, nil)), nil)
False <= drop(s(z), cons(a, nil), cons(a, nil))
False <= drop(z, cons(a, cons(a, nil)), cons(a, nil))
False <= length(cons(a, cons(a, nil)), s(z))
False <= length(cons(a, nil), s(s(z)))
False <= minus(s(s(s(z))), s(s(z)), z)
False <= minus(s(s(z)), s(s(z)), s(s(z)))
False <= minus(s(s(z)), s(s(z)), s(z))
False <= minus(s(s(z)), s(z), s(s(z)))
False <= minus(s(s(z)), s(z), z)
minus(s(s(s(z))), s(z), s(s(s(z)))) <= minus(s(s(z)), z, s(s(s(z))))
False <= minus(s(z), s(s(z)), s(z))
False <= minus(s(z), s(z), s(s(z)))
False <= minus(s(z), s(z), s(z))
False <= minus(s(z), z, s(s(z)))
}

Learner proposed model:
Found Model:
|_

_r_1 ->
{
  _r_1(s(x_0_0), z) <= _r_4(x_0_0)
  _r_1(z, z) <= True
}
;
_r_2 ->
{
  _r_2(s(x_0_0), s(x_1_0)) <= _r_2(x_0_0, x_1_0)
  _r_2(z, s(x_1_0)) <= True
  _r_2(z, z) <= True
}
;
_r_3 ->
{
  _r_3(s(x_0_0), cons(x_1_0, x_1_1)) <= _r_3(x_0_0, x_1_1)
  _r_3(z, cons(x_1_0, x_1_1)) <= _r_6(x_1_1)
}
;
_r_4 ->
{
  _r_4(s(x_0_0)) <= True
}
;
_r_5 ->
{
  _r_5(cons(x_0_0, x_0_1)) <= True
}
;
_r_6 ->
{
  _r_6(nil) <= True
}
;
drop ->
{
  drop(s(x_0_0), cons(x_1_0, x_1_1), cons(x_2_0, x_2_1)) <= _r_3(x_0_0, x_1_1)
  drop(s(x_0_0), cons(x_1_0, x_1_1), nil) <= _r_4(x_0_0)
  drop(s(x_0_0), cons(x_1_0, x_1_1), nil) <= _r_6(x_1_1)
  drop(s(x_0_0), nil, nil) <= True
  drop(z, cons(x_1_0, x_1_1), cons(x_2_0, x_2_1)) <= _r_5(x_2_1)
  drop(z, cons(x_1_0, x_1_1), cons(x_2_0, x_2_1)) <= _r_6(x_1_1)
  drop(z, nil, nil) <= True
}
;
length ->
{
  length(cons(x_0_0, x_0_1), s(x_1_0)) <= length(x_0_1, x_1_0)
  length(nil, z) <= True
}
;
minus ->
{
  minus(s(x_0_0), s(x_1_0), s(x_2_0)) <= _r_1(x_0_0, x_1_0) /\ _r_2(x_1_0, x_2_0) /\ _r_4(x_0_0)
  minus(s(x_0_0), s(x_1_0), s(x_2_0)) <= _r_1(x_0_0, x_2_0) /\ _r_4(x_0_0)
  minus(s(x_0_0), s(x_1_0), s(x_2_0)) <= _r_1(x_1_0, x_2_0) /\ _r_4(x_0_0)
  minus(s(x_0_0), s(x_1_0), z) <= _r_2(x_0_0, x_1_0)
  minus(s(x_0_0), z, s(x_2_0)) <= _r_1(x_0_0, x_2_0)
  minus(s(x_0_0), z, s(x_2_0)) <= _r_4(x_0_0)
  minus(z, s(x_1_0), z) <= True
  minus(z, z, z) <= True
}

--
Equality automata are defined for: {elt, eltlist, nat}
_|


Answer of teacher:


drop(s(u), nil, nil) <= True -> No: ()
drop(z, l, l) <= True -> No: ()
length(nil, z) <= True -> No: ()
minus(s(u), z, s(u)) <= True -> No: ()
minus(z, y, z) <= True -> No: ()
eq_nat(_rya, _tya) <= drop(n, l1, _sya) /\ length(_sya, _rya) /\ length(l1, _uya) /\ minus(_uya, n, _tya) -> Yes: {
_rya -> z  ;  _sya -> nil  ;  _tya -> s(z)  ;  _uya -> s(s(z))  ;  l1 -> cons(l1_0, cons(v1_0, nil))  ;  n -> s(s(s(v0_0)))
}
drop(s(u), cons(x2, x3), _dya) <= drop(u, x3, _dya) -> Yes: {
_dya -> cons(_dya_0, cons(v0_0, v0_1))  ;  u -> z  ;  x3 -> cons(x3_0, cons(v0_0, v0_1))
}
length(cons(x, ll), s(_iya)) <= length(ll, _iya) -> No: ()
minus(s(u), s(x2), _mya) <= minus(u, x2, _mya) -> Yes: {
_mya -> s(s(v2_0))  ;  u -> s(s(s(v0_0)))  ;  x2 -> s(z)
}



-------------------------------------------
Step 20, which took 6.102500 s (model generation: 6.102480,  model checking: 0.000020):

Ground examples at the beginning of this step are:
{
drop(s(s(z)), cons(a, cons(a, cons(a, nil))), cons(a, nil)) <= True
drop(s(s(z)), cons(a, cons(a, nil)), nil) <= True
drop(s(s(z)), cons(a, nil), nil) <= True
drop(s(z), cons(a, cons(a, cons(a, nil))), cons(a, cons(a, nil))) <= True
drop(s(z), cons(a, cons(a, nil)), cons(a, nil)) <= True
drop(s(z), cons(a, nil), nil) <= True
drop(s(z), nil, nil) <= True
drop(z, cons(a, cons(a, cons(a, nil))), cons(a, cons(a, cons(a, nil)))) <= True
drop(z, cons(a, cons(a, nil)), cons(a, cons(a, nil))) <= True
drop(z, cons(a, nil), cons(a, nil)) <= True
drop(z, nil, nil) <= True
length(cons(a, cons(a, cons(a, nil))), s(s(s(z)))) <= True
length(cons(a, cons(a, nil)), s(s(z))) <= True
length(cons(a, nil), s(z)) <= True
length(nil, z) <= True
minus(s(s(s(s(z)))), s(s(z)), s(s(z))) <= True
minus(s(s(s(z))), s(s(z)), s(z)) <= True
minus(s(s(s(z))), s(z), s(s(z))) <= True
minus(s(s(s(z))), z, s(s(s(z)))) <= True
minus(s(s(z)), s(s(s(z))), z) <= True
minus(s(s(z)), s(s(z)), z) <= True
minus(s(s(z)), s(z), s(z)) <= True
minus(s(s(z)), z, s(s(z))) <= True
minus(s(z), s(s(z)), z) <= True
minus(s(z), s(z), z) <= True
minus(s(z), z, s(z)) <= True
minus(z, s(z), z) <= True
minus(z, z, z) <= True
False <= drop(s(s(s(z))), cons(a, cons(a, nil)), nil) /\ minus(s(s(z)), s(s(s(z))), s(z))
False <= drop(s(s(z)), cons(a, cons(a, cons(a, nil))), nil) /\ minus(s(s(s(z))), s(s(z)), s(s(z)))
False <= drop(s(s(z)), cons(a, cons(a, nil)), cons(a, nil))
False <= drop(s(s(z)), cons(a, nil), cons(a, nil))
False <= drop(s(z), cons(a, cons(a, cons(a, nil))), cons(a, nil))
False <= drop(s(z), cons(a, cons(a, nil)), nil)
False <= drop(s(z), cons(a, nil), cons(a, nil))
False <= drop(z, cons(a, cons(a, nil)), cons(a, nil))
False <= length(cons(a, cons(a, nil)), s(z))
False <= length(cons(a, nil), s(s(z)))
False <= minus(s(s(s(z))), s(s(z)), z)
False <= minus(s(s(z)), s(s(z)), s(s(z)))
False <= minus(s(s(z)), s(s(z)), s(z))
False <= minus(s(s(z)), s(z), s(s(z)))
False <= minus(s(s(z)), s(z), z)
minus(s(s(s(z))), s(z), s(s(s(z)))) <= minus(s(s(z)), z, s(s(s(z))))
False <= minus(s(z), s(s(z)), s(z))
False <= minus(s(z), s(z), s(s(z)))
False <= minus(s(z), s(z), s(z))
False <= minus(s(z), z, s(s(z)))
}

Learner proposed model:
Found Model:
|_

_r_1 ->
{
  _r_1(s(x_0_0), s(x_1_0)) <= _r_5(x_0_0)
  _r_1(s(x_0_0), z) <= True
  _r_1(z, z) <= True
}
;
_r_2 ->
{
  _r_2(s(x_0_0), s(x_1_0)) <= _r_2(x_0_0, x_1_0)
  _r_2(s(x_0_0), z) <= _r_5(x_0_0)
  _r_2(z, s(x_1_0)) <= True
  _r_2(z, z) <= True
}
;
_r_3 ->
{
  _r_3(s(x_0_0), cons(x_1_0, x_1_1)) <= _r_3(x_0_0, x_1_1)
  _r_3(z, cons(x_1_0, x_1_1)) <= _r_6(x_1_1)
}
;
_r_4 ->
{
  _r_4(a, cons(x_1_0, x_1_1)) <= True
}
;
_r_5 ->
{
  _r_5(s(x_0_0)) <= True
}
;
_r_6 ->
{
  _r_6(nil) <= True
}
;
drop ->
{
  drop(s(x_0_0), cons(x_1_0, x_1_1), cons(x_2_0, x_2_1)) <= _r_3(x_0_0, x_1_1)
  drop(s(x_0_0), cons(x_1_0, x_1_1), cons(x_2_0, x_2_1)) <= _r_4(x_1_0, x_2_1)
  drop(s(x_0_0), cons(x_1_0, x_1_1), nil) <= _r_5(x_0_0)
  drop(s(x_0_0), cons(x_1_0, x_1_1), nil) <= _r_6(x_1_1)
  drop(s(x_0_0), nil, nil) <= True
  drop(z, cons(x_1_0, x_1_1), cons(x_2_0, x_2_1)) <= _r_4(x_1_0, x_2_1)
  drop(z, cons(x_1_0, x_1_1), cons(x_2_0, x_2_1)) <= _r_6(x_1_1)
  drop(z, nil, nil) <= True
}
;
length ->
{
  length(cons(x_0_0, x_0_1), s(x_1_0)) <= length(x_0_1, x_1_0)
  length(nil, z) <= True
}
;
minus ->
{
  minus(s(x_0_0), s(x_1_0), s(x_2_0)) <= _r_1(x_0_0, x_1_0) /\ _r_1(x_1_0, x_2_0) /\ _r_5(x_0_0)
  minus(s(x_0_0), s(x_1_0), s(x_2_0)) <= _r_1(x_0_0, x_2_0) /\ _r_2(x_0_0, x_1_0) /\ _r_5(x_2_0)
  minus(s(x_0_0), s(x_1_0), z) <= _r_2(x_0_0, x_1_0)
  minus(s(x_0_0), z, s(x_2_0)) <= _r_1(x_0_0, x_2_0)
  minus(s(x_0_0), z, s(x_2_0)) <= _r_5(x_0_0)
  minus(z, s(x_1_0), z) <= True
  minus(z, z, z) <= True
}

--
Equality automata are defined for: {elt, eltlist, nat}
_|


Answer of teacher:


drop(s(u), nil, nil) <= True -> Maybe: out of time
drop(z, l, l) <= True -> Maybe: out of time
length(nil, z) <= True -> Maybe: out of time
minus(s(u), z, s(u)) <= True -> Maybe: out of time
minus(z, y, z) <= True -> Maybe: out of time
eq_nat(_rya, _tya) <= drop(n, l1, _sya) /\ length(_sya, _rya) /\ length(l1, _uya) /\ minus(_uya, n, _tya) -> Maybe: out of time
drop(s(u), cons(x2, x3), _dya) <= drop(u, x3, _dya) -> Maybe: out of time
length(cons(x, ll), s(_iya)) <= length(ll, _iya) -> Maybe: out of time
minus(s(u), s(x2), _mya) <= minus(u, x2, _mya) -> Maybe: out of time




Total time: 40.034535
Learner time: 40.014142
Teacher time: 0.019353
Reasons for stopping: Maybe:  other: Some clauses could not be checked:
{
{drop([s(u), nil, nil])} -> out of time
{drop([z, l, l])} -> out of time
{length([nil, z])} -> out of time
{minus([s(u), z, s(u)])} -> out of time
{minus([z, y, z])} -> out of time
{eq_nat([_rya, _tya]), ~drop([n, l1, _sya]), ~length([_sya, _rya]), ~length([l1, _uya]), ~minus([_uya, n, _tya])} -> out of time
{drop([s(u), cons(x2, x3), _dya]), ~drop([u, x3, _dya])} -> out of time
{length([cons(x, ll), s(_iya)]), ~length([ll, _iya])} -> out of time
{minus([s(u), s(x2), _mya]), ~minus([u, x2, _mya])} -> out of time
}

Last solver state:

Clauses:
{
drop(s(u), nil, nil) <= True
drop(z, l, l) <= True
length(nil, z) <= True
minus(s(u), z, s(u)) <= True
minus(z, y, z) <= True
eq_nat(_rya, _tya) <= drop(n, l1, _sya) /\ length(_sya, _rya) /\ length(l1, _uya) /\ minus(_uya, n, _tya)
drop(s(u), cons(x2, x3), _dya) <= drop(u, x3, _dya)
length(cons(x, ll), s(_iya)) <= length(ll, _iya)
minus(s(u), s(x2), _mya) <= minus(u, x2, _mya)
}

Accumulated learning constraints:
{
drop(s(s(z)), cons(a, cons(a, cons(a, nil))), cons(a, nil)) <= True
drop(s(s(z)), cons(a, cons(a, nil)), nil) <= True
drop(s(s(z)), cons(a, nil), nil) <= True
drop(s(z), cons(a, cons(a, cons(a, nil))), cons(a, cons(a, nil))) <= True
drop(s(z), cons(a, cons(a, nil)), cons(a, nil)) <= True
drop(s(z), cons(a, nil), nil) <= True
drop(s(z), nil, nil) <= True
drop(z, cons(a, cons(a, cons(a, nil))), cons(a, cons(a, cons(a, nil)))) <= True
drop(z, cons(a, cons(a, nil)), cons(a, cons(a, nil))) <= True
drop(z, cons(a, nil), cons(a, nil)) <= True
drop(z, nil, nil) <= True
length(cons(a, cons(a, cons(a, nil))), s(s(s(z)))) <= True
length(cons(a, cons(a, nil)), s(s(z))) <= True
length(cons(a, nil), s(z)) <= True
length(nil, z) <= True
minus(s(s(s(s(z)))), s(s(z)), s(s(z))) <= True
minus(s(s(s(z))), s(s(z)), s(z)) <= True
minus(s(s(s(z))), s(z), s(s(z))) <= True
minus(s(s(s(z))), z, s(s(s(z)))) <= True
minus(s(s(z)), s(s(s(z))), z) <= True
minus(s(s(z)), s(s(z)), z) <= True
minus(s(s(z)), s(z), s(z)) <= True
minus(s(s(z)), z, s(s(z))) <= True
minus(s(z), s(s(z)), z) <= True
minus(s(z), s(z), z) <= True
minus(s(z), z, s(z)) <= True
minus(z, s(z), z) <= True
minus(z, z, z) <= True
False <= drop(s(s(s(z))), cons(a, cons(a, nil)), nil) /\ minus(s(s(z)), s(s(s(z))), s(z))
False <= drop(s(s(z)), cons(a, cons(a, cons(a, nil))), nil) /\ minus(s(s(s(z))), s(s(z)), s(s(z)))
False <= drop(s(s(z)), cons(a, cons(a, nil)), cons(a, nil))
False <= drop(s(s(z)), cons(a, nil), cons(a, nil))
False <= drop(s(z), cons(a, cons(a, cons(a, nil))), cons(a, nil))
False <= drop(s(z), cons(a, cons(a, nil)), nil)
False <= drop(s(z), cons(a, nil), cons(a, nil))
False <= drop(z, cons(a, cons(a, nil)), cons(a, nil))
False <= length(cons(a, cons(a, nil)), s(z))
False <= length(cons(a, nil), s(s(z)))
False <= minus(s(s(s(z))), s(s(z)), z)
False <= minus(s(s(z)), s(s(z)), s(s(z)))
False <= minus(s(s(z)), s(s(z)), s(z))
False <= minus(s(s(z)), s(z), s(s(z)))
False <= minus(s(s(z)), s(z), z)
minus(s(s(s(z))), s(z), s(s(s(z)))) <= minus(s(s(z)), z, s(s(s(z))))
False <= minus(s(z), s(s(z)), s(z))
False <= minus(s(z), s(z), s(s(z)))
False <= minus(s(z), s(z), s(z))
False <= minus(s(z), z, s(s(z)))
}

Current best model:
|_

_r_1 ->
{
  _r_1(s(x_0_0), s(x_1_0)) <= _r_5(x_0_0)
  _r_1(s(x_0_0), z) <= True
  _r_1(z, z) <= True
}
;
_r_2 ->
{
  _r_2(s(x_0_0), s(x_1_0)) <= _r_2(x_0_0, x_1_0)
  _r_2(s(x_0_0), z) <= _r_5(x_0_0)
  _r_2(z, s(x_1_0)) <= True
  _r_2(z, z) <= True
}
;
_r_3 ->
{
  _r_3(s(x_0_0), cons(x_1_0, x_1_1)) <= _r_3(x_0_0, x_1_1)
  _r_3(z, cons(x_1_0, x_1_1)) <= _r_6(x_1_1)
}
;
_r_4 ->
{
  _r_4(a, cons(x_1_0, x_1_1)) <= True
}
;
_r_5 ->
{
  _r_5(s(x_0_0)) <= True
}
;
_r_6 ->
{
  _r_6(nil) <= True
}
;
drop ->
{
  drop(s(x_0_0), cons(x_1_0, x_1_1), cons(x_2_0, x_2_1)) <= _r_3(x_0_0, x_1_1)
  drop(s(x_0_0), cons(x_1_0, x_1_1), cons(x_2_0, x_2_1)) <= _r_4(x_1_0, x_2_1)
  drop(s(x_0_0), cons(x_1_0, x_1_1), nil) <= _r_5(x_0_0)
  drop(s(x_0_0), cons(x_1_0, x_1_1), nil) <= _r_6(x_1_1)
  drop(s(x_0_0), nil, nil) <= True
  drop(z, cons(x_1_0, x_1_1), cons(x_2_0, x_2_1)) <= _r_4(x_1_0, x_2_1)
  drop(z, cons(x_1_0, x_1_1), cons(x_2_0, x_2_1)) <= _r_6(x_1_1)
  drop(z, nil, nil) <= True
}
;
length ->
{
  length(cons(x_0_0, x_0_1), s(x_1_0)) <= length(x_0_1, x_1_0)
  length(nil, z) <= True
}
;
minus ->
{
  minus(s(x_0_0), s(x_1_0), s(x_2_0)) <= _r_1(x_0_0, x_1_0) /\ _r_1(x_1_0, x_2_0) /\ _r_5(x_0_0)
  minus(s(x_0_0), s(x_1_0), s(x_2_0)) <= _r_1(x_0_0, x_2_0) /\ _r_2(x_0_0, x_1_0) /\ _r_5(x_2_0)
  minus(s(x_0_0), s(x_1_0), z) <= _r_2(x_0_0, x_1_0)
  minus(s(x_0_0), z, s(x_2_0)) <= _r_1(x_0_0, x_2_0)
  minus(s(x_0_0), z, s(x_2_0)) <= _r_5(x_0_0)
  minus(z, s(x_1_0), z) <= True
  minus(z, z, z) <= True
}

--
Equality automata are defined for: {elt, eltlist, nat}
_|








