Solving ../../../../benchmarks/smtlib/true/tree_flip_preserves_depth.smt2...

Inference procedure has parameters:
Timeout: Some(30.) (sec)
Approximation method: remove every clause that can be safely removed



Learning problem is:

env: {
elt -> {a, b}  ;  etree -> {leaf, node}  ;  nat -> {s, z}
}
definition:
{
(flip, F:
{
flip(leaf, leaf) <= True
flip(node(e, t1, t2), node(e, _fv, _gv)) <= flip(t1, _gv) /\ flip(t2, _fv)
}
eq_etree(_iv, _jv) <= flip(_hv, _iv) /\ flip(_hv, _jv)
)
(leq_nat, P:
{
leq_nat(z, n2) <= True
leq_nat(s(nn1), s(nn2)) <= leq_nat(nn1, nn2)
leq_nat(nn1, nn2) <= leq_nat(s(nn1), s(nn2))
False <= leq_nat(s(nn1), z)
}
)
(max_ite, F:
{
leq_nat(x, y) \/ max_ite(x, y, x) <= True
max_ite(x, y, y) <= leq_nat(x, y)
}
eq_nat(_mv, _nv) <= max_ite(_kv, _lv, _mv) /\ max_ite(_kv, _lv, _nv)
)
(height, F:
{
height(leaf, z) <= True
height(node(e, t1, t2), s(_ov)) <= height(t1, _pv) /\ height(t2, _qv) /\ max_ite(_pv, _qv, _ov)
}
eq_nat(_sv, _tv) <= height(_rv, _sv) /\ height(_rv, _tv)
)
}

properties:
{
eq_nat(_uv, _vv) <= flip(t, _wv) /\ height(_wv, _vv) /\ height(t, _uv)
}


over-approximation: {flip, height, max_ite}
under-approximation: {}

Clause system for inference is:

{
flip(leaf, leaf) <= True
height(leaf, z) <= True
leq_nat(x, y) \/ max_ite(x, y, x) <= True
leq_nat(z, n2) <= True
eq_nat(_uv, _vv) <= flip(t, _wv) /\ height(_wv, _vv) /\ height(t, _uv)
flip(node(e, t1, t2), node(e, _fv, _gv)) <= flip(t1, _gv) /\ flip(t2, _fv)
height(node(e, t1, t2), s(_ov)) <= height(t1, _pv) /\ height(t2, _qv) /\ max_ite(_pv, _qv, _ov)
leq_nat(s(nn1), s(nn2)) <= leq_nat(nn1, nn2)
max_ite(x, y, y) <= leq_nat(x, y)
leq_nat(nn1, nn2) <= leq_nat(s(nn1), s(nn2))
False <= leq_nat(s(nn1), z)
}


Solving took 31.057360 seconds.
Maybe:  other: Some clauses could not be checked:
{
{eq_nat([_uv, _vv]), ~flip([t, _wv]), ~height([_wv, _vv]), ~height([t, _uv])} -> out of time
{height([node(e, t1, t2), s(_ov)]), ~height([t1, _pv]), ~height([t2, _qv]), ~max_ite([_pv, _qv, _ov])} -> out of time
}

Last solver state:

Clauses:
{
flip(leaf, leaf) <= True
height(leaf, z) <= True
leq_nat(x, y) \/ max_ite(x, y, x) <= True
leq_nat(z, n2) <= True
eq_nat(_uv, _vv) <= flip(t, _wv) /\ height(_wv, _vv) /\ height(t, _uv)
flip(node(e, t1, t2), node(e, _fv, _gv)) <= flip(t1, _gv) /\ flip(t2, _fv)
height(node(e, t1, t2), s(_ov)) <= height(t1, _pv) /\ height(t2, _qv) /\ max_ite(_pv, _qv, _ov)
leq_nat(s(nn1), s(nn2)) <= leq_nat(nn1, nn2)
max_ite(x, y, y) <= leq_nat(x, y)
leq_nat(nn1, nn2) <= leq_nat(s(nn1), s(nn2))
False <= leq_nat(s(nn1), z)
}

Accumulated learning constraints:
{
flip(leaf, leaf) <= True
flip(node(a, leaf, leaf), node(a, leaf, leaf)) <= True
flip(node(a, node(a, leaf, leaf), leaf), node(a, leaf, node(a, leaf, leaf))) <= True
flip(node(a, node(a, leaf, leaf), node(a, leaf, leaf)), node(a, node(a, leaf, leaf), node(a, leaf, leaf))) <= True
height(leaf, z) <= True
height(node(a, leaf, leaf), s(z)) <= True
height(node(a, leaf, node(a, leaf, leaf)), s(s(z))) <= True
height(node(a, node(a, leaf, leaf), leaf), s(s(z))) <= True
height(node(a, node(a, leaf, leaf), node(a, leaf, leaf)), s(s(z))) <= True
leq_nat(s(s(z)), z) \/ max_ite(s(s(z)), z, s(s(z))) <= True
leq_nat(s(z), s(z)) <= True
leq_nat(z, s(z)) <= True
leq_nat(z, z) <= True
max_ite(s(s(z)), s(z), s(s(z))) <= True
max_ite(s(z), s(z), s(z)) <= True
max_ite(s(z), z, s(z)) <= True
max_ite(z, s(z), s(z)) <= True
max_ite(z, z, z) <= True
False <= flip(node(a, leaf, leaf), node(a, leaf, node(a, leaf, leaf)))
False <= flip(node(a, leaf, leaf), node(a, node(a, leaf, leaf), leaf))
False <= flip(node(a, leaf, node(a, leaf, leaf)), node(a, leaf, leaf))
False <= flip(node(a, leaf, node(a, leaf, leaf)), node(a, node(a, leaf, leaf), leaf)) /\ height(node(a, node(a, leaf, leaf), leaf), s(z))
False <= flip(node(a, node(a, leaf, leaf), leaf), node(a, leaf, leaf))
False <= flip(node(a, node(a, leaf, leaf), leaf), node(a, node(a, leaf, leaf), node(a, leaf, leaf))) /\ height(node(a, node(a, leaf, leaf), leaf), s(z))
False <= flip(node(a, node(a, leaf, leaf), node(a, node(a, leaf, leaf), node(a, leaf, leaf))), node(a, node(a, leaf, leaf), node(a, node(a, leaf, leaf), node(a, leaf, leaf)))) /\ height(node(a, node(a, leaf, leaf), node(a, node(a, leaf, leaf), node(a, leaf, leaf))), s(s(s(z)))) /\ height(node(a, node(a, leaf, leaf), node(a, node(a, leaf, leaf), node(a, leaf, leaf))), s(s(z)))
False <= flip(node(a, node(a, leaf, leaf), node(a, node(a, leaf, leaf), node(a, leaf, leaf))), node(a, node(a, node(a, leaf, leaf), node(a, leaf, leaf)), node(a, leaf, leaf))) /\ height(node(a, node(a, leaf, leaf), node(a, node(a, leaf, leaf), node(a, leaf, leaf))), s(s(s(z)))) /\ height(node(a, node(a, node(a, leaf, leaf), node(a, leaf, leaf)), node(a, leaf, leaf)), s(s(z)))
flip(node(a, leaf, node(a, node(a, node(a, leaf, leaf), leaf), leaf)), node(a, node(a, node(a, leaf, node(a, leaf, leaf)), node(a, leaf, node(a, leaf, leaf))), leaf)) <= flip(node(a, node(a, node(a, leaf, leaf), leaf), leaf), node(a, node(a, leaf, node(a, leaf, leaf)), node(a, leaf, node(a, leaf, leaf))))
False <= height(node(a, leaf, leaf), s(s(z)))
False <= height(node(a, leaf, node(a, leaf, leaf)), s(s(s(z))))
False <= height(node(a, leaf, node(a, leaf, leaf)), s(z))
False <= height(node(a, node(a, leaf, leaf), node(a, leaf, leaf)), s(z))
False <= leq_nat(s(s(z)), s(z))
max_ite(s(z), s(s(z)), s(s(z))) <= leq_nat(s(z), s(s(z)))
False <= leq_nat(s(z), z)
max_ite(z, s(s(z)), s(s(z))) <= leq_nat(z, s(s(z)))
height(node(a, node(a, node(a, leaf, leaf), node(a, leaf, leaf)), leaf), s(s(s(s(z))))) <= max_ite(s(s(z)), z, s(s(s(z))))
height(node(a, node(a, node(a, leaf, leaf), node(a, leaf, leaf)), leaf), s(s(z))) <= max_ite(s(s(z)), z, s(z))
height(node(a, node(a, leaf, leaf), node(a, node(a, leaf, leaf), leaf)), s(s(s(z)))) <= max_ite(s(z), s(s(z)), s(s(z)))
height(node(a, node(a, leaf, leaf), node(a, leaf, leaf)), s(s(s(z)))) <= max_ite(s(z), s(z), s(s(z)))
height(node(a, node(a, leaf, leaf), leaf), s(s(s(z)))) <= max_ite(s(z), z, s(s(z)))
False <= max_ite(z, s(z), s(s(z)))
}

Current best model:
|_

_r_1 ->
{
  _r_1(s(x_0_0), s(x_1_0)) <= _r_1(x_0_0, x_1_0)
  _r_1(z, z) <= True
}
;
_r_2 ->
{
  _r_2(leaf, s(x_1_0)) <= True
  _r_2(node(x_0_0, x_0_1, x_0_2), s(x_1_0)) <= _r_2(x_0_2, x_1_0)
}
;
flip ->
{
  flip(leaf, leaf) <= True
  flip(node(x_0_0, x_0_1, x_0_2), node(x_1_0, x_1_1, x_1_2)) <= flip(x_0_1, x_1_1) /\ flip(x_0_2, x_1_2)
  flip(node(x_0_0, x_0_1, x_0_2), node(x_1_0, x_1_1, x_1_2)) <= flip(x_0_1, x_1_2) /\ flip(x_0_2, x_1_1)
}
;
height ->
{
  height(leaf, z) <= True
  height(node(x_0_0, x_0_1, x_0_2), s(x_1_0)) <= _r_2(x_0_1, x_1_0) /\ height(x_0_2, x_1_0)
  height(node(x_0_0, x_0_1, x_0_2), s(x_1_0)) <= _r_2(x_0_2, x_1_0) /\ height(x_0_1, x_1_0)
  height(node(x_0_0, x_0_1, x_0_2), s(x_1_0)) <= height(x_0_1, x_1_0) /\ height(x_0_2, x_1_0)
}
;
leq_nat ->
{
  leq_nat(s(x_0_0), s(x_1_0)) <= leq_nat(x_0_0, x_1_0)
  leq_nat(z, s(x_1_0)) <= True
  leq_nat(z, z) <= True
}
;
max_ite ->
{
  max_ite(s(x_0_0), s(x_1_0), s(x_2_0)) <= max_ite(x_0_0, x_1_0, x_2_0)
  max_ite(s(x_0_0), z, s(x_2_0)) <= _r_1(x_0_0, x_2_0)
  max_ite(z, s(x_1_0), s(x_2_0)) <= _r_1(x_1_0, x_2_0)
  max_ite(z, z, z) <= True
}

--
Equality automata are defined for: {elt, etree, nat}
_|






-------------------
STEPS:
-------------------------------------------
Step 0, which took 0.019993 s (model generation: 0.018566,  model checking: 0.001427):

Ground examples at the beginning of this step are:
{

}

Learner proposed model:
Found Model:
|_

flip ->
{
  
}
;
height ->
{
  
}
;
leq_nat ->
{
  
}
;
max_ite ->
{
  
}

--
Equality automata are defined for: {elt, etree, nat}
_|


Answer of teacher:


flip(leaf, leaf) <= True -> Yes: {

}
height(leaf, z) <= True -> Yes: {

}
leq_nat(x, y) \/ max_ite(x, y, x) <= True -> Yes: {
x -> z  ;  y -> z
}
leq_nat(z, n2) <= True -> Yes: {
n2 -> z
}
eq_nat(_uv, _vv) <= flip(t, _wv) /\ height(_wv, _vv) /\ height(t, _uv) -> No: ()
flip(node(e, t1, t2), node(e, _fv, _gv)) <= flip(t1, _gv) /\ flip(t2, _fv) -> No: ()
height(node(e, t1, t2), s(_ov)) <= height(t1, _pv) /\ height(t2, _qv) /\ max_ite(_pv, _qv, _ov) -> No: ()
leq_nat(s(nn1), s(nn2)) <= leq_nat(nn1, nn2) -> No: ()
max_ite(x, y, y) <= leq_nat(x, y) -> No: ()
leq_nat(nn1, nn2) <= leq_nat(s(nn1), s(nn2)) -> No: ()
False <= leq_nat(s(nn1), z) -> No: ()



-------------------------------------------
Step 1, which took 0.020540 s (model generation: 0.019993,  model checking: 0.000547):

Ground examples at the beginning of this step are:
{
flip(leaf, leaf) <= True
height(leaf, z) <= True
leq_nat(z, z) <= True
}

Learner proposed model:
Found Model:
|_

flip ->
{
  flip(leaf, leaf) <= True
}
;
height ->
{
  height(leaf, z) <= True
}
;
leq_nat ->
{
  leq_nat(z, z) <= True
}
;
max_ite ->
{
  
}

--
Equality automata are defined for: {elt, etree, nat}
_|


Answer of teacher:


flip(leaf, leaf) <= True -> No: ()
height(leaf, z) <= True -> No: ()
leq_nat(x, y) \/ max_ite(x, y, x) <= True -> Yes: {
x -> z  ;  y -> s(_wgbeg_0)
}
leq_nat(z, n2) <= True -> Yes: {
n2 -> s(_xgbeg_0)
}
eq_nat(_uv, _vv) <= flip(t, _wv) /\ height(_wv, _vv) /\ height(t, _uv) -> No: ()
flip(node(e, t1, t2), node(e, _fv, _gv)) <= flip(t1, _gv) /\ flip(t2, _fv) -> Yes: {
_fv -> leaf  ;  _gv -> leaf  ;  t1 -> leaf  ;  t2 -> leaf
}
height(node(e, t1, t2), s(_ov)) <= height(t1, _pv) /\ height(t2, _qv) /\ max_ite(_pv, _qv, _ov) -> No: ()
leq_nat(s(nn1), s(nn2)) <= leq_nat(nn1, nn2) -> Yes: {
nn1 -> z  ;  nn2 -> z
}
max_ite(x, y, y) <= leq_nat(x, y) -> Yes: {
x -> z  ;  y -> z
}
leq_nat(nn1, nn2) <= leq_nat(s(nn1), s(nn2)) -> No: ()
False <= leq_nat(s(nn1), z) -> No: ()



-------------------------------------------
Step 2, which took 0.028499 s (model generation: 0.026562,  model checking: 0.001937):

Ground examples at the beginning of this step are:
{
flip(leaf, leaf) <= True
flip(node(a, leaf, leaf), node(a, leaf, leaf)) <= True
height(leaf, z) <= True
leq_nat(s(z), s(z)) <= True
leq_nat(z, s(z)) <= True
leq_nat(z, z) <= True
max_ite(z, z, z) <= True
}

Learner proposed model:
Found Model:
|_

flip ->
{
  flip(leaf, leaf) <= True
  flip(node(x_0_0, x_0_1, x_0_2), node(x_1_0, x_1_1, x_1_2)) <= True
}
;
height ->
{
  height(leaf, z) <= True
}
;
leq_nat ->
{
  leq_nat(s(x_0_0), s(x_1_0)) <= True
  leq_nat(z, s(x_1_0)) <= True
  leq_nat(z, z) <= True
}
;
max_ite ->
{
  max_ite(z, z, z) <= True
}

--
Equality automata are defined for: {elt, etree, nat}
_|


Answer of teacher:


flip(leaf, leaf) <= True -> No: ()
height(leaf, z) <= True -> No: ()
leq_nat(x, y) \/ max_ite(x, y, x) <= True -> Yes: {
x -> s(_ehbeg_0)  ;  y -> z
}
leq_nat(z, n2) <= True -> No: ()
eq_nat(_uv, _vv) <= flip(t, _wv) /\ height(_wv, _vv) /\ height(t, _uv) -> No: ()
flip(node(e, t1, t2), node(e, _fv, _gv)) <= flip(t1, _gv) /\ flip(t2, _fv) -> No: ()
height(node(e, t1, t2), s(_ov)) <= height(t1, _pv) /\ height(t2, _qv) /\ max_ite(_pv, _qv, _ov) -> Yes: {
_ov -> z  ;  _pv -> z  ;  _qv -> z  ;  t1 -> leaf  ;  t2 -> leaf
}
leq_nat(s(nn1), s(nn2)) <= leq_nat(nn1, nn2) -> No: ()
max_ite(x, y, y) <= leq_nat(x, y) -> Yes: {
x -> z  ;  y -> s(_jhbeg_0)
}
leq_nat(nn1, nn2) <= leq_nat(s(nn1), s(nn2)) -> Yes: {
nn1 -> s(_phbeg_0)  ;  nn2 -> z
}
False <= leq_nat(s(nn1), z) -> No: ()



-------------------------------------------
Step 3, which took 0.031014 s (model generation: 0.030709,  model checking: 0.000305):

Ground examples at the beginning of this step are:
{
flip(leaf, leaf) <= True
flip(node(a, leaf, leaf), node(a, leaf, leaf)) <= True
height(leaf, z) <= True
height(node(a, leaf, leaf), s(z)) <= True
leq_nat(s(z), s(z)) <= True
leq_nat(s(z), z) \/ max_ite(s(z), z, s(z)) <= True
leq_nat(z, s(z)) <= True
leq_nat(z, z) <= True
max_ite(z, s(z), s(z)) <= True
max_ite(z, z, z) <= True
leq_nat(s(z), z) <= leq_nat(s(s(z)), s(z))
}

Learner proposed model:
Found Model:
|_

flip ->
{
  flip(leaf, leaf) <= True
  flip(node(x_0_0, x_0_1, x_0_2), node(x_1_0, x_1_1, x_1_2)) <= True
}
;
height ->
{
  height(leaf, z) <= True
  height(node(x_0_0, x_0_1, x_0_2), s(x_1_0)) <= True
}
;
leq_nat ->
{
  leq_nat(s(x_0_0), s(x_1_0)) <= True
  leq_nat(s(x_0_0), z) <= True
  leq_nat(z, s(x_1_0)) <= True
  leq_nat(z, z) <= True
}
;
max_ite ->
{
  max_ite(z, s(x_1_0), s(x_2_0)) <= True
  max_ite(z, z, z) <= True
}

--
Equality automata are defined for: {elt, etree, nat}
_|


Answer of teacher:


flip(leaf, leaf) <= True -> No: ()
height(leaf, z) <= True -> No: ()
leq_nat(x, y) \/ max_ite(x, y, x) <= True -> No: ()
leq_nat(z, n2) <= True -> No: ()
eq_nat(_uv, _vv) <= flip(t, _wv) /\ height(_wv, _vv) /\ height(t, _uv) -> Yes: {
_uv -> s(z)  ;  _vv -> s(s(_eibeg_0))  ;  _wv -> node(_thbeg_0, _thbeg_1, _thbeg_2)  ;  t -> node(_uhbeg_0, _uhbeg_1, _uhbeg_2)
}
flip(node(e, t1, t2), node(e, _fv, _gv)) <= flip(t1, _gv) /\ flip(t2, _fv) -> No: ()
height(node(e, t1, t2), s(_ov)) <= height(t1, _pv) /\ height(t2, _qv) /\ max_ite(_pv, _qv, _ov) -> No: ()
leq_nat(s(nn1), s(nn2)) <= leq_nat(nn1, nn2) -> No: ()
max_ite(x, y, y) <= leq_nat(x, y) -> Yes: {
x -> s(_xhbeg_0)  ;  y -> z
}
leq_nat(nn1, nn2) <= leq_nat(s(nn1), s(nn2)) -> No: ()
False <= leq_nat(s(nn1), z) -> Yes: {

}



-------------------------------------------
Step 4, which took 0.032352 s (model generation: 0.031595,  model checking: 0.000757):

Ground examples at the beginning of this step are:
{
flip(leaf, leaf) <= True
flip(node(a, leaf, leaf), node(a, leaf, leaf)) <= True
height(leaf, z) <= True
height(node(a, leaf, leaf), s(z)) <= True
leq_nat(s(z), s(z)) <= True
leq_nat(z, s(z)) <= True
leq_nat(z, z) <= True
max_ite(s(z), z, s(z)) <= True
max_ite(z, s(z), s(z)) <= True
max_ite(z, z, z) <= True
False <= height(node(a, leaf, leaf), s(s(z)))
False <= leq_nat(s(s(z)), s(z))
False <= leq_nat(s(z), z)
}

Learner proposed model:
Found Model:
|_

flip ->
{
  flip(leaf, leaf) <= True
  flip(node(x_0_0, x_0_1, x_0_2), node(x_1_0, x_1_1, x_1_2)) <= True
}
;
height ->
{
  height(leaf, z) <= True
  height(node(x_0_0, x_0_1, x_0_2), s(x_1_0)) <= height(x_0_2, x_1_0)
}
;
leq_nat ->
{
  leq_nat(s(x_0_0), s(x_1_0)) <= leq_nat(x_0_0, x_1_0)
  leq_nat(z, s(x_1_0)) <= True
  leq_nat(z, z) <= True
}
;
max_ite ->
{
  max_ite(s(x_0_0), z, s(x_2_0)) <= True
  max_ite(z, s(x_1_0), s(x_2_0)) <= True
  max_ite(z, z, z) <= True
}

--
Equality automata are defined for: {elt, etree, nat}
_|


Answer of teacher:


flip(leaf, leaf) <= True -> No: ()
height(leaf, z) <= True -> No: ()
leq_nat(x, y) \/ max_ite(x, y, x) <= True -> Yes: {
x -> s(s(_pibeg_0))  ;  y -> s(z)
}
leq_nat(z, n2) <= True -> No: ()
eq_nat(_uv, _vv) <= flip(t, _wv) /\ height(_wv, _vv) /\ height(t, _uv) -> Yes: {
_uv -> s(z)  ;  _vv -> s(s(z))  ;  _wv -> node(_jibeg_0, _jibeg_1, node(_bjbeg_0, _bjbeg_1, leaf))  ;  t -> node(_kibeg_0, _kibeg_1, leaf)
}
flip(node(e, t1, t2), node(e, _fv, _gv)) <= flip(t1, _gv) /\ flip(t2, _fv) -> No: ()
height(node(e, t1, t2), s(_ov)) <= height(t1, _pv) /\ height(t2, _qv) /\ max_ite(_pv, _qv, _ov) -> Yes: {
_ov -> s(_ljbeg_0)  ;  _pv -> s(z)  ;  _qv -> z  ;  t1 -> node(_ijbeg_0, _ijbeg_1, leaf)  ;  t2 -> leaf
}
leq_nat(s(nn1), s(nn2)) <= leq_nat(nn1, nn2) -> No: ()
max_ite(x, y, y) <= leq_nat(x, y) -> Yes: {
x -> s(z)  ;  y -> s(z)
}
leq_nat(nn1, nn2) <= leq_nat(s(nn1), s(nn2)) -> No: ()
False <= leq_nat(s(nn1), z) -> No: ()



-------------------------------------------
Step 5, which took 0.040120 s (model generation: 0.038782,  model checking: 0.001338):

Ground examples at the beginning of this step are:
{
flip(leaf, leaf) <= True
flip(node(a, leaf, leaf), node(a, leaf, leaf)) <= True
height(leaf, z) <= True
height(node(a, leaf, leaf), s(z)) <= True
height(node(a, node(a, leaf, leaf), leaf), s(s(z))) <= True
leq_nat(s(z), s(z)) <= True
leq_nat(z, s(z)) <= True
leq_nat(z, z) <= True
max_ite(s(s(z)), s(z), s(s(z))) <= True
max_ite(s(z), s(z), s(z)) <= True
max_ite(s(z), z, s(z)) <= True
max_ite(z, s(z), s(z)) <= True
max_ite(z, z, z) <= True
False <= flip(node(a, leaf, leaf), node(a, leaf, node(a, leaf, leaf))) /\ height(node(a, leaf, node(a, leaf, leaf)), s(s(z)))
False <= height(node(a, leaf, leaf), s(s(z)))
False <= leq_nat(s(s(z)), s(z))
False <= leq_nat(s(z), z)
}

Learner proposed model:
Found Model:
|_

flip ->
{
  flip(leaf, leaf) <= True
  flip(node(x_0_0, x_0_1, x_0_2), node(x_1_0, x_1_1, x_1_2)) <= True
}
;
height ->
{
  height(leaf, z) <= True
  height(node(x_0_0, x_0_1, x_0_2), s(x_1_0)) <= height(x_0_1, x_1_0)
}
;
leq_nat ->
{
  leq_nat(s(x_0_0), s(x_1_0)) <= leq_nat(x_0_0, x_1_0)
  leq_nat(z, s(x_1_0)) <= True
  leq_nat(z, z) <= True
}
;
max_ite ->
{
  max_ite(s(x_0_0), s(x_1_0), s(x_2_0)) <= True
  max_ite(s(x_0_0), z, s(x_2_0)) <= True
  max_ite(z, s(x_1_0), s(x_2_0)) <= True
  max_ite(z, z, z) <= True
}

--
Equality automata are defined for: {elt, etree, nat}
_|


Answer of teacher:


flip(leaf, leaf) <= True -> No: ()
height(leaf, z) <= True -> No: ()
leq_nat(x, y) \/ max_ite(x, y, x) <= True -> No: ()
leq_nat(z, n2) <= True -> No: ()
eq_nat(_uv, _vv) <= flip(t, _wv) /\ height(_wv, _vv) /\ height(t, _uv) -> Yes: {
_uv -> s(z)  ;  _vv -> s(s(z))  ;  _wv -> node(_zjbeg_0, node(_mkbeg_0, leaf, _mkbeg_2), _zjbeg_2)  ;  t -> node(_akbeg_0, leaf, _akbeg_2)
}
flip(node(e, t1, t2), node(e, _fv, _gv)) <= flip(t1, _gv) /\ flip(t2, _fv) -> No: ()
height(node(e, t1, t2), s(_ov)) <= height(t1, _pv) /\ height(t2, _qv) /\ max_ite(_pv, _qv, _ov) -> Yes: {
_ov -> s(_okbeg_0)  ;  _pv -> z  ;  _qv -> s(z)  ;  t1 -> leaf  ;  t2 -> node(_qkbeg_0, leaf, _qkbeg_2)
}
leq_nat(s(nn1), s(nn2)) <= leq_nat(nn1, nn2) -> No: ()
max_ite(x, y, y) <= leq_nat(x, y) -> No: ()
leq_nat(nn1, nn2) <= leq_nat(s(nn1), s(nn2)) -> No: ()
False <= leq_nat(s(nn1), z) -> No: ()



-------------------------------------------
Step 6, which took 0.043845 s (model generation: 0.040258,  model checking: 0.003587):

Ground examples at the beginning of this step are:
{
flip(leaf, leaf) <= True
flip(node(a, leaf, leaf), node(a, leaf, leaf)) <= True
height(leaf, z) <= True
height(node(a, leaf, leaf), s(z)) <= True
height(node(a, leaf, node(a, leaf, leaf)), s(s(z))) <= True
height(node(a, node(a, leaf, leaf), leaf), s(s(z))) <= True
leq_nat(s(z), s(z)) <= True
leq_nat(z, s(z)) <= True
leq_nat(z, z) <= True
max_ite(s(s(z)), s(z), s(s(z))) <= True
max_ite(s(z), s(z), s(z)) <= True
max_ite(s(z), z, s(z)) <= True
max_ite(z, s(z), s(z)) <= True
max_ite(z, z, z) <= True
False <= flip(node(a, leaf, leaf), node(a, leaf, node(a, leaf, leaf)))
False <= flip(node(a, leaf, leaf), node(a, node(a, leaf, leaf), leaf))
False <= height(node(a, leaf, leaf), s(s(z)))
False <= leq_nat(s(s(z)), s(z))
False <= leq_nat(s(z), z)
}

Learner proposed model:
Found Model:
|_

flip ->
{
  flip(leaf, leaf) <= True
  flip(node(x_0_0, x_0_1, x_0_2), node(x_1_0, x_1_1, x_1_2)) <= flip(x_0_1, x_1_1) /\ flip(x_0_2, x_1_2)
}
;
height ->
{
  height(leaf, z) <= True
  height(node(x_0_0, x_0_1, x_0_2), s(x_1_0)) <= height(x_0_1, x_1_0)
  height(node(x_0_0, x_0_1, x_0_2), s(x_1_0)) <= height(x_0_2, x_1_0)
}
;
leq_nat ->
{
  leq_nat(s(x_0_0), s(x_1_0)) <= leq_nat(x_0_0, x_1_0)
  leq_nat(z, s(x_1_0)) <= True
  leq_nat(z, z) <= True
}
;
max_ite ->
{
  max_ite(s(x_0_0), s(x_1_0), s(x_2_0)) <= True
  max_ite(s(x_0_0), z, s(x_2_0)) <= True
  max_ite(z, s(x_1_0), s(x_2_0)) <= True
  max_ite(z, z, z) <= True
}

--
Equality automata are defined for: {elt, etree, nat}
_|


Answer of teacher:


flip(leaf, leaf) <= True -> No: ()
height(leaf, z) <= True -> No: ()
leq_nat(x, y) \/ max_ite(x, y, x) <= True -> No: ()
leq_nat(z, n2) <= True -> No: ()
eq_nat(_uv, _vv) <= flip(t, _wv) /\ height(_wv, _vv) /\ height(t, _uv) -> Yes: {
_uv -> s(s(z))  ;  _vv -> s(z)  ;  _wv -> node(_mlbeg_0, leaf, node(_cqbeg_0, leaf, leaf))  ;  t -> node(_nlbeg_0, leaf, node(_bqbeg_0, leaf, leaf))
}
flip(node(e, t1, t2), node(e, _fv, _gv)) <= flip(t1, _gv) /\ flip(t2, _fv) -> Yes: {
_fv -> leaf  ;  _gv -> node(_gmbeg_0, leaf, leaf)  ;  t1 -> node(_embeg_0, leaf, leaf)  ;  t2 -> leaf
}
height(node(e, t1, t2), s(_ov)) <= height(t1, _pv) /\ height(t2, _qv) /\ max_ite(_pv, _qv, _ov) -> Yes: {
_ov -> s(s(_fobeg_0))  ;  _pv -> s(z)  ;  _qv -> s(z)  ;  t1 -> node(_unbeg_0, leaf, leaf)  ;  t2 -> node(_wnbeg_0, leaf, leaf)
}
leq_nat(s(nn1), s(nn2)) <= leq_nat(nn1, nn2) -> No: ()
max_ite(x, y, y) <= leq_nat(x, y) -> No: ()
leq_nat(nn1, nn2) <= leq_nat(s(nn1), s(nn2)) -> No: ()
False <= leq_nat(s(nn1), z) -> No: ()



-------------------------------------------
Step 7, which took 0.052439 s (model generation: 0.048531,  model checking: 0.003908):

Ground examples at the beginning of this step are:
{
flip(leaf, leaf) <= True
flip(node(a, leaf, leaf), node(a, leaf, leaf)) <= True
flip(node(a, node(a, leaf, leaf), leaf), node(a, leaf, node(a, leaf, leaf))) <= True
height(leaf, z) <= True
height(node(a, leaf, leaf), s(z)) <= True
height(node(a, leaf, node(a, leaf, leaf)), s(s(z))) <= True
height(node(a, node(a, leaf, leaf), leaf), s(s(z))) <= True
leq_nat(s(z), s(z)) <= True
leq_nat(z, s(z)) <= True
leq_nat(z, z) <= True
max_ite(s(s(z)), s(z), s(s(z))) <= True
max_ite(s(z), s(z), s(z)) <= True
max_ite(s(z), z, s(z)) <= True
max_ite(z, s(z), s(z)) <= True
max_ite(z, z, z) <= True
False <= flip(node(a, leaf, leaf), node(a, leaf, node(a, leaf, leaf)))
False <= flip(node(a, leaf, leaf), node(a, node(a, leaf, leaf), leaf))
False <= flip(node(a, leaf, node(a, leaf, leaf)), node(a, leaf, node(a, leaf, leaf))) /\ height(node(a, leaf, node(a, leaf, leaf)), s(z))
False <= height(node(a, leaf, leaf), s(s(z)))
False <= leq_nat(s(s(z)), s(z))
False <= leq_nat(s(z), z)
height(node(a, node(a, leaf, leaf), node(a, leaf, leaf)), s(s(s(z)))) <= max_ite(s(z), s(z), s(s(z)))
}

Learner proposed model:
Found Model:
|_

flip ->
{
  flip(leaf, leaf) <= True
  flip(node(x_0_0, x_0_1, x_0_2), node(x_1_0, x_1_1, x_1_2)) <= flip(x_0_1, x_1_2) /\ flip(x_0_2, x_1_1)
  flip(node(x_0_0, x_0_1, x_0_2), node(x_1_0, x_1_1, x_1_2)) <= flip(x_0_2, x_1_1) /\ flip(x_0_2, x_1_2)
}
;
height ->
{
  height(leaf, z) <= True
  height(node(x_0_0, x_0_1, x_0_2), s(x_1_0)) <= height(x_0_1, x_1_0)
  height(node(x_0_0, x_0_1, x_0_2), s(x_1_0)) <= height(x_0_2, x_1_0)
}
;
leq_nat ->
{
  leq_nat(s(x_0_0), s(x_1_0)) <= leq_nat(x_0_0, x_1_0)
  leq_nat(z, s(x_1_0)) <= True
  leq_nat(z, z) <= True
}
;
max_ite ->
{
  max_ite(s(x_0_0), s(x_1_0), s(x_2_0)) <= max_ite(x_0_0, x_1_0, x_2_0)
  max_ite(s(x_0_0), z, s(x_2_0)) <= True
  max_ite(z, s(x_1_0), s(x_2_0)) <= True
  max_ite(z, z, z) <= True
}

--
Equality automata are defined for: {elt, etree, nat}
_|


Answer of teacher:


flip(leaf, leaf) <= True -> No: ()
height(leaf, z) <= True -> No: ()
leq_nat(x, y) \/ max_ite(x, y, x) <= True -> No: ()
leq_nat(z, n2) <= True -> No: ()
eq_nat(_uv, _vv) <= flip(t, _wv) /\ height(_wv, _vv) /\ height(t, _uv) -> Yes: {
_uv -> s(s(z))  ;  _vv -> s(z)  ;  _wv -> node(_asbeg_0, leaf, leaf)  ;  t -> node(_bsbeg_0, node(_owbeg_0, _owbeg_1, leaf), leaf)
}
flip(node(e, t1, t2), node(e, _fv, _gv)) <= flip(t1, _gv) /\ flip(t2, _fv) -> No: ()
height(node(e, t1, t2), s(_ov)) <= height(t1, _pv) /\ height(t2, _qv) /\ max_ite(_pv, _qv, _ov) -> Yes: {
_ov -> s(s(_dubeg_0))  ;  _pv -> s(z)  ;  _qv -> z  ;  t1 -> node(_ntbeg_0, leaf, leaf)  ;  t2 -> leaf
}
leq_nat(s(nn1), s(nn2)) <= leq_nat(nn1, nn2) -> No: ()
max_ite(x, y, y) <= leq_nat(x, y) -> No: ()
leq_nat(nn1, nn2) <= leq_nat(s(nn1), s(nn2)) -> No: ()
False <= leq_nat(s(nn1), z) -> No: ()



-------------------------------------------
Step 8, which took 0.070403 s (model generation: 0.069586,  model checking: 0.000817):

Ground examples at the beginning of this step are:
{
flip(leaf, leaf) <= True
flip(node(a, leaf, leaf), node(a, leaf, leaf)) <= True
flip(node(a, node(a, leaf, leaf), leaf), node(a, leaf, node(a, leaf, leaf))) <= True
height(leaf, z) <= True
height(node(a, leaf, leaf), s(z)) <= True
height(node(a, leaf, node(a, leaf, leaf)), s(s(z))) <= True
height(node(a, node(a, leaf, leaf), leaf), s(s(z))) <= True
leq_nat(s(z), s(z)) <= True
leq_nat(z, s(z)) <= True
leq_nat(z, z) <= True
max_ite(s(s(z)), s(z), s(s(z))) <= True
max_ite(s(z), s(z), s(z)) <= True
max_ite(s(z), z, s(z)) <= True
max_ite(z, s(z), s(z)) <= True
max_ite(z, z, z) <= True
False <= flip(node(a, leaf, leaf), node(a, leaf, node(a, leaf, leaf)))
False <= flip(node(a, leaf, leaf), node(a, node(a, leaf, leaf), leaf))
False <= flip(node(a, leaf, node(a, leaf, leaf)), node(a, leaf, node(a, leaf, leaf))) /\ height(node(a, leaf, node(a, leaf, leaf)), s(z))
False <= flip(node(a, node(a, leaf, leaf), leaf), node(a, leaf, leaf))
False <= height(node(a, leaf, leaf), s(s(z)))
False <= leq_nat(s(s(z)), s(z))
False <= leq_nat(s(z), z)
height(node(a, node(a, leaf, leaf), node(a, leaf, leaf)), s(s(s(z)))) <= max_ite(s(z), s(z), s(s(z)))
height(node(a, node(a, leaf, leaf), leaf), s(s(s(z)))) <= max_ite(s(z), z, s(s(z)))
}

Learner proposed model:
Found Model:
|_

_r_1 ->
{
  _r_1(node(x_0_0, x_0_1, x_0_2)) <= True
}
;
flip ->
{
  flip(leaf, leaf) <= True
  flip(node(x_0_0, x_0_1, x_0_2), node(x_1_0, x_1_1, x_1_2)) <= flip(x_0_1, x_1_2) /\ flip(x_0_2, x_1_1)
}
;
height ->
{
  height(leaf, z) <= True
  height(node(x_0_0, x_0_1, x_0_2), s(x_1_0)) <= _r_1(x_0_1)
  height(node(x_0_0, x_0_1, x_0_2), s(x_1_0)) <= height(x_0_1, x_1_0)
  height(node(x_0_0, x_0_1, x_0_2), s(x_1_0)) <= height(x_0_2, x_1_0)
}
;
leq_nat ->
{
  leq_nat(s(x_0_0), s(x_1_0)) <= leq_nat(x_0_0, x_1_0)
  leq_nat(z, s(x_1_0)) <= True
  leq_nat(z, z) <= True
}
;
max_ite ->
{
  max_ite(s(x_0_0), s(x_1_0), s(x_2_0)) <= True
  max_ite(s(x_0_0), z, s(x_2_0)) <= True
  max_ite(z, s(x_1_0), s(x_2_0)) <= True
  max_ite(z, z, z) <= True
}

--
Equality automata are defined for: {elt, etree, nat}
_|


Answer of teacher:


flip(leaf, leaf) <= True -> No: ()
height(leaf, z) <= True -> No: ()
leq_nat(x, y) \/ max_ite(x, y, x) <= True -> No: ()
leq_nat(z, n2) <= True -> No: ()
eq_nat(_uv, _vv) <= flip(t, _wv) /\ height(_wv, _vv) /\ height(t, _uv) -> Yes: {
_uv -> s(z)  ;  _vv -> s(s(_ezbeg_0))  ;  _wv -> node(_rxbeg_0, node(_daceg_0, leaf, leaf), node(_caceg_0, leaf, leaf))  ;  t -> node(_sxbeg_0, node(_baceg_0, leaf, leaf), node(_eaceg_0, leaf, leaf))
}
flip(node(e, t1, t2), node(e, _fv, _gv)) <= flip(t1, _gv) /\ flip(t2, _fv) -> No: ()
height(node(e, t1, t2), s(_ov)) <= height(t1, _pv) /\ height(t2, _qv) /\ max_ite(_pv, _qv, _ov) -> Yes: {
_ov -> s(s(_zzbeg_0))  ;  _pv -> z  ;  _qv -> s(z)  ;  t1 -> leaf  ;  t2 -> node(_rzbeg_0, leaf, leaf)
}
leq_nat(s(nn1), s(nn2)) <= leq_nat(nn1, nn2) -> No: ()
max_ite(x, y, y) <= leq_nat(x, y) -> No: ()
leq_nat(nn1, nn2) <= leq_nat(s(nn1), s(nn2)) -> No: ()
False <= leq_nat(s(nn1), z) -> No: ()



-------------------------------------------
Step 9, which took 0.085721 s (model generation: 0.084260,  model checking: 0.001461):

Ground examples at the beginning of this step are:
{
flip(leaf, leaf) <= True
flip(node(a, leaf, leaf), node(a, leaf, leaf)) <= True
flip(node(a, node(a, leaf, leaf), leaf), node(a, leaf, node(a, leaf, leaf))) <= True
height(leaf, z) <= True
height(node(a, leaf, leaf), s(z)) <= True
height(node(a, leaf, node(a, leaf, leaf)), s(s(z))) <= True
height(node(a, node(a, leaf, leaf), leaf), s(s(z))) <= True
leq_nat(s(z), s(z)) <= True
leq_nat(z, s(z)) <= True
leq_nat(z, z) <= True
max_ite(s(s(z)), s(z), s(s(z))) <= True
max_ite(s(z), s(z), s(z)) <= True
max_ite(s(z), z, s(z)) <= True
max_ite(z, s(z), s(z)) <= True
max_ite(z, z, z) <= True
False <= flip(node(a, leaf, leaf), node(a, leaf, node(a, leaf, leaf)))
False <= flip(node(a, leaf, leaf), node(a, node(a, leaf, leaf), leaf))
False <= flip(node(a, leaf, node(a, leaf, leaf)), node(a, leaf, node(a, leaf, leaf))) /\ height(node(a, leaf, node(a, leaf, leaf)), s(z))
False <= flip(node(a, node(a, leaf, leaf), leaf), node(a, leaf, leaf))
False <= flip(node(a, node(a, leaf, leaf), node(a, leaf, leaf)), node(a, node(a, leaf, leaf), node(a, leaf, leaf))) /\ height(node(a, node(a, leaf, leaf), node(a, leaf, leaf)), s(s(z))) /\ height(node(a, node(a, leaf, leaf), node(a, leaf, leaf)), s(z))
False <= height(node(a, leaf, leaf), s(s(z)))
False <= leq_nat(s(s(z)), s(z))
False <= leq_nat(s(z), z)
height(node(a, node(a, leaf, leaf), node(a, leaf, leaf)), s(s(s(z)))) <= max_ite(s(z), s(z), s(s(z)))
height(node(a, node(a, leaf, leaf), leaf), s(s(s(z)))) <= max_ite(s(z), z, s(s(z)))
height(node(a, leaf, node(a, leaf, leaf)), s(s(s(z)))) <= max_ite(z, s(z), s(s(z)))
}

Learner proposed model:
Found Model:
|_

_r_1 ->
{
  _r_1(node(x_0_0, x_0_1, x_0_2), s(x_1_0)) <= True
}
;
flip ->
{
  flip(leaf, leaf) <= True
  flip(node(x_0_0, x_0_1, x_0_2), node(x_1_0, x_1_1, x_1_2)) <= flip(x_0_1, x_1_2) /\ flip(x_0_2, x_1_1)
}
;
height ->
{
  height(leaf, z) <= True
  height(node(x_0_0, x_0_1, x_0_2), s(x_1_0)) <= _r_1(x_0_1, x_1_0)
  height(node(x_0_0, x_0_1, x_0_2), s(x_1_0)) <= _r_1(x_0_2, x_1_0)
  height(node(x_0_0, x_0_1, x_0_2), s(x_1_0)) <= height(x_0_1, x_1_0)
  height(node(x_0_0, x_0_1, x_0_2), s(x_1_0)) <= height(x_0_2, x_1_0)
}
;
leq_nat ->
{
  leq_nat(s(x_0_0), s(x_1_0)) <= leq_nat(x_0_0, x_1_0)
  leq_nat(z, s(x_1_0)) <= True
  leq_nat(z, z) <= True
}
;
max_ite ->
{
  max_ite(s(x_0_0), s(x_1_0), s(x_2_0)) <= True
  max_ite(s(x_0_0), z, s(x_2_0)) <= True
  max_ite(z, s(x_1_0), s(x_2_0)) <= True
  max_ite(z, z, z) <= True
}

--
Equality automata are defined for: {elt, etree, nat}
_|


Answer of teacher:


flip(leaf, leaf) <= True -> No: ()
height(leaf, z) <= True -> No: ()
leq_nat(x, y) \/ max_ite(x, y, x) <= True -> No: ()
leq_nat(z, n2) <= True -> No: ()
eq_nat(_uv, _vv) <= flip(t, _wv) /\ height(_wv, _vv) /\ height(t, _uv) -> Yes: {
_uv -> s(s(z))  ;  _vv -> s(s(s(_keceg_0)))  ;  _wv -> node(_xaceg_0, leaf, node(_deceg_0, leaf, leaf))  ;  t -> node(_yaceg_0, node(_eeceg_0, leaf, leaf), leaf)
}
flip(node(e, t1, t2), node(e, _fv, _gv)) <= flip(t1, _gv) /\ flip(t2, _fv) -> No: ()
height(node(e, t1, t2), s(_ov)) <= height(t1, _pv) /\ height(t2, _qv) /\ max_ite(_pv, _qv, _ov) -> No: ()
leq_nat(s(nn1), s(nn2)) <= leq_nat(nn1, nn2) -> No: ()
max_ite(x, y, y) <= leq_nat(x, y) -> No: ()
leq_nat(nn1, nn2) <= leq_nat(s(nn1), s(nn2)) -> No: ()
False <= leq_nat(s(nn1), z) -> No: ()



-------------------------------------------
Step 10, which took 0.087856 s (model generation: 0.086116,  model checking: 0.001740):

Ground examples at the beginning of this step are:
{
flip(leaf, leaf) <= True
flip(node(a, leaf, leaf), node(a, leaf, leaf)) <= True
flip(node(a, node(a, leaf, leaf), leaf), node(a, leaf, node(a, leaf, leaf))) <= True
height(leaf, z) <= True
height(node(a, leaf, leaf), s(z)) <= True
height(node(a, leaf, node(a, leaf, leaf)), s(s(z))) <= True
height(node(a, node(a, leaf, leaf), leaf), s(s(z))) <= True
leq_nat(s(z), s(z)) <= True
leq_nat(z, s(z)) <= True
leq_nat(z, z) <= True
max_ite(s(s(z)), s(z), s(s(z))) <= True
max_ite(s(z), s(z), s(z)) <= True
max_ite(s(z), z, s(z)) <= True
max_ite(z, s(z), s(z)) <= True
max_ite(z, z, z) <= True
False <= flip(node(a, leaf, leaf), node(a, leaf, node(a, leaf, leaf)))
False <= flip(node(a, leaf, leaf), node(a, node(a, leaf, leaf), leaf))
False <= flip(node(a, leaf, node(a, leaf, leaf)), node(a, leaf, node(a, leaf, leaf))) /\ height(node(a, leaf, node(a, leaf, leaf)), s(z))
False <= flip(node(a, node(a, leaf, leaf), leaf), node(a, leaf, leaf))
False <= flip(node(a, node(a, leaf, leaf), node(a, leaf, leaf)), node(a, node(a, leaf, leaf), node(a, leaf, leaf))) /\ height(node(a, node(a, leaf, leaf), node(a, leaf, leaf)), s(s(z))) /\ height(node(a, node(a, leaf, leaf), node(a, leaf, leaf)), s(z))
False <= height(node(a, leaf, leaf), s(s(z)))
False <= height(node(a, leaf, node(a, leaf, leaf)), s(s(s(z))))
False <= leq_nat(s(s(z)), s(z))
False <= leq_nat(s(z), z)
height(node(a, node(a, leaf, leaf), node(a, leaf, leaf)), s(s(s(z)))) <= max_ite(s(z), s(z), s(s(z)))
height(node(a, node(a, leaf, leaf), leaf), s(s(s(z)))) <= max_ite(s(z), z, s(s(z)))
False <= max_ite(z, s(z), s(s(z)))
}

Learner proposed model:
Found Model:
|_

_r_1 ->
{
  _r_1(z) <= True
}
;
flip ->
{
  flip(leaf, leaf) <= True
  flip(node(x_0_0, x_0_1, x_0_2), node(x_1_0, x_1_1, x_1_2)) <= flip(x_0_1, x_1_2) /\ flip(x_0_2, x_1_1)
}
;
height ->
{
  height(leaf, z) <= True
  height(node(x_0_0, x_0_1, x_0_2), s(x_1_0)) <= height(x_0_1, x_1_0)
  height(node(x_0_0, x_0_1, x_0_2), s(x_1_0)) <= height(x_0_2, x_1_0)
}
;
leq_nat ->
{
  leq_nat(s(x_0_0), s(x_1_0)) <= leq_nat(x_0_0, x_1_0)
  leq_nat(z, s(x_1_0)) <= True
  leq_nat(z, z) <= True
}
;
max_ite ->
{
  max_ite(s(x_0_0), s(x_1_0), s(x_2_0)) <= max_ite(x_0_0, x_1_0, x_2_0)
  max_ite(s(x_0_0), z, s(x_2_0)) <= _r_1(x_2_0)
  max_ite(z, s(x_1_0), s(x_2_0)) <= _r_1(x_2_0)
  max_ite(z, z, z) <= True
}

--
Equality automata are defined for: {elt, etree, nat}
_|


Answer of teacher:


flip(leaf, leaf) <= True -> No: ()
height(leaf, z) <= True -> No: ()
leq_nat(x, y) \/ max_ite(x, y, x) <= True -> Yes: {
x -> s(s(_jfceg_0))  ;  y -> z
}
leq_nat(z, n2) <= True -> No: ()
eq_nat(_uv, _vv) <= flip(t, _wv) /\ height(_wv, _vv) /\ height(t, _uv) -> Yes: {
_uv -> s(s(z))  ;  _vv -> s(z)  ;  _wv -> node(_dfceg_0, node(_xiceg_0, leaf, leaf), leaf)  ;  t -> node(_efceg_0, leaf, node(_wiceg_0, leaf, leaf))
}
flip(node(e, t1, t2), node(e, _fv, _gv)) <= flip(t1, _gv) /\ flip(t2, _fv) -> No: ()
height(node(e, t1, t2), s(_ov)) <= height(t1, _pv) /\ height(t2, _qv) /\ max_ite(_pv, _qv, _ov) -> Yes: {
_ov -> s(z)  ;  _pv -> s(s(z))  ;  _qv -> z  ;  t1 -> node(_yfceg_0, node(_ghceg_0, _ghceg_1, leaf), node(_ghceg_0, _ghceg_1, leaf))  ;  t2 -> leaf
}
leq_nat(s(nn1), s(nn2)) <= leq_nat(nn1, nn2) -> No: ()
max_ite(x, y, y) <= leq_nat(x, y) -> Yes: {
x -> z  ;  y -> s(s(_jfceg_0))
}
leq_nat(nn1, nn2) <= leq_nat(s(nn1), s(nn2)) -> No: ()
False <= leq_nat(s(nn1), z) -> No: ()



-------------------------------------------
Step 11, which took 0.155117 s (model generation: 0.153580,  model checking: 0.001537):

Ground examples at the beginning of this step are:
{
flip(leaf, leaf) <= True
flip(node(a, leaf, leaf), node(a, leaf, leaf)) <= True
flip(node(a, node(a, leaf, leaf), leaf), node(a, leaf, node(a, leaf, leaf))) <= True
height(leaf, z) <= True
height(node(a, leaf, leaf), s(z)) <= True
height(node(a, leaf, node(a, leaf, leaf)), s(s(z))) <= True
height(node(a, node(a, leaf, leaf), leaf), s(s(z))) <= True
leq_nat(s(s(z)), z) \/ max_ite(s(s(z)), z, s(s(z))) <= True
leq_nat(s(z), s(z)) <= True
leq_nat(z, s(z)) <= True
leq_nat(z, z) <= True
max_ite(s(s(z)), s(z), s(s(z))) <= True
max_ite(s(z), s(z), s(z)) <= True
max_ite(s(z), z, s(z)) <= True
max_ite(z, s(z), s(z)) <= True
max_ite(z, z, z) <= True
False <= flip(node(a, leaf, leaf), node(a, leaf, node(a, leaf, leaf)))
False <= flip(node(a, leaf, leaf), node(a, node(a, leaf, leaf), leaf))
False <= flip(node(a, leaf, node(a, leaf, leaf)), node(a, leaf, node(a, leaf, leaf))) /\ height(node(a, leaf, node(a, leaf, leaf)), s(z))
False <= flip(node(a, leaf, node(a, leaf, leaf)), node(a, node(a, leaf, leaf), leaf)) /\ height(node(a, node(a, leaf, leaf), leaf), s(z))
False <= flip(node(a, node(a, leaf, leaf), leaf), node(a, leaf, leaf))
False <= flip(node(a, node(a, leaf, leaf), node(a, leaf, leaf)), node(a, node(a, leaf, leaf), node(a, leaf, leaf))) /\ height(node(a, node(a, leaf, leaf), node(a, leaf, leaf)), s(s(z))) /\ height(node(a, node(a, leaf, leaf), node(a, leaf, leaf)), s(z))
False <= height(node(a, leaf, leaf), s(s(z)))
False <= height(node(a, leaf, node(a, leaf, leaf)), s(s(s(z))))
height(node(a, node(a, node(a, leaf, leaf), node(a, leaf, leaf)), leaf), s(s(z))) <= height(node(a, node(a, leaf, leaf), node(a, leaf, leaf)), s(s(z))) /\ max_ite(s(s(z)), z, s(z))
False <= leq_nat(s(s(z)), s(z))
False <= leq_nat(s(z), z)
max_ite(z, s(s(z)), s(s(z))) <= leq_nat(z, s(s(z)))
height(node(a, node(a, leaf, leaf), node(a, leaf, leaf)), s(s(s(z)))) <= max_ite(s(z), s(z), s(s(z)))
height(node(a, node(a, leaf, leaf), leaf), s(s(s(z)))) <= max_ite(s(z), z, s(s(z)))
False <= max_ite(z, s(z), s(s(z)))
}

Learner proposed model:
Found Model:
|_

_r_1 ->
{
  _r_1(s(x_0_0), s(x_1_0)) <= True
  _r_1(z, z) <= True
}
;
_r_2 ->
{
  _r_2(node(x_0_0, x_0_1, x_0_2), node(x_1_0, x_1_1, x_1_2)) <= True
}
;
flip ->
{
  flip(leaf, leaf) <= True
  flip(node(x_0_0, x_0_1, x_0_2), node(x_1_0, x_1_1, x_1_2)) <= _r_2(x_0_1, x_1_2)
  flip(node(x_0_0, x_0_1, x_0_2), node(x_1_0, x_1_1, x_1_2)) <= flip(x_0_1, x_1_1) /\ flip(x_0_1, x_1_2)
}
;
height ->
{
  height(leaf, z) <= True
  height(node(x_0_0, x_0_1, x_0_2), s(x_1_0)) <= height(x_0_1, x_1_0)
  height(node(x_0_0, x_0_1, x_0_2), s(x_1_0)) <= height(x_0_2, x_1_0)
}
;
leq_nat ->
{
  leq_nat(s(x_0_0), s(x_1_0)) <= leq_nat(x_0_0, x_1_0)
  leq_nat(z, s(x_1_0)) <= True
  leq_nat(z, z) <= True
}
;
max_ite ->
{
  max_ite(s(x_0_0), s(x_1_0), s(x_2_0)) <= max_ite(x_0_0, x_1_0, x_2_0)
  max_ite(s(x_0_0), z, s(x_2_0)) <= _r_1(x_0_0, x_2_0)
  max_ite(z, s(x_1_0), s(x_2_0)) <= _r_1(x_1_0, x_2_0)
  max_ite(z, z, z) <= True
}

--
Equality automata are defined for: {elt, etree, nat}
_|


Answer of teacher:


flip(leaf, leaf) <= True -> No: ()
height(leaf, z) <= True -> No: ()
leq_nat(x, y) \/ max_ite(x, y, x) <= True -> No: ()
leq_nat(z, n2) <= True -> No: ()
eq_nat(_uv, _vv) <= flip(t, _wv) /\ height(_wv, _vv) /\ height(t, _uv) -> Yes: {
_uv -> s(z)  ;  _vv -> s(s(z))  ;  _wv -> node(_dkceg_0, node(_noceg_0, _noceg_1, leaf), node(_ilceg_0, _ilceg_1, _ilceg_2))  ;  t -> node(_ekceg_0, node(_hlceg_0, _hlceg_1, _hlceg_2), leaf)
}
flip(node(e, t1, t2), node(e, _fv, _gv)) <= flip(t1, _gv) /\ flip(t2, _fv) -> Yes: {
_fv -> node(_qpceg_0, node(_mlceg_0, _mlceg_1, node(_ilceg_0, _ilceg_1, _ilceg_2)), node(_mlceg_0, _mlceg_1, node(_ilceg_0, _ilceg_1, _ilceg_2)))  ;  _gv -> leaf  ;  t1 -> leaf  ;  t2 -> node(_rpceg_0, node(_llceg_0, node(_hlceg_0, _hlceg_1, _hlceg_2), _llceg_2), _rpceg_2)
}
height(node(e, t1, t2), s(_ov)) <= height(t1, _pv) /\ height(t2, _qv) /\ max_ite(_pv, _qv, _ov) -> Yes: {
_ov -> s(s(s(_roceg_0)))  ;  _pv -> s(s(z))  ;  _qv -> z  ;  t1 -> node(_zlceg_0, node(_inceg_0, leaf, leaf), node(_inceg_0, leaf, leaf))  ;  t2 -> leaf
}
leq_nat(s(nn1), s(nn2)) <= leq_nat(nn1, nn2) -> No: ()
max_ite(x, y, y) <= leq_nat(x, y) -> No: ()
leq_nat(nn1, nn2) <= leq_nat(s(nn1), s(nn2)) -> No: ()
False <= leq_nat(s(nn1), z) -> No: ()



-------------------------------------------
Step 12, which took 0.228506 s (model generation: 0.226779,  model checking: 0.001727):

Ground examples at the beginning of this step are:
{
flip(leaf, leaf) <= True
flip(node(a, leaf, leaf), node(a, leaf, leaf)) <= True
flip(node(a, node(a, leaf, leaf), leaf), node(a, leaf, node(a, leaf, leaf))) <= True
height(leaf, z) <= True
height(node(a, leaf, leaf), s(z)) <= True
height(node(a, leaf, node(a, leaf, leaf)), s(s(z))) <= True
height(node(a, node(a, leaf, leaf), leaf), s(s(z))) <= True
leq_nat(s(s(z)), z) \/ max_ite(s(s(z)), z, s(s(z))) <= True
leq_nat(s(z), s(z)) <= True
leq_nat(z, s(z)) <= True
leq_nat(z, z) <= True
max_ite(s(s(z)), s(z), s(s(z))) <= True
max_ite(s(z), s(z), s(z)) <= True
max_ite(s(z), z, s(z)) <= True
max_ite(z, s(z), s(z)) <= True
max_ite(z, z, z) <= True
False <= flip(node(a, leaf, leaf), node(a, leaf, node(a, leaf, leaf)))
False <= flip(node(a, leaf, leaf), node(a, node(a, leaf, leaf), leaf))
False <= flip(node(a, leaf, node(a, leaf, leaf)), node(a, leaf, node(a, leaf, leaf))) /\ height(node(a, leaf, node(a, leaf, leaf)), s(z))
False <= flip(node(a, leaf, node(a, leaf, leaf)), node(a, node(a, leaf, leaf), leaf)) /\ height(node(a, node(a, leaf, leaf), leaf), s(z))
False <= flip(node(a, node(a, leaf, leaf), leaf), node(a, leaf, leaf))
False <= flip(node(a, node(a, leaf, leaf), leaf), node(a, node(a, leaf, leaf), node(a, leaf, leaf))) /\ height(node(a, node(a, leaf, leaf), leaf), s(z)) /\ height(node(a, node(a, leaf, leaf), node(a, leaf, leaf)), s(s(z)))
False <= flip(node(a, node(a, leaf, leaf), node(a, leaf, leaf)), node(a, node(a, leaf, leaf), node(a, leaf, leaf))) /\ height(node(a, node(a, leaf, leaf), node(a, leaf, leaf)), s(s(z))) /\ height(node(a, node(a, leaf, leaf), node(a, leaf, leaf)), s(z))
flip(node(a, leaf, node(a, node(a, node(a, leaf, leaf), leaf), leaf)), node(a, node(a, node(a, leaf, node(a, leaf, leaf)), node(a, leaf, node(a, leaf, leaf))), leaf)) <= flip(node(a, node(a, node(a, leaf, leaf), leaf), leaf), node(a, node(a, leaf, node(a, leaf, leaf)), node(a, leaf, node(a, leaf, leaf))))
False <= height(node(a, leaf, leaf), s(s(z)))
False <= height(node(a, leaf, node(a, leaf, leaf)), s(s(s(z))))
height(node(a, node(a, node(a, leaf, leaf), node(a, leaf, leaf)), leaf), s(s(s(s(z))))) <= height(node(a, node(a, leaf, leaf), node(a, leaf, leaf)), s(s(z))) /\ max_ite(s(s(z)), z, s(s(s(z))))
height(node(a, node(a, node(a, leaf, leaf), node(a, leaf, leaf)), leaf), s(s(z))) <= height(node(a, node(a, leaf, leaf), node(a, leaf, leaf)), s(s(z))) /\ max_ite(s(s(z)), z, s(z))
False <= leq_nat(s(s(z)), s(z))
False <= leq_nat(s(z), z)
max_ite(z, s(s(z)), s(s(z))) <= leq_nat(z, s(s(z)))
height(node(a, node(a, leaf, leaf), node(a, leaf, leaf)), s(s(s(z)))) <= max_ite(s(z), s(z), s(s(z)))
height(node(a, node(a, leaf, leaf), leaf), s(s(s(z)))) <= max_ite(s(z), z, s(s(z)))
False <= max_ite(z, s(z), s(s(z)))
}

Learner proposed model:
Found Model:
|_

_r_1 ->
{
  _r_1(s(x_0_0), s(x_1_0)) <= _r_1(x_0_0, x_1_0)
  _r_1(z, z) <= True
}
;
_r_2 ->
{
  _r_2(leaf) <= True
}
;
flip ->
{
  flip(leaf, leaf) <= True
  flip(node(x_0_0, x_0_1, x_0_2), node(x_1_0, x_1_1, x_1_2)) <= _r_2(x_1_1) /\ flip(x_0_1, x_1_2)
  flip(node(x_0_0, x_0_1, x_0_2), node(x_1_0, x_1_1, x_1_2)) <= _r_2(x_1_2) /\ flip(x_0_1, x_1_1)
}
;
height ->
{
  height(leaf, z) <= True
  height(node(x_0_0, x_0_1, x_0_2), s(x_1_0)) <= height(x_0_1, x_1_0)
  height(node(x_0_0, x_0_1, x_0_2), s(x_1_0)) <= height(x_0_2, x_1_0)
}
;
leq_nat ->
{
  leq_nat(s(x_0_0), s(x_1_0)) <= leq_nat(x_0_0, x_1_0)
  leq_nat(z, s(x_1_0)) <= True
  leq_nat(z, z) <= True
}
;
max_ite ->
{
  max_ite(s(x_0_0), s(x_1_0), s(x_2_0)) <= max_ite(x_0_0, x_1_0, x_2_0)
  max_ite(s(x_0_0), z, s(x_2_0)) <= _r_1(x_0_0, x_2_0)
  max_ite(z, s(x_1_0), s(x_2_0)) <= _r_1(x_1_0, x_2_0)
  max_ite(z, z, z) <= True
}

--
Equality automata are defined for: {elt, etree, nat}
_|


Answer of teacher:


flip(leaf, leaf) <= True -> No: ()
height(leaf, z) <= True -> No: ()
leq_nat(x, y) \/ max_ite(x, y, x) <= True -> No: ()
leq_nat(z, n2) <= True -> No: ()
eq_nat(_uv, _vv) <= flip(t, _wv) /\ height(_wv, _vv) /\ height(t, _uv) -> Yes: {
_uv -> s(s(z))  ;  _vv -> s(z)  ;  _wv -> node(_sqceg_0, leaf, leaf)  ;  t -> node(_tqceg_0, leaf, node(_jvceg_0, _jvceg_1, leaf))
}
flip(node(e, t1, t2), node(e, _fv, _gv)) <= flip(t1, _gv) /\ flip(t2, _fv) -> Yes: {
_fv -> node(_ktceg_0, leaf, leaf)  ;  _gv -> node(_ktceg_0, leaf, leaf)  ;  t1 -> node(_ltceg_0, leaf, _ltceg_2)  ;  t2 -> node(_ltceg_0, leaf, _ltceg_2)
}
height(node(e, t1, t2), s(_ov)) <= height(t1, _pv) /\ height(t2, _qv) /\ max_ite(_pv, _qv, _ov) -> No: ()
leq_nat(s(nn1), s(nn2)) <= leq_nat(nn1, nn2) -> No: ()
max_ite(x, y, y) <= leq_nat(x, y) -> No: ()
leq_nat(nn1, nn2) <= leq_nat(s(nn1), s(nn2)) -> No: ()
False <= leq_nat(s(nn1), z) -> No: ()



-------------------------------------------
Step 13, which took 0.251560 s (model generation: 0.248103,  model checking: 0.003457):

Ground examples at the beginning of this step are:
{
flip(leaf, leaf) <= True
flip(node(a, leaf, leaf), node(a, leaf, leaf)) <= True
flip(node(a, node(a, leaf, leaf), leaf), node(a, leaf, node(a, leaf, leaf))) <= True
flip(node(a, node(a, leaf, leaf), node(a, leaf, leaf)), node(a, node(a, leaf, leaf), node(a, leaf, leaf))) <= True
height(leaf, z) <= True
height(node(a, leaf, leaf), s(z)) <= True
height(node(a, leaf, node(a, leaf, leaf)), s(s(z))) <= True
height(node(a, node(a, leaf, leaf), leaf), s(s(z))) <= True
leq_nat(s(s(z)), z) \/ max_ite(s(s(z)), z, s(s(z))) <= True
leq_nat(s(z), s(z)) <= True
leq_nat(z, s(z)) <= True
leq_nat(z, z) <= True
max_ite(s(s(z)), s(z), s(s(z))) <= True
max_ite(s(z), s(z), s(z)) <= True
max_ite(s(z), z, s(z)) <= True
max_ite(z, s(z), s(z)) <= True
max_ite(z, z, z) <= True
False <= flip(node(a, leaf, leaf), node(a, leaf, node(a, leaf, leaf)))
False <= flip(node(a, leaf, leaf), node(a, node(a, leaf, leaf), leaf))
False <= flip(node(a, leaf, node(a, leaf, leaf)), node(a, leaf, leaf))
False <= flip(node(a, leaf, node(a, leaf, leaf)), node(a, leaf, node(a, leaf, leaf))) /\ height(node(a, leaf, node(a, leaf, leaf)), s(z))
False <= flip(node(a, leaf, node(a, leaf, leaf)), node(a, node(a, leaf, leaf), leaf)) /\ height(node(a, node(a, leaf, leaf), leaf), s(z))
False <= flip(node(a, node(a, leaf, leaf), leaf), node(a, leaf, leaf))
False <= flip(node(a, node(a, leaf, leaf), leaf), node(a, node(a, leaf, leaf), node(a, leaf, leaf))) /\ height(node(a, node(a, leaf, leaf), leaf), s(z)) /\ height(node(a, node(a, leaf, leaf), node(a, leaf, leaf)), s(s(z)))
flip(node(a, leaf, node(a, node(a, node(a, leaf, leaf), leaf), leaf)), node(a, node(a, node(a, leaf, node(a, leaf, leaf)), node(a, leaf, node(a, leaf, leaf))), leaf)) <= flip(node(a, node(a, node(a, leaf, leaf), leaf), leaf), node(a, node(a, leaf, node(a, leaf, leaf)), node(a, leaf, node(a, leaf, leaf))))
False <= height(node(a, leaf, leaf), s(s(z)))
False <= height(node(a, leaf, node(a, leaf, leaf)), s(s(s(z))))
False <= height(node(a, node(a, leaf, leaf), node(a, leaf, leaf)), s(s(z))) /\ height(node(a, node(a, leaf, leaf), node(a, leaf, leaf)), s(z))
height(node(a, node(a, node(a, leaf, leaf), node(a, leaf, leaf)), leaf), s(s(s(s(z))))) <= height(node(a, node(a, leaf, leaf), node(a, leaf, leaf)), s(s(z))) /\ max_ite(s(s(z)), z, s(s(s(z))))
height(node(a, node(a, node(a, leaf, leaf), node(a, leaf, leaf)), leaf), s(s(z))) <= height(node(a, node(a, leaf, leaf), node(a, leaf, leaf)), s(s(z))) /\ max_ite(s(s(z)), z, s(z))
False <= leq_nat(s(s(z)), s(z))
False <= leq_nat(s(z), z)
max_ite(z, s(s(z)), s(s(z))) <= leq_nat(z, s(s(z)))
height(node(a, node(a, leaf, leaf), node(a, leaf, leaf)), s(s(s(z)))) <= max_ite(s(z), s(z), s(s(z)))
height(node(a, node(a, leaf, leaf), leaf), s(s(s(z)))) <= max_ite(s(z), z, s(s(z)))
False <= max_ite(z, s(z), s(s(z)))
}

Learner proposed model:
Found Model:
|_

_r_1 ->
{
  _r_1(s(x_0_0), s(x_1_0)) <= _r_1(x_0_0, x_1_0)
  _r_1(z, z) <= True
}
;
_r_2 ->
{
  _r_2(leaf) <= True
}
;
flip ->
{
  flip(leaf, leaf) <= True
  flip(node(x_0_0, x_0_1, x_0_2), node(x_1_0, x_1_1, x_1_2)) <= flip(x_0_1, x_1_2) /\ flip(x_0_2, x_1_1)
}
;
height ->
{
  height(leaf, z) <= True
  height(node(x_0_0, x_0_1, x_0_2), s(x_1_0)) <= _r_2(x_0_1) /\ height(x_0_2, x_1_0)
  height(node(x_0_0, x_0_1, x_0_2), s(x_1_0)) <= height(x_0_1, x_1_0)
}
;
leq_nat ->
{
  leq_nat(s(x_0_0), s(x_1_0)) <= leq_nat(x_0_0, x_1_0)
  leq_nat(z, s(x_1_0)) <= True
  leq_nat(z, z) <= True
}
;
max_ite ->
{
  max_ite(s(x_0_0), s(x_1_0), s(x_2_0)) <= max_ite(x_0_0, x_1_0, x_2_0)
  max_ite(s(x_0_0), z, s(x_2_0)) <= _r_1(x_0_0, x_2_0)
  max_ite(z, s(x_1_0), s(x_2_0)) <= _r_1(x_1_0, x_2_0)
  max_ite(z, z, z) <= True
}

--
Equality automata are defined for: {elt, etree, nat}
_|


Answer of teacher:


flip(leaf, leaf) <= True -> No: ()
height(leaf, z) <= True -> No: ()
leq_nat(x, y) \/ max_ite(x, y, x) <= True -> No: ()
leq_nat(z, n2) <= True -> No: ()
eq_nat(_uv, _vv) <= flip(t, _wv) /\ height(_wv, _vv) /\ height(t, _uv) -> Yes: {
_uv -> s(s(z))  ;  _vv -> s(z)  ;  _wv -> node(_cxceg_0, leaf, node(_jgdeg_0, leaf, leaf))  ;  t -> node(_dxceg_0, node(_igdeg_0, leaf, leaf), leaf)
}
flip(node(e, t1, t2), node(e, _fv, _gv)) <= flip(t1, _gv) /\ flip(t2, _fv) -> No: ()
height(node(e, t1, t2), s(_ov)) <= height(t1, _pv) /\ height(t2, _qv) /\ max_ite(_pv, _qv, _ov) -> Yes: {
_ov -> s(s(z))  ;  _pv -> s(z)  ;  _qv -> s(s(z))  ;  t1 -> node(_szceg_0, leaf, leaf)  ;  t2 -> node(_vzceg_0, node(_bideg_0, leaf, _bideg_2), _vzceg_2)
}
leq_nat(s(nn1), s(nn2)) <= leq_nat(nn1, nn2) -> No: ()
max_ite(x, y, y) <= leq_nat(x, y) -> No: ()
leq_nat(nn1, nn2) <= leq_nat(s(nn1), s(nn2)) -> No: ()
False <= leq_nat(s(nn1), z) -> No: ()



-------------------------------------------
Step 14, which took 0.210691 s (model generation: 0.209425,  model checking: 0.001266):

Ground examples at the beginning of this step are:
{
flip(leaf, leaf) <= True
flip(node(a, leaf, leaf), node(a, leaf, leaf)) <= True
flip(node(a, node(a, leaf, leaf), leaf), node(a, leaf, node(a, leaf, leaf))) <= True
flip(node(a, node(a, leaf, leaf), node(a, leaf, leaf)), node(a, node(a, leaf, leaf), node(a, leaf, leaf))) <= True
height(leaf, z) <= True
height(node(a, leaf, leaf), s(z)) <= True
height(node(a, leaf, node(a, leaf, leaf)), s(s(z))) <= True
height(node(a, node(a, leaf, leaf), leaf), s(s(z))) <= True
leq_nat(s(s(z)), z) \/ max_ite(s(s(z)), z, s(s(z))) <= True
leq_nat(s(z), s(z)) <= True
leq_nat(z, s(z)) <= True
leq_nat(z, z) <= True
max_ite(s(s(z)), s(z), s(s(z))) <= True
max_ite(s(z), s(z), s(z)) <= True
max_ite(s(z), z, s(z)) <= True
max_ite(z, s(z), s(z)) <= True
max_ite(z, z, z) <= True
False <= flip(node(a, leaf, leaf), node(a, leaf, node(a, leaf, leaf)))
False <= flip(node(a, leaf, leaf), node(a, node(a, leaf, leaf), leaf))
False <= flip(node(a, leaf, node(a, leaf, leaf)), node(a, leaf, leaf))
False <= flip(node(a, leaf, node(a, leaf, leaf)), node(a, node(a, leaf, leaf), leaf)) /\ height(node(a, node(a, leaf, leaf), leaf), s(z))
False <= flip(node(a, node(a, leaf, leaf), leaf), node(a, leaf, leaf))
False <= flip(node(a, node(a, leaf, leaf), leaf), node(a, node(a, leaf, leaf), node(a, leaf, leaf))) /\ height(node(a, node(a, leaf, leaf), leaf), s(z)) /\ height(node(a, node(a, leaf, leaf), node(a, leaf, leaf)), s(s(z)))
flip(node(a, leaf, node(a, node(a, node(a, leaf, leaf), leaf), leaf)), node(a, node(a, node(a, leaf, node(a, leaf, leaf)), node(a, leaf, node(a, leaf, leaf))), leaf)) <= flip(node(a, node(a, node(a, leaf, leaf), leaf), leaf), node(a, node(a, leaf, node(a, leaf, leaf)), node(a, leaf, node(a, leaf, leaf))))
False <= height(node(a, leaf, leaf), s(s(z)))
False <= height(node(a, leaf, node(a, leaf, leaf)), s(s(s(z))))
False <= height(node(a, leaf, node(a, leaf, leaf)), s(z))
False <= height(node(a, node(a, leaf, leaf), node(a, leaf, leaf)), s(s(z))) /\ height(node(a, node(a, leaf, leaf), node(a, leaf, leaf)), s(z))
height(node(a, node(a, node(a, leaf, leaf), node(a, leaf, leaf)), leaf), s(s(s(s(z))))) <= height(node(a, node(a, leaf, leaf), node(a, leaf, leaf)), s(s(z))) /\ max_ite(s(s(z)), z, s(s(s(z))))
height(node(a, node(a, node(a, leaf, leaf), node(a, leaf, leaf)), leaf), s(s(z))) <= height(node(a, node(a, leaf, leaf), node(a, leaf, leaf)), s(s(z))) /\ max_ite(s(s(z)), z, s(z))
False <= leq_nat(s(s(z)), s(z))
False <= leq_nat(s(z), z)
max_ite(z, s(s(z)), s(s(z))) <= leq_nat(z, s(s(z)))
height(node(a, node(a, leaf, leaf), node(a, node(a, leaf, leaf), leaf)), s(s(s(z)))) <= max_ite(s(z), s(s(z)), s(s(z)))
height(node(a, node(a, leaf, leaf), node(a, leaf, leaf)), s(s(s(z)))) <= max_ite(s(z), s(z), s(s(z)))
height(node(a, node(a, leaf, leaf), leaf), s(s(s(z)))) <= max_ite(s(z), z, s(s(z)))
False <= max_ite(z, s(z), s(s(z)))
}

Learner proposed model:
Found Model:
|_

_r_1 ->
{
  _r_1(s(x_0_0), s(x_1_0)) <= True
  _r_1(z, z) <= True
}
;
_r_2 ->
{
  _r_2(leaf) <= True
}
;
flip ->
{
  flip(leaf, leaf) <= True
  flip(node(x_0_0, x_0_1, x_0_2), node(x_1_0, x_1_1, x_1_2)) <= flip(x_0_1, x_1_1) /\ flip(x_0_2, x_1_2)
  flip(node(x_0_0, x_0_1, x_0_2), node(x_1_0, x_1_1, x_1_2)) <= flip(x_0_1, x_1_2) /\ flip(x_0_2, x_1_1)
}
;
height ->
{
  height(leaf, z) <= True
  height(node(x_0_0, x_0_1, x_0_2), s(x_1_0)) <= _r_2(x_0_1) /\ height(x_0_2, x_1_0)
  height(node(x_0_0, x_0_1, x_0_2), s(x_1_0)) <= _r_2(x_0_2) /\ height(x_0_1, x_1_0)
}
;
leq_nat ->
{
  leq_nat(s(x_0_0), s(x_1_0)) <= leq_nat(x_0_0, x_1_0)
  leq_nat(z, s(x_1_0)) <= True
  leq_nat(z, z) <= True
}
;
max_ite ->
{
  max_ite(s(x_0_0), s(x_1_0), s(x_2_0)) <= _r_1(x_0_0, x_2_0)
  max_ite(s(x_0_0), z, s(x_2_0)) <= _r_1(x_0_0, x_2_0)
  max_ite(z, s(x_1_0), s(x_2_0)) <= _r_1(x_1_0, x_2_0)
  max_ite(z, z, z) <= True
}

--
Equality automata are defined for: {elt, etree, nat}
_|


Answer of teacher:


flip(leaf, leaf) <= True -> No: ()
height(leaf, z) <= True -> No: ()
leq_nat(x, y) \/ max_ite(x, y, x) <= True -> No: ()
leq_nat(z, n2) <= True -> No: ()
eq_nat(_uv, _vv) <= flip(t, _wv) /\ height(_wv, _vv) /\ height(t, _uv) -> No: ()
flip(node(e, t1, t2), node(e, _fv, _gv)) <= flip(t1, _gv) /\ flip(t2, _fv) -> No: ()
height(node(e, t1, t2), s(_ov)) <= height(t1, _pv) /\ height(t2, _qv) /\ max_ite(_pv, _qv, _ov) -> Yes: {
_ov -> s(z)  ;  _pv -> s(z)  ;  _qv -> s(z)  ;  t1 -> node(_zmdeg_0, leaf, leaf)  ;  t2 -> node(_andeg_0, leaf, leaf)
}
leq_nat(s(nn1), s(nn2)) <= leq_nat(nn1, nn2) -> No: ()
max_ite(x, y, y) <= leq_nat(x, y) -> Yes: {
x -> s(z)  ;  y -> s(s(_gndeg_0))
}
leq_nat(nn1, nn2) <= leq_nat(s(nn1), s(nn2)) -> No: ()
False <= leq_nat(s(nn1), z) -> No: ()



-------------------------------------------
Step 15, which took 0.392936 s (model generation: 0.244993,  model checking: 0.147943):

Ground examples at the beginning of this step are:
{
flip(leaf, leaf) <= True
flip(node(a, leaf, leaf), node(a, leaf, leaf)) <= True
flip(node(a, node(a, leaf, leaf), leaf), node(a, leaf, node(a, leaf, leaf))) <= True
flip(node(a, node(a, leaf, leaf), node(a, leaf, leaf)), node(a, node(a, leaf, leaf), node(a, leaf, leaf))) <= True
height(leaf, z) <= True
height(node(a, leaf, leaf), s(z)) <= True
height(node(a, leaf, node(a, leaf, leaf)), s(s(z))) <= True
height(node(a, node(a, leaf, leaf), leaf), s(s(z))) <= True
height(node(a, node(a, leaf, leaf), node(a, leaf, leaf)), s(s(z))) <= True
leq_nat(s(s(z)), z) \/ max_ite(s(s(z)), z, s(s(z))) <= True
leq_nat(s(z), s(z)) <= True
leq_nat(z, s(z)) <= True
leq_nat(z, z) <= True
max_ite(s(s(z)), s(z), s(s(z))) <= True
max_ite(s(z), s(z), s(z)) <= True
max_ite(s(z), z, s(z)) <= True
max_ite(z, s(z), s(z)) <= True
max_ite(z, z, z) <= True
False <= flip(node(a, leaf, leaf), node(a, leaf, node(a, leaf, leaf)))
False <= flip(node(a, leaf, leaf), node(a, node(a, leaf, leaf), leaf))
False <= flip(node(a, leaf, node(a, leaf, leaf)), node(a, leaf, leaf))
False <= flip(node(a, leaf, node(a, leaf, leaf)), node(a, node(a, leaf, leaf), leaf)) /\ height(node(a, node(a, leaf, leaf), leaf), s(z))
False <= flip(node(a, node(a, leaf, leaf), leaf), node(a, leaf, leaf))
False <= flip(node(a, node(a, leaf, leaf), leaf), node(a, node(a, leaf, leaf), node(a, leaf, leaf))) /\ height(node(a, node(a, leaf, leaf), leaf), s(z))
flip(node(a, leaf, node(a, node(a, node(a, leaf, leaf), leaf), leaf)), node(a, node(a, node(a, leaf, node(a, leaf, leaf)), node(a, leaf, node(a, leaf, leaf))), leaf)) <= flip(node(a, node(a, node(a, leaf, leaf), leaf), leaf), node(a, node(a, leaf, node(a, leaf, leaf)), node(a, leaf, node(a, leaf, leaf))))
False <= height(node(a, leaf, leaf), s(s(z)))
False <= height(node(a, leaf, node(a, leaf, leaf)), s(s(s(z))))
False <= height(node(a, leaf, node(a, leaf, leaf)), s(z))
False <= height(node(a, node(a, leaf, leaf), node(a, leaf, leaf)), s(z))
False <= leq_nat(s(s(z)), s(z))
max_ite(s(z), s(s(z)), s(s(z))) <= leq_nat(s(z), s(s(z)))
False <= leq_nat(s(z), z)
max_ite(z, s(s(z)), s(s(z))) <= leq_nat(z, s(s(z)))
height(node(a, node(a, node(a, leaf, leaf), node(a, leaf, leaf)), leaf), s(s(s(s(z))))) <= max_ite(s(s(z)), z, s(s(s(z))))
height(node(a, node(a, node(a, leaf, leaf), node(a, leaf, leaf)), leaf), s(s(z))) <= max_ite(s(s(z)), z, s(z))
height(node(a, node(a, leaf, leaf), node(a, node(a, leaf, leaf), leaf)), s(s(s(z)))) <= max_ite(s(z), s(s(z)), s(s(z)))
height(node(a, node(a, leaf, leaf), node(a, leaf, leaf)), s(s(s(z)))) <= max_ite(s(z), s(z), s(s(z)))
height(node(a, node(a, leaf, leaf), leaf), s(s(s(z)))) <= max_ite(s(z), z, s(s(z)))
False <= max_ite(z, s(z), s(s(z)))
}

Learner proposed model:
Found Model:
|_

_r_1 ->
{
  _r_1(s(x_0_0), s(x_1_0)) <= _r_1(x_0_0, x_1_0)
  _r_1(z, z) <= True
}
;
_r_2 ->
{
  _r_2(s(x_0_0)) <= True
}
;
flip ->
{
  flip(leaf, leaf) <= True
  flip(node(x_0_0, x_0_1, x_0_2), node(x_1_0, x_1_1, x_1_2)) <= flip(x_0_1, x_1_1) /\ flip(x_0_2, x_1_2)
  flip(node(x_0_0, x_0_1, x_0_2), node(x_1_0, x_1_1, x_1_2)) <= flip(x_0_1, x_1_2) /\ flip(x_0_2, x_1_1)
}
;
height ->
{
  height(leaf, z) <= True
  height(node(x_0_0, x_0_1, x_0_2), s(x_1_0)) <= _r_2(x_1_0) /\ height(x_0_1, x_1_0)
  height(node(x_0_0, x_0_1, x_0_2), s(x_1_0)) <= _r_2(x_1_0) /\ height(x_0_2, x_1_0)
  height(node(x_0_0, x_0_1, x_0_2), s(x_1_0)) <= height(x_0_1, x_1_0) /\ height(x_0_2, x_1_0)
}
;
leq_nat ->
{
  leq_nat(s(x_0_0), s(x_1_0)) <= leq_nat(x_0_0, x_1_0)
  leq_nat(z, s(x_1_0)) <= True
  leq_nat(z, z) <= True
}
;
max_ite ->
{
  max_ite(s(x_0_0), s(x_1_0), s(x_2_0)) <= max_ite(x_0_0, x_1_0, x_2_0)
  max_ite(s(x_0_0), z, s(x_2_0)) <= _r_1(x_0_0, x_2_0)
  max_ite(z, s(x_1_0), s(x_2_0)) <= _r_1(x_1_0, x_2_0)
  max_ite(z, z, z) <= True
}

--
Equality automata are defined for: {elt, etree, nat}
_|


Answer of teacher:


flip(leaf, leaf) <= True -> No: ()
height(leaf, z) <= True -> No: ()
leq_nat(x, y) \/ max_ite(x, y, x) <= True -> No: ()
leq_nat(z, n2) <= True -> No: ()
eq_nat(_uv, _vv) <= flip(t, _wv) /\ height(_wv, _vv) /\ height(t, _uv) -> Yes: {
_uv -> s(s(s(z)))  ;  _vv -> s(s(z))  ;  _wv -> node(_godeg_0, node(_mifeg_0, leaf, leaf), node(_oifeg_0, node(_wzfeg_0, leaf, leaf), node(_wzfeg_0, leaf, leaf)))  ;  t -> node(_hodeg_0, node(_lifeg_0, leaf, leaf), node(_nifeg_0, node(_vzfeg_0, leaf, leaf), node(_vzfeg_0, leaf, leaf)))
}
flip(node(e, t1, t2), node(e, _fv, _gv)) <= flip(t1, _gv) /\ flip(t2, _fv) -> No: ()
height(node(e, t1, t2), s(_ov)) <= height(t1, _pv) /\ height(t2, _qv) /\ max_ite(_pv, _qv, _ov) -> No: ()
leq_nat(s(nn1), s(nn2)) <= leq_nat(nn1, nn2) -> No: ()
max_ite(x, y, y) <= leq_nat(x, y) -> No: ()
leq_nat(nn1, nn2) <= leq_nat(s(nn1), s(nn2)) -> No: ()
False <= leq_nat(s(nn1), z) -> No: ()



-------------------------------------------
Step 16, which took 0.383741 s (model generation: 0.272891,  model checking: 0.110850):

Ground examples at the beginning of this step are:
{
flip(leaf, leaf) <= True
flip(node(a, leaf, leaf), node(a, leaf, leaf)) <= True
flip(node(a, node(a, leaf, leaf), leaf), node(a, leaf, node(a, leaf, leaf))) <= True
flip(node(a, node(a, leaf, leaf), node(a, leaf, leaf)), node(a, node(a, leaf, leaf), node(a, leaf, leaf))) <= True
height(leaf, z) <= True
height(node(a, leaf, leaf), s(z)) <= True
height(node(a, leaf, node(a, leaf, leaf)), s(s(z))) <= True
height(node(a, node(a, leaf, leaf), leaf), s(s(z))) <= True
height(node(a, node(a, leaf, leaf), node(a, leaf, leaf)), s(s(z))) <= True
leq_nat(s(s(z)), z) \/ max_ite(s(s(z)), z, s(s(z))) <= True
leq_nat(s(z), s(z)) <= True
leq_nat(z, s(z)) <= True
leq_nat(z, z) <= True
max_ite(s(s(z)), s(z), s(s(z))) <= True
max_ite(s(z), s(z), s(z)) <= True
max_ite(s(z), z, s(z)) <= True
max_ite(z, s(z), s(z)) <= True
max_ite(z, z, z) <= True
False <= flip(node(a, leaf, leaf), node(a, leaf, node(a, leaf, leaf)))
False <= flip(node(a, leaf, leaf), node(a, node(a, leaf, leaf), leaf))
False <= flip(node(a, leaf, node(a, leaf, leaf)), node(a, leaf, leaf))
False <= flip(node(a, leaf, node(a, leaf, leaf)), node(a, node(a, leaf, leaf), leaf)) /\ height(node(a, node(a, leaf, leaf), leaf), s(z))
False <= flip(node(a, node(a, leaf, leaf), leaf), node(a, leaf, leaf))
False <= flip(node(a, node(a, leaf, leaf), leaf), node(a, node(a, leaf, leaf), node(a, leaf, leaf))) /\ height(node(a, node(a, leaf, leaf), leaf), s(z))
False <= flip(node(a, node(a, leaf, leaf), node(a, node(a, leaf, leaf), node(a, leaf, leaf))), node(a, node(a, leaf, leaf), node(a, node(a, leaf, leaf), node(a, leaf, leaf)))) /\ height(node(a, node(a, leaf, leaf), node(a, node(a, leaf, leaf), node(a, leaf, leaf))), s(s(s(z)))) /\ height(node(a, node(a, leaf, leaf), node(a, node(a, leaf, leaf), node(a, leaf, leaf))), s(s(z)))
flip(node(a, leaf, node(a, node(a, node(a, leaf, leaf), leaf), leaf)), node(a, node(a, node(a, leaf, node(a, leaf, leaf)), node(a, leaf, node(a, leaf, leaf))), leaf)) <= flip(node(a, node(a, node(a, leaf, leaf), leaf), leaf), node(a, node(a, leaf, node(a, leaf, leaf)), node(a, leaf, node(a, leaf, leaf))))
False <= height(node(a, leaf, leaf), s(s(z)))
False <= height(node(a, leaf, node(a, leaf, leaf)), s(s(s(z))))
False <= height(node(a, leaf, node(a, leaf, leaf)), s(z))
False <= height(node(a, node(a, leaf, leaf), node(a, leaf, leaf)), s(z))
False <= leq_nat(s(s(z)), s(z))
max_ite(s(z), s(s(z)), s(s(z))) <= leq_nat(s(z), s(s(z)))
False <= leq_nat(s(z), z)
max_ite(z, s(s(z)), s(s(z))) <= leq_nat(z, s(s(z)))
height(node(a, node(a, node(a, leaf, leaf), node(a, leaf, leaf)), leaf), s(s(s(s(z))))) <= max_ite(s(s(z)), z, s(s(s(z))))
height(node(a, node(a, node(a, leaf, leaf), node(a, leaf, leaf)), leaf), s(s(z))) <= max_ite(s(s(z)), z, s(z))
height(node(a, node(a, leaf, leaf), node(a, node(a, leaf, leaf), leaf)), s(s(s(z)))) <= max_ite(s(z), s(s(z)), s(s(z)))
height(node(a, node(a, leaf, leaf), node(a, leaf, leaf)), s(s(s(z)))) <= max_ite(s(z), s(z), s(s(z)))
height(node(a, node(a, leaf, leaf), leaf), s(s(s(z)))) <= max_ite(s(z), z, s(s(z)))
False <= max_ite(z, s(z), s(s(z)))
}

Learner proposed model:
Found Model:
|_

_r_1 ->
{
  _r_1(s(x_0_0), s(x_1_0)) <= _r_1(x_0_0, x_1_0)
  _r_1(z, z) <= True
}
;
_r_2 ->
{
  _r_2(s(x_0_0)) <= True
}
;
flip ->
{
  flip(leaf, leaf) <= True
  flip(node(x_0_0, x_0_1, x_0_2), node(x_1_0, x_1_1, x_1_2)) <= flip(x_0_1, x_1_2) /\ flip(x_0_2, x_1_1)
}
;
height ->
{
  height(leaf, z) <= True
  height(node(x_0_0, x_0_1, x_0_2), s(x_1_0)) <= _r_2(x_1_0) /\ height(x_0_1, x_1_0)
  height(node(x_0_0, x_0_1, x_0_2), s(x_1_0)) <= _r_2(x_1_0) /\ height(x_0_2, x_1_0)
  height(node(x_0_0, x_0_1, x_0_2), s(x_1_0)) <= height(x_0_1, x_1_0) /\ height(x_0_2, x_1_0)
}
;
leq_nat ->
{
  leq_nat(s(x_0_0), s(x_1_0)) <= leq_nat(x_0_0, x_1_0)
  leq_nat(z, s(x_1_0)) <= True
  leq_nat(z, z) <= True
}
;
max_ite ->
{
  max_ite(s(x_0_0), s(x_1_0), s(x_2_0)) <= max_ite(x_0_0, x_1_0, x_2_0)
  max_ite(s(x_0_0), z, s(x_2_0)) <= _r_1(x_0_0, x_2_0)
  max_ite(z, s(x_1_0), s(x_2_0)) <= _r_1(x_1_0, x_2_0)
  max_ite(z, z, z) <= True
}

--
Equality automata are defined for: {elt, etree, nat}
_|


Answer of teacher:


flip(leaf, leaf) <= True -> No: ()
height(leaf, z) <= True -> No: ()
leq_nat(x, y) \/ max_ite(x, y, x) <= True -> No: ()
leq_nat(z, n2) <= True -> No: ()
eq_nat(_uv, _vv) <= flip(t, _wv) /\ height(_wv, _vv) /\ height(t, _uv) -> Yes: {
_uv -> s(s(s(z)))  ;  _vv -> s(s(z))  ;  _wv -> node(_atleg_0, node(_efneg_0, node(_akneg_0, leaf, leaf), node(_akneg_0, leaf, leaf)), node(_cfneg_0, leaf, leaf))  ;  t -> node(_btleg_0, node(_bfneg_0, leaf, leaf), node(_dfneg_0, node(_zjneg_0, leaf, leaf), node(_zjneg_0, leaf, leaf)))
}
flip(node(e, t1, t2), node(e, _fv, _gv)) <= flip(t1, _gv) /\ flip(t2, _fv) -> No: ()
height(node(e, t1, t2), s(_ov)) <= height(t1, _pv) /\ height(t2, _qv) /\ max_ite(_pv, _qv, _ov) -> No: ()
leq_nat(s(nn1), s(nn2)) <= leq_nat(nn1, nn2) -> No: ()
max_ite(x, y, y) <= leq_nat(x, y) -> No: ()
leq_nat(nn1, nn2) <= leq_nat(s(nn1), s(nn2)) -> No: ()
False <= leq_nat(s(nn1), z) -> No: ()



-------------------------------------------
Step 17, which took 28.919341 s (model generation: 0.272309,  model checking: 28.647032):

Ground examples at the beginning of this step are:
{
flip(leaf, leaf) <= True
flip(node(a, leaf, leaf), node(a, leaf, leaf)) <= True
flip(node(a, node(a, leaf, leaf), leaf), node(a, leaf, node(a, leaf, leaf))) <= True
flip(node(a, node(a, leaf, leaf), node(a, leaf, leaf)), node(a, node(a, leaf, leaf), node(a, leaf, leaf))) <= True
height(leaf, z) <= True
height(node(a, leaf, leaf), s(z)) <= True
height(node(a, leaf, node(a, leaf, leaf)), s(s(z))) <= True
height(node(a, node(a, leaf, leaf), leaf), s(s(z))) <= True
height(node(a, node(a, leaf, leaf), node(a, leaf, leaf)), s(s(z))) <= True
leq_nat(s(s(z)), z) \/ max_ite(s(s(z)), z, s(s(z))) <= True
leq_nat(s(z), s(z)) <= True
leq_nat(z, s(z)) <= True
leq_nat(z, z) <= True
max_ite(s(s(z)), s(z), s(s(z))) <= True
max_ite(s(z), s(z), s(z)) <= True
max_ite(s(z), z, s(z)) <= True
max_ite(z, s(z), s(z)) <= True
max_ite(z, z, z) <= True
False <= flip(node(a, leaf, leaf), node(a, leaf, node(a, leaf, leaf)))
False <= flip(node(a, leaf, leaf), node(a, node(a, leaf, leaf), leaf))
False <= flip(node(a, leaf, node(a, leaf, leaf)), node(a, leaf, leaf))
False <= flip(node(a, leaf, node(a, leaf, leaf)), node(a, node(a, leaf, leaf), leaf)) /\ height(node(a, node(a, leaf, leaf), leaf), s(z))
False <= flip(node(a, node(a, leaf, leaf), leaf), node(a, leaf, leaf))
False <= flip(node(a, node(a, leaf, leaf), leaf), node(a, node(a, leaf, leaf), node(a, leaf, leaf))) /\ height(node(a, node(a, leaf, leaf), leaf), s(z))
False <= flip(node(a, node(a, leaf, leaf), node(a, node(a, leaf, leaf), node(a, leaf, leaf))), node(a, node(a, leaf, leaf), node(a, node(a, leaf, leaf), node(a, leaf, leaf)))) /\ height(node(a, node(a, leaf, leaf), node(a, node(a, leaf, leaf), node(a, leaf, leaf))), s(s(s(z)))) /\ height(node(a, node(a, leaf, leaf), node(a, node(a, leaf, leaf), node(a, leaf, leaf))), s(s(z)))
False <= flip(node(a, node(a, leaf, leaf), node(a, node(a, leaf, leaf), node(a, leaf, leaf))), node(a, node(a, node(a, leaf, leaf), node(a, leaf, leaf)), node(a, leaf, leaf))) /\ height(node(a, node(a, leaf, leaf), node(a, node(a, leaf, leaf), node(a, leaf, leaf))), s(s(s(z)))) /\ height(node(a, node(a, node(a, leaf, leaf), node(a, leaf, leaf)), node(a, leaf, leaf)), s(s(z)))
flip(node(a, leaf, node(a, node(a, node(a, leaf, leaf), leaf), leaf)), node(a, node(a, node(a, leaf, node(a, leaf, leaf)), node(a, leaf, node(a, leaf, leaf))), leaf)) <= flip(node(a, node(a, node(a, leaf, leaf), leaf), leaf), node(a, node(a, leaf, node(a, leaf, leaf)), node(a, leaf, node(a, leaf, leaf))))
False <= height(node(a, leaf, leaf), s(s(z)))
False <= height(node(a, leaf, node(a, leaf, leaf)), s(s(s(z))))
False <= height(node(a, leaf, node(a, leaf, leaf)), s(z))
False <= height(node(a, node(a, leaf, leaf), node(a, leaf, leaf)), s(z))
False <= leq_nat(s(s(z)), s(z))
max_ite(s(z), s(s(z)), s(s(z))) <= leq_nat(s(z), s(s(z)))
False <= leq_nat(s(z), z)
max_ite(z, s(s(z)), s(s(z))) <= leq_nat(z, s(s(z)))
height(node(a, node(a, node(a, leaf, leaf), node(a, leaf, leaf)), leaf), s(s(s(s(z))))) <= max_ite(s(s(z)), z, s(s(s(z))))
height(node(a, node(a, node(a, leaf, leaf), node(a, leaf, leaf)), leaf), s(s(z))) <= max_ite(s(s(z)), z, s(z))
height(node(a, node(a, leaf, leaf), node(a, node(a, leaf, leaf), leaf)), s(s(s(z)))) <= max_ite(s(z), s(s(z)), s(s(z)))
height(node(a, node(a, leaf, leaf), node(a, leaf, leaf)), s(s(s(z)))) <= max_ite(s(z), s(z), s(s(z)))
height(node(a, node(a, leaf, leaf), leaf), s(s(s(z)))) <= max_ite(s(z), z, s(s(z)))
False <= max_ite(z, s(z), s(s(z)))
}

Learner proposed model:
Found Model:
|_

_r_1 ->
{
  _r_1(s(x_0_0), s(x_1_0)) <= _r_1(x_0_0, x_1_0)
  _r_1(z, z) <= True
}
;
_r_2 ->
{
  _r_2(leaf, s(x_1_0)) <= True
  _r_2(node(x_0_0, x_0_1, x_0_2), s(x_1_0)) <= _r_2(x_0_2, x_1_0)
}
;
flip ->
{
  flip(leaf, leaf) <= True
  flip(node(x_0_0, x_0_1, x_0_2), node(x_1_0, x_1_1, x_1_2)) <= flip(x_0_1, x_1_1) /\ flip(x_0_2, x_1_2)
  flip(node(x_0_0, x_0_1, x_0_2), node(x_1_0, x_1_1, x_1_2)) <= flip(x_0_1, x_1_2) /\ flip(x_0_2, x_1_1)
}
;
height ->
{
  height(leaf, z) <= True
  height(node(x_0_0, x_0_1, x_0_2), s(x_1_0)) <= _r_2(x_0_1, x_1_0) /\ height(x_0_2, x_1_0)
  height(node(x_0_0, x_0_1, x_0_2), s(x_1_0)) <= _r_2(x_0_2, x_1_0) /\ height(x_0_1, x_1_0)
  height(node(x_0_0, x_0_1, x_0_2), s(x_1_0)) <= height(x_0_1, x_1_0) /\ height(x_0_2, x_1_0)
}
;
leq_nat ->
{
  leq_nat(s(x_0_0), s(x_1_0)) <= leq_nat(x_0_0, x_1_0)
  leq_nat(z, s(x_1_0)) <= True
  leq_nat(z, z) <= True
}
;
max_ite ->
{
  max_ite(s(x_0_0), s(x_1_0), s(x_2_0)) <= max_ite(x_0_0, x_1_0, x_2_0)
  max_ite(s(x_0_0), z, s(x_2_0)) <= _r_1(x_0_0, x_2_0)
  max_ite(z, s(x_1_0), s(x_2_0)) <= _r_1(x_1_0, x_2_0)
  max_ite(z, z, z) <= True
}

--
Equality automata are defined for: {elt, etree, nat}
_|


Answer of teacher:


eq_nat(_uv, _vv) <= flip(t, _wv) /\ height(_wv, _vv) /\ height(t, _uv) -> Maybe: out of time
height(node(e, t1, t2), s(_ov)) <= height(t1, _pv) /\ height(t2, _qv) /\ max_ite(_pv, _qv, _ov) -> Maybe: out of time




Total time: 31.057360
Learner time: 2.123038
Teacher time: 28.931635
Reasons for stopping: Maybe:  other: Some clauses could not be checked:
{
{eq_nat([_uv, _vv]), ~flip([t, _wv]), ~height([_wv, _vv]), ~height([t, _uv])} -> out of time
{height([node(e, t1, t2), s(_ov)]), ~height([t1, _pv]), ~height([t2, _qv]), ~max_ite([_pv, _qv, _ov])} -> out of time
}

Last solver state:

Clauses:
{
flip(leaf, leaf) <= True
height(leaf, z) <= True
leq_nat(x, y) \/ max_ite(x, y, x) <= True
leq_nat(z, n2) <= True
eq_nat(_uv, _vv) <= flip(t, _wv) /\ height(_wv, _vv) /\ height(t, _uv)
flip(node(e, t1, t2), node(e, _fv, _gv)) <= flip(t1, _gv) /\ flip(t2, _fv)
height(node(e, t1, t2), s(_ov)) <= height(t1, _pv) /\ height(t2, _qv) /\ max_ite(_pv, _qv, _ov)
leq_nat(s(nn1), s(nn2)) <= leq_nat(nn1, nn2)
max_ite(x, y, y) <= leq_nat(x, y)
leq_nat(nn1, nn2) <= leq_nat(s(nn1), s(nn2))
False <= leq_nat(s(nn1), z)
}

Accumulated learning constraints:
{
flip(leaf, leaf) <= True
flip(node(a, leaf, leaf), node(a, leaf, leaf)) <= True
flip(node(a, node(a, leaf, leaf), leaf), node(a, leaf, node(a, leaf, leaf))) <= True
flip(node(a, node(a, leaf, leaf), node(a, leaf, leaf)), node(a, node(a, leaf, leaf), node(a, leaf, leaf))) <= True
height(leaf, z) <= True
height(node(a, leaf, leaf), s(z)) <= True
height(node(a, leaf, node(a, leaf, leaf)), s(s(z))) <= True
height(node(a, node(a, leaf, leaf), leaf), s(s(z))) <= True
height(node(a, node(a, leaf, leaf), node(a, leaf, leaf)), s(s(z))) <= True
leq_nat(s(s(z)), z) \/ max_ite(s(s(z)), z, s(s(z))) <= True
leq_nat(s(z), s(z)) <= True
leq_nat(z, s(z)) <= True
leq_nat(z, z) <= True
max_ite(s(s(z)), s(z), s(s(z))) <= True
max_ite(s(z), s(z), s(z)) <= True
max_ite(s(z), z, s(z)) <= True
max_ite(z, s(z), s(z)) <= True
max_ite(z, z, z) <= True
False <= flip(node(a, leaf, leaf), node(a, leaf, node(a, leaf, leaf)))
False <= flip(node(a, leaf, leaf), node(a, node(a, leaf, leaf), leaf))
False <= flip(node(a, leaf, node(a, leaf, leaf)), node(a, leaf, leaf))
False <= flip(node(a, leaf, node(a, leaf, leaf)), node(a, node(a, leaf, leaf), leaf)) /\ height(node(a, node(a, leaf, leaf), leaf), s(z))
False <= flip(node(a, node(a, leaf, leaf), leaf), node(a, leaf, leaf))
False <= flip(node(a, node(a, leaf, leaf), leaf), node(a, node(a, leaf, leaf), node(a, leaf, leaf))) /\ height(node(a, node(a, leaf, leaf), leaf), s(z))
False <= flip(node(a, node(a, leaf, leaf), node(a, node(a, leaf, leaf), node(a, leaf, leaf))), node(a, node(a, leaf, leaf), node(a, node(a, leaf, leaf), node(a, leaf, leaf)))) /\ height(node(a, node(a, leaf, leaf), node(a, node(a, leaf, leaf), node(a, leaf, leaf))), s(s(s(z)))) /\ height(node(a, node(a, leaf, leaf), node(a, node(a, leaf, leaf), node(a, leaf, leaf))), s(s(z)))
False <= flip(node(a, node(a, leaf, leaf), node(a, node(a, leaf, leaf), node(a, leaf, leaf))), node(a, node(a, node(a, leaf, leaf), node(a, leaf, leaf)), node(a, leaf, leaf))) /\ height(node(a, node(a, leaf, leaf), node(a, node(a, leaf, leaf), node(a, leaf, leaf))), s(s(s(z)))) /\ height(node(a, node(a, node(a, leaf, leaf), node(a, leaf, leaf)), node(a, leaf, leaf)), s(s(z)))
flip(node(a, leaf, node(a, node(a, node(a, leaf, leaf), leaf), leaf)), node(a, node(a, node(a, leaf, node(a, leaf, leaf)), node(a, leaf, node(a, leaf, leaf))), leaf)) <= flip(node(a, node(a, node(a, leaf, leaf), leaf), leaf), node(a, node(a, leaf, node(a, leaf, leaf)), node(a, leaf, node(a, leaf, leaf))))
False <= height(node(a, leaf, leaf), s(s(z)))
False <= height(node(a, leaf, node(a, leaf, leaf)), s(s(s(z))))
False <= height(node(a, leaf, node(a, leaf, leaf)), s(z))
False <= height(node(a, node(a, leaf, leaf), node(a, leaf, leaf)), s(z))
False <= leq_nat(s(s(z)), s(z))
max_ite(s(z), s(s(z)), s(s(z))) <= leq_nat(s(z), s(s(z)))
False <= leq_nat(s(z), z)
max_ite(z, s(s(z)), s(s(z))) <= leq_nat(z, s(s(z)))
height(node(a, node(a, node(a, leaf, leaf), node(a, leaf, leaf)), leaf), s(s(s(s(z))))) <= max_ite(s(s(z)), z, s(s(s(z))))
height(node(a, node(a, node(a, leaf, leaf), node(a, leaf, leaf)), leaf), s(s(z))) <= max_ite(s(s(z)), z, s(z))
height(node(a, node(a, leaf, leaf), node(a, node(a, leaf, leaf), leaf)), s(s(s(z)))) <= max_ite(s(z), s(s(z)), s(s(z)))
height(node(a, node(a, leaf, leaf), node(a, leaf, leaf)), s(s(s(z)))) <= max_ite(s(z), s(z), s(s(z)))
height(node(a, node(a, leaf, leaf), leaf), s(s(s(z)))) <= max_ite(s(z), z, s(s(z)))
False <= max_ite(z, s(z), s(s(z)))
}

Current best model:
|_

_r_1 ->
{
  _r_1(s(x_0_0), s(x_1_0)) <= _r_1(x_0_0, x_1_0)
  _r_1(z, z) <= True
}
;
_r_2 ->
{
  _r_2(leaf, s(x_1_0)) <= True
  _r_2(node(x_0_0, x_0_1, x_0_2), s(x_1_0)) <= _r_2(x_0_2, x_1_0)
}
;
flip ->
{
  flip(leaf, leaf) <= True
  flip(node(x_0_0, x_0_1, x_0_2), node(x_1_0, x_1_1, x_1_2)) <= flip(x_0_1, x_1_1) /\ flip(x_0_2, x_1_2)
  flip(node(x_0_0, x_0_1, x_0_2), node(x_1_0, x_1_1, x_1_2)) <= flip(x_0_1, x_1_2) /\ flip(x_0_2, x_1_1)
}
;
height ->
{
  height(leaf, z) <= True
  height(node(x_0_0, x_0_1, x_0_2), s(x_1_0)) <= _r_2(x_0_1, x_1_0) /\ height(x_0_2, x_1_0)
  height(node(x_0_0, x_0_1, x_0_2), s(x_1_0)) <= _r_2(x_0_2, x_1_0) /\ height(x_0_1, x_1_0)
  height(node(x_0_0, x_0_1, x_0_2), s(x_1_0)) <= height(x_0_1, x_1_0) /\ height(x_0_2, x_1_0)
}
;
leq_nat ->
{
  leq_nat(s(x_0_0), s(x_1_0)) <= leq_nat(x_0_0, x_1_0)
  leq_nat(z, s(x_1_0)) <= True
  leq_nat(z, z) <= True
}
;
max_ite ->
{
  max_ite(s(x_0_0), s(x_1_0), s(x_2_0)) <= max_ite(x_0_0, x_1_0, x_2_0)
  max_ite(s(x_0_0), z, s(x_2_0)) <= _r_1(x_0_0, x_2_0)
  max_ite(z, s(x_1_0), s(x_2_0)) <= _r_1(x_1_0, x_2_0)
  max_ite(z, z, z) <= True
}

--
Equality automata are defined for: {elt, etree, nat}
_|








