Solving ../../../../benchmarks/smtlib/true/isaplanner_prop20.smt2...

Inference procedure has parameters:
Timeout: Some(40.) (sec)
Approximation method: remove functionnality constraint where possible



Learning problem is:

env: {
nat -> {s, z}  ;  natlist -> {ncons, nnil}
}
definition:
{
(leq_nat, P:
{
leq_nat(z, n2) <= True
leq_nat(s(nn1), s(nn2)) <= leq_nat(nn1, nn2)
leq_nat(nn1, nn2) <= leq_nat(s(nn1), s(nn2))
False <= leq_nat(s(nn1), z)
}
)
(insert_nat, F:
{
insert_nat(x, nnil, ncons(x, nnil)) <= True
insert_nat(x, ncons(y, z), ncons(y, _ye)) \/ leq_nat(x, y) <= insert_nat(x, z, _ye)
insert_nat(x, ncons(y, z), ncons(x, ncons(y, z))) <= leq_nat(x, y)
}
eq_natlist(_bf, _cf) <= insert_nat(_ze, _af, _bf) /\ insert_nat(_ze, _af, _cf)
)
(sort_nat, F:
{
sort_nat(nnil, nnil) <= True
sort_nat(ncons(y, z), _df) <= insert_nat(y, _ef, _df) /\ sort_nat(z, _ef)
}
eq_natlist(_gf, _hf) <= sort_nat(_ff, _gf) /\ sort_nat(_ff, _hf)
)
(length_nat, F:
{
length_nat(nnil, z) <= True
length_nat(ncons(x, ll), s(_if)) <= length_nat(ll, _if)
}
eq_nat(_kf, _lf) <= length_nat(_jf, _kf) /\ length_nat(_jf, _lf)
)
}

properties:
{
eq_nat(_mf, _nf) <= length_nat(_of, _nf) /\ length_nat(l, _mf) /\ sort_nat(l, _of)
}


over-approximation: {insert_nat, length_nat, sort_nat}
under-approximation: {}

Clause system for inference is:

{
insert_nat(x, nnil, ncons(x, nnil)) <= True
length_nat(nnil, z) <= True
leq_nat(z, n2) <= True
sort_nat(nnil, nnil) <= True
insert_nat(x, ncons(y, z), ncons(y, _ye)) \/ leq_nat(x, y) <= insert_nat(x, z, _ye)
sort_nat(ncons(y, z), _df) <= insert_nat(y, _ef, _df) /\ sort_nat(z, _ef)
eq_nat(_mf, _nf) <= length_nat(_of, _nf) /\ length_nat(l, _mf) /\ sort_nat(l, _of)
length_nat(ncons(x, ll), s(_if)) <= length_nat(ll, _if)
leq_nat(s(nn1), s(nn2)) <= leq_nat(nn1, nn2)
insert_nat(x, ncons(y, z), ncons(x, ncons(y, z))) <= leq_nat(x, y)
leq_nat(nn1, nn2) <= leq_nat(s(nn1), s(nn2))
False <= leq_nat(s(nn1), z)
}


Solving took 0.669420 seconds.
Yes: |_

_r_1 ->
{
  _r_1(ncons(x_0_0, x_0_1), ncons(x_1_0, x_1_1)) <= _r_1(x_0_1, x_1_1)
  _r_1(nnil, ncons(x_1_0, x_1_1)) <= _r_2(x_1_1)
}
;
_r_2 ->
{
  _r_2(nnil) <= True
}
;
insert_nat ->
{
  insert_nat(s(x_0_0), ncons(x_1_0, x_1_1), ncons(x_2_0, x_2_1)) <= _r_1(x_1_1, x_2_1)
  insert_nat(s(x_0_0), nnil, ncons(x_2_0, x_2_1)) <= _r_2(x_2_1)
  insert_nat(z, ncons(x_1_0, x_1_1), ncons(x_2_0, x_2_1)) <= _r_1(x_1_1, x_2_1)
  insert_nat(z, nnil, ncons(x_2_0, x_2_1)) <= _r_2(x_2_1)
}
;
length_nat ->
{
  length_nat(ncons(x_0_0, x_0_1), s(x_1_0)) <= length_nat(x_0_1, x_1_0)
  length_nat(nnil, z) <= True
}
;
leq_nat ->
{
  leq_nat(s(x_0_0), s(x_1_0)) <= leq_nat(x_0_0, x_1_0)
  leq_nat(z, s(x_1_0)) <= True
  leq_nat(z, z) <= True
}
;
sort_nat ->
{
  sort_nat(ncons(x_0_0, x_0_1), ncons(x_1_0, x_1_1)) <= sort_nat(x_0_1, x_1_1)
  sort_nat(nnil, nnil) <= True
}

--
Equality automata are defined for: {nat, natlist}
_|
-------------------
STEPS:
-------------------------------------------
Step 0, which took 0.005723 s (model generation: 0.005627,  model checking: 0.000096):

Ground examples at the beginning of this step are:
{

}

Learner proposed model:
Found Model:
|_

insert_nat ->
{
  
}
;
length_nat ->
{
  
}
;
leq_nat ->
{
  
}
;
sort_nat ->
{
  
}

--
Equality automata are defined for: {nat, natlist}
_|


Answer of teacher:


insert_nat(x, nnil, ncons(x, nnil)) <= True -> Yes: {
x -> z
}
length_nat(nnil, z) <= True -> Yes: {

}
leq_nat(z, n2) <= True -> Yes: {
n2 -> z
}
sort_nat(nnil, nnil) <= True -> Yes: {

}
insert_nat(x, ncons(y, z), ncons(y, _ye)) \/ leq_nat(x, y) <= insert_nat(x, z, _ye) -> No: ()
sort_nat(ncons(y, z), _df) <= insert_nat(y, _ef, _df) /\ sort_nat(z, _ef) -> No: ()
eq_nat(_mf, _nf) <= length_nat(_of, _nf) /\ length_nat(l, _mf) /\ sort_nat(l, _of) -> No: ()
length_nat(ncons(x, ll), s(_if)) <= length_nat(ll, _if) -> No: ()
leq_nat(s(nn1), s(nn2)) <= leq_nat(nn1, nn2) -> No: ()
insert_nat(x, ncons(y, z), ncons(x, ncons(y, z))) <= leq_nat(x, y) -> No: ()
leq_nat(nn1, nn2) <= leq_nat(s(nn1), s(nn2)) -> No: ()
False <= leq_nat(s(nn1), z) -> No: ()



-------------------------------------------
Step 1, which took 0.006242 s (model generation: 0.006120,  model checking: 0.000122):

Ground examples at the beginning of this step are:
{
insert_nat(z, nnil, ncons(z, nnil)) <= True
length_nat(nnil, z) <= True
leq_nat(z, z) <= True
sort_nat(nnil, nnil) <= True
}

Learner proposed model:
Found Model:
|_

insert_nat ->
{
  insert_nat(z, nnil, ncons(x_2_0, x_2_1)) <= True
}
;
length_nat ->
{
  length_nat(nnil, z) <= True
}
;
leq_nat ->
{
  leq_nat(z, z) <= True
}
;
sort_nat ->
{
  sort_nat(nnil, nnil) <= True
}

--
Equality automata are defined for: {nat, natlist}
_|


Answer of teacher:


insert_nat(x, nnil, ncons(x, nnil)) <= True -> Yes: {
x -> s(x_0)
}
length_nat(nnil, z) <= True -> No: ()
leq_nat(z, n2) <= True -> Yes: {
n2 -> s(n2_0)
}
sort_nat(nnil, nnil) <= True -> No: ()
insert_nat(x, ncons(y, z), ncons(y, _ye)) \/ leq_nat(x, y) <= insert_nat(x, z, _ye) -> Yes: {
_ye -> ncons(_ye_0, _ye_1)  ;  x -> z  ;  y -> s(y_0)  ;  z -> nnil
}
sort_nat(ncons(y, z), _df) <= insert_nat(y, _ef, _df) /\ sort_nat(z, _ef) -> Yes: {
_df -> ncons(_df_0, _df_1)  ;  _ef -> nnil  ;  y -> z  ;  z -> nnil
}
eq_nat(_mf, _nf) <= length_nat(_of, _nf) /\ length_nat(l, _mf) /\ sort_nat(l, _of) -> No: ()
length_nat(ncons(x, ll), s(_if)) <= length_nat(ll, _if) -> Yes: {
_if -> z  ;  ll -> nnil
}
leq_nat(s(nn1), s(nn2)) <= leq_nat(nn1, nn2) -> Yes: {
nn1 -> z  ;  nn2 -> z
}
insert_nat(x, ncons(y, z), ncons(x, ncons(y, z))) <= leq_nat(x, y) -> Yes: {
x -> z  ;  y -> z
}
leq_nat(nn1, nn2) <= leq_nat(s(nn1), s(nn2)) -> No: ()
False <= leq_nat(s(nn1), z) -> No: ()



-------------------------------------------
Step 2, which took 0.013077 s (model generation: 0.012771,  model checking: 0.000306):

Ground examples at the beginning of this step are:
{
insert_nat(s(z), nnil, ncons(s(z), nnil)) <= True
insert_nat(z, ncons(z, nnil), ncons(z, ncons(z, nnil))) <= True
insert_nat(z, nnil, ncons(z, nnil)) <= True
length_nat(ncons(z, nnil), s(z)) <= True
length_nat(nnil, z) <= True
leq_nat(s(z), s(z)) <= True
leq_nat(z, s(z)) <= True
leq_nat(z, z) <= True
sort_nat(ncons(z, nnil), ncons(z, nnil)) <= True
sort_nat(nnil, nnil) <= True
}

Learner proposed model:
Found Model:
|_

insert_nat ->
{
  insert_nat(s(x_0_0), nnil, ncons(x_2_0, x_2_1)) <= True
  insert_nat(z, ncons(x_1_0, x_1_1), ncons(x_2_0, x_2_1)) <= True
  insert_nat(z, nnil, ncons(x_2_0, x_2_1)) <= True
}
;
length_nat ->
{
  length_nat(ncons(x_0_0, x_0_1), s(x_1_0)) <= True
  length_nat(nnil, z) <= True
}
;
leq_nat ->
{
  leq_nat(s(x_0_0), s(x_1_0)) <= True
  leq_nat(z, s(x_1_0)) <= True
  leq_nat(z, z) <= True
}
;
sort_nat ->
{
  sort_nat(ncons(x_0_0, x_0_1), ncons(x_1_0, x_1_1)) <= True
  sort_nat(nnil, nnil) <= True
}

--
Equality automata are defined for: {nat, natlist}
_|


Answer of teacher:


insert_nat(x, nnil, ncons(x, nnil)) <= True -> No: ()
length_nat(nnil, z) <= True -> No: ()
leq_nat(z, n2) <= True -> No: ()
sort_nat(nnil, nnil) <= True -> No: ()
insert_nat(x, ncons(y, z), ncons(y, _ye)) \/ leq_nat(x, y) <= insert_nat(x, z, _ye) -> Yes: {
_ye -> ncons(_ye_0, _ye_1)  ;  x -> s(x_0)  ;  y -> z  ;  z -> nnil
}
sort_nat(ncons(y, z), _df) <= insert_nat(y, _ef, _df) /\ sort_nat(z, _ef) -> No: ()
eq_nat(_mf, _nf) <= length_nat(_of, _nf) /\ length_nat(l, _mf) /\ sort_nat(l, _of) -> Yes: {
_mf -> s(z)  ;  _nf -> s(s(v1_0))  ;  _of -> ncons(_of_0, _of_1)  ;  l -> ncons(l_0, l_1)
}
length_nat(ncons(x, ll), s(_if)) <= length_nat(ll, _if) -> No: ()
leq_nat(s(nn1), s(nn2)) <= leq_nat(nn1, nn2) -> No: ()
insert_nat(x, ncons(y, z), ncons(x, ncons(y, z))) <= leq_nat(x, y) -> Yes: {
x -> s(x_0)  ;  y -> s(y_0)
}
leq_nat(nn1, nn2) <= leq_nat(s(nn1), s(nn2)) -> Yes: {
nn1 -> s(v0_0)  ;  nn2 -> z
}
False <= leq_nat(s(nn1), z) -> No: ()



-------------------------------------------
Step 3, which took 0.015212 s (model generation: 0.015045,  model checking: 0.000167):

Ground examples at the beginning of this step are:
{
insert_nat(s(z), ncons(s(z), nnil), ncons(s(z), ncons(s(z), nnil))) <= True
insert_nat(s(z), nnil, ncons(s(z), nnil)) <= True
insert_nat(z, ncons(z, nnil), ncons(z, ncons(z, nnil))) <= True
insert_nat(z, nnil, ncons(z, nnil)) <= True
length_nat(ncons(z, nnil), s(z)) <= True
length_nat(nnil, z) <= True
leq_nat(s(z), s(z)) <= True
leq_nat(z, s(z)) <= True
leq_nat(z, z) <= True
sort_nat(ncons(z, nnil), ncons(z, nnil)) <= True
sort_nat(nnil, nnil) <= True
insert_nat(s(z), ncons(z, nnil), ncons(z, ncons(z, nnil))) \/ leq_nat(s(z), z) <= insert_nat(s(z), nnil, ncons(z, nnil))
False <= length_nat(ncons(z, nnil), s(s(z)))
leq_nat(s(z), z) <= leq_nat(s(s(z)), s(z))
}

Learner proposed model:
Found Model:
|_

insert_nat ->
{
  insert_nat(s(x_0_0), ncons(x_1_0, x_1_1), ncons(x_2_0, x_2_1)) <= True
  insert_nat(s(x_0_0), nnil, ncons(x_2_0, x_2_1)) <= True
  insert_nat(z, ncons(x_1_0, x_1_1), ncons(x_2_0, x_2_1)) <= True
  insert_nat(z, nnil, ncons(x_2_0, x_2_1)) <= True
}
;
length_nat ->
{
  length_nat(ncons(x_0_0, x_0_1), s(x_1_0)) <= length_nat(x_0_1, x_1_0)
  length_nat(nnil, z) <= True
}
;
leq_nat ->
{
  leq_nat(s(x_0_0), s(x_1_0)) <= True
  leq_nat(s(x_0_0), z) <= True
  leq_nat(z, s(x_1_0)) <= True
  leq_nat(z, z) <= True
}
;
sort_nat ->
{
  sort_nat(ncons(x_0_0, x_0_1), ncons(x_1_0, x_1_1)) <= True
  sort_nat(nnil, nnil) <= True
}

--
Equality automata are defined for: {nat, natlist}
_|


Answer of teacher:


insert_nat(x, nnil, ncons(x, nnil)) <= True -> No: ()
length_nat(nnil, z) <= True -> No: ()
leq_nat(z, n2) <= True -> No: ()
sort_nat(nnil, nnil) <= True -> No: ()
insert_nat(x, ncons(y, z), ncons(y, _ye)) \/ leq_nat(x, y) <= insert_nat(x, z, _ye) -> No: ()
sort_nat(ncons(y, z), _df) <= insert_nat(y, _ef, _df) /\ sort_nat(z, _ef) -> No: ()
eq_nat(_mf, _nf) <= length_nat(_of, _nf) /\ length_nat(l, _mf) /\ sort_nat(l, _of) -> Yes: {
_mf -> s(z)  ;  _nf -> s(s(z))  ;  _of -> ncons(_of_0, ncons(v2_0, nnil))  ;  l -> ncons(l_0, nnil)
}
length_nat(ncons(x, ll), s(_if)) <= length_nat(ll, _if) -> No: ()
leq_nat(s(nn1), s(nn2)) <= leq_nat(nn1, nn2) -> No: ()
insert_nat(x, ncons(y, z), ncons(x, ncons(y, z))) <= leq_nat(x, y) -> No: ()
leq_nat(nn1, nn2) <= leq_nat(s(nn1), s(nn2)) -> No: ()
False <= leq_nat(s(nn1), z) -> Yes: {

}



-------------------------------------------
Step 4, which took 0.012786 s (model generation: 0.012467,  model checking: 0.000319):

Ground examples at the beginning of this step are:
{
insert_nat(s(z), ncons(s(z), nnil), ncons(s(z), ncons(s(z), nnil))) <= True
insert_nat(s(z), nnil, ncons(s(z), nnil)) <= True
insert_nat(z, ncons(z, nnil), ncons(z, ncons(z, nnil))) <= True
insert_nat(z, nnil, ncons(z, nnil)) <= True
length_nat(ncons(z, nnil), s(z)) <= True
length_nat(nnil, z) <= True
leq_nat(s(z), s(z)) <= True
leq_nat(z, s(z)) <= True
leq_nat(z, z) <= True
sort_nat(ncons(z, nnil), ncons(z, nnil)) <= True
sort_nat(nnil, nnil) <= True
insert_nat(s(z), ncons(z, nnil), ncons(z, ncons(z, nnil))) <= insert_nat(s(z), nnil, ncons(z, nnil))
False <= length_nat(ncons(z, ncons(z, nnil)), s(s(z))) /\ sort_nat(ncons(z, nnil), ncons(z, ncons(z, nnil)))
False <= length_nat(ncons(z, nnil), s(s(z)))
False <= leq_nat(s(s(z)), s(z))
False <= leq_nat(s(z), z)
}

Learner proposed model:
Found Model:
|_

insert_nat ->
{
  insert_nat(s(x_0_0), ncons(x_1_0, x_1_1), ncons(x_2_0, x_2_1)) <= True
  insert_nat(s(x_0_0), nnil, ncons(x_2_0, x_2_1)) <= True
  insert_nat(z, ncons(x_1_0, x_1_1), ncons(x_2_0, x_2_1)) <= True
  insert_nat(z, nnil, ncons(x_2_0, x_2_1)) <= True
}
;
length_nat ->
{
  length_nat(ncons(x_0_0, x_0_1), s(x_1_0)) <= length_nat(x_0_1, x_1_0)
  length_nat(nnil, z) <= True
}
;
leq_nat ->
{
  leq_nat(s(x_0_0), s(x_1_0)) <= leq_nat(x_0_0, x_1_0)
  leq_nat(z, s(x_1_0)) <= True
  leq_nat(z, z) <= True
}
;
sort_nat ->
{
  sort_nat(ncons(x_0_0, x_0_1), ncons(x_1_0, x_1_1)) <= sort_nat(x_0_1, x_1_1)
  sort_nat(nnil, nnil) <= True
}

--
Equality automata are defined for: {nat, natlist}
_|


Answer of teacher:


insert_nat(x, nnil, ncons(x, nnil)) <= True -> No: ()
length_nat(nnil, z) <= True -> No: ()
leq_nat(z, n2) <= True -> No: ()
sort_nat(nnil, nnil) <= True -> No: ()
insert_nat(x, ncons(y, z), ncons(y, _ye)) \/ leq_nat(x, y) <= insert_nat(x, z, _ye) -> No: ()
sort_nat(ncons(y, z), _df) <= insert_nat(y, _ef, _df) /\ sort_nat(z, _ef) -> Yes: {
_df -> ncons(_df_0, ncons(v0_0, v0_1))  ;  _ef -> nnil  ;  y -> z  ;  z -> nnil
}
eq_nat(_mf, _nf) <= length_nat(_of, _nf) /\ length_nat(l, _mf) /\ sort_nat(l, _of) -> No: ()
length_nat(ncons(x, ll), s(_if)) <= length_nat(ll, _if) -> No: ()
leq_nat(s(nn1), s(nn2)) <= leq_nat(nn1, nn2) -> No: ()
insert_nat(x, ncons(y, z), ncons(x, ncons(y, z))) <= leq_nat(x, y) -> No: ()
leq_nat(nn1, nn2) <= leq_nat(s(nn1), s(nn2)) -> No: ()
False <= leq_nat(s(nn1), z) -> No: ()



-------------------------------------------
Step 5, which took 0.024124 s (model generation: 0.023919,  model checking: 0.000205):

Ground examples at the beginning of this step are:
{
insert_nat(s(z), ncons(s(z), nnil), ncons(s(z), ncons(s(z), nnil))) <= True
insert_nat(s(z), nnil, ncons(s(z), nnil)) <= True
insert_nat(z, ncons(z, nnil), ncons(z, ncons(z, nnil))) <= True
insert_nat(z, nnil, ncons(z, nnil)) <= True
length_nat(ncons(z, nnil), s(z)) <= True
length_nat(nnil, z) <= True
leq_nat(s(z), s(z)) <= True
leq_nat(z, s(z)) <= True
leq_nat(z, z) <= True
sort_nat(ncons(z, nnil), ncons(z, nnil)) <= True
sort_nat(nnil, nnil) <= True
insert_nat(s(z), ncons(z, nnil), ncons(z, ncons(z, nnil))) <= insert_nat(s(z), nnil, ncons(z, nnil))
sort_nat(ncons(z, nnil), ncons(z, ncons(z, nnil))) <= insert_nat(z, nnil, ncons(z, ncons(z, nnil)))
False <= length_nat(ncons(z, ncons(z, nnil)), s(s(z))) /\ sort_nat(ncons(z, nnil), ncons(z, ncons(z, nnil)))
False <= length_nat(ncons(z, nnil), s(s(z)))
False <= leq_nat(s(s(z)), s(z))
False <= leq_nat(s(z), z)
}

Learner proposed model:
Found Model:
|_

_r_1 ->
{
  _r_1(z, z) <= True
}
;
insert_nat ->
{
  insert_nat(s(x_0_0), ncons(x_1_0, x_1_1), ncons(x_2_0, x_2_1)) <= True
  insert_nat(s(x_0_0), nnil, ncons(x_2_0, x_2_1)) <= True
  insert_nat(z, ncons(x_1_0, x_1_1), ncons(x_2_0, x_2_1)) <= True
  insert_nat(z, nnil, ncons(x_2_0, x_2_1)) <= True
}
;
length_nat ->
{
  length_nat(ncons(x_0_0, x_0_1), s(x_1_0)) <= _r_1(x_0_0, x_1_0)
  length_nat(nnil, z) <= True
}
;
leq_nat ->
{
  leq_nat(s(x_0_0), s(x_1_0)) <= _r_1(x_0_0, x_1_0)
  leq_nat(z, s(x_1_0)) <= True
  leq_nat(z, z) <= True
}
;
sort_nat ->
{
  sort_nat(ncons(x_0_0, x_0_1), ncons(x_1_0, x_1_1)) <= True
  sort_nat(nnil, nnil) <= True
}

--
Equality automata are defined for: {nat, natlist}
_|


Answer of teacher:


insert_nat(x, nnil, ncons(x, nnil)) <= True -> No: ()
length_nat(nnil, z) <= True -> No: ()
leq_nat(z, n2) <= True -> No: ()
sort_nat(nnil, nnil) <= True -> No: ()
insert_nat(x, ncons(y, z), ncons(y, _ye)) \/ leq_nat(x, y) <= insert_nat(x, z, _ye) -> No: ()
sort_nat(ncons(y, z), _df) <= insert_nat(y, _ef, _df) /\ sort_nat(z, _ef) -> No: ()
eq_nat(_mf, _nf) <= length_nat(_of, _nf) /\ length_nat(l, _mf) /\ sort_nat(l, _of) -> No: ()
length_nat(ncons(x, ll), s(_if)) <= length_nat(ll, _if) -> Yes: {
_if -> z  ;  ll -> nnil  ;  x -> s(v0_0)
}
leq_nat(s(nn1), s(nn2)) <= leq_nat(nn1, nn2) -> Yes: {
nn1 -> z  ;  nn2 -> s(v1_0)
}
insert_nat(x, ncons(y, z), ncons(x, ncons(y, z))) <= leq_nat(x, y) -> No: ()
leq_nat(nn1, nn2) <= leq_nat(s(nn1), s(nn2)) -> No: ()
False <= leq_nat(s(nn1), z) -> No: ()



-------------------------------------------
Step 6, which took 0.026249 s (model generation: 0.025906,  model checking: 0.000343):

Ground examples at the beginning of this step are:
{
insert_nat(s(z), ncons(s(z), nnil), ncons(s(z), ncons(s(z), nnil))) <= True
insert_nat(s(z), nnil, ncons(s(z), nnil)) <= True
insert_nat(z, ncons(z, nnil), ncons(z, ncons(z, nnil))) <= True
insert_nat(z, nnil, ncons(z, nnil)) <= True
length_nat(ncons(s(z), nnil), s(z)) <= True
length_nat(ncons(z, nnil), s(z)) <= True
length_nat(nnil, z) <= True
leq_nat(s(z), s(s(z))) <= True
leq_nat(s(z), s(z)) <= True
leq_nat(z, s(z)) <= True
leq_nat(z, z) <= True
sort_nat(ncons(z, nnil), ncons(z, nnil)) <= True
sort_nat(nnil, nnil) <= True
insert_nat(s(z), ncons(z, nnil), ncons(z, ncons(z, nnil))) <= insert_nat(s(z), nnil, ncons(z, nnil))
sort_nat(ncons(z, nnil), ncons(z, ncons(z, nnil))) <= insert_nat(z, nnil, ncons(z, ncons(z, nnil)))
False <= length_nat(ncons(z, ncons(z, nnil)), s(s(z))) /\ sort_nat(ncons(z, nnil), ncons(z, ncons(z, nnil)))
False <= length_nat(ncons(z, nnil), s(s(z)))
False <= leq_nat(s(s(z)), s(z))
False <= leq_nat(s(z), z)
}

Learner proposed model:
Found Model:
|_

_r_1 ->
{
  _r_1(s(x_0_0), z) <= True
  _r_1(z, z) <= True
}
;
insert_nat ->
{
  insert_nat(s(x_0_0), ncons(x_1_0, x_1_1), ncons(x_2_0, x_2_1)) <= True
  insert_nat(s(x_0_0), nnil, ncons(x_2_0, x_2_1)) <= True
  insert_nat(z, ncons(x_1_0, x_1_1), ncons(x_2_0, x_2_1)) <= True
  insert_nat(z, nnil, ncons(x_2_0, x_2_1)) <= True
}
;
length_nat ->
{
  length_nat(ncons(x_0_0, x_0_1), s(x_1_0)) <= _r_1(x_0_0, x_1_0)
  length_nat(nnil, z) <= True
}
;
leq_nat ->
{
  leq_nat(s(x_0_0), s(x_1_0)) <= leq_nat(x_0_0, x_1_0)
  leq_nat(z, s(x_1_0)) <= True
  leq_nat(z, z) <= True
}
;
sort_nat ->
{
  sort_nat(ncons(x_0_0, x_0_1), ncons(x_1_0, x_1_1)) <= True
  sort_nat(nnil, nnil) <= True
}

--
Equality automata are defined for: {nat, natlist}
_|


Answer of teacher:


insert_nat(x, nnil, ncons(x, nnil)) <= True -> No: ()
length_nat(nnil, z) <= True -> No: ()
leq_nat(z, n2) <= True -> No: ()
sort_nat(nnil, nnil) <= True -> No: ()
insert_nat(x, ncons(y, z), ncons(y, _ye)) \/ leq_nat(x, y) <= insert_nat(x, z, _ye) -> No: ()
sort_nat(ncons(y, z), _df) <= insert_nat(y, _ef, _df) /\ sort_nat(z, _ef) -> No: ()
eq_nat(_mf, _nf) <= length_nat(_of, _nf) /\ length_nat(l, _mf) /\ sort_nat(l, _of) -> No: ()
length_nat(ncons(x, ll), s(_if)) <= length_nat(ll, _if) -> Yes: {
_if -> s(z)  ;  ll -> ncons(z, v2_1)  ;  x -> z
}
leq_nat(s(nn1), s(nn2)) <= leq_nat(nn1, nn2) -> No: ()
insert_nat(x, ncons(y, z), ncons(x, ncons(y, z))) <= leq_nat(x, y) -> No: ()
leq_nat(nn1, nn2) <= leq_nat(s(nn1), s(nn2)) -> No: ()
False <= leq_nat(s(nn1), z) -> No: ()



-------------------------------------------
Step 7, which took 0.024055 s (model generation: 0.023853,  model checking: 0.000202):

Ground examples at the beginning of this step are:
{
insert_nat(s(z), ncons(s(z), nnil), ncons(s(z), ncons(s(z), nnil))) <= True
insert_nat(s(z), nnil, ncons(s(z), nnil)) <= True
insert_nat(z, ncons(z, nnil), ncons(z, ncons(z, nnil))) <= True
insert_nat(z, nnil, ncons(z, nnil)) <= True
length_nat(ncons(s(z), nnil), s(z)) <= True
length_nat(ncons(z, ncons(z, nnil)), s(s(z))) <= True
length_nat(ncons(z, nnil), s(z)) <= True
length_nat(nnil, z) <= True
leq_nat(s(z), s(s(z))) <= True
leq_nat(s(z), s(z)) <= True
leq_nat(z, s(z)) <= True
leq_nat(z, z) <= True
sort_nat(ncons(z, nnil), ncons(z, nnil)) <= True
sort_nat(nnil, nnil) <= True
insert_nat(s(z), ncons(z, nnil), ncons(z, ncons(z, nnil))) <= insert_nat(s(z), nnil, ncons(z, nnil))
False <= insert_nat(z, nnil, ncons(z, ncons(z, nnil)))
False <= length_nat(ncons(z, nnil), s(s(z)))
False <= leq_nat(s(s(z)), s(z))
False <= leq_nat(s(z), z)
False <= sort_nat(ncons(z, nnil), ncons(z, ncons(z, nnil)))
}

Learner proposed model:
Found Model:
|_

_r_1 ->
{
  _r_1(nnil) <= True
}
;
insert_nat ->
{
  insert_nat(s(x_0_0), ncons(x_1_0, x_1_1), ncons(x_2_0, x_2_1)) <= True
  insert_nat(s(x_0_0), nnil, ncons(x_2_0, x_2_1)) <= True
  insert_nat(z, ncons(x_1_0, x_1_1), ncons(x_2_0, x_2_1)) <= True
  insert_nat(z, nnil, ncons(x_2_0, x_2_1)) <= _r_1(x_2_1)
}
;
length_nat ->
{
  length_nat(ncons(x_0_0, x_0_1), s(x_1_0)) <= length_nat(x_0_1, x_1_0)
  length_nat(nnil, z) <= True
}
;
leq_nat ->
{
  leq_nat(s(x_0_0), s(x_1_0)) <= leq_nat(x_0_0, x_1_0)
  leq_nat(z, s(x_1_0)) <= True
  leq_nat(z, z) <= True
}
;
sort_nat ->
{
  sort_nat(ncons(x_0_0, x_0_1), ncons(x_1_0, x_1_1)) <= _r_1(x_1_1)
  sort_nat(nnil, nnil) <= True
}

--
Equality automata are defined for: {nat, natlist}
_|


Answer of teacher:


insert_nat(x, nnil, ncons(x, nnil)) <= True -> No: ()
length_nat(nnil, z) <= True -> No: ()
leq_nat(z, n2) <= True -> No: ()
sort_nat(nnil, nnil) <= True -> No: ()
insert_nat(x, ncons(y, z), ncons(y, _ye)) \/ leq_nat(x, y) <= insert_nat(x, z, _ye) -> No: ()
sort_nat(ncons(y, z), _df) <= insert_nat(y, _ef, _df) /\ sort_nat(z, _ef) -> Yes: {
_df -> ncons(_df_0, ncons(v0_0, v0_1))  ;  _ef -> nnil  ;  y -> s(y_0)  ;  z -> nnil
}
eq_nat(_mf, _nf) <= length_nat(_of, _nf) /\ length_nat(l, _mf) /\ sort_nat(l, _of) -> Yes: {
_mf -> s(s(z))  ;  _nf -> s(z)  ;  _of -> ncons(_of_0, nnil)  ;  l -> ncons(l_0, ncons(v3_0, nnil))
}
length_nat(ncons(x, ll), s(_if)) <= length_nat(ll, _if) -> No: ()
leq_nat(s(nn1), s(nn2)) <= leq_nat(nn1, nn2) -> No: ()
insert_nat(x, ncons(y, z), ncons(x, ncons(y, z))) <= leq_nat(x, y) -> No: ()
leq_nat(nn1, nn2) <= leq_nat(s(nn1), s(nn2)) -> No: ()
False <= leq_nat(s(nn1), z) -> No: ()



-------------------------------------------
Step 8, which took 0.026516 s (model generation: 0.026165,  model checking: 0.000351):

Ground examples at the beginning of this step are:
{
insert_nat(s(z), ncons(s(z), nnil), ncons(s(z), ncons(s(z), nnil))) <= True
insert_nat(s(z), nnil, ncons(s(z), nnil)) <= True
insert_nat(z, ncons(z, nnil), ncons(z, ncons(z, nnil))) <= True
insert_nat(z, nnil, ncons(z, nnil)) <= True
length_nat(ncons(s(z), nnil), s(z)) <= True
length_nat(ncons(z, ncons(z, nnil)), s(s(z))) <= True
length_nat(ncons(z, nnil), s(z)) <= True
length_nat(nnil, z) <= True
leq_nat(s(z), s(s(z))) <= True
leq_nat(s(z), s(z)) <= True
leq_nat(z, s(z)) <= True
leq_nat(z, z) <= True
sort_nat(ncons(z, nnil), ncons(z, nnil)) <= True
sort_nat(nnil, nnil) <= True
sort_nat(ncons(s(z), nnil), ncons(z, ncons(z, nnil))) <= insert_nat(s(z), nnil, ncons(z, ncons(z, nnil)))
insert_nat(s(z), ncons(z, nnil), ncons(z, ncons(z, nnil))) <= insert_nat(s(z), nnil, ncons(z, nnil))
False <= insert_nat(z, nnil, ncons(z, ncons(z, nnil)))
False <= length_nat(ncons(z, nnil), s(s(z)))
False <= leq_nat(s(s(z)), s(z))
False <= leq_nat(s(z), z)
False <= sort_nat(ncons(z, ncons(z, nnil)), ncons(z, nnil))
False <= sort_nat(ncons(z, nnil), ncons(z, ncons(z, nnil)))
}

Learner proposed model:
Found Model:
|_

_r_1 ->
{
  _r_1(nnil) <= True
}
;
insert_nat ->
{
  insert_nat(s(x_0_0), ncons(x_1_0, x_1_1), ncons(x_2_0, x_2_1)) <= True
  insert_nat(s(x_0_0), nnil, ncons(x_2_0, x_2_1)) <= _r_1(x_2_1)
  insert_nat(z, ncons(x_1_0, x_1_1), ncons(x_2_0, x_2_1)) <= True
  insert_nat(z, nnil, ncons(x_2_0, x_2_1)) <= _r_1(x_2_1)
}
;
length_nat ->
{
  length_nat(ncons(x_0_0, x_0_1), s(x_1_0)) <= length_nat(x_0_1, x_1_0)
  length_nat(nnil, z) <= True
}
;
leq_nat ->
{
  leq_nat(s(x_0_0), s(x_1_0)) <= leq_nat(x_0_0, x_1_0)
  leq_nat(z, s(x_1_0)) <= True
  leq_nat(z, z) <= True
}
;
sort_nat ->
{
  sort_nat(ncons(x_0_0, x_0_1), ncons(x_1_0, x_1_1)) <= sort_nat(x_0_1, x_1_1)
  sort_nat(nnil, nnil) <= True
}

--
Equality automata are defined for: {nat, natlist}
_|


Answer of teacher:


insert_nat(x, nnil, ncons(x, nnil)) <= True -> No: ()
length_nat(nnil, z) <= True -> No: ()
leq_nat(z, n2) <= True -> No: ()
sort_nat(nnil, nnil) <= True -> No: ()
insert_nat(x, ncons(y, z), ncons(y, _ye)) \/ leq_nat(x, y) <= insert_nat(x, z, _ye) -> No: ()
sort_nat(ncons(y, z), _df) <= insert_nat(y, _ef, _df) /\ sort_nat(z, _ef) -> Yes: {
_df -> ncons(_df_0, nnil)  ;  _ef -> ncons(_ef_0, nnil)  ;  y -> z  ;  z -> ncons(z_0, nnil)
}
eq_nat(_mf, _nf) <= length_nat(_of, _nf) /\ length_nat(l, _mf) /\ sort_nat(l, _of) -> No: ()
length_nat(ncons(x, ll), s(_if)) <= length_nat(ll, _if) -> No: ()
leq_nat(s(nn1), s(nn2)) <= leq_nat(nn1, nn2) -> No: ()
insert_nat(x, ncons(y, z), ncons(x, ncons(y, z))) <= leq_nat(x, y) -> No: ()
leq_nat(nn1, nn2) <= leq_nat(s(nn1), s(nn2)) -> No: ()
False <= leq_nat(s(nn1), z) -> No: ()



-------------------------------------------
Step 9, which took 0.051419 s (model generation: 0.051117,  model checking: 0.000302):

Ground examples at the beginning of this step are:
{
insert_nat(s(z), ncons(s(z), nnil), ncons(s(z), ncons(s(z), nnil))) <= True
insert_nat(s(z), nnil, ncons(s(z), nnil)) <= True
insert_nat(z, ncons(z, nnil), ncons(z, ncons(z, nnil))) <= True
insert_nat(z, nnil, ncons(z, nnil)) <= True
length_nat(ncons(s(z), nnil), s(z)) <= True
length_nat(ncons(z, ncons(z, nnil)), s(s(z))) <= True
length_nat(ncons(z, nnil), s(z)) <= True
length_nat(nnil, z) <= True
leq_nat(s(z), s(s(z))) <= True
leq_nat(s(z), s(z)) <= True
leq_nat(z, s(z)) <= True
leq_nat(z, z) <= True
sort_nat(ncons(z, nnil), ncons(z, nnil)) <= True
sort_nat(nnil, nnil) <= True
sort_nat(ncons(s(z), nnil), ncons(z, ncons(z, nnil))) <= insert_nat(s(z), nnil, ncons(z, ncons(z, nnil)))
insert_nat(s(z), ncons(z, nnil), ncons(z, ncons(z, nnil))) <= insert_nat(s(z), nnil, ncons(z, nnil))
False <= insert_nat(z, ncons(z, nnil), ncons(z, nnil))
False <= insert_nat(z, nnil, ncons(z, ncons(z, nnil)))
False <= length_nat(ncons(z, nnil), s(s(z)))
False <= leq_nat(s(s(z)), s(z))
False <= leq_nat(s(z), z)
False <= sort_nat(ncons(z, ncons(z, nnil)), ncons(z, nnil))
False <= sort_nat(ncons(z, nnil), ncons(z, ncons(z, nnil)))
}

Learner proposed model:
Found Model:
|_

_r_1 ->
{
  _r_1(nnil) <= True
}
;
_r_2 ->
{
  _r_2(ncons(x_0_0, x_0_1)) <= True
}
;
insert_nat ->
{
  insert_nat(s(x_0_0), ncons(x_1_0, x_1_1), ncons(x_2_0, x_2_1)) <= True
  insert_nat(s(x_0_0), nnil, ncons(x_2_0, x_2_1)) <= _r_1(x_2_1)
  insert_nat(z, ncons(x_1_0, x_1_1), ncons(x_2_0, x_2_1)) <= _r_2(x_2_1)
  insert_nat(z, nnil, ncons(x_2_0, x_2_1)) <= _r_1(x_2_1)
}
;
length_nat ->
{
  length_nat(ncons(x_0_0, x_0_1), s(x_1_0)) <= length_nat(x_0_1, x_1_0)
  length_nat(nnil, z) <= True
}
;
leq_nat ->
{
  leq_nat(s(x_0_0), s(x_1_0)) <= leq_nat(x_0_0, x_1_0)
  leq_nat(z, s(x_1_0)) <= True
  leq_nat(z, z) <= True
}
;
sort_nat ->
{
  sort_nat(ncons(x_0_0, x_0_1), ncons(x_1_0, x_1_1)) <= sort_nat(x_0_1, x_1_1)
  sort_nat(nnil, nnil) <= True
}

--
Equality automata are defined for: {nat, natlist}
_|


Answer of teacher:


insert_nat(x, nnil, ncons(x, nnil)) <= True -> No: ()
length_nat(nnil, z) <= True -> No: ()
leq_nat(z, n2) <= True -> No: ()
sort_nat(nnil, nnil) <= True -> No: ()
insert_nat(x, ncons(y, z), ncons(y, _ye)) \/ leq_nat(x, y) <= insert_nat(x, z, _ye) -> No: ()
sort_nat(ncons(y, z), _df) <= insert_nat(y, _ef, _df) /\ sort_nat(z, _ef) -> Yes: {
_df -> ncons(_df_0, nnil)  ;  _ef -> ncons(_ef_0, nnil)  ;  y -> s(y_0)  ;  z -> ncons(z_0, nnil)
}
eq_nat(_mf, _nf) <= length_nat(_of, _nf) /\ length_nat(l, _mf) /\ sort_nat(l, _of) -> No: ()
length_nat(ncons(x, ll), s(_if)) <= length_nat(ll, _if) -> No: ()
leq_nat(s(nn1), s(nn2)) <= leq_nat(nn1, nn2) -> No: ()
insert_nat(x, ncons(y, z), ncons(x, ncons(y, z))) <= leq_nat(x, y) -> No: ()
leq_nat(nn1, nn2) <= leq_nat(s(nn1), s(nn2)) -> No: ()
False <= leq_nat(s(nn1), z) -> No: ()



-------------------------------------------
Step 10, which took 0.059844 s (model generation: 0.059446,  model checking: 0.000398):

Ground examples at the beginning of this step are:
{
insert_nat(s(z), ncons(s(z), nnil), ncons(s(z), ncons(s(z), nnil))) <= True
insert_nat(s(z), nnil, ncons(s(z), nnil)) <= True
insert_nat(z, ncons(z, nnil), ncons(z, ncons(z, nnil))) <= True
insert_nat(z, nnil, ncons(z, nnil)) <= True
length_nat(ncons(s(z), nnil), s(z)) <= True
length_nat(ncons(z, ncons(z, nnil)), s(s(z))) <= True
length_nat(ncons(z, nnil), s(z)) <= True
length_nat(nnil, z) <= True
leq_nat(s(z), s(s(z))) <= True
leq_nat(s(z), s(z)) <= True
leq_nat(z, s(z)) <= True
leq_nat(z, z) <= True
sort_nat(ncons(z, nnil), ncons(z, nnil)) <= True
sort_nat(nnil, nnil) <= True
sort_nat(ncons(s(z), ncons(z, nnil)), ncons(z, nnil)) <= insert_nat(s(z), ncons(z, nnil), ncons(z, nnil))
sort_nat(ncons(s(z), nnil), ncons(z, ncons(z, nnil))) <= insert_nat(s(z), nnil, ncons(z, ncons(z, nnil)))
insert_nat(s(z), ncons(z, nnil), ncons(z, ncons(z, nnil))) <= insert_nat(s(z), nnil, ncons(z, nnil))
False <= insert_nat(z, ncons(z, nnil), ncons(z, nnil))
False <= insert_nat(z, nnil, ncons(z, ncons(z, nnil)))
False <= length_nat(ncons(z, nnil), s(s(z)))
False <= leq_nat(s(s(z)), s(z))
False <= leq_nat(s(z), z)
False <= sort_nat(ncons(z, ncons(z, nnil)), ncons(z, nnil))
False <= sort_nat(ncons(z, nnil), ncons(z, ncons(z, nnil)))
}

Learner proposed model:
Found Model:
|_

_r_1 ->
{
  _r_1(nnil) <= True
}
;
_r_2 ->
{
  _r_2(ncons(x_0_0, x_0_1)) <= True
}
;
insert_nat ->
{
  insert_nat(s(x_0_0), ncons(x_1_0, x_1_1), ncons(x_2_0, x_2_1)) <= _r_2(x_2_1)
  insert_nat(s(x_0_0), nnil, ncons(x_2_0, x_2_1)) <= _r_1(x_2_1)
  insert_nat(z, ncons(x_1_0, x_1_1), ncons(x_2_0, x_2_1)) <= _r_2(x_2_1)
  insert_nat(z, nnil, ncons(x_2_0, x_2_1)) <= _r_1(x_2_1)
}
;
length_nat ->
{
  length_nat(ncons(x_0_0, x_0_1), s(x_1_0)) <= length_nat(x_0_1, x_1_0)
  length_nat(nnil, z) <= True
}
;
leq_nat ->
{
  leq_nat(s(x_0_0), s(x_1_0)) <= leq_nat(x_0_0, x_1_0)
  leq_nat(z, s(x_1_0)) <= True
  leq_nat(z, z) <= True
}
;
sort_nat ->
{
  sort_nat(ncons(x_0_0, x_0_1), ncons(x_1_0, x_1_1)) <= sort_nat(x_0_1, x_1_1)
  sort_nat(nnil, nnil) <= True
}

--
Equality automata are defined for: {nat, natlist}
_|


Answer of teacher:


insert_nat(x, nnil, ncons(x, nnil)) <= True -> No: ()
length_nat(nnil, z) <= True -> No: ()
leq_nat(z, n2) <= True -> No: ()
sort_nat(nnil, nnil) <= True -> No: ()
insert_nat(x, ncons(y, z), ncons(y, _ye)) \/ leq_nat(x, y) <= insert_nat(x, z, _ye) -> No: ()
sort_nat(ncons(y, z), _df) <= insert_nat(y, _ef, _df) /\ sort_nat(z, _ef) -> Yes: {
_df -> ncons(_df_0, ncons(v0_0, ncons(v0_0, v0_1)))  ;  _ef -> ncons(_ef_0, nnil)  ;  y -> z  ;  z -> ncons(z_0, nnil)
}
eq_nat(_mf, _nf) <= length_nat(_of, _nf) /\ length_nat(l, _mf) /\ sort_nat(l, _of) -> No: ()
length_nat(ncons(x, ll), s(_if)) <= length_nat(ll, _if) -> No: ()
leq_nat(s(nn1), s(nn2)) <= leq_nat(nn1, nn2) -> No: ()
insert_nat(x, ncons(y, z), ncons(x, ncons(y, z))) <= leq_nat(x, y) -> No: ()
leq_nat(nn1, nn2) <= leq_nat(s(nn1), s(nn2)) -> No: ()
False <= leq_nat(s(nn1), z) -> No: ()



-------------------------------------------
Step 11, which took 0.072127 s (model generation: 0.071469,  model checking: 0.000658):

Ground examples at the beginning of this step are:
{
insert_nat(s(z), ncons(s(z), nnil), ncons(s(z), ncons(s(z), nnil))) <= True
insert_nat(s(z), nnil, ncons(s(z), nnil)) <= True
insert_nat(z, ncons(z, nnil), ncons(z, ncons(z, nnil))) <= True
insert_nat(z, nnil, ncons(z, nnil)) <= True
length_nat(ncons(s(z), nnil), s(z)) <= True
length_nat(ncons(z, ncons(z, nnil)), s(s(z))) <= True
length_nat(ncons(z, nnil), s(z)) <= True
length_nat(nnil, z) <= True
leq_nat(s(z), s(s(z))) <= True
leq_nat(s(z), s(z)) <= True
leq_nat(z, s(z)) <= True
leq_nat(z, z) <= True
sort_nat(ncons(z, nnil), ncons(z, nnil)) <= True
sort_nat(nnil, nnil) <= True
sort_nat(ncons(s(z), ncons(z, nnil)), ncons(z, nnil)) <= insert_nat(s(z), ncons(z, nnil), ncons(z, nnil))
sort_nat(ncons(s(z), nnil), ncons(z, ncons(z, nnil))) <= insert_nat(s(z), nnil, ncons(z, ncons(z, nnil)))
insert_nat(s(z), ncons(z, nnil), ncons(z, ncons(z, nnil))) <= insert_nat(s(z), nnil, ncons(z, nnil))
sort_nat(ncons(z, ncons(z, nnil)), ncons(z, ncons(z, ncons(z, nnil)))) <= insert_nat(z, ncons(z, nnil), ncons(z, ncons(z, ncons(z, nnil))))
False <= insert_nat(z, ncons(z, nnil), ncons(z, nnil))
False <= insert_nat(z, nnil, ncons(z, ncons(z, nnil)))
False <= length_nat(ncons(z, nnil), s(s(z)))
False <= leq_nat(s(s(z)), s(z))
False <= leq_nat(s(z), z)
False <= sort_nat(ncons(z, ncons(z, nnil)), ncons(z, nnil))
False <= sort_nat(ncons(z, nnil), ncons(z, ncons(z, nnil)))
}

Learner proposed model:
Found Model:
|_

_r_1 ->
{
  _r_1(nnil) <= True
}
;
_r_2 ->
{
  _r_2(ncons(x_0_0, x_0_1)) <= _r_1(x_0_1)
}
;
insert_nat ->
{
  insert_nat(s(x_0_0), ncons(x_1_0, x_1_1), ncons(x_2_0, x_2_1)) <= _r_2(x_2_1)
  insert_nat(s(x_0_0), nnil, ncons(x_2_0, x_2_1)) <= _r_1(x_2_1)
  insert_nat(z, ncons(x_1_0, x_1_1), ncons(x_2_0, x_2_1)) <= _r_2(x_2_1)
  insert_nat(z, nnil, ncons(x_2_0, x_2_1)) <= _r_1(x_2_1)
}
;
length_nat ->
{
  length_nat(ncons(x_0_0, x_0_1), s(x_1_0)) <= length_nat(x_0_1, x_1_0)
  length_nat(nnil, z) <= True
}
;
leq_nat ->
{
  leq_nat(s(x_0_0), s(x_1_0)) <= leq_nat(x_0_0, x_1_0)
  leq_nat(z, s(x_1_0)) <= True
  leq_nat(z, z) <= True
}
;
sort_nat ->
{
  sort_nat(ncons(x_0_0, x_0_1), ncons(x_1_0, x_1_1)) <= sort_nat(x_0_1, x_1_1)
  sort_nat(nnil, nnil) <= True
}

--
Equality automata are defined for: {nat, natlist}
_|


Answer of teacher:


insert_nat(x, nnil, ncons(x, nnil)) <= True -> No: ()
length_nat(nnil, z) <= True -> No: ()
leq_nat(z, n2) <= True -> No: ()
sort_nat(nnil, nnil) <= True -> No: ()
insert_nat(x, ncons(y, z), ncons(y, _ye)) \/ leq_nat(x, y) <= insert_nat(x, z, _ye) -> Yes: {
_ye -> ncons(_ye_0, ncons(v0_0, nnil))  ;  x -> s(x_0)  ;  y -> z  ;  z -> ncons(z_0, z_1)
}
sort_nat(ncons(y, z), _df) <= insert_nat(y, _ef, _df) /\ sort_nat(z, _ef) -> Yes: {
_df -> ncons(_df_0, ncons(v0_0, nnil))  ;  _ef -> ncons(_ef_0, ncons(v2_0, nnil))  ;  y -> z  ;  z -> ncons(z_0, ncons(v1_0, nnil))
}
eq_nat(_mf, _nf) <= length_nat(_of, _nf) /\ length_nat(l, _mf) /\ sort_nat(l, _of) -> No: ()
length_nat(ncons(x, ll), s(_if)) <= length_nat(ll, _if) -> No: ()
leq_nat(s(nn1), s(nn2)) <= leq_nat(nn1, nn2) -> No: ()
insert_nat(x, ncons(y, z), ncons(x, ncons(y, z))) <= leq_nat(x, y) -> Yes: {
x -> z  ;  y -> z  ;  z -> ncons(v0_0, v0_1)
}
leq_nat(nn1, nn2) <= leq_nat(s(nn1), s(nn2)) -> No: ()
False <= leq_nat(s(nn1), z) -> No: ()



-------------------------------------------
Step 12, which took 0.108878 s (model generation: 0.107787,  model checking: 0.001091):

Ground examples at the beginning of this step are:
{
insert_nat(s(z), ncons(s(z), nnil), ncons(s(z), ncons(s(z), nnil))) <= True
insert_nat(s(z), nnil, ncons(s(z), nnil)) <= True
insert_nat(z, ncons(z, ncons(z, nnil)), ncons(z, ncons(z, ncons(z, nnil)))) <= True
insert_nat(z, ncons(z, nnil), ncons(z, ncons(z, nnil))) <= True
insert_nat(z, nnil, ncons(z, nnil)) <= True
length_nat(ncons(s(z), nnil), s(z)) <= True
length_nat(ncons(z, ncons(z, nnil)), s(s(z))) <= True
length_nat(ncons(z, nnil), s(z)) <= True
length_nat(nnil, z) <= True
leq_nat(s(z), s(s(z))) <= True
leq_nat(s(z), s(z)) <= True
leq_nat(z, s(z)) <= True
leq_nat(z, z) <= True
sort_nat(ncons(z, nnil), ncons(z, nnil)) <= True
sort_nat(nnil, nnil) <= True
insert_nat(s(z), ncons(z, ncons(z, nnil)), ncons(z, ncons(z, ncons(z, nnil)))) <= insert_nat(s(z), ncons(z, nnil), ncons(z, ncons(z, nnil)))
sort_nat(ncons(s(z), ncons(z, nnil)), ncons(z, nnil)) <= insert_nat(s(z), ncons(z, nnil), ncons(z, nnil))
sort_nat(ncons(s(z), nnil), ncons(z, ncons(z, nnil))) <= insert_nat(s(z), nnil, ncons(z, ncons(z, nnil)))
insert_nat(s(z), ncons(z, nnil), ncons(z, ncons(z, nnil))) <= insert_nat(s(z), nnil, ncons(z, nnil))
sort_nat(ncons(z, ncons(z, ncons(z, nnil))), ncons(z, ncons(z, nnil))) <= insert_nat(z, ncons(z, ncons(z, nnil)), ncons(z, ncons(z, nnil))) /\ sort_nat(ncons(z, ncons(z, nnil)), ncons(z, ncons(z, nnil)))
sort_nat(ncons(z, ncons(z, nnil)), ncons(z, ncons(z, ncons(z, nnil)))) <= insert_nat(z, ncons(z, nnil), ncons(z, ncons(z, ncons(z, nnil))))
False <= insert_nat(z, ncons(z, nnil), ncons(z, nnil))
False <= insert_nat(z, nnil, ncons(z, ncons(z, nnil)))
False <= length_nat(ncons(z, nnil), s(s(z)))
False <= leq_nat(s(s(z)), s(z))
False <= leq_nat(s(z), z)
False <= sort_nat(ncons(z, ncons(z, nnil)), ncons(z, nnil))
False <= sort_nat(ncons(z, nnil), ncons(z, ncons(z, nnil)))
}

Learner proposed model:
Found Model:
|_

_r_1 ->
{
  _r_1(nnil) <= True
}
;
_r_2 ->
{
  _r_2(ncons(x_0_0, x_0_1)) <= True
}
;
insert_nat ->
{
  insert_nat(s(x_0_0), ncons(x_1_0, x_1_1), ncons(x_2_0, x_2_1)) <= _r_2(x_2_1)
  insert_nat(s(x_0_0), nnil, ncons(x_2_0, x_2_1)) <= _r_1(x_2_1)
  insert_nat(z, ncons(x_1_0, x_1_1), ncons(x_2_0, x_2_1)) <= _r_2(x_2_1)
  insert_nat(z, nnil, ncons(x_2_0, x_2_1)) <= _r_1(x_2_1)
}
;
length_nat ->
{
  length_nat(ncons(x_0_0, x_0_1), s(x_1_0)) <= length_nat(x_0_1, x_1_0)
  length_nat(nnil, z) <= True
}
;
leq_nat ->
{
  leq_nat(s(x_0_0), s(x_1_0)) <= leq_nat(x_0_0, x_1_0)
  leq_nat(z, s(x_1_0)) <= True
  leq_nat(z, z) <= True
}
;
sort_nat ->
{
  sort_nat(ncons(x_0_0, x_0_1), ncons(x_1_0, x_1_1)) <= _r_1(x_0_1) /\ _r_1(x_1_1)
  sort_nat(ncons(x_0_0, x_0_1), ncons(x_1_0, x_1_1)) <= _r_2(x_0_1) /\ _r_2(x_1_1)
  sort_nat(nnil, nnil) <= True
}

--
Equality automata are defined for: {nat, natlist}
_|


Answer of teacher:


insert_nat(x, nnil, ncons(x, nnil)) <= True -> No: ()
length_nat(nnil, z) <= True -> No: ()
leq_nat(z, n2) <= True -> No: ()
sort_nat(nnil, nnil) <= True -> No: ()
insert_nat(x, ncons(y, z), ncons(y, _ye)) \/ leq_nat(x, y) <= insert_nat(x, z, _ye) -> No: ()
sort_nat(ncons(y, z), _df) <= insert_nat(y, _ef, _df) /\ sort_nat(z, _ef) -> No: ()
eq_nat(_mf, _nf) <= length_nat(_of, _nf) /\ length_nat(l, _mf) /\ sort_nat(l, _of) -> Yes: {
_mf -> s(s(z))  ;  _nf -> s(s(s(z)))  ;  _of -> ncons(_of_0, ncons(v2_0, ncons(v2_0, nnil)))  ;  l -> ncons(l_0, ncons(v3_0, nnil))
}
length_nat(ncons(x, ll), s(_if)) <= length_nat(ll, _if) -> No: ()
leq_nat(s(nn1), s(nn2)) <= leq_nat(nn1, nn2) -> No: ()
insert_nat(x, ncons(y, z), ncons(x, ncons(y, z))) <= leq_nat(x, y) -> No: ()
leq_nat(nn1, nn2) <= leq_nat(s(nn1), s(nn2)) -> No: ()
False <= leq_nat(s(nn1), z) -> No: ()



-------------------------------------------
Step 13, which took 0.110407 s (model generation: 0.109747,  model checking: 0.000660):

Ground examples at the beginning of this step are:
{
insert_nat(s(z), ncons(s(z), nnil), ncons(s(z), ncons(s(z), nnil))) <= True
insert_nat(s(z), nnil, ncons(s(z), nnil)) <= True
insert_nat(z, ncons(z, ncons(z, nnil)), ncons(z, ncons(z, ncons(z, nnil)))) <= True
insert_nat(z, ncons(z, nnil), ncons(z, ncons(z, nnil))) <= True
insert_nat(z, nnil, ncons(z, nnil)) <= True
length_nat(ncons(s(z), nnil), s(z)) <= True
length_nat(ncons(z, ncons(z, nnil)), s(s(z))) <= True
length_nat(ncons(z, nnil), s(z)) <= True
length_nat(nnil, z) <= True
leq_nat(s(z), s(s(z))) <= True
leq_nat(s(z), s(z)) <= True
leq_nat(z, s(z)) <= True
leq_nat(z, z) <= True
sort_nat(ncons(z, nnil), ncons(z, nnil)) <= True
sort_nat(nnil, nnil) <= True
insert_nat(s(z), ncons(z, ncons(z, nnil)), ncons(z, ncons(z, ncons(z, nnil)))) <= insert_nat(s(z), ncons(z, nnil), ncons(z, ncons(z, nnil)))
sort_nat(ncons(s(z), ncons(z, nnil)), ncons(z, nnil)) <= insert_nat(s(z), ncons(z, nnil), ncons(z, nnil))
sort_nat(ncons(s(z), nnil), ncons(z, ncons(z, nnil))) <= insert_nat(s(z), nnil, ncons(z, ncons(z, nnil)))
insert_nat(s(z), ncons(z, nnil), ncons(z, ncons(z, nnil))) <= insert_nat(s(z), nnil, ncons(z, nnil))
sort_nat(ncons(z, ncons(z, ncons(z, nnil))), ncons(z, ncons(z, nnil))) <= insert_nat(z, ncons(z, ncons(z, nnil)), ncons(z, ncons(z, nnil))) /\ sort_nat(ncons(z, ncons(z, nnil)), ncons(z, ncons(z, nnil)))
sort_nat(ncons(z, ncons(z, nnil)), ncons(z, ncons(z, ncons(z, nnil)))) <= insert_nat(z, ncons(z, nnil), ncons(z, ncons(z, ncons(z, nnil))))
False <= insert_nat(z, ncons(z, nnil), ncons(z, nnil))
False <= insert_nat(z, nnil, ncons(z, ncons(z, nnil)))
False <= length_nat(ncons(z, ncons(z, ncons(z, nnil))), s(s(s(z)))) /\ sort_nat(ncons(z, ncons(z, nnil)), ncons(z, ncons(z, ncons(z, nnil))))
False <= length_nat(ncons(z, nnil), s(s(z)))
False <= leq_nat(s(s(z)), s(z))
False <= leq_nat(s(z), z)
False <= sort_nat(ncons(z, ncons(z, nnil)), ncons(z, nnil))
False <= sort_nat(ncons(z, nnil), ncons(z, ncons(z, nnil)))
}

Learner proposed model:
Found Model:
|_

_r_1 ->
{
  _r_1(ncons(x_0_0, x_0_1), ncons(x_1_0, x_1_1)) <= True
  _r_1(nnil, ncons(x_1_0, x_1_1)) <= _r_2(x_1_1)
}
;
_r_2 ->
{
  _r_2(nnil) <= True
}
;
insert_nat ->
{
  insert_nat(s(x_0_0), ncons(x_1_0, x_1_1), ncons(x_2_0, x_2_1)) <= _r_1(x_1_1, x_2_1)
  insert_nat(s(x_0_0), nnil, ncons(x_2_0, x_2_1)) <= _r_2(x_2_1)
  insert_nat(z, ncons(x_1_0, x_1_1), ncons(x_2_0, x_2_1)) <= _r_1(x_1_1, x_2_1)
  insert_nat(z, nnil, ncons(x_2_0, x_2_1)) <= _r_2(x_2_1)
}
;
length_nat ->
{
  length_nat(ncons(x_0_0, x_0_1), s(x_1_0)) <= length_nat(x_0_1, x_1_0)
  length_nat(nnil, z) <= True
}
;
leq_nat ->
{
  leq_nat(s(x_0_0), s(x_1_0)) <= leq_nat(x_0_0, x_1_0)
  leq_nat(z, s(x_1_0)) <= True
  leq_nat(z, z) <= True
}
;
sort_nat ->
{
  sort_nat(ncons(x_0_0, x_0_1), ncons(x_1_0, x_1_1)) <= _r_2(x_0_1) /\ _r_2(x_1_1)
  sort_nat(nnil, nnil) <= True
}

--
Equality automata are defined for: {nat, natlist}
_|


Answer of teacher:


insert_nat(x, nnil, ncons(x, nnil)) <= True -> No: ()
length_nat(nnil, z) <= True -> No: ()
leq_nat(z, n2) <= True -> No: ()
sort_nat(nnil, nnil) <= True -> No: ()
insert_nat(x, ncons(y, z), ncons(y, _ye)) \/ leq_nat(x, y) <= insert_nat(x, z, _ye) -> No: ()
sort_nat(ncons(y, z), _df) <= insert_nat(y, _ef, _df) /\ sort_nat(z, _ef) -> Yes: {
_df -> ncons(_df_0, ncons(v1_0, nnil))  ;  _ef -> ncons(_ef_0, nnil)  ;  y -> z  ;  z -> ncons(z_0, nnil)
}
eq_nat(_mf, _nf) <= length_nat(_of, _nf) /\ length_nat(l, _mf) /\ sort_nat(l, _of) -> No: ()
length_nat(ncons(x, ll), s(_if)) <= length_nat(ll, _if) -> No: ()
leq_nat(s(nn1), s(nn2)) <= leq_nat(nn1, nn2) -> No: ()
insert_nat(x, ncons(y, z), ncons(x, ncons(y, z))) <= leq_nat(x, y) -> No: ()
leq_nat(nn1, nn2) <= leq_nat(s(nn1), s(nn2)) -> No: ()
False <= leq_nat(s(nn1), z) -> No: ()



-------------------------------------------
Step 14, which took 0.111921 s (model generation: 0.111190,  model checking: 0.000731):

Ground examples at the beginning of this step are:
{
insert_nat(s(z), ncons(s(z), nnil), ncons(s(z), ncons(s(z), nnil))) <= True
insert_nat(s(z), nnil, ncons(s(z), nnil)) <= True
insert_nat(z, ncons(z, ncons(z, nnil)), ncons(z, ncons(z, ncons(z, nnil)))) <= True
insert_nat(z, ncons(z, nnil), ncons(z, ncons(z, nnil))) <= True
insert_nat(z, nnil, ncons(z, nnil)) <= True
length_nat(ncons(s(z), nnil), s(z)) <= True
length_nat(ncons(z, ncons(z, nnil)), s(s(z))) <= True
length_nat(ncons(z, nnil), s(z)) <= True
length_nat(nnil, z) <= True
leq_nat(s(z), s(s(z))) <= True
leq_nat(s(z), s(z)) <= True
leq_nat(z, s(z)) <= True
leq_nat(z, z) <= True
sort_nat(ncons(z, ncons(z, nnil)), ncons(z, ncons(z, nnil))) <= True
sort_nat(ncons(z, nnil), ncons(z, nnil)) <= True
sort_nat(nnil, nnil) <= True
insert_nat(s(z), ncons(z, ncons(z, nnil)), ncons(z, ncons(z, ncons(z, nnil)))) <= insert_nat(s(z), ncons(z, nnil), ncons(z, ncons(z, nnil)))
sort_nat(ncons(s(z), ncons(z, nnil)), ncons(z, nnil)) <= insert_nat(s(z), ncons(z, nnil), ncons(z, nnil))
sort_nat(ncons(s(z), nnil), ncons(z, ncons(z, nnil))) <= insert_nat(s(z), nnil, ncons(z, ncons(z, nnil)))
insert_nat(s(z), ncons(z, nnil), ncons(z, ncons(z, nnil))) <= insert_nat(s(z), nnil, ncons(z, nnil))
sort_nat(ncons(z, ncons(z, ncons(z, nnil))), ncons(z, ncons(z, nnil))) <= insert_nat(z, ncons(z, ncons(z, nnil)), ncons(z, ncons(z, nnil)))
sort_nat(ncons(z, ncons(z, nnil)), ncons(z, ncons(z, ncons(z, nnil)))) <= insert_nat(z, ncons(z, nnil), ncons(z, ncons(z, ncons(z, nnil))))
False <= insert_nat(z, ncons(z, nnil), ncons(z, nnil))
False <= insert_nat(z, nnil, ncons(z, ncons(z, nnil)))
False <= length_nat(ncons(z, ncons(z, ncons(z, nnil))), s(s(s(z)))) /\ sort_nat(ncons(z, ncons(z, nnil)), ncons(z, ncons(z, ncons(z, nnil))))
False <= length_nat(ncons(z, nnil), s(s(z)))
False <= leq_nat(s(s(z)), s(z))
False <= leq_nat(s(z), z)
False <= sort_nat(ncons(z, ncons(z, nnil)), ncons(z, nnil))
False <= sort_nat(ncons(z, nnil), ncons(z, ncons(z, nnil)))
}

Learner proposed model:
Found Model:
|_

_r_1 ->
{
  _r_1(ncons(x_0_0, x_0_1), ncons(x_1_0, x_1_1)) <= _r_1(x_0_1, x_1_1)
  _r_1(nnil, ncons(x_1_0, x_1_1)) <= _r_2(x_1_1)
}
;
_r_2 ->
{
  _r_2(nnil) <= True
}
;
insert_nat ->
{
  insert_nat(s(x_0_0), ncons(x_1_0, x_1_1), ncons(x_2_0, x_2_1)) <= _r_1(x_1_1, x_2_1)
  insert_nat(s(x_0_0), nnil, ncons(x_2_0, x_2_1)) <= _r_2(x_2_1)
  insert_nat(z, ncons(x_1_0, x_1_1), ncons(x_2_0, x_2_1)) <= _r_1(x_1_1, x_2_1)
  insert_nat(z, nnil, ncons(x_2_0, x_2_1)) <= _r_2(x_2_1)
}
;
length_nat ->
{
  length_nat(ncons(x_0_0, x_0_1), s(x_1_0)) <= length_nat(x_0_1, x_1_0)
  length_nat(nnil, z) <= True
}
;
leq_nat ->
{
  leq_nat(s(x_0_0), s(x_1_0)) <= leq_nat(x_0_0, x_1_0)
  leq_nat(z, s(x_1_0)) <= True
  leq_nat(z, z) <= True
}
;
sort_nat ->
{
  sort_nat(ncons(x_0_0, x_0_1), ncons(x_1_0, x_1_1)) <= sort_nat(x_0_1, x_1_1)
  sort_nat(nnil, nnil) <= True
}

--
Equality automata are defined for: {nat, natlist}
_|


Answer of teacher:


insert_nat(x, nnil, ncons(x, nnil)) <= True -> No: ()
length_nat(nnil, z) <= True -> No: ()
leq_nat(z, n2) <= True -> No: ()
sort_nat(nnil, nnil) <= True -> No: ()
insert_nat(x, ncons(y, z), ncons(y, _ye)) \/ leq_nat(x, y) <= insert_nat(x, z, _ye) -> No: ()
sort_nat(ncons(y, z), _df) <= insert_nat(y, _ef, _df) /\ sort_nat(z, _ef) -> No: ()
eq_nat(_mf, _nf) <= length_nat(_of, _nf) /\ length_nat(l, _mf) /\ sort_nat(l, _of) -> No: ()
length_nat(ncons(x, ll), s(_if)) <= length_nat(ll, _if) -> No: ()
leq_nat(s(nn1), s(nn2)) <= leq_nat(nn1, nn2) -> No: ()
insert_nat(x, ncons(y, z), ncons(x, ncons(y, z))) <= leq_nat(x, y) -> No: ()
leq_nat(nn1, nn2) <= leq_nat(s(nn1), s(nn2)) -> No: ()
False <= leq_nat(s(nn1), z) -> No: ()




Total time: 0.669420
Learner time: 0.662629
Teacher time: 0.005951
Reasons for stopping: Yes: |_

_r_1 ->
{
  _r_1(ncons(x_0_0, x_0_1), ncons(x_1_0, x_1_1)) <= _r_1(x_0_1, x_1_1)
  _r_1(nnil, ncons(x_1_0, x_1_1)) <= _r_2(x_1_1)
}
;
_r_2 ->
{
  _r_2(nnil) <= True
}
;
insert_nat ->
{
  insert_nat(s(x_0_0), ncons(x_1_0, x_1_1), ncons(x_2_0, x_2_1)) <= _r_1(x_1_1, x_2_1)
  insert_nat(s(x_0_0), nnil, ncons(x_2_0, x_2_1)) <= _r_2(x_2_1)
  insert_nat(z, ncons(x_1_0, x_1_1), ncons(x_2_0, x_2_1)) <= _r_1(x_1_1, x_2_1)
  insert_nat(z, nnil, ncons(x_2_0, x_2_1)) <= _r_2(x_2_1)
}
;
length_nat ->
{
  length_nat(ncons(x_0_0, x_0_1), s(x_1_0)) <= length_nat(x_0_1, x_1_0)
  length_nat(nnil, z) <= True
}
;
leq_nat ->
{
  leq_nat(s(x_0_0), s(x_1_0)) <= leq_nat(x_0_0, x_1_0)
  leq_nat(z, s(x_1_0)) <= True
  leq_nat(z, z) <= True
}
;
sort_nat ->
{
  sort_nat(ncons(x_0_0, x_0_1), ncons(x_1_0, x_1_1)) <= sort_nat(x_0_1, x_1_1)
  sort_nat(nnil, nnil) <= True
}

--
Equality automata are defined for: {nat, natlist}
_|


