Solving ../../benchmarks/smtlib/false/prefix_append.smt2...

Inference procedure has parameters:
Timeout: Some(40.) (sec)
Approximation method: remove functionnality constraint where possible



Learning problem is:

env: {
elt -> {a, b}  ;  eltlist -> {cons, nil}
}
definition:
{
(prefix, P:
{
prefix(nil, y) <= True
prefix(cons(y2, zs), cons(y2, ys)) <= prefix(zs, ys)
prefix(zs, ys) <= prefix(cons(y2, zs), cons(y2, ys))
eq_elt(z, y2) <= prefix(cons(z, zs), cons(y2, ys))
False <= prefix(cons(z, zs), nil)
}
)
(append, F:
{
append(nil, l2, l2) <= True
append(cons(h1, t1), l2, cons(h1, _uib)) <= append(t1, l2, _uib)
}
eq_eltlist(_xib, _yib) <= append(_vib, _wib, _xib) /\ append(_vib, _wib, _yib)
)
}

properties:
{
prefix(l2, _zib) <= append(l1, l2, _zib)
}


over-approximation: {append}
under-approximation: {prefix}

Clause system for inference is:

{
append(nil, l2, l2) <= True
prefix(nil, y) <= True
prefix(l2, _zib) <= append(l1, l2, _zib)
append(cons(h1, t1), l2, cons(h1, _uib)) <= append(t1, l2, _uib)
prefix(cons(y2, zs), cons(y2, ys)) <= prefix(zs, ys)
prefix(zs, ys) <= prefix(cons(y2, zs), cons(y2, ys))
eq_elt(z, y2) <= prefix(cons(z, zs), cons(y2, ys))
False <= prefix(cons(z, zs), nil)
}


Solving took 40.190227 seconds.
Maybe:  timeout during learner
Last solver state:

Clauses:
{
append(nil, l2, l2) <= True
prefix(nil, y) <= True
prefix(l2, _zib) <= append(l1, l2, _zib)
append(cons(h1, t1), l2, cons(h1, _uib)) <= append(t1, l2, _uib)
prefix(cons(y2, zs), cons(y2, ys)) <= prefix(zs, ys)
prefix(zs, ys) <= prefix(cons(y2, zs), cons(y2, ys))
eq_elt(z, y2) <= prefix(cons(z, zs), cons(y2, ys))
False <= prefix(cons(z, zs), nil)
}

Accumulated learning constraints:
{
append(cons(a, nil), cons(a, nil), cons(a, cons(a, nil))) <= True
append(cons(a, nil), cons(b, nil), cons(a, cons(b, nil))) <= True
append(cons(a, nil), nil, cons(a, nil)) <= True
append(cons(b, nil), cons(a, nil), cons(b, cons(a, nil))) <= True
append(nil, cons(a, cons(a, nil)), cons(a, cons(a, nil))) <= True
append(nil, cons(a, nil), cons(a, nil)) <= True
append(nil, cons(b, nil), cons(b, nil)) <= True
append(nil, nil, nil) <= True
prefix(cons(a, cons(b, nil)), cons(a, cons(b, nil))) <= True
prefix(cons(a, nil), cons(a, nil)) <= True
prefix(cons(b, nil), cons(b, nil)) <= True
prefix(nil, cons(a, nil)) <= True
prefix(nil, nil) <= True
prefix(cons(b, cons(a, nil)), cons(a, cons(a, nil))) <= append(cons(a, cons(a, nil)), cons(b, cons(a, nil)), cons(a, cons(a, nil)))
append(cons(b, cons(a, nil)), cons(a, cons(b, cons(a, nil))), cons(b, cons(a, cons(b, cons(a, nil))))) <= append(cons(a, nil), cons(a, cons(b, cons(a, nil))), cons(a, cons(b, cons(a, nil))))
prefix(cons(a, cons(b, nil)), cons(a, cons(a, cons(b, nil)))) <= append(cons(a, nil), cons(a, cons(b, nil)), cons(a, cons(a, cons(b, nil))))
False <= append(cons(a, nil), cons(a, cons(b, nil)), cons(a, cons(a, nil)))
append(cons(b, cons(a, nil)), cons(a, cons(b, nil)), cons(b, cons(a, nil))) <= append(cons(a, nil), cons(a, cons(b, nil)), cons(a, nil))
False <= append(cons(a, nil), cons(a, nil), cons(b, cons(a, nil)))
False <= append(cons(a, nil), cons(a, nil), cons(b, nil))
append(cons(b, cons(a, nil)), cons(b, cons(a, nil)), cons(b, cons(a, cons(a, nil)))) <= append(cons(a, nil), cons(b, cons(a, nil)), cons(a, cons(a, nil)))
prefix(cons(b, cons(a, nil)), cons(b, nil)) <= append(cons(a, nil), cons(b, cons(a, nil)), cons(b, nil))
append(cons(a, cons(a, nil)), cons(b, cons(b, nil)), cons(a, cons(a, cons(b, nil)))) <= append(cons(a, nil), cons(b, cons(b, nil)), cons(a, cons(b, nil)))
False <= append(cons(a, nil), cons(b, nil), cons(a, cons(a, nil)))
False <= append(cons(a, nil), cons(b, nil), cons(a, nil))
append(cons(a, cons(a, nil)), cons(b, nil), cons(a, cons(b, nil))) <= append(cons(a, nil), cons(b, nil), cons(b, nil))
prefix(cons(a, cons(a, nil)), cons(b, nil)) <= append(cons(b, nil), cons(a, cons(a, nil)), cons(b, nil))
prefix(cons(b, cons(a, nil)), cons(a, nil)) <= append(cons(b, nil), cons(b, cons(a, nil)), cons(a, nil))
False <= append(cons(b, nil), cons(b, nil), cons(a, nil))
False <= append(nil, cons(a, cons(a, nil)), cons(a, nil))
prefix(cons(a, cons(a, nil)), cons(b, nil)) <= append(nil, cons(a, cons(a, nil)), cons(b, nil))
append(cons(a, nil), cons(a, cons(b, cons(a, nil))), cons(a, cons(a, cons(b, cons(a, nil))))) <= append(nil, cons(a, cons(b, cons(a, nil))), cons(a, cons(b, cons(a, nil))))
append(cons(a, nil), cons(b, cons(a, cons(a, cons(a, nil)))), cons(a, cons(a, cons(a, nil)))) <= append(nil, cons(b, cons(a, cons(a, cons(a, nil)))), cons(a, cons(a, nil)))
append(cons(a, nil), cons(b, cons(b, nil)), cons(a, cons(b, cons(b, nil)))) <= append(nil, cons(b, cons(b, nil)), cons(b, cons(b, nil)))
False <= append(nil, cons(b, nil), cons(a, cons(a, nil)))
False <= append(nil, cons(b, nil), cons(a, nil))
False <= prefix(cons(a, cons(a, nil)), cons(a, nil))
prefix(cons(a, cons(a, cons(a, nil))), cons(a, cons(b, nil))) <= prefix(cons(a, cons(a, nil)), cons(b, nil))
False <= prefix(cons(a, cons(b, nil)), cons(a, cons(a, nil)))
False <= prefix(cons(a, nil), cons(b, cons(a, nil)))
False <= prefix(cons(a, nil), cons(b, nil))
False <= prefix(cons(a, nil), nil)
False <= prefix(cons(b, nil), cons(a, cons(a, nil)))
False <= prefix(cons(b, nil), cons(a, nil))
}

Current best model:
|_

_r_1 ->
{
  _r_1(cons(x_0_0, x_0_1), a) <= _r_3(x_0_0)
  _r_1(cons(x_0_0, x_0_1), b) <= True
  _r_1(nil, a) <= True
}
;
_r_2 ->
{
  _r_2(a, cons(x_1_0, x_1_1)) <= True
  _r_2(a, nil) <= True
  _r_2(b, cons(x_1_0, x_1_1)) <= _r_3(x_1_0)
}
;
_r_3 ->
{
  _r_3(b) <= True
}
;
append ->
{
  append(cons(x_0_0, x_0_1), cons(x_1_0, x_1_1), cons(x_2_0, x_2_1)) <= _r_1(x_0_1, x_1_0) /\ _r_1(x_1_1, x_2_0) /\ prefix(x_1_1, x_2_1)
  append(cons(x_0_0, x_0_1), cons(x_1_0, x_1_1), cons(x_2_0, x_2_1)) <= _r_1(x_0_1, x_2_0) /\ _r_1(x_1_1, x_2_0) /\ _r_2(x_1_0, x_2_1) /\ append(x_0_1, x_1_1, x_2_1) /\ prefix(x_0_1, x_2_1) /\ prefix(x_1_1, x_2_1)
  append(cons(x_0_0, x_0_1), cons(x_1_0, x_1_1), cons(x_2_0, x_2_1)) <= _r_1(x_0_1, x_2_0) /\ _r_2(x_0_0, x_1_1) /\ _r_2(x_1_0, x_2_1) /\ append(x_0_1, x_1_1, x_2_1)
  append(cons(x_0_0, x_0_1), cons(x_1_0, x_1_1), cons(x_2_0, x_2_1)) <= _r_1(x_1_1, x_2_0) /\ _r_2(x_1_0, x_2_1) /\ append(x_0_1, x_1_1, x_2_1) /\ prefix(x_0_1, x_2_1)
  append(cons(x_0_0, x_0_1), cons(x_1_0, x_1_1), cons(x_2_0, x_2_1)) <= _r_2(x_1_0, x_2_1) /\ _r_3(x_0_0) /\ append(x_0_1, x_1_1, x_2_1)
  append(cons(x_0_0, x_0_1), nil, cons(x_2_0, x_2_1)) <= True
  append(nil, cons(x_1_0, x_1_1), cons(x_2_0, x_2_1)) <= _r_2(x_1_0, x_2_1) /\ prefix(x_1_1, x_2_1)
  append(nil, cons(x_1_0, x_1_1), cons(x_2_0, x_2_1)) <= _r_3(x_1_0) /\ _r_3(x_2_0) /\ prefix(x_1_1, x_2_1)
  append(nil, nil, cons(x_2_0, x_2_1)) <= True
  append(nil, nil, nil) <= True
}
;
prefix ->
{
  prefix(cons(x_0_0, x_0_1), cons(x_1_0, x_1_1)) <= _r_1(x_0_1, x_1_0) /\ _r_2(x_0_0, x_1_1) /\ _r_3(x_0_0)
  prefix(cons(x_0_0, x_0_1), cons(x_1_0, x_1_1)) <= _r_1(x_0_1, x_1_0) /\ _r_2(x_0_0, x_1_1) /\ _r_3(x_1_0)
  prefix(cons(x_0_0, x_0_1), cons(x_1_0, x_1_1)) <= _r_1(x_0_1, x_1_0) /\ _r_2(x_0_0, x_1_1) /\ prefix(x_0_1, x_1_1)
  prefix(cons(x_0_0, x_0_1), cons(x_1_0, x_1_1)) <= _r_2(x_0_0, x_1_1) /\ _r_3(x_0_0)
  prefix(cons(x_0_0, x_0_1), cons(x_1_0, x_1_1)) <= _r_3(x_0_0) /\ _r_3(x_1_0) /\ prefix(x_0_1, x_1_1)
  prefix(nil, cons(x_1_0, x_1_1)) <= True
  prefix(nil, cons(x_1_0, x_1_1)) <= _r_3(x_1_0)
  prefix(nil, nil) <= True
}

--
Equality automata are defined for: {elt, eltlist}
_|






-------------------
STEPS:
-------------------------------------------
Step 0, which took 0.006425 s (model generation: 0.006214,  model checking: 0.000211):

Ground examples at the beginning of this step are:
{

}

Learner proposed model:
Found Model:
|_

append ->
{
  
}
;
prefix ->
{
  
}

--
Equality automata are defined for: {elt, eltlist}
_|


Answer of teacher:


append(nil, l2, l2) <= True -> Yes: {
l2 -> nil
}
prefix(nil, y) <= True -> Yes: {
y -> nil
}
prefix(l2, _zib) <= append(l1, l2, _zib) -> No: ()
append(cons(h1, t1), l2, cons(h1, _uib)) <= append(t1, l2, _uib) -> No: ()
prefix(cons(y2, zs), cons(y2, ys)) <= prefix(zs, ys) -> No: ()
prefix(zs, ys) <= prefix(cons(y2, zs), cons(y2, ys)) -> No: ()
eq_elt(z, y2) <= prefix(cons(z, zs), cons(y2, ys)) -> No: ()
False <= prefix(cons(z, zs), nil) -> No: ()



-------------------------------------------
Step 1, which took 0.006628 s (model generation: 0.006563,  model checking: 0.000065):

Ground examples at the beginning of this step are:
{
append(nil, nil, nil) <= True
prefix(nil, nil) <= True
}

Learner proposed model:
Found Model:
|_

append ->
{
  append(nil, nil, nil) <= True
}
;
prefix ->
{
  prefix(nil, nil) <= True
}

--
Equality automata are defined for: {elt, eltlist}
_|


Answer of teacher:


append(nil, l2, l2) <= True -> Yes: {
l2 -> cons(l2_0, l2_1)
}
prefix(nil, y) <= True -> Yes: {
y -> cons(y_0, y_1)
}
prefix(l2, _zib) <= append(l1, l2, _zib) -> No: ()
append(cons(h1, t1), l2, cons(h1, _uib)) <= append(t1, l2, _uib) -> Yes: {
_uib -> nil  ;  l2 -> nil  ;  t1 -> nil
}
prefix(cons(y2, zs), cons(y2, ys)) <= prefix(zs, ys) -> Yes: {
ys -> nil  ;  zs -> nil
}
prefix(zs, ys) <= prefix(cons(y2, zs), cons(y2, ys)) -> No: ()
eq_elt(z, y2) <= prefix(cons(z, zs), cons(y2, ys)) -> No: ()
False <= prefix(cons(z, zs), nil) -> No: ()



-------------------------------------------
Step 2, which took 0.008880 s (model generation: 0.008817,  model checking: 0.000063):

Ground examples at the beginning of this step are:
{
append(cons(a, nil), nil, cons(a, nil)) <= True
append(nil, cons(a, nil), cons(a, nil)) <= True
append(nil, nil, nil) <= True
prefix(cons(a, nil), cons(a, nil)) <= True
prefix(nil, cons(a, nil)) <= True
prefix(nil, nil) <= True
}

Learner proposed model:
Found Model:
|_

append ->
{
  append(cons(x_0_0, x_0_1), nil, cons(x_2_0, x_2_1)) <= True
  append(nil, cons(x_1_0, x_1_1), cons(x_2_0, x_2_1)) <= True
  append(nil, nil, nil) <= True
}
;
prefix ->
{
  prefix(cons(x_0_0, x_0_1), cons(x_1_0, x_1_1)) <= True
  prefix(nil, cons(x_1_0, x_1_1)) <= True
  prefix(nil, nil) <= True
}

--
Equality automata are defined for: {elt, eltlist}
_|


Answer of teacher:


append(nil, l2, l2) <= True -> No: ()
prefix(nil, y) <= True -> No: ()
prefix(l2, _zib) <= append(l1, l2, _zib) -> No: ()
append(cons(h1, t1), l2, cons(h1, _uib)) <= append(t1, l2, _uib) -> Yes: {
_uib -> cons(_uib_0, _uib_1)  ;  l2 -> cons(l2_0, l2_1)  ;  t1 -> nil
}
prefix(cons(y2, zs), cons(y2, ys)) <= prefix(zs, ys) -> No: ()
prefix(zs, ys) <= prefix(cons(y2, zs), cons(y2, ys)) -> Yes: {
ys -> nil  ;  zs -> cons(v0_0, v0_1)
}
eq_elt(z, y2) <= prefix(cons(z, zs), cons(y2, ys)) -> Yes: {
y2 -> a  ;  z -> b
}
False <= prefix(cons(z, zs), nil) -> No: ()



-------------------------------------------
Step 3, which took 0.017672 s (model generation: 0.017542,  model checking: 0.000130):

Ground examples at the beginning of this step are:
{
append(cons(a, nil), cons(a, nil), cons(a, cons(a, nil))) <= True
append(cons(a, nil), nil, cons(a, nil)) <= True
append(nil, cons(a, nil), cons(a, nil)) <= True
append(nil, nil, nil) <= True
prefix(cons(a, nil), cons(a, nil)) <= True
prefix(nil, cons(a, nil)) <= True
prefix(nil, nil) <= True
prefix(cons(a, nil), nil) <= prefix(cons(a, cons(a, nil)), cons(a, nil))
False <= prefix(cons(b, nil), cons(a, nil))
}

Learner proposed model:
Found Model:
|_

_r_1 ->
{
  _r_1(a) <= True
}
;
append ->
{
  append(cons(x_0_0, x_0_1), cons(x_1_0, x_1_1), cons(x_2_0, x_2_1)) <= True
  append(cons(x_0_0, x_0_1), nil, cons(x_2_0, x_2_1)) <= True
  append(nil, cons(x_1_0, x_1_1), cons(x_2_0, x_2_1)) <= True
  append(nil, nil, nil) <= True
}
;
prefix ->
{
  prefix(cons(x_0_0, x_0_1), cons(x_1_0, x_1_1)) <= _r_1(x_0_0)
  prefix(cons(x_0_0, x_0_1), nil) <= True
  prefix(nil, cons(x_1_0, x_1_1)) <= True
  prefix(nil, nil) <= True
}

--
Equality automata are defined for: {elt, eltlist}
_|


Answer of teacher:


append(nil, l2, l2) <= True -> No: ()
prefix(nil, y) <= True -> No: ()
prefix(l2, _zib) <= append(l1, l2, _zib) -> Yes: {
_zib -> cons(_zib_0, _zib_1)  ;  l1 -> nil  ;  l2 -> cons(b, l2_1)
}
append(cons(h1, t1), l2, cons(h1, _uib)) <= append(t1, l2, _uib) -> No: ()
prefix(cons(y2, zs), cons(y2, ys)) <= prefix(zs, ys) -> Yes: {
y2 -> b  ;  ys -> nil  ;  zs -> nil
}
prefix(zs, ys) <= prefix(cons(y2, zs), cons(y2, ys)) -> Yes: {
y2 -> a  ;  ys -> cons(v1_0, v1_1)  ;  zs -> cons(b, v0_1)
}
eq_elt(z, y2) <= prefix(cons(z, zs), cons(y2, ys)) -> Yes: {
y2 -> b  ;  z -> a
}
False <= prefix(cons(z, zs), nil) -> Yes: {

}



-------------------------------------------
Step 4, which took 0.021477 s (model generation: 0.021262,  model checking: 0.000215):

Ground examples at the beginning of this step are:
{
append(cons(a, nil), cons(a, nil), cons(a, cons(a, nil))) <= True
append(cons(a, nil), nil, cons(a, nil)) <= True
append(nil, cons(a, nil), cons(a, nil)) <= True
append(nil, nil, nil) <= True
prefix(cons(a, nil), cons(a, nil)) <= True
prefix(cons(b, nil), cons(b, nil)) <= True
prefix(nil, cons(a, nil)) <= True
prefix(nil, nil) <= True
False <= append(nil, cons(b, nil), cons(a, nil))
False <= prefix(cons(a, cons(a, nil)), cons(a, nil))
False <= prefix(cons(a, cons(b, nil)), cons(a, cons(a, nil)))
False <= prefix(cons(a, nil), cons(b, nil))
False <= prefix(cons(a, nil), nil)
False <= prefix(cons(b, nil), cons(a, nil))
}

Learner proposed model:
Found Model:
|_

_r_1 ->
{
  _r_1(a, a) <= True
  _r_1(b, b) <= True
}
;
append ->
{
  append(cons(x_0_0, x_0_1), cons(x_1_0, x_1_1), cons(x_2_0, x_2_1)) <= True
  append(cons(x_0_0, x_0_1), nil, cons(x_2_0, x_2_1)) <= True
  append(nil, cons(x_1_0, x_1_1), cons(x_2_0, x_2_1)) <= _r_1(x_1_0, x_2_0)
  append(nil, nil, nil) <= True
}
;
prefix ->
{
  prefix(cons(x_0_0, x_0_1), cons(x_1_0, x_1_1)) <= _r_1(x_0_0, x_1_0) /\ prefix(x_0_1, x_1_1)
  prefix(nil, cons(x_1_0, x_1_1)) <= True
  prefix(nil, nil) <= True
}

--
Equality automata are defined for: {elt, eltlist}
_|


Answer of teacher:


append(nil, l2, l2) <= True -> No: ()
prefix(nil, y) <= True -> No: ()
prefix(l2, _zib) <= append(l1, l2, _zib) -> Yes: {
_zib -> cons(a, _zib_1)  ;  l1 -> cons(l1_0, l1_1)  ;  l2 -> cons(b, l2_1)
}
append(cons(h1, t1), l2, cons(h1, _uib)) <= append(t1, l2, _uib) -> No: ()
prefix(cons(y2, zs), cons(y2, ys)) <= prefix(zs, ys) -> No: ()
prefix(zs, ys) <= prefix(cons(y2, zs), cons(y2, ys)) -> No: ()
eq_elt(z, y2) <= prefix(cons(z, zs), cons(y2, ys)) -> No: ()
False <= prefix(cons(z, zs), nil) -> No: ()



-------------------------------------------
Step 5, which took 0.021368 s (model generation: 0.020979,  model checking: 0.000389):

Ground examples at the beginning of this step are:
{
append(cons(a, nil), cons(a, nil), cons(a, cons(a, nil))) <= True
append(cons(a, nil), nil, cons(a, nil)) <= True
append(nil, cons(a, nil), cons(a, nil)) <= True
append(nil, nil, nil) <= True
prefix(cons(a, nil), cons(a, nil)) <= True
prefix(cons(b, nil), cons(b, nil)) <= True
prefix(nil, cons(a, nil)) <= True
prefix(nil, nil) <= True
False <= append(cons(a, nil), cons(b, nil), cons(a, nil))
False <= append(nil, cons(b, nil), cons(a, nil))
False <= prefix(cons(a, cons(a, nil)), cons(a, nil))
False <= prefix(cons(a, cons(b, nil)), cons(a, cons(a, nil)))
False <= prefix(cons(a, nil), cons(b, nil))
False <= prefix(cons(a, nil), nil)
False <= prefix(cons(b, nil), cons(a, nil))
}

Learner proposed model:
Found Model:
|_

_r_1 ->
{
  _r_1(a, a) <= True
  _r_1(b, b) <= True
}
;
append ->
{
  append(cons(x_0_0, x_0_1), cons(x_1_0, x_1_1), cons(x_2_0, x_2_1)) <= _r_1(x_0_0, x_1_0)
  append(cons(x_0_0, x_0_1), nil, cons(x_2_0, x_2_1)) <= True
  append(nil, cons(x_1_0, x_1_1), cons(x_2_0, x_2_1)) <= _r_1(x_1_0, x_2_0)
  append(nil, nil, nil) <= True
}
;
prefix ->
{
  prefix(cons(x_0_0, x_0_1), cons(x_1_0, x_1_1)) <= _r_1(x_0_0, x_1_0) /\ prefix(x_0_1, x_1_1)
  prefix(nil, cons(x_1_0, x_1_1)) <= True
  prefix(nil, nil) <= True
}

--
Equality automata are defined for: {elt, eltlist}
_|


Answer of teacher:


append(nil, l2, l2) <= True -> No: ()
prefix(nil, y) <= True -> No: ()
prefix(l2, _zib) <= append(l1, l2, _zib) -> Yes: {
_zib -> cons(_zib_0, nil)  ;  l1 -> cons(b, l1_1)  ;  l2 -> cons(b, cons(v0_0, v0_1))
}
append(cons(h1, t1), l2, cons(h1, _uib)) <= append(t1, l2, _uib) -> Yes: {
_uib -> cons(a, _uib_1)  ;  h1 -> b  ;  l2 -> cons(a, l2_1)  ;  t1 -> nil
}
prefix(cons(y2, zs), cons(y2, ys)) <= prefix(zs, ys) -> No: ()
prefix(zs, ys) <= prefix(cons(y2, zs), cons(y2, ys)) -> No: ()
eq_elt(z, y2) <= prefix(cons(z, zs), cons(y2, ys)) -> No: ()
False <= prefix(cons(z, zs), nil) -> No: ()



-------------------------------------------
Step 6, which took 0.053907 s (model generation: 0.053527,  model checking: 0.000380):

Ground examples at the beginning of this step are:
{
append(cons(a, nil), cons(a, nil), cons(a, cons(a, nil))) <= True
append(cons(a, nil), nil, cons(a, nil)) <= True
append(cons(b, nil), cons(a, nil), cons(b, cons(a, nil))) <= True
append(nil, cons(a, nil), cons(a, nil)) <= True
append(nil, nil, nil) <= True
prefix(cons(a, nil), cons(a, nil)) <= True
prefix(cons(b, nil), cons(b, nil)) <= True
prefix(nil, cons(a, nil)) <= True
prefix(nil, nil) <= True
False <= append(cons(a, nil), cons(b, nil), cons(a, nil))
prefix(cons(b, cons(a, nil)), cons(a, nil)) <= append(cons(b, nil), cons(b, cons(a, nil)), cons(a, nil))
False <= append(nil, cons(b, nil), cons(a, nil))
False <= prefix(cons(a, cons(a, nil)), cons(a, nil))
False <= prefix(cons(a, cons(b, nil)), cons(a, cons(a, nil)))
False <= prefix(cons(a, nil), cons(b, nil))
False <= prefix(cons(a, nil), nil)
False <= prefix(cons(b, nil), cons(a, nil))
}

Learner proposed model:
Found Model:
|_

_r_1 ->
{
  _r_1(a, a) <= True
  _r_1(b, b) <= True
}
;
_r_2 ->
{
  _r_2(a) <= True
}
;
append ->
{
  append(cons(x_0_0, x_0_1), cons(x_1_0, x_1_1), cons(x_2_0, x_2_1)) <= _r_2(x_1_0)
  append(cons(x_0_0, x_0_1), nil, cons(x_2_0, x_2_1)) <= True
  append(nil, cons(x_1_0, x_1_1), cons(x_2_0, x_2_1)) <= _r_2(x_1_0)
  append(nil, nil, nil) <= True
}
;
prefix ->
{
  prefix(cons(x_0_0, x_0_1), cons(x_1_0, x_1_1)) <= _r_1(x_0_0, x_1_0) /\ prefix(x_0_1, x_1_1)
  prefix(nil, cons(x_1_0, x_1_1)) <= True
  prefix(nil, nil) <= True
}

--
Equality automata are defined for: {elt, eltlist}
_|


Answer of teacher:


append(nil, l2, l2) <= True -> Yes: {
l2 -> cons(b, l2_1)
}
prefix(nil, y) <= True -> No: ()
prefix(l2, _zib) <= append(l1, l2, _zib) -> Yes: {
_zib -> cons(_zib_0, nil)  ;  l1 -> nil  ;  l2 -> cons(a, cons(v0_0, v0_1))
}
append(cons(h1, t1), l2, cons(h1, _uib)) <= append(t1, l2, _uib) -> No: ()
prefix(cons(y2, zs), cons(y2, ys)) <= prefix(zs, ys) -> No: ()
prefix(zs, ys) <= prefix(cons(y2, zs), cons(y2, ys)) -> No: ()
eq_elt(z, y2) <= prefix(cons(z, zs), cons(y2, ys)) -> No: ()
False <= prefix(cons(z, zs), nil) -> No: ()



-------------------------------------------
Step 7, which took 0.060165 s (model generation: 0.059733,  model checking: 0.000432):

Ground examples at the beginning of this step are:
{
append(cons(a, nil), cons(a, nil), cons(a, cons(a, nil))) <= True
append(cons(a, nil), nil, cons(a, nil)) <= True
append(cons(b, nil), cons(a, nil), cons(b, cons(a, nil))) <= True
append(nil, cons(a, nil), cons(a, nil)) <= True
append(nil, cons(b, nil), cons(b, nil)) <= True
append(nil, nil, nil) <= True
prefix(cons(a, nil), cons(a, nil)) <= True
prefix(cons(b, nil), cons(b, nil)) <= True
prefix(nil, cons(a, nil)) <= True
prefix(nil, nil) <= True
False <= append(cons(a, nil), cons(b, nil), cons(a, nil))
prefix(cons(b, cons(a, nil)), cons(a, nil)) <= append(cons(b, nil), cons(b, cons(a, nil)), cons(a, nil))
False <= append(nil, cons(a, cons(a, nil)), cons(a, nil))
False <= append(nil, cons(b, nil), cons(a, nil))
False <= prefix(cons(a, cons(a, nil)), cons(a, nil))
False <= prefix(cons(a, cons(b, nil)), cons(a, cons(a, nil)))
False <= prefix(cons(a, nil), cons(b, nil))
False <= prefix(cons(a, nil), nil)
False <= prefix(cons(b, nil), cons(a, nil))
}

Learner proposed model:
Found Model:
|_

_r_1 ->
{
  _r_1(a, a) <= True
  _r_1(b, b) <= True
}
;
_r_2 ->
{
  _r_2(a, a) <= True
  _r_2(a, b) <= True
  _r_2(b, b) <= True
}
;
append ->
{
  append(cons(x_0_0, x_0_1), cons(x_1_0, x_1_1), cons(x_2_0, x_2_1)) <= _r_2(x_1_0, x_2_0)
  append(cons(x_0_0, x_0_1), nil, cons(x_2_0, x_2_1)) <= True
  append(nil, cons(x_1_0, x_1_1), cons(x_2_0, x_2_1)) <= _r_2(x_1_0, x_2_0) /\ prefix(x_1_1, x_2_1)
  append(nil, nil, nil) <= True
}
;
prefix ->
{
  prefix(cons(x_0_0, x_0_1), cons(x_1_0, x_1_1)) <= _r_1(x_0_0, x_1_0) /\ prefix(x_0_1, x_1_1)
  prefix(nil, cons(x_1_0, x_1_1)) <= True
  prefix(nil, nil) <= True
}

--
Equality automata are defined for: {elt, eltlist}
_|


Answer of teacher:


append(nil, l2, l2) <= True -> No: ()
prefix(nil, y) <= True -> No: ()
prefix(l2, _zib) <= append(l1, l2, _zib) -> Yes: {
_zib -> cons(b, nil)  ;  l1 -> cons(l1_0, l1_1)  ;  l2 -> cons(b, cons(v0_0, v0_1))
}
append(cons(h1, t1), l2, cons(h1, _uib)) <= append(t1, l2, _uib) -> Yes: {
_uib -> cons(b, _uib_1)  ;  h1 -> a  ;  l2 -> cons(b, l2_1)  ;  t1 -> cons(t1_0, t1_1)
}
prefix(cons(y2, zs), cons(y2, ys)) <= prefix(zs, ys) -> No: ()
prefix(zs, ys) <= prefix(cons(y2, zs), cons(y2, ys)) -> No: ()
eq_elt(z, y2) <= prefix(cons(z, zs), cons(y2, ys)) -> No: ()
False <= prefix(cons(z, zs), nil) -> No: ()



-------------------------------------------
Step 8, which took 0.113569 s (model generation: 0.112976,  model checking: 0.000593):

Ground examples at the beginning of this step are:
{
append(cons(a, nil), cons(a, nil), cons(a, cons(a, nil))) <= True
append(cons(a, nil), nil, cons(a, nil)) <= True
append(cons(b, nil), cons(a, nil), cons(b, cons(a, nil))) <= True
append(nil, cons(a, nil), cons(a, nil)) <= True
append(nil, cons(b, nil), cons(b, nil)) <= True
append(nil, nil, nil) <= True
prefix(cons(a, nil), cons(a, nil)) <= True
prefix(cons(b, nil), cons(b, nil)) <= True
prefix(nil, cons(a, nil)) <= True
prefix(nil, nil) <= True
prefix(cons(b, cons(a, nil)), cons(b, nil)) <= append(cons(a, nil), cons(b, cons(a, nil)), cons(b, nil))
False <= append(cons(a, nil), cons(b, nil), cons(a, nil))
append(cons(a, cons(a, nil)), cons(b, nil), cons(a, cons(b, nil))) <= append(cons(a, nil), cons(b, nil), cons(b, nil))
prefix(cons(b, cons(a, nil)), cons(a, nil)) <= append(cons(b, nil), cons(b, cons(a, nil)), cons(a, nil))
False <= append(nil, cons(a, cons(a, nil)), cons(a, nil))
False <= append(nil, cons(b, nil), cons(a, nil))
False <= prefix(cons(a, cons(a, nil)), cons(a, nil))
False <= prefix(cons(a, cons(b, nil)), cons(a, cons(a, nil)))
False <= prefix(cons(a, nil), cons(b, nil))
False <= prefix(cons(a, nil), nil)
False <= prefix(cons(b, nil), cons(a, nil))
}

Learner proposed model:
Found Model:
|_

_r_1 ->
{
  _r_1(nil, cons(x_1_0, x_1_1)) <= True
}
;
_r_2 ->
{
  _r_2(a, a) <= True
  _r_2(b, b) <= True
}
;
append ->
{
  append(cons(x_0_0, x_0_1), cons(x_1_0, x_1_1), cons(x_2_0, x_2_1)) <= _r_1(x_1_1, x_2_1)
  append(cons(x_0_0, x_0_1), nil, cons(x_2_0, x_2_1)) <= True
  append(nil, cons(x_1_0, x_1_1), cons(x_2_0, x_2_1)) <= _r_2(x_1_0, x_2_0) /\ prefix(x_1_1, x_2_1)
  append(nil, nil, nil) <= True
}
;
prefix ->
{
  prefix(cons(x_0_0, x_0_1), cons(x_1_0, x_1_1)) <= _r_2(x_0_0, x_1_0) /\ prefix(x_0_1, x_1_1)
  prefix(nil, cons(x_1_0, x_1_1)) <= True
  prefix(nil, nil) <= True
}

--
Equality automata are defined for: {elt, eltlist}
_|


Answer of teacher:


append(nil, l2, l2) <= True -> No: ()
prefix(nil, y) <= True -> No: ()
prefix(l2, _zib) <= append(l1, l2, _zib) -> Yes: {
_zib -> cons(a, cons(v1_0, v1_1))  ;  l1 -> cons(l1_0, l1_1)  ;  l2 -> cons(b, nil)
}
append(cons(h1, t1), l2, cons(h1, _uib)) <= append(t1, l2, _uib) -> Yes: {
_uib -> cons(b, cons(b, nil))  ;  l2 -> cons(b, cons(b, nil))  ;  t1 -> nil
}
prefix(cons(y2, zs), cons(y2, ys)) <= prefix(zs, ys) -> No: ()
prefix(zs, ys) <= prefix(cons(y2, zs), cons(y2, ys)) -> No: ()
eq_elt(z, y2) <= prefix(cons(z, zs), cons(y2, ys)) -> No: ()
False <= prefix(cons(z, zs), nil) -> No: ()



-------------------------------------------
Step 9, which took 0.160274 s (model generation: 0.159483,  model checking: 0.000791):

Ground examples at the beginning of this step are:
{
append(cons(a, nil), cons(a, nil), cons(a, cons(a, nil))) <= True
append(cons(a, nil), nil, cons(a, nil)) <= True
append(cons(b, nil), cons(a, nil), cons(b, cons(a, nil))) <= True
append(nil, cons(a, nil), cons(a, nil)) <= True
append(nil, cons(b, nil), cons(b, nil)) <= True
append(nil, nil, nil) <= True
prefix(cons(a, nil), cons(a, nil)) <= True
prefix(cons(b, nil), cons(b, nil)) <= True
prefix(nil, cons(a, nil)) <= True
prefix(nil, nil) <= True
prefix(cons(b, cons(a, nil)), cons(b, nil)) <= append(cons(a, nil), cons(b, cons(a, nil)), cons(b, nil))
prefix(cons(b, nil), cons(a, cons(a, nil))) <= append(cons(a, nil), cons(b, nil), cons(a, cons(a, nil)))
False <= append(cons(a, nil), cons(b, nil), cons(a, nil))
append(cons(a, cons(a, nil)), cons(b, nil), cons(a, cons(b, nil))) <= append(cons(a, nil), cons(b, nil), cons(b, nil))
prefix(cons(b, cons(a, nil)), cons(a, nil)) <= append(cons(b, nil), cons(b, cons(a, nil)), cons(a, nil))
False <= append(nil, cons(a, cons(a, nil)), cons(a, nil))
append(cons(a, nil), cons(b, cons(b, nil)), cons(a, cons(b, cons(b, nil)))) <= append(nil, cons(b, cons(b, nil)), cons(b, cons(b, nil)))
False <= append(nil, cons(b, nil), cons(a, nil))
False <= prefix(cons(a, cons(a, nil)), cons(a, nil))
False <= prefix(cons(a, cons(b, nil)), cons(a, cons(a, nil)))
False <= prefix(cons(a, nil), cons(b, nil))
False <= prefix(cons(a, nil), nil)
False <= prefix(cons(b, nil), cons(a, nil))
}

Learner proposed model:
Found Model:
|_

_r_1 ->
{
  _r_1(a, cons(x_1_0, x_1_1), a) <= True
  _r_1(b, nil, b) <= True
}
;
_r_2 ->
{
  _r_2(a, a) <= True
  _r_2(b, b) <= True
}
;
append ->
{
  append(cons(x_0_0, x_0_1), cons(x_1_0, x_1_1), cons(x_2_0, x_2_1)) <= _r_1(x_0_0, x_1_1, x_2_0)
  append(cons(x_0_0, x_0_1), cons(x_1_0, x_1_1), cons(x_2_0, x_2_1)) <= _r_2(x_0_0, x_1_0) /\ prefix(x_1_1, x_2_1)
  append(cons(x_0_0, x_0_1), nil, cons(x_2_0, x_2_1)) <= True
  append(nil, cons(x_1_0, x_1_1), cons(x_2_0, x_2_1)) <= _r_2(x_1_0, x_2_0) /\ prefix(x_1_1, x_2_1)
  append(nil, nil, nil) <= True
}
;
prefix ->
{
  prefix(cons(x_0_0, x_0_1), cons(x_1_0, x_1_1)) <= _r_2(x_0_0, x_1_0) /\ prefix(x_0_1, x_1_1)
  prefix(nil, cons(x_1_0, x_1_1)) <= True
  prefix(nil, nil) <= True
}

--
Equality automata are defined for: {elt, eltlist}
_|


Answer of teacher:


append(nil, l2, l2) <= True -> No: ()
prefix(nil, y) <= True -> No: ()
prefix(l2, _zib) <= append(l1, l2, _zib) -> Yes: {
_zib -> cons(a, nil)  ;  l1 -> cons(b, l1_1)  ;  l2 -> cons(b, nil)
}
append(cons(h1, t1), l2, cons(h1, _uib)) <= append(t1, l2, _uib) -> Yes: {
_uib -> cons(a, _uib_1)  ;  h1 -> b  ;  l2 -> cons(l2_0, cons(b, v1_1))  ;  t1 -> cons(a, t1_1)
}
prefix(cons(y2, zs), cons(y2, ys)) <= prefix(zs, ys) -> No: ()
prefix(zs, ys) <= prefix(cons(y2, zs), cons(y2, ys)) -> No: ()
eq_elt(z, y2) <= prefix(cons(z, zs), cons(y2, ys)) -> No: ()
False <= prefix(cons(z, zs), nil) -> No: ()



-------------------------------------------
Step 10, which took 0.261051 s (model generation: 0.260165,  model checking: 0.000886):

Ground examples at the beginning of this step are:
{
append(cons(a, nil), cons(a, nil), cons(a, cons(a, nil))) <= True
append(cons(a, nil), nil, cons(a, nil)) <= True
append(cons(b, nil), cons(a, nil), cons(b, cons(a, nil))) <= True
append(nil, cons(a, nil), cons(a, nil)) <= True
append(nil, cons(b, nil), cons(b, nil)) <= True
append(nil, nil, nil) <= True
prefix(cons(a, nil), cons(a, nil)) <= True
prefix(cons(b, nil), cons(b, nil)) <= True
prefix(nil, cons(a, nil)) <= True
prefix(nil, nil) <= True
append(cons(b, cons(a, nil)), cons(a, cons(b, nil)), cons(b, cons(a, nil))) <= append(cons(a, nil), cons(a, cons(b, nil)), cons(a, nil))
prefix(cons(b, cons(a, nil)), cons(b, nil)) <= append(cons(a, nil), cons(b, cons(a, nil)), cons(b, nil))
prefix(cons(b, nil), cons(a, cons(a, nil))) <= append(cons(a, nil), cons(b, nil), cons(a, cons(a, nil)))
False <= append(cons(a, nil), cons(b, nil), cons(a, nil))
append(cons(a, cons(a, nil)), cons(b, nil), cons(a, cons(b, nil))) <= append(cons(a, nil), cons(b, nil), cons(b, nil))
prefix(cons(b, cons(a, nil)), cons(a, nil)) <= append(cons(b, nil), cons(b, cons(a, nil)), cons(a, nil))
False <= append(cons(b, nil), cons(b, nil), cons(a, nil))
False <= append(nil, cons(a, cons(a, nil)), cons(a, nil))
append(cons(a, nil), cons(b, cons(b, nil)), cons(a, cons(b, cons(b, nil)))) <= append(nil, cons(b, cons(b, nil)), cons(b, cons(b, nil)))
False <= append(nil, cons(b, nil), cons(a, nil))
False <= prefix(cons(a, cons(a, nil)), cons(a, nil))
False <= prefix(cons(a, cons(b, nil)), cons(a, cons(a, nil)))
False <= prefix(cons(a, nil), cons(b, nil))
False <= prefix(cons(a, nil), nil)
False <= prefix(cons(b, nil), cons(a, nil))
}

Learner proposed model:
Found Model:
|_

_r_1 ->
{
  _r_1(a, cons(x_1_0, x_1_1)) <= True
}
;
_r_2 ->
{
  _r_2(a, a) <= True
  _r_2(b, b) <= True
}
;
append ->
{
  append(cons(x_0_0, x_0_1), cons(x_1_0, x_1_1), cons(x_2_0, x_2_1)) <= _r_1(x_0_0, x_1_1) /\ prefix(x_1_1, x_2_1)
  append(cons(x_0_0, x_0_1), cons(x_1_0, x_1_1), cons(x_2_0, x_2_1)) <= _r_1(x_1_0, x_2_1)
  append(cons(x_0_0, x_0_1), nil, cons(x_2_0, x_2_1)) <= True
  append(nil, cons(x_1_0, x_1_1), cons(x_2_0, x_2_1)) <= _r_2(x_1_0, x_2_0) /\ prefix(x_1_1, x_2_1)
  append(nil, nil, nil) <= True
}
;
prefix ->
{
  prefix(cons(x_0_0, x_0_1), cons(x_1_0, x_1_1)) <= _r_2(x_0_0, x_1_0) /\ prefix(x_0_1, x_1_1)
  prefix(nil, cons(x_1_0, x_1_1)) <= True
  prefix(nil, nil) <= True
}

--
Equality automata are defined for: {elt, eltlist}
_|


Answer of teacher:


append(nil, l2, l2) <= True -> No: ()
prefix(nil, y) <= True -> No: ()
prefix(l2, _zib) <= append(l1, l2, _zib) -> Yes: {
_zib -> cons(_zib_0, cons(a, v1_1))  ;  l1 -> cons(l1_0, l1_1)  ;  l2 -> cons(a, cons(b, v2_1))
}
append(cons(h1, t1), l2, cons(h1, _uib)) <= append(t1, l2, _uib) -> Yes: {
_uib -> cons(a, cons(b, nil))  ;  l2 -> cons(b, cons(b, nil))  ;  t1 -> cons(a, t1_1)
}
prefix(cons(y2, zs), cons(y2, ys)) <= prefix(zs, ys) -> No: ()
prefix(zs, ys) <= prefix(cons(y2, zs), cons(y2, ys)) -> No: ()
eq_elt(z, y2) <= prefix(cons(z, zs), cons(y2, ys)) -> No: ()
False <= prefix(cons(z, zs), nil) -> No: ()



-------------------------------------------
Step 11, which took 0.461855 s (model generation: 0.459569,  model checking: 0.002286):

Ground examples at the beginning of this step are:
{
append(cons(a, nil), cons(a, nil), cons(a, cons(a, nil))) <= True
append(cons(a, nil), nil, cons(a, nil)) <= True
append(cons(b, nil), cons(a, nil), cons(b, cons(a, nil))) <= True
append(nil, cons(a, nil), cons(a, nil)) <= True
append(nil, cons(b, nil), cons(b, nil)) <= True
append(nil, nil, nil) <= True
prefix(cons(a, nil), cons(a, nil)) <= True
prefix(cons(b, nil), cons(b, nil)) <= True
prefix(nil, cons(a, nil)) <= True
prefix(nil, nil) <= True
False <= append(cons(a, nil), cons(a, cons(b, nil)), cons(a, cons(a, nil)))
append(cons(b, cons(a, nil)), cons(a, cons(b, nil)), cons(b, cons(a, nil))) <= append(cons(a, nil), cons(a, cons(b, nil)), cons(a, nil))
prefix(cons(b, cons(a, nil)), cons(b, nil)) <= append(cons(a, nil), cons(b, cons(a, nil)), cons(b, nil))
append(cons(a, cons(a, nil)), cons(b, cons(b, nil)), cons(a, cons(a, cons(b, nil)))) <= append(cons(a, nil), cons(b, cons(b, nil)), cons(a, cons(b, nil)))
prefix(cons(b, nil), cons(a, cons(a, nil))) <= append(cons(a, nil), cons(b, nil), cons(a, cons(a, nil)))
False <= append(cons(a, nil), cons(b, nil), cons(a, nil))
append(cons(a, cons(a, nil)), cons(b, nil), cons(a, cons(b, nil))) <= append(cons(a, nil), cons(b, nil), cons(b, nil))
prefix(cons(b, cons(a, nil)), cons(a, nil)) <= append(cons(b, nil), cons(b, cons(a, nil)), cons(a, nil))
False <= append(cons(b, nil), cons(b, nil), cons(a, nil))
False <= append(nil, cons(a, cons(a, nil)), cons(a, nil))
append(cons(a, nil), cons(b, cons(b, nil)), cons(a, cons(b, cons(b, nil)))) <= append(nil, cons(b, cons(b, nil)), cons(b, cons(b, nil)))
False <= append(nil, cons(b, nil), cons(a, nil))
False <= prefix(cons(a, cons(a, nil)), cons(a, nil))
False <= prefix(cons(a, cons(b, nil)), cons(a, cons(a, nil)))
False <= prefix(cons(a, nil), cons(b, nil))
False <= prefix(cons(a, nil), nil)
False <= prefix(cons(b, nil), cons(a, nil))
}

Learner proposed model:
Found Model:
|_

_r_1 ->
{
  _r_1(cons(x_0_0, x_0_1), a) <= True
  _r_1(nil, b) <= True
}
;
_r_2 ->
{
  _r_2(a, a) <= True
  _r_2(b, b) <= True
}
;
append ->
{
  append(cons(x_0_0, x_0_1), cons(x_1_0, x_1_1), cons(x_2_0, x_2_1)) <= _r_1(x_0_1, x_2_0) /\ _r_2(x_0_0, x_2_0)
  append(cons(x_0_0, x_0_1), cons(x_1_0, x_1_1), cons(x_2_0, x_2_1)) <= _r_1(x_1_1, x_2_0) /\ prefix(x_1_1, x_2_1)
  append(cons(x_0_0, x_0_1), cons(x_1_0, x_1_1), cons(x_2_0, x_2_1)) <= _r_2(x_1_0, x_2_0) /\ prefix(x_1_1, x_2_1)
  append(cons(x_0_0, x_0_1), nil, cons(x_2_0, x_2_1)) <= True
  append(nil, cons(x_1_0, x_1_1), cons(x_2_0, x_2_1)) <= _r_2(x_1_0, x_2_0) /\ prefix(x_1_1, x_2_1)
  append(nil, nil, nil) <= True
}
;
prefix ->
{
  prefix(cons(x_0_0, x_0_1), cons(x_1_0, x_1_1)) <= _r_2(x_0_0, x_1_0) /\ prefix(x_0_1, x_1_1)
  prefix(nil, cons(x_1_0, x_1_1)) <= True
  prefix(nil, nil) <= True
}

--
Equality automata are defined for: {elt, eltlist}
_|


Answer of teacher:


append(nil, l2, l2) <= True -> No: ()
prefix(nil, y) <= True -> No: ()
prefix(l2, _zib) <= append(l1, l2, _zib) -> Yes: {
_zib -> cons(b, nil)  ;  l1 -> cons(b, nil)  ;  l2 -> cons(l2_0, cons(v0_0, v0_1))
}
append(cons(h1, t1), l2, cons(h1, _uib)) <= append(t1, l2, _uib) -> Yes: {
_uib -> cons(a, cons(b, cons(a, nil)))  ;  h1 -> b  ;  l2 -> cons(l2_0, cons(b, cons(a, nil)))  ;  t1 -> cons(t1_0, t1_1)
}
prefix(cons(y2, zs), cons(y2, ys)) <= prefix(zs, ys) -> No: ()
prefix(zs, ys) <= prefix(cons(y2, zs), cons(y2, ys)) -> No: ()
eq_elt(z, y2) <= prefix(cons(z, zs), cons(y2, ys)) -> No: ()
False <= prefix(cons(z, zs), nil) -> No: ()



-------------------------------------------
Step 12, which took 0.993878 s (model generation: 0.990055,  model checking: 0.003823):

Ground examples at the beginning of this step are:
{
append(cons(a, nil), cons(a, nil), cons(a, cons(a, nil))) <= True
append(cons(a, nil), nil, cons(a, nil)) <= True
append(cons(b, nil), cons(a, nil), cons(b, cons(a, nil))) <= True
append(nil, cons(a, nil), cons(a, nil)) <= True
append(nil, cons(b, nil), cons(b, nil)) <= True
append(nil, nil, nil) <= True
prefix(cons(a, nil), cons(a, nil)) <= True
prefix(cons(b, nil), cons(b, nil)) <= True
prefix(nil, cons(a, nil)) <= True
prefix(nil, nil) <= True
append(cons(b, cons(a, nil)), cons(a, cons(b, cons(a, nil))), cons(b, cons(a, cons(b, cons(a, nil))))) <= append(cons(a, nil), cons(a, cons(b, cons(a, nil))), cons(a, cons(b, cons(a, nil))))
False <= append(cons(a, nil), cons(a, cons(b, nil)), cons(a, cons(a, nil)))
append(cons(b, cons(a, nil)), cons(a, cons(b, nil)), cons(b, cons(a, nil))) <= append(cons(a, nil), cons(a, cons(b, nil)), cons(a, nil))
prefix(cons(b, cons(a, nil)), cons(b, nil)) <= append(cons(a, nil), cons(b, cons(a, nil)), cons(b, nil))
append(cons(a, cons(a, nil)), cons(b, cons(b, nil)), cons(a, cons(a, cons(b, nil)))) <= append(cons(a, nil), cons(b, cons(b, nil)), cons(a, cons(b, nil)))
prefix(cons(b, nil), cons(a, cons(a, nil))) <= append(cons(a, nil), cons(b, nil), cons(a, cons(a, nil)))
False <= append(cons(a, nil), cons(b, nil), cons(a, nil))
append(cons(a, cons(a, nil)), cons(b, nil), cons(a, cons(b, nil))) <= append(cons(a, nil), cons(b, nil), cons(b, nil))
prefix(cons(a, cons(a, nil)), cons(b, nil)) <= append(cons(b, nil), cons(a, cons(a, nil)), cons(b, nil))
prefix(cons(b, cons(a, nil)), cons(a, nil)) <= append(cons(b, nil), cons(b, cons(a, nil)), cons(a, nil))
False <= append(cons(b, nil), cons(b, nil), cons(a, nil))
False <= append(nil, cons(a, cons(a, nil)), cons(a, nil))
append(cons(a, nil), cons(b, cons(b, nil)), cons(a, cons(b, cons(b, nil)))) <= append(nil, cons(b, cons(b, nil)), cons(b, cons(b, nil)))
False <= append(nil, cons(b, nil), cons(a, nil))
False <= prefix(cons(a, cons(a, nil)), cons(a, nil))
False <= prefix(cons(a, cons(b, nil)), cons(a, cons(a, nil)))
False <= prefix(cons(a, nil), cons(b, nil))
False <= prefix(cons(a, nil), nil)
False <= prefix(cons(b, nil), cons(a, nil))
}

Learner proposed model:
Found Model:
|_

_r_1 ->
{
  _r_1(cons(x_0_0, x_0_1), a) <= True
  _r_1(cons(x_0_0, x_0_1), b) <= True
  _r_1(nil, b) <= True
}
;
_r_2 ->
{
  _r_2(a, a) <= True
  _r_2(b, b) <= True
}
;
append ->
{
  append(cons(x_0_0, x_0_1), cons(x_1_0, x_1_1), cons(x_2_0, x_2_1)) <= _r_1(x_0_1, x_1_0) /\ _r_1(x_1_1, x_2_0) /\ _r_2(x_0_0, x_2_0)
  append(cons(x_0_0, x_0_1), cons(x_1_0, x_1_1), cons(x_2_0, x_2_1)) <= _r_1(x_0_1, x_2_0) /\ prefix(x_1_1, x_2_1)
  append(cons(x_0_0, x_0_1), cons(x_1_0, x_1_1), cons(x_2_0, x_2_1)) <= _r_2(x_1_0, x_2_0) /\ prefix(x_1_1, x_2_1)
  append(cons(x_0_0, x_0_1), nil, cons(x_2_0, x_2_1)) <= True
  append(nil, cons(x_1_0, x_1_1), cons(x_2_0, x_2_1)) <= _r_2(x_1_0, x_2_0) /\ prefix(x_1_1, x_2_1)
  append(nil, nil, nil) <= True
}
;
prefix ->
{
  prefix(cons(x_0_0, x_0_1), cons(x_1_0, x_1_1)) <= _r_2(x_0_0, x_1_0) /\ prefix(x_0_1, x_1_1)
  prefix(nil, cons(x_1_0, x_1_1)) <= True
  prefix(nil, nil) <= True
}

--
Equality automata are defined for: {elt, eltlist}
_|


Answer of teacher:


append(nil, l2, l2) <= True -> No: ()
prefix(nil, y) <= True -> No: ()
prefix(l2, _zib) <= append(l1, l2, _zib) -> Yes: {
_zib -> cons(b, nil)  ;  l1 -> cons(l1_0, nil)  ;  l2 -> cons(a, nil)
}
append(cons(h1, t1), l2, cons(h1, _uib)) <= append(t1, l2, _uib) -> Yes: {
_uib -> cons(a, cons(b, cons(a, nil)))  ;  l2 -> cons(a, cons(b, cons(a, nil)))  ;  t1 -> nil
}
prefix(cons(y2, zs), cons(y2, ys)) <= prefix(zs, ys) -> No: ()
prefix(zs, ys) <= prefix(cons(y2, zs), cons(y2, ys)) -> No: ()
eq_elt(z, y2) <= prefix(cons(z, zs), cons(y2, ys)) -> No: ()
False <= prefix(cons(z, zs), nil) -> No: ()



-------------------------------------------
Step 13, which took 1.307072 s (model generation: 1.304444,  model checking: 0.002628):

Ground examples at the beginning of this step are:
{
append(cons(a, nil), cons(a, nil), cons(a, cons(a, nil))) <= True
append(cons(a, nil), nil, cons(a, nil)) <= True
append(cons(b, nil), cons(a, nil), cons(b, cons(a, nil))) <= True
append(nil, cons(a, nil), cons(a, nil)) <= True
append(nil, cons(b, nil), cons(b, nil)) <= True
append(nil, nil, nil) <= True
prefix(cons(a, nil), cons(a, nil)) <= True
prefix(cons(b, nil), cons(b, nil)) <= True
prefix(nil, cons(a, nil)) <= True
prefix(nil, nil) <= True
append(cons(b, cons(a, nil)), cons(a, cons(b, cons(a, nil))), cons(b, cons(a, cons(b, cons(a, nil))))) <= append(cons(a, nil), cons(a, cons(b, cons(a, nil))), cons(a, cons(b, cons(a, nil))))
False <= append(cons(a, nil), cons(a, cons(b, nil)), cons(a, cons(a, nil)))
append(cons(b, cons(a, nil)), cons(a, cons(b, nil)), cons(b, cons(a, nil))) <= append(cons(a, nil), cons(a, cons(b, nil)), cons(a, nil))
False <= append(cons(a, nil), cons(a, nil), cons(b, nil))
prefix(cons(b, cons(a, nil)), cons(b, nil)) <= append(cons(a, nil), cons(b, cons(a, nil)), cons(b, nil))
append(cons(a, cons(a, nil)), cons(b, cons(b, nil)), cons(a, cons(a, cons(b, nil)))) <= append(cons(a, nil), cons(b, cons(b, nil)), cons(a, cons(b, nil)))
prefix(cons(b, nil), cons(a, cons(a, nil))) <= append(cons(a, nil), cons(b, nil), cons(a, cons(a, nil)))
False <= append(cons(a, nil), cons(b, nil), cons(a, nil))
append(cons(a, cons(a, nil)), cons(b, nil), cons(a, cons(b, nil))) <= append(cons(a, nil), cons(b, nil), cons(b, nil))
prefix(cons(a, cons(a, nil)), cons(b, nil)) <= append(cons(b, nil), cons(a, cons(a, nil)), cons(b, nil))
prefix(cons(b, cons(a, nil)), cons(a, nil)) <= append(cons(b, nil), cons(b, cons(a, nil)), cons(a, nil))
False <= append(cons(b, nil), cons(b, nil), cons(a, nil))
False <= append(nil, cons(a, cons(a, nil)), cons(a, nil))
append(cons(a, nil), cons(a, cons(b, cons(a, nil))), cons(a, cons(a, cons(b, cons(a, nil))))) <= append(nil, cons(a, cons(b, cons(a, nil))), cons(a, cons(b, cons(a, nil))))
append(cons(a, nil), cons(b, cons(b, nil)), cons(a, cons(b, cons(b, nil)))) <= append(nil, cons(b, cons(b, nil)), cons(b, cons(b, nil)))
False <= append(nil, cons(b, nil), cons(a, nil))
False <= prefix(cons(a, cons(a, nil)), cons(a, nil))
False <= prefix(cons(a, cons(b, nil)), cons(a, cons(a, nil)))
False <= prefix(cons(a, nil), cons(b, nil))
False <= prefix(cons(a, nil), nil)
False <= prefix(cons(b, nil), cons(a, nil))
}

Learner proposed model:
Found Model:
|_

_r_1 ->
{
  _r_1(a, a) <= True
  _r_1(b, b) <= True
}
;
_r_2 ->
{
  _r_2(cons(x_0_0, x_0_1)) <= True
}
;
append ->
{
  append(cons(x_0_0, x_0_1), cons(x_1_0, x_1_1), cons(x_2_0, x_2_1)) <= _r_2(x_2_1) /\ prefix(x_1_1, x_2_1)
  append(cons(x_0_0, x_0_1), nil, cons(x_2_0, x_2_1)) <= True
  append(nil, cons(x_1_0, x_1_1), cons(x_2_0, x_2_1)) <= _r_1(x_1_0, x_2_0) /\ prefix(x_1_1, x_2_1)
  append(nil, nil, nil) <= True
}
;
prefix ->
{
  prefix(cons(x_0_0, x_0_1), cons(x_1_0, x_1_1)) <= _r_1(x_0_0, x_1_0) /\ prefix(x_0_1, x_1_1)
  prefix(cons(x_0_0, x_0_1), cons(x_1_0, x_1_1)) <= _r_2(x_1_1) /\ prefix(x_0_1, x_1_1)
  prefix(nil, cons(x_1_0, x_1_1)) <= True
  prefix(nil, nil) <= True
}

--
Equality automata are defined for: {elt, eltlist}
_|


Answer of teacher:


append(nil, l2, l2) <= True -> No: ()
prefix(nil, y) <= True -> No: ()
prefix(l2, _zib) <= append(l1, l2, _zib) -> No: ()
append(cons(h1, t1), l2, cons(h1, _uib)) <= append(t1, l2, _uib) -> No: ()
prefix(cons(y2, zs), cons(y2, ys)) <= prefix(zs, ys) -> No: ()
prefix(zs, ys) <= prefix(cons(y2, zs), cons(y2, ys)) -> No: ()
eq_elt(z, y2) <= prefix(cons(z, zs), cons(y2, ys)) -> Yes: {
y2 -> a  ;  ys -> cons(v0_0, v0_1)  ;  z -> b  ;  zs -> nil
}
False <= prefix(cons(z, zs), nil) -> No: ()



-------------------------------------------
Step 14, which took 7.942361 s (model generation: 7.941783,  model checking: 0.000578):

Ground examples at the beginning of this step are:
{
append(cons(a, nil), cons(a, nil), cons(a, cons(a, nil))) <= True
append(cons(a, nil), nil, cons(a, nil)) <= True
append(cons(b, nil), cons(a, nil), cons(b, cons(a, nil))) <= True
append(nil, cons(a, nil), cons(a, nil)) <= True
append(nil, cons(b, nil), cons(b, nil)) <= True
append(nil, nil, nil) <= True
prefix(cons(a, nil), cons(a, nil)) <= True
prefix(cons(b, nil), cons(b, nil)) <= True
prefix(nil, cons(a, nil)) <= True
prefix(nil, nil) <= True
append(cons(b, cons(a, nil)), cons(a, cons(b, cons(a, nil))), cons(b, cons(a, cons(b, cons(a, nil))))) <= append(cons(a, nil), cons(a, cons(b, cons(a, nil))), cons(a, cons(b, cons(a, nil))))
False <= append(cons(a, nil), cons(a, cons(b, nil)), cons(a, cons(a, nil)))
append(cons(b, cons(a, nil)), cons(a, cons(b, nil)), cons(b, cons(a, nil))) <= append(cons(a, nil), cons(a, cons(b, nil)), cons(a, nil))
False <= append(cons(a, nil), cons(a, nil), cons(b, nil))
prefix(cons(b, cons(a, nil)), cons(b, nil)) <= append(cons(a, nil), cons(b, cons(a, nil)), cons(b, nil))
append(cons(a, cons(a, nil)), cons(b, cons(b, nil)), cons(a, cons(a, cons(b, nil)))) <= append(cons(a, nil), cons(b, cons(b, nil)), cons(a, cons(b, nil)))
False <= append(cons(a, nil), cons(b, nil), cons(a, cons(a, nil)))
False <= append(cons(a, nil), cons(b, nil), cons(a, nil))
append(cons(a, cons(a, nil)), cons(b, nil), cons(a, cons(b, nil))) <= append(cons(a, nil), cons(b, nil), cons(b, nil))
prefix(cons(a, cons(a, nil)), cons(b, nil)) <= append(cons(b, nil), cons(a, cons(a, nil)), cons(b, nil))
prefix(cons(b, cons(a, nil)), cons(a, nil)) <= append(cons(b, nil), cons(b, cons(a, nil)), cons(a, nil))
False <= append(cons(b, nil), cons(b, nil), cons(a, nil))
False <= append(nil, cons(a, cons(a, nil)), cons(a, nil))
append(cons(a, nil), cons(a, cons(b, cons(a, nil))), cons(a, cons(a, cons(b, cons(a, nil))))) <= append(nil, cons(a, cons(b, cons(a, nil))), cons(a, cons(b, cons(a, nil))))
append(cons(a, nil), cons(b, cons(b, nil)), cons(a, cons(b, cons(b, nil)))) <= append(nil, cons(b, cons(b, nil)), cons(b, cons(b, nil)))
False <= append(nil, cons(b, nil), cons(a, nil))
False <= prefix(cons(a, cons(a, nil)), cons(a, nil))
False <= prefix(cons(a, cons(b, nil)), cons(a, cons(a, nil)))
False <= prefix(cons(a, nil), cons(b, nil))
False <= prefix(cons(a, nil), nil)
False <= prefix(cons(b, nil), cons(a, cons(a, nil)))
False <= prefix(cons(b, nil), cons(a, nil))
}

Learner proposed model:
Found Model:
|_

_r_1 ->
{
  _r_1(a, cons(x_1_0, x_1_1)) <= True
}
;
_r_2 ->
{
  _r_2(a, a) <= True
  _r_2(b, b) <= True
}
;
_r_3 ->
{
  _r_3(nil) <= True
}
;
append ->
{
  append(cons(x_0_0, x_0_1), cons(x_1_0, x_1_1), cons(x_2_0, x_2_1)) <= _r_1(x_1_0, x_2_1) /\ _r_3(x_1_1)
  append(cons(x_0_0, x_0_1), nil, cons(x_2_0, x_2_1)) <= True
  append(nil, cons(x_1_0, x_1_1), cons(x_2_0, x_2_1)) <= _r_2(x_1_0, x_2_0) /\ _r_3(x_1_1)
  append(nil, nil, nil) <= True
}
;
prefix ->
{
  prefix(cons(x_0_0, x_0_1), cons(x_1_0, x_1_1)) <= _r_2(x_0_0, x_1_0) /\ _r_3(x_0_1)
  prefix(nil, cons(x_1_0, x_1_1)) <= True
  prefix(nil, nil) <= True
}

--
Equality automata are defined for: {elt, eltlist}
_|


Answer of teacher:


append(nil, l2, l2) <= True -> Yes: {
l2 -> cons(l2_0, cons(v0_0, v0_1))
}
prefix(nil, y) <= True -> No: ()
prefix(l2, _zib) <= append(l1, l2, _zib) -> Yes: {
_zib -> cons(b, cons(v1_0, v1_1))  ;  l1 -> cons(l1_0, l1_1)  ;  l2 -> cons(a, nil)
}
append(cons(h1, t1), l2, cons(h1, _uib)) <= append(t1, l2, _uib) -> Yes: {
_uib -> cons(b, _uib_1)  ;  l2 -> cons(b, nil)  ;  t1 -> nil
}
prefix(cons(y2, zs), cons(y2, ys)) <= prefix(zs, ys) -> Yes: {
ys -> cons(b, v1_1)  ;  zs -> cons(b, nil)
}
prefix(zs, ys) <= prefix(cons(y2, zs), cons(y2, ys)) -> No: ()
eq_elt(z, y2) <= prefix(cons(z, zs), cons(y2, ys)) -> No: ()
False <= prefix(cons(z, zs), nil) -> No: ()



-------------------------------------------
Step 15, which took 5.308330 s (model generation: 5.094246,  model checking: 0.214084):

Ground examples at the beginning of this step are:
{
append(cons(a, nil), cons(a, nil), cons(a, cons(a, nil))) <= True
append(cons(a, nil), cons(b, nil), cons(a, cons(b, nil))) <= True
append(cons(a, nil), nil, cons(a, nil)) <= True
append(cons(b, nil), cons(a, nil), cons(b, cons(a, nil))) <= True
append(nil, cons(a, cons(a, nil)), cons(a, cons(a, nil))) <= True
append(nil, cons(a, nil), cons(a, nil)) <= True
append(nil, cons(b, nil), cons(b, nil)) <= True
append(nil, nil, nil) <= True
prefix(cons(a, cons(b, nil)), cons(a, cons(b, nil))) <= True
prefix(cons(a, nil), cons(a, nil)) <= True
prefix(cons(b, nil), cons(b, nil)) <= True
prefix(nil, cons(a, nil)) <= True
prefix(nil, nil) <= True
append(cons(b, cons(a, nil)), cons(a, cons(b, cons(a, nil))), cons(b, cons(a, cons(b, cons(a, nil))))) <= append(cons(a, nil), cons(a, cons(b, cons(a, nil))), cons(a, cons(b, cons(a, nil))))
False <= append(cons(a, nil), cons(a, cons(b, nil)), cons(a, cons(a, nil)))
append(cons(b, cons(a, nil)), cons(a, cons(b, nil)), cons(b, cons(a, nil))) <= append(cons(a, nil), cons(a, cons(b, nil)), cons(a, nil))
prefix(cons(a, nil), cons(b, cons(a, nil))) <= append(cons(a, nil), cons(a, nil), cons(b, cons(a, nil)))
False <= append(cons(a, nil), cons(a, nil), cons(b, nil))
prefix(cons(b, cons(a, nil)), cons(b, nil)) <= append(cons(a, nil), cons(b, cons(a, nil)), cons(b, nil))
append(cons(a, cons(a, nil)), cons(b, cons(b, nil)), cons(a, cons(a, cons(b, nil)))) <= append(cons(a, nil), cons(b, cons(b, nil)), cons(a, cons(b, nil)))
False <= append(cons(a, nil), cons(b, nil), cons(a, cons(a, nil)))
False <= append(cons(a, nil), cons(b, nil), cons(a, nil))
append(cons(a, cons(a, nil)), cons(b, nil), cons(a, cons(b, nil))) <= append(cons(a, nil), cons(b, nil), cons(b, nil))
prefix(cons(a, cons(a, nil)), cons(b, nil)) <= append(cons(b, nil), cons(a, cons(a, nil)), cons(b, nil))
prefix(cons(b, cons(a, nil)), cons(a, nil)) <= append(cons(b, nil), cons(b, cons(a, nil)), cons(a, nil))
False <= append(cons(b, nil), cons(b, nil), cons(a, nil))
False <= append(nil, cons(a, cons(a, nil)), cons(a, nil))
append(cons(a, nil), cons(a, cons(b, cons(a, nil))), cons(a, cons(a, cons(b, cons(a, nil))))) <= append(nil, cons(a, cons(b, cons(a, nil))), cons(a, cons(b, cons(a, nil))))
append(cons(a, nil), cons(b, cons(b, nil)), cons(a, cons(b, cons(b, nil)))) <= append(nil, cons(b, cons(b, nil)), cons(b, cons(b, nil)))
False <= append(nil, cons(b, nil), cons(a, nil))
False <= prefix(cons(a, cons(a, nil)), cons(a, nil))
False <= prefix(cons(a, cons(b, nil)), cons(a, cons(a, nil)))
False <= prefix(cons(a, nil), cons(b, nil))
False <= prefix(cons(a, nil), nil)
False <= prefix(cons(b, nil), cons(a, cons(a, nil)))
False <= prefix(cons(b, nil), cons(a, nil))
}

Learner proposed model:
Found Model:
|_

_r_1 ->
{
  _r_1(a, cons(x_1_0, x_1_1)) <= True
  _r_1(a, nil) <= True
  _r_1(b, cons(x_1_0, x_1_1)) <= True
}
;
_r_2 ->
{
  _r_2(a, a) <= True
  _r_2(b, b) <= True
}
;
_r_3 ->
{
  _r_3(b) <= True
}
;
append ->
{
  append(cons(x_0_0, x_0_1), cons(x_1_0, x_1_1), cons(x_2_0, x_2_1)) <= _r_1(x_0_0, x_1_1) /\ _r_1(x_1_0, x_2_1) /\ _r_3(x_1_0) /\ append(x_0_1, x_1_1, x_2_1) /\ prefix(x_1_1, x_2_1)
  append(cons(x_0_0, x_0_1), cons(x_1_0, x_1_1), cons(x_2_0, x_2_1)) <= _r_1(x_0_0, x_1_1) /\ _r_2(x_0_0, x_1_0) /\ _r_2(x_0_0, x_2_0) /\ prefix(x_1_1, x_2_1)
  append(cons(x_0_0, x_0_1), cons(x_1_0, x_1_1), cons(x_2_0, x_2_1)) <= _r_1(x_1_0, x_2_1) /\ _r_2(x_0_0, x_2_0) /\ append(x_0_1, x_1_1, x_2_1)
  append(cons(x_0_0, x_0_1), cons(x_1_0, x_1_1), cons(x_2_0, x_2_1)) <= _r_2(x_0_0, x_2_0) /\ _r_3(x_2_0) /\ prefix(x_1_1, x_2_1)
  append(cons(x_0_0, x_0_1), nil, cons(x_2_0, x_2_1)) <= True
  append(nil, cons(x_1_0, x_1_1), cons(x_2_0, x_2_1)) <= _r_1(x_1_0, x_2_1) /\ _r_3(x_1_0)
  append(nil, cons(x_1_0, x_1_1), cons(x_2_0, x_2_1)) <= _r_1(x_1_0, x_2_1) /\ prefix(x_1_1, x_2_1)
  append(nil, cons(x_1_0, x_1_1), cons(x_2_0, x_2_1)) <= _r_3(x_2_0)
  append(nil, nil, cons(x_2_0, x_2_1)) <= _r_3(x_2_0)
  append(nil, nil, nil) <= True
}
;
prefix ->
{
  prefix(cons(x_0_0, x_0_1), cons(x_1_0, x_1_1)) <= _r_2(x_0_0, x_1_0) /\ prefix(x_0_1, x_1_1)
  prefix(nil, cons(x_1_0, x_1_1)) <= True
  prefix(nil, nil) <= True
}

--
Equality automata are defined for: {elt, eltlist}
_|


Answer of teacher:


append(nil, l2, l2) <= True -> No: ()
prefix(nil, y) <= True -> No: ()
prefix(l2, _zib) <= append(l1, l2, _zib) -> Yes: {
_zib -> cons(b, nil)  ;  l1 -> nil  ;  l2 -> cons(l2_0, cons(v0_0, v0_1))
}
append(cons(h1, t1), l2, cons(h1, _uib)) <= append(t1, l2, _uib) -> Yes: {
_uib -> cons(a, cons(v1_0, nil))  ;  l2 -> cons(b, cons(a, cons(v0_0, cons(v0_0, v0_1))))  ;  t1 -> nil
}
prefix(cons(y2, zs), cons(y2, ys)) <= prefix(zs, ys) -> No: ()
prefix(zs, ys) <= prefix(cons(y2, zs), cons(y2, ys)) -> No: ()
eq_elt(z, y2) <= prefix(cons(z, zs), cons(y2, ys)) -> No: ()
False <= prefix(cons(z, zs), nil) -> No: ()



-------------------------------------------
Step 16, which took 5.229070 s (model generation: 5.224507,  model checking: 0.004563):

Ground examples at the beginning of this step are:
{
append(cons(a, nil), cons(a, nil), cons(a, cons(a, nil))) <= True
append(cons(a, nil), cons(b, nil), cons(a, cons(b, nil))) <= True
append(cons(a, nil), nil, cons(a, nil)) <= True
append(cons(b, nil), cons(a, nil), cons(b, cons(a, nil))) <= True
append(nil, cons(a, cons(a, nil)), cons(a, cons(a, nil))) <= True
append(nil, cons(a, nil), cons(a, nil)) <= True
append(nil, cons(b, nil), cons(b, nil)) <= True
append(nil, nil, nil) <= True
prefix(cons(a, cons(b, nil)), cons(a, cons(b, nil))) <= True
prefix(cons(a, nil), cons(a, nil)) <= True
prefix(cons(b, nil), cons(b, nil)) <= True
prefix(nil, cons(a, nil)) <= True
prefix(nil, nil) <= True
append(cons(b, cons(a, nil)), cons(a, cons(b, cons(a, nil))), cons(b, cons(a, cons(b, cons(a, nil))))) <= append(cons(a, nil), cons(a, cons(b, cons(a, nil))), cons(a, cons(b, cons(a, nil))))
False <= append(cons(a, nil), cons(a, cons(b, nil)), cons(a, cons(a, nil)))
append(cons(b, cons(a, nil)), cons(a, cons(b, nil)), cons(b, cons(a, nil))) <= append(cons(a, nil), cons(a, cons(b, nil)), cons(a, nil))
prefix(cons(a, nil), cons(b, cons(a, nil))) <= append(cons(a, nil), cons(a, nil), cons(b, cons(a, nil)))
False <= append(cons(a, nil), cons(a, nil), cons(b, nil))
prefix(cons(b, cons(a, nil)), cons(b, nil)) <= append(cons(a, nil), cons(b, cons(a, nil)), cons(b, nil))
append(cons(a, cons(a, nil)), cons(b, cons(b, nil)), cons(a, cons(a, cons(b, nil)))) <= append(cons(a, nil), cons(b, cons(b, nil)), cons(a, cons(b, nil)))
False <= append(cons(a, nil), cons(b, nil), cons(a, cons(a, nil)))
False <= append(cons(a, nil), cons(b, nil), cons(a, nil))
append(cons(a, cons(a, nil)), cons(b, nil), cons(a, cons(b, nil))) <= append(cons(a, nil), cons(b, nil), cons(b, nil))
prefix(cons(a, cons(a, nil)), cons(b, nil)) <= append(cons(b, nil), cons(a, cons(a, nil)), cons(b, nil))
prefix(cons(b, cons(a, nil)), cons(a, nil)) <= append(cons(b, nil), cons(b, cons(a, nil)), cons(a, nil))
False <= append(cons(b, nil), cons(b, nil), cons(a, nil))
False <= append(nil, cons(a, cons(a, nil)), cons(a, nil))
prefix(cons(a, cons(a, nil)), cons(b, nil)) <= append(nil, cons(a, cons(a, nil)), cons(b, nil))
append(cons(a, nil), cons(a, cons(b, cons(a, nil))), cons(a, cons(a, cons(b, cons(a, nil))))) <= append(nil, cons(a, cons(b, cons(a, nil))), cons(a, cons(b, cons(a, nil))))
append(cons(a, nil), cons(b, cons(a, cons(a, cons(a, nil)))), cons(a, cons(a, cons(a, nil)))) <= append(nil, cons(b, cons(a, cons(a, cons(a, nil)))), cons(a, cons(a, nil)))
append(cons(a, nil), cons(b, cons(b, nil)), cons(a, cons(b, cons(b, nil)))) <= append(nil, cons(b, cons(b, nil)), cons(b, cons(b, nil)))
False <= append(nil, cons(b, nil), cons(a, nil))
False <= prefix(cons(a, cons(a, nil)), cons(a, nil))
False <= prefix(cons(a, cons(b, nil)), cons(a, cons(a, nil)))
False <= prefix(cons(a, nil), cons(b, nil))
False <= prefix(cons(a, nil), nil)
False <= prefix(cons(b, nil), cons(a, cons(a, nil)))
False <= prefix(cons(b, nil), cons(a, nil))
}

Learner proposed model:
Found Model:
|_

_r_1 ->
{
  _r_1(a, a) <= True
  _r_1(b, b) <= True
}
;
_r_2 ->
{
  _r_2(cons(x_0_0, x_0_1)) <= True
}
;
_r_3 ->
{
  _r_3(b) <= True
}
;
append ->
{
  append(cons(x_0_0, x_0_1), cons(x_1_0, x_1_1), cons(x_2_0, x_2_1)) <= _r_1(x_1_0, x_2_0) /\ prefix(x_1_1, x_2_1)
  append(cons(x_0_0, x_0_1), cons(x_1_0, x_1_1), cons(x_2_0, x_2_1)) <= _r_2(x_2_1) /\ _r_3(x_0_0)
  append(cons(x_0_0, x_0_1), cons(x_1_0, x_1_1), cons(x_2_0, x_2_1)) <= _r_2(x_2_1) /\ append(x_0_1, x_1_1, x_2_1)
  append(cons(x_0_0, x_0_1), cons(x_1_0, x_1_1), cons(x_2_0, x_2_1)) <= _r_2(x_2_1) /\ append(x_0_1, x_1_1, x_2_1) /\ prefix(x_0_1, x_1_1)
  append(cons(x_0_0, x_0_1), nil, cons(x_2_0, x_2_1)) <= True
  append(nil, cons(x_1_0, x_1_1), cons(x_2_0, x_2_1)) <= _r_1(x_1_0, x_2_0) /\ prefix(x_1_1, x_2_1)
  append(nil, cons(x_1_0, x_1_1), cons(x_2_0, x_2_1)) <= _r_2(x_2_1)
  append(nil, nil, cons(x_2_0, x_2_1)) <= _r_3(x_2_0)
  append(nil, nil, nil) <= True
}
;
prefix ->
{
  prefix(cons(x_0_0, x_0_1), cons(x_1_0, x_1_1)) <= _r_1(x_0_0, x_1_0) /\ prefix(x_0_1, x_1_1)
  prefix(nil, cons(x_1_0, x_1_1)) <= True
  prefix(nil, nil) <= True
}

--
Equality automata are defined for: {elt, eltlist}
_|


Answer of teacher:


append(nil, l2, l2) <= True -> No: ()
prefix(nil, y) <= True -> No: ()
prefix(l2, _zib) <= append(l1, l2, _zib) -> Yes: {
_zib -> cons(a, cons(v0_0, v0_1))  ;  l1 -> nil  ;  l2 -> cons(b, l2_1)
}
append(cons(h1, t1), l2, cons(h1, _uib)) <= append(t1, l2, _uib) -> Yes: {
_uib -> cons(a, cons(v0_0, v0_1))  ;  h1 -> a  ;  l2 -> cons(b, nil)  ;  t1 -> nil
}
prefix(cons(y2, zs), cons(y2, ys)) <= prefix(zs, ys) -> No: ()
prefix(zs, ys) <= prefix(cons(y2, zs), cons(y2, ys)) -> No: ()
eq_elt(z, y2) <= prefix(cons(z, zs), cons(y2, ys)) -> No: ()
False <= prefix(cons(z, zs), nil) -> No: ()



-------------------------------------------
Step 17, which took 4.992659 s (model generation: 4.988133,  model checking: 0.004526):

Ground examples at the beginning of this step are:
{
append(cons(a, nil), cons(a, nil), cons(a, cons(a, nil))) <= True
append(cons(a, nil), cons(b, nil), cons(a, cons(b, nil))) <= True
append(cons(a, nil), nil, cons(a, nil)) <= True
append(cons(b, nil), cons(a, nil), cons(b, cons(a, nil))) <= True
append(nil, cons(a, cons(a, nil)), cons(a, cons(a, nil))) <= True
append(nil, cons(a, nil), cons(a, nil)) <= True
append(nil, cons(b, nil), cons(b, nil)) <= True
append(nil, nil, nil) <= True
prefix(cons(a, cons(b, nil)), cons(a, cons(b, nil))) <= True
prefix(cons(a, nil), cons(a, nil)) <= True
prefix(cons(b, nil), cons(b, nil)) <= True
prefix(nil, cons(a, nil)) <= True
prefix(nil, nil) <= True
append(cons(b, cons(a, nil)), cons(a, cons(b, cons(a, nil))), cons(b, cons(a, cons(b, cons(a, nil))))) <= append(cons(a, nil), cons(a, cons(b, cons(a, nil))), cons(a, cons(b, cons(a, nil))))
False <= append(cons(a, nil), cons(a, cons(b, nil)), cons(a, cons(a, nil)))
append(cons(b, cons(a, nil)), cons(a, cons(b, nil)), cons(b, cons(a, nil))) <= append(cons(a, nil), cons(a, cons(b, nil)), cons(a, nil))
prefix(cons(a, nil), cons(b, cons(a, nil))) <= append(cons(a, nil), cons(a, nil), cons(b, cons(a, nil)))
False <= append(cons(a, nil), cons(a, nil), cons(b, nil))
prefix(cons(b, cons(a, nil)), cons(b, nil)) <= append(cons(a, nil), cons(b, cons(a, nil)), cons(b, nil))
append(cons(a, cons(a, nil)), cons(b, cons(b, nil)), cons(a, cons(a, cons(b, nil)))) <= append(cons(a, nil), cons(b, cons(b, nil)), cons(a, cons(b, nil)))
False <= append(cons(a, nil), cons(b, nil), cons(a, cons(a, nil)))
False <= append(cons(a, nil), cons(b, nil), cons(a, nil))
append(cons(a, cons(a, nil)), cons(b, nil), cons(a, cons(b, nil))) <= append(cons(a, nil), cons(b, nil), cons(b, nil))
prefix(cons(a, cons(a, nil)), cons(b, nil)) <= append(cons(b, nil), cons(a, cons(a, nil)), cons(b, nil))
prefix(cons(b, cons(a, nil)), cons(a, nil)) <= append(cons(b, nil), cons(b, cons(a, nil)), cons(a, nil))
False <= append(cons(b, nil), cons(b, nil), cons(a, nil))
False <= append(nil, cons(a, cons(a, nil)), cons(a, nil))
prefix(cons(a, cons(a, nil)), cons(b, nil)) <= append(nil, cons(a, cons(a, nil)), cons(b, nil))
append(cons(a, nil), cons(a, cons(b, cons(a, nil))), cons(a, cons(a, cons(b, cons(a, nil))))) <= append(nil, cons(a, cons(b, cons(a, nil))), cons(a, cons(b, cons(a, nil))))
append(cons(a, nil), cons(b, cons(a, cons(a, cons(a, nil)))), cons(a, cons(a, cons(a, nil)))) <= append(nil, cons(b, cons(a, cons(a, cons(a, nil)))), cons(a, cons(a, nil)))
append(cons(a, nil), cons(b, cons(b, nil)), cons(a, cons(b, cons(b, nil)))) <= append(nil, cons(b, cons(b, nil)), cons(b, cons(b, nil)))
False <= append(nil, cons(b, nil), cons(a, cons(a, nil)))
False <= append(nil, cons(b, nil), cons(a, nil))
False <= prefix(cons(a, cons(a, nil)), cons(a, nil))
False <= prefix(cons(a, cons(b, nil)), cons(a, cons(a, nil)))
False <= prefix(cons(a, nil), cons(b, nil))
False <= prefix(cons(a, nil), nil)
False <= prefix(cons(b, nil), cons(a, cons(a, nil)))
False <= prefix(cons(b, nil), cons(a, nil))
}

Learner proposed model:
Found Model:
|_

_r_1 ->
{
  _r_1(a, cons(x_1_0, x_1_1)) <= True
  _r_1(b, cons(x_1_0, x_1_1)) <= _r_3(x_1_0)
}
;
_r_2 ->
{
  _r_2(a, a) <= True
  _r_2(b, b) <= True
}
;
_r_3 ->
{
  _r_3(b) <= True
}
;
append ->
{
  append(cons(x_0_0, x_0_1), cons(x_1_0, x_1_1), cons(x_2_0, x_2_1)) <= _r_1(x_0_0, x_1_1) /\ prefix(x_0_1, x_2_1) /\ prefix(x_1_1, x_2_1)
  append(cons(x_0_0, x_0_1), cons(x_1_0, x_1_1), cons(x_2_0, x_2_1)) <= _r_1(x_0_0, x_1_1) /\ prefix(x_1_1, x_2_1)
  append(cons(x_0_0, x_0_1), cons(x_1_0, x_1_1), cons(x_2_0, x_2_1)) <= _r_1(x_1_0, x_2_1) /\ prefix(x_0_1, x_2_1) /\ prefix(x_1_1, x_2_1)
  append(cons(x_0_0, x_0_1), nil, cons(x_2_0, x_2_1)) <= True
  append(nil, cons(x_1_0, x_1_1), cons(x_2_0, x_2_1)) <= _r_2(x_1_0, x_2_0) /\ prefix(x_1_1, x_2_1)
  append(nil, nil, nil) <= True
}
;
prefix ->
{
  prefix(cons(x_0_0, x_0_1), cons(x_1_0, x_1_1)) <= _r_1(x_0_0, x_1_1) /\ prefix(x_0_1, x_1_1)
  prefix(cons(x_0_0, x_0_1), cons(x_1_0, x_1_1)) <= _r_2(x_0_0, x_1_0) /\ prefix(x_0_1, x_1_1)
  prefix(nil, cons(x_1_0, x_1_1)) <= True
  prefix(nil, nil) <= True
}

--
Equality automata are defined for: {elt, eltlist}
_|


Answer of teacher:


append(nil, l2, l2) <= True -> No: ()
prefix(nil, y) <= True -> No: ()
prefix(l2, _zib) <= append(l1, l2, _zib) -> Yes: {
_zib -> cons(a, cons(a, nil))  ;  l1 -> cons(a, cons(a, nil))  ;  l2 -> cons(b, cons(a, nil))
}
append(cons(h1, t1), l2, cons(h1, _uib)) <= append(t1, l2, _uib) -> Yes: {
_uib -> cons(a, cons(a, nil))  ;  h1 -> b  ;  l2 -> cons(b, cons(a, nil))  ;  t1 -> cons(a, t1_1)
}
prefix(cons(y2, zs), cons(y2, ys)) <= prefix(zs, ys) -> No: ()
prefix(zs, ys) <= prefix(cons(y2, zs), cons(y2, ys)) -> No: ()
eq_elt(z, y2) <= prefix(cons(z, zs), cons(y2, ys)) -> Yes: {
y2 -> b  ;  ys -> cons(v2_0, v2_1)  ;  z -> a  ;  zs -> nil
}
False <= prefix(cons(z, zs), nil) -> No: ()



-------------------------------------------
Step 18, which took 6.798428 s (model generation: 6.795840,  model checking: 0.002588):

Ground examples at the beginning of this step are:
{
append(cons(a, nil), cons(a, nil), cons(a, cons(a, nil))) <= True
append(cons(a, nil), cons(b, nil), cons(a, cons(b, nil))) <= True
append(cons(a, nil), nil, cons(a, nil)) <= True
append(cons(b, nil), cons(a, nil), cons(b, cons(a, nil))) <= True
append(nil, cons(a, cons(a, nil)), cons(a, cons(a, nil))) <= True
append(nil, cons(a, nil), cons(a, nil)) <= True
append(nil, cons(b, nil), cons(b, nil)) <= True
append(nil, nil, nil) <= True
prefix(cons(a, cons(b, nil)), cons(a, cons(b, nil))) <= True
prefix(cons(a, nil), cons(a, nil)) <= True
prefix(cons(b, nil), cons(b, nil)) <= True
prefix(nil, cons(a, nil)) <= True
prefix(nil, nil) <= True
prefix(cons(b, cons(a, nil)), cons(a, cons(a, nil))) <= append(cons(a, cons(a, nil)), cons(b, cons(a, nil)), cons(a, cons(a, nil)))
append(cons(b, cons(a, nil)), cons(a, cons(b, cons(a, nil))), cons(b, cons(a, cons(b, cons(a, nil))))) <= append(cons(a, nil), cons(a, cons(b, cons(a, nil))), cons(a, cons(b, cons(a, nil))))
False <= append(cons(a, nil), cons(a, cons(b, nil)), cons(a, cons(a, nil)))
append(cons(b, cons(a, nil)), cons(a, cons(b, nil)), cons(b, cons(a, nil))) <= append(cons(a, nil), cons(a, cons(b, nil)), cons(a, nil))
False <= append(cons(a, nil), cons(a, nil), cons(b, cons(a, nil)))
False <= append(cons(a, nil), cons(a, nil), cons(b, nil))
append(cons(b, cons(a, nil)), cons(b, cons(a, nil)), cons(b, cons(a, cons(a, nil)))) <= append(cons(a, nil), cons(b, cons(a, nil)), cons(a, cons(a, nil)))
prefix(cons(b, cons(a, nil)), cons(b, nil)) <= append(cons(a, nil), cons(b, cons(a, nil)), cons(b, nil))
append(cons(a, cons(a, nil)), cons(b, cons(b, nil)), cons(a, cons(a, cons(b, nil)))) <= append(cons(a, nil), cons(b, cons(b, nil)), cons(a, cons(b, nil)))
False <= append(cons(a, nil), cons(b, nil), cons(a, cons(a, nil)))
False <= append(cons(a, nil), cons(b, nil), cons(a, nil))
append(cons(a, cons(a, nil)), cons(b, nil), cons(a, cons(b, nil))) <= append(cons(a, nil), cons(b, nil), cons(b, nil))
prefix(cons(a, cons(a, nil)), cons(b, nil)) <= append(cons(b, nil), cons(a, cons(a, nil)), cons(b, nil))
prefix(cons(b, cons(a, nil)), cons(a, nil)) <= append(cons(b, nil), cons(b, cons(a, nil)), cons(a, nil))
False <= append(cons(b, nil), cons(b, nil), cons(a, nil))
False <= append(nil, cons(a, cons(a, nil)), cons(a, nil))
prefix(cons(a, cons(a, nil)), cons(b, nil)) <= append(nil, cons(a, cons(a, nil)), cons(b, nil))
append(cons(a, nil), cons(a, cons(b, cons(a, nil))), cons(a, cons(a, cons(b, cons(a, nil))))) <= append(nil, cons(a, cons(b, cons(a, nil))), cons(a, cons(b, cons(a, nil))))
append(cons(a, nil), cons(b, cons(a, cons(a, cons(a, nil)))), cons(a, cons(a, cons(a, nil)))) <= append(nil, cons(b, cons(a, cons(a, cons(a, nil)))), cons(a, cons(a, nil)))
append(cons(a, nil), cons(b, cons(b, nil)), cons(a, cons(b, cons(b, nil)))) <= append(nil, cons(b, cons(b, nil)), cons(b, cons(b, nil)))
False <= append(nil, cons(b, nil), cons(a, cons(a, nil)))
False <= append(nil, cons(b, nil), cons(a, nil))
False <= prefix(cons(a, cons(a, nil)), cons(a, nil))
False <= prefix(cons(a, cons(b, nil)), cons(a, cons(a, nil)))
False <= prefix(cons(a, nil), cons(b, cons(a, nil)))
False <= prefix(cons(a, nil), cons(b, nil))
False <= prefix(cons(a, nil), nil)
False <= prefix(cons(b, nil), cons(a, cons(a, nil)))
False <= prefix(cons(b, nil), cons(a, nil))
}

Learner proposed model:
Found Model:
|_

_r_1 ->
{
  _r_1(a, a) <= True
  _r_1(b, b) <= True
}
;
_r_2 ->
{
  _r_2(cons(x_0_0, x_0_1)) <= _r_2(x_0_1)
  _r_2(cons(x_0_0, x_0_1)) <= _r_3(x_0_0)
}
;
_r_3 ->
{
  _r_3(b) <= True
}
;
append ->
{
  append(cons(x_0_0, x_0_1), cons(x_1_0, x_1_1), cons(x_2_0, x_2_1)) <= _r_1(x_0_0, x_1_0) /\ _r_1(x_0_0, x_2_0) /\ prefix(x_1_1, x_2_1)
  append(cons(x_0_0, x_0_1), cons(x_1_0, x_1_1), cons(x_2_0, x_2_1)) <= _r_1(x_0_0, x_2_0) /\ _r_3(x_0_0) /\ prefix(x_1_1, x_2_1)
  append(cons(x_0_0, x_0_1), cons(x_1_0, x_1_1), cons(x_2_0, x_2_1)) <= _r_2(x_2_1)
  append(cons(x_0_0, x_0_1), nil, cons(x_2_0, x_2_1)) <= True
  append(nil, cons(x_1_0, x_1_1), cons(x_2_0, x_2_1)) <= _r_1(x_1_0, x_2_0) /\ prefix(x_1_1, x_2_1)
  append(nil, nil, nil) <= True
}
;
prefix ->
{
  prefix(cons(x_0_0, x_0_1), cons(x_1_0, x_1_1)) <= _r_1(x_0_0, x_1_0) /\ prefix(x_0_1, x_1_1)
  prefix(nil, cons(x_1_0, x_1_1)) <= True
  prefix(nil, nil) <= True
}

--
Equality automata are defined for: {elt, eltlist}
_|


Answer of teacher:


append(nil, l2, l2) <= True -> No: ()
prefix(nil, y) <= True -> No: ()
prefix(l2, _zib) <= append(l1, l2, _zib) -> Yes: {
_zib -> cons(_zib_0, cons(a, cons(b, v0_1)))  ;  l1 -> cons(l1_0, l1_1)  ;  l2 -> cons(l2_0, cons(b, v1_1))
}
append(cons(h1, t1), l2, cons(h1, _uib)) <= append(t1, l2, _uib) -> No: ()
prefix(cons(y2, zs), cons(y2, ys)) <= prefix(zs, ys) -> No: ()
prefix(zs, ys) <= prefix(cons(y2, zs), cons(y2, ys)) -> No: ()
eq_elt(z, y2) <= prefix(cons(z, zs), cons(y2, ys)) -> No: ()
False <= prefix(cons(z, zs), nil) -> No: ()



-------------------------------------------
Step 19, which took 5.405296 s (model generation: 5.305145,  model checking: 0.100151):

Ground examples at the beginning of this step are:
{
append(cons(a, nil), cons(a, nil), cons(a, cons(a, nil))) <= True
append(cons(a, nil), cons(b, nil), cons(a, cons(b, nil))) <= True
append(cons(a, nil), nil, cons(a, nil)) <= True
append(cons(b, nil), cons(a, nil), cons(b, cons(a, nil))) <= True
append(nil, cons(a, cons(a, nil)), cons(a, cons(a, nil))) <= True
append(nil, cons(a, nil), cons(a, nil)) <= True
append(nil, cons(b, nil), cons(b, nil)) <= True
append(nil, nil, nil) <= True
prefix(cons(a, cons(b, nil)), cons(a, cons(b, nil))) <= True
prefix(cons(a, nil), cons(a, nil)) <= True
prefix(cons(b, nil), cons(b, nil)) <= True
prefix(nil, cons(a, nil)) <= True
prefix(nil, nil) <= True
prefix(cons(b, cons(a, nil)), cons(a, cons(a, nil))) <= append(cons(a, cons(a, nil)), cons(b, cons(a, nil)), cons(a, cons(a, nil)))
append(cons(b, cons(a, nil)), cons(a, cons(b, cons(a, nil))), cons(b, cons(a, cons(b, cons(a, nil))))) <= append(cons(a, nil), cons(a, cons(b, cons(a, nil))), cons(a, cons(b, cons(a, nil))))
prefix(cons(a, cons(b, nil)), cons(a, cons(a, cons(b, nil)))) <= append(cons(a, nil), cons(a, cons(b, nil)), cons(a, cons(a, cons(b, nil))))
False <= append(cons(a, nil), cons(a, cons(b, nil)), cons(a, cons(a, nil)))
append(cons(b, cons(a, nil)), cons(a, cons(b, nil)), cons(b, cons(a, nil))) <= append(cons(a, nil), cons(a, cons(b, nil)), cons(a, nil))
False <= append(cons(a, nil), cons(a, nil), cons(b, cons(a, nil)))
False <= append(cons(a, nil), cons(a, nil), cons(b, nil))
append(cons(b, cons(a, nil)), cons(b, cons(a, nil)), cons(b, cons(a, cons(a, nil)))) <= append(cons(a, nil), cons(b, cons(a, nil)), cons(a, cons(a, nil)))
prefix(cons(b, cons(a, nil)), cons(b, nil)) <= append(cons(a, nil), cons(b, cons(a, nil)), cons(b, nil))
append(cons(a, cons(a, nil)), cons(b, cons(b, nil)), cons(a, cons(a, cons(b, nil)))) <= append(cons(a, nil), cons(b, cons(b, nil)), cons(a, cons(b, nil)))
False <= append(cons(a, nil), cons(b, nil), cons(a, cons(a, nil)))
False <= append(cons(a, nil), cons(b, nil), cons(a, nil))
append(cons(a, cons(a, nil)), cons(b, nil), cons(a, cons(b, nil))) <= append(cons(a, nil), cons(b, nil), cons(b, nil))
prefix(cons(a, cons(a, nil)), cons(b, nil)) <= append(cons(b, nil), cons(a, cons(a, nil)), cons(b, nil))
prefix(cons(b, cons(a, nil)), cons(a, nil)) <= append(cons(b, nil), cons(b, cons(a, nil)), cons(a, nil))
False <= append(cons(b, nil), cons(b, nil), cons(a, nil))
False <= append(nil, cons(a, cons(a, nil)), cons(a, nil))
prefix(cons(a, cons(a, nil)), cons(b, nil)) <= append(nil, cons(a, cons(a, nil)), cons(b, nil))
append(cons(a, nil), cons(a, cons(b, cons(a, nil))), cons(a, cons(a, cons(b, cons(a, nil))))) <= append(nil, cons(a, cons(b, cons(a, nil))), cons(a, cons(b, cons(a, nil))))
append(cons(a, nil), cons(b, cons(a, cons(a, cons(a, nil)))), cons(a, cons(a, cons(a, nil)))) <= append(nil, cons(b, cons(a, cons(a, cons(a, nil)))), cons(a, cons(a, nil)))
append(cons(a, nil), cons(b, cons(b, nil)), cons(a, cons(b, cons(b, nil)))) <= append(nil, cons(b, cons(b, nil)), cons(b, cons(b, nil)))
False <= append(nil, cons(b, nil), cons(a, cons(a, nil)))
False <= append(nil, cons(b, nil), cons(a, nil))
False <= prefix(cons(a, cons(a, nil)), cons(a, nil))
False <= prefix(cons(a, cons(b, nil)), cons(a, cons(a, nil)))
False <= prefix(cons(a, nil), cons(b, cons(a, nil)))
False <= prefix(cons(a, nil), cons(b, nil))
False <= prefix(cons(a, nil), nil)
False <= prefix(cons(b, nil), cons(a, cons(a, nil)))
False <= prefix(cons(b, nil), cons(a, nil))
}

Learner proposed model:
Found Model:
|_

_r_1 ->
{
  _r_1(cons(x_0_0, x_0_1), a) <= _r_3(x_0_0)
  _r_1(cons(x_0_0, x_0_1), b) <= True
  _r_1(nil, a) <= True
}
;
_r_2 ->
{
  _r_2(a, cons(x_1_0, x_1_1)) <= True
  _r_2(a, nil) <= True
  _r_2(b, cons(x_1_0, x_1_1)) <= _r_3(x_1_0)
}
;
_r_3 ->
{
  _r_3(b) <= True
}
;
append ->
{
  append(cons(x_0_0, x_0_1), cons(x_1_0, x_1_1), cons(x_2_0, x_2_1)) <= _r_1(x_0_1, x_1_0) /\ _r_1(x_1_1, x_2_0) /\ prefix(x_1_1, x_2_1)
  append(cons(x_0_0, x_0_1), cons(x_1_0, x_1_1), cons(x_2_0, x_2_1)) <= _r_1(x_0_1, x_2_0) /\ _r_1(x_1_1, x_2_0) /\ _r_2(x_1_0, x_2_1) /\ append(x_0_1, x_1_1, x_2_1) /\ prefix(x_0_1, x_2_1) /\ prefix(x_1_1, x_2_1)
  append(cons(x_0_0, x_0_1), cons(x_1_0, x_1_1), cons(x_2_0, x_2_1)) <= _r_1(x_0_1, x_2_0) /\ _r_2(x_0_0, x_1_1) /\ _r_2(x_1_0, x_2_1) /\ append(x_0_1, x_1_1, x_2_1)
  append(cons(x_0_0, x_0_1), cons(x_1_0, x_1_1), cons(x_2_0, x_2_1)) <= _r_1(x_1_1, x_2_0) /\ _r_2(x_1_0, x_2_1) /\ append(x_0_1, x_1_1, x_2_1) /\ prefix(x_0_1, x_2_1)
  append(cons(x_0_0, x_0_1), cons(x_1_0, x_1_1), cons(x_2_0, x_2_1)) <= _r_2(x_1_0, x_2_1) /\ _r_3(x_0_0) /\ append(x_0_1, x_1_1, x_2_1)
  append(cons(x_0_0, x_0_1), nil, cons(x_2_0, x_2_1)) <= True
  append(nil, cons(x_1_0, x_1_1), cons(x_2_0, x_2_1)) <= _r_2(x_1_0, x_2_1) /\ prefix(x_1_1, x_2_1)
  append(nil, cons(x_1_0, x_1_1), cons(x_2_0, x_2_1)) <= _r_3(x_1_0) /\ _r_3(x_2_0) /\ prefix(x_1_1, x_2_1)
  append(nil, nil, cons(x_2_0, x_2_1)) <= True
  append(nil, nil, nil) <= True
}
;
prefix ->
{
  prefix(cons(x_0_0, x_0_1), cons(x_1_0, x_1_1)) <= _r_1(x_0_1, x_1_0) /\ _r_2(x_0_0, x_1_1) /\ _r_3(x_0_0)
  prefix(cons(x_0_0, x_0_1), cons(x_1_0, x_1_1)) <= _r_1(x_0_1, x_1_0) /\ _r_2(x_0_0, x_1_1) /\ _r_3(x_1_0)
  prefix(cons(x_0_0, x_0_1), cons(x_1_0, x_1_1)) <= _r_1(x_0_1, x_1_0) /\ _r_2(x_0_0, x_1_1) /\ prefix(x_0_1, x_1_1)
  prefix(cons(x_0_0, x_0_1), cons(x_1_0, x_1_1)) <= _r_2(x_0_0, x_1_1) /\ _r_3(x_0_0)
  prefix(cons(x_0_0, x_0_1), cons(x_1_0, x_1_1)) <= _r_3(x_0_0) /\ _r_3(x_1_0) /\ prefix(x_0_1, x_1_1)
  prefix(nil, cons(x_1_0, x_1_1)) <= True
  prefix(nil, cons(x_1_0, x_1_1)) <= _r_3(x_1_0)
  prefix(nil, nil) <= True
}

--
Equality automata are defined for: {elt, eltlist}
_|


Answer of teacher:


prefix(nil, y) <= True -> No: ()
prefix(cons(y2, zs), cons(y2, ys)) <= prefix(zs, ys) -> Yes: {
y2 -> a  ;  ys -> cons(b, nil)  ;  zs -> cons(a, cons(v0_0, v0_1))
}
False <= prefix(cons(z, zs), nil) -> No: ()



Ground examples:
{
append(cons(a, nil), cons(a, nil), cons(a, cons(a, nil))) <= True
append(cons(a, nil), cons(b, nil), cons(a, cons(b, nil))) <= True
append(cons(a, nil), nil, cons(a, nil)) <= True
append(cons(b, nil), cons(a, nil), cons(b, cons(a, nil))) <= True
append(nil, cons(a, cons(a, nil)), cons(a, cons(a, nil))) <= True
append(nil, cons(a, nil), cons(a, nil)) <= True
append(nil, cons(b, nil), cons(b, nil)) <= True
append(nil, nil, nil) <= True
prefix(cons(a, cons(b, nil)), cons(a, cons(b, nil))) <= True
prefix(cons(a, nil), cons(a, nil)) <= True
prefix(cons(b, nil), cons(b, nil)) <= True
prefix(nil, cons(a, nil)) <= True
prefix(nil, nil) <= True
prefix(cons(b, cons(a, nil)), cons(a, cons(a, nil))) <= append(cons(a, cons(a, nil)), cons(b, cons(a, nil)), cons(a, cons(a, nil)))
append(cons(b, cons(a, nil)), cons(a, cons(b, cons(a, nil))), cons(b, cons(a, cons(b, cons(a, nil))))) <= append(cons(a, nil), cons(a, cons(b, cons(a, nil))), cons(a, cons(b, cons(a, nil))))
prefix(cons(a, cons(b, nil)), cons(a, cons(a, cons(b, nil)))) <= append(cons(a, nil), cons(a, cons(b, nil)), cons(a, cons(a, cons(b, nil))))
False <= append(cons(a, nil), cons(a, cons(b, nil)), cons(a, cons(a, nil)))
append(cons(b, cons(a, nil)), cons(a, cons(b, nil)), cons(b, cons(a, nil))) <= append(cons(a, nil), cons(a, cons(b, nil)), cons(a, nil))
False <= append(cons(a, nil), cons(a, nil), cons(b, cons(a, nil)))
False <= append(cons(a, nil), cons(a, nil), cons(b, nil))
append(cons(b, cons(a, nil)), cons(b, cons(a, nil)), cons(b, cons(a, cons(a, nil)))) <= append(cons(a, nil), cons(b, cons(a, nil)), cons(a, cons(a, nil)))
prefix(cons(b, cons(a, nil)), cons(b, nil)) <= append(cons(a, nil), cons(b, cons(a, nil)), cons(b, nil))
append(cons(a, cons(a, nil)), cons(b, cons(b, nil)), cons(a, cons(a, cons(b, nil)))) <= append(cons(a, nil), cons(b, cons(b, nil)), cons(a, cons(b, nil)))
False <= append(cons(a, nil), cons(b, nil), cons(a, cons(a, nil)))
False <= append(cons(a, nil), cons(b, nil), cons(a, nil))
append(cons(a, cons(a, nil)), cons(b, nil), cons(a, cons(b, nil))) <= append(cons(a, nil), cons(b, nil), cons(b, nil))
prefix(cons(a, cons(a, nil)), cons(b, nil)) <= append(cons(b, nil), cons(a, cons(a, nil)), cons(b, nil))
prefix(cons(b, cons(a, nil)), cons(a, nil)) <= append(cons(b, nil), cons(b, cons(a, nil)), cons(a, nil))
False <= append(cons(b, nil), cons(b, nil), cons(a, nil))
False <= append(nil, cons(a, cons(a, nil)), cons(a, nil))
prefix(cons(a, cons(a, nil)), cons(b, nil)) <= append(nil, cons(a, cons(a, nil)), cons(b, nil))
append(cons(a, nil), cons(a, cons(b, cons(a, nil))), cons(a, cons(a, cons(b, cons(a, nil))))) <= append(nil, cons(a, cons(b, cons(a, nil))), cons(a, cons(b, cons(a, nil))))
append(cons(a, nil), cons(b, cons(a, cons(a, cons(a, nil)))), cons(a, cons(a, cons(a, nil)))) <= append(nil, cons(b, cons(a, cons(a, cons(a, nil)))), cons(a, cons(a, nil)))
append(cons(a, nil), cons(b, cons(b, nil)), cons(a, cons(b, cons(b, nil)))) <= append(nil, cons(b, cons(b, nil)), cons(b, cons(b, nil)))
False <= append(nil, cons(b, nil), cons(a, cons(a, nil)))
False <= append(nil, cons(b, nil), cons(a, nil))
False <= prefix(cons(a, cons(a, nil)), cons(a, nil))
prefix(cons(a, cons(a, cons(a, nil))), cons(a, cons(b, nil))) <= prefix(cons(a, cons(a, nil)), cons(b, nil))
False <= prefix(cons(a, cons(b, nil)), cons(a, cons(a, nil)))
False <= prefix(cons(a, nil), cons(b, cons(a, nil)))
False <= prefix(cons(a, nil), cons(b, nil))
False <= prefix(cons(a, nil), nil)
False <= prefix(cons(b, nil), cons(a, cons(a, nil)))
False <= prefix(cons(b, nil), cons(a, nil))
}

Learner output:
Maybe

Last ice step stopped before teacher could answer
Total time: 40.190227
Learner time: 38.830983
Teacher time: 0.339382
Reasons for stopping: Maybe:  timeout during learner
Last solver state:

Clauses:
{
append(nil, l2, l2) <= True
prefix(nil, y) <= True
prefix(l2, _zib) <= append(l1, l2, _zib)
append(cons(h1, t1), l2, cons(h1, _uib)) <= append(t1, l2, _uib)
prefix(cons(y2, zs), cons(y2, ys)) <= prefix(zs, ys)
prefix(zs, ys) <= prefix(cons(y2, zs), cons(y2, ys))
eq_elt(z, y2) <= prefix(cons(z, zs), cons(y2, ys))
False <= prefix(cons(z, zs), nil)
}

Accumulated learning constraints:
{
append(cons(a, nil), cons(a, nil), cons(a, cons(a, nil))) <= True
append(cons(a, nil), cons(b, nil), cons(a, cons(b, nil))) <= True
append(cons(a, nil), nil, cons(a, nil)) <= True
append(cons(b, nil), cons(a, nil), cons(b, cons(a, nil))) <= True
append(nil, cons(a, cons(a, nil)), cons(a, cons(a, nil))) <= True
append(nil, cons(a, nil), cons(a, nil)) <= True
append(nil, cons(b, nil), cons(b, nil)) <= True
append(nil, nil, nil) <= True
prefix(cons(a, cons(b, nil)), cons(a, cons(b, nil))) <= True
prefix(cons(a, nil), cons(a, nil)) <= True
prefix(cons(b, nil), cons(b, nil)) <= True
prefix(nil, cons(a, nil)) <= True
prefix(nil, nil) <= True
prefix(cons(b, cons(a, nil)), cons(a, cons(a, nil))) <= append(cons(a, cons(a, nil)), cons(b, cons(a, nil)), cons(a, cons(a, nil)))
append(cons(b, cons(a, nil)), cons(a, cons(b, cons(a, nil))), cons(b, cons(a, cons(b, cons(a, nil))))) <= append(cons(a, nil), cons(a, cons(b, cons(a, nil))), cons(a, cons(b, cons(a, nil))))
prefix(cons(a, cons(b, nil)), cons(a, cons(a, cons(b, nil)))) <= append(cons(a, nil), cons(a, cons(b, nil)), cons(a, cons(a, cons(b, nil))))
False <= append(cons(a, nil), cons(a, cons(b, nil)), cons(a, cons(a, nil)))
append(cons(b, cons(a, nil)), cons(a, cons(b, nil)), cons(b, cons(a, nil))) <= append(cons(a, nil), cons(a, cons(b, nil)), cons(a, nil))
False <= append(cons(a, nil), cons(a, nil), cons(b, cons(a, nil)))
False <= append(cons(a, nil), cons(a, nil), cons(b, nil))
append(cons(b, cons(a, nil)), cons(b, cons(a, nil)), cons(b, cons(a, cons(a, nil)))) <= append(cons(a, nil), cons(b, cons(a, nil)), cons(a, cons(a, nil)))
prefix(cons(b, cons(a, nil)), cons(b, nil)) <= append(cons(a, nil), cons(b, cons(a, nil)), cons(b, nil))
append(cons(a, cons(a, nil)), cons(b, cons(b, nil)), cons(a, cons(a, cons(b, nil)))) <= append(cons(a, nil), cons(b, cons(b, nil)), cons(a, cons(b, nil)))
False <= append(cons(a, nil), cons(b, nil), cons(a, cons(a, nil)))
False <= append(cons(a, nil), cons(b, nil), cons(a, nil))
append(cons(a, cons(a, nil)), cons(b, nil), cons(a, cons(b, nil))) <= append(cons(a, nil), cons(b, nil), cons(b, nil))
prefix(cons(a, cons(a, nil)), cons(b, nil)) <= append(cons(b, nil), cons(a, cons(a, nil)), cons(b, nil))
prefix(cons(b, cons(a, nil)), cons(a, nil)) <= append(cons(b, nil), cons(b, cons(a, nil)), cons(a, nil))
False <= append(cons(b, nil), cons(b, nil), cons(a, nil))
False <= append(nil, cons(a, cons(a, nil)), cons(a, nil))
prefix(cons(a, cons(a, nil)), cons(b, nil)) <= append(nil, cons(a, cons(a, nil)), cons(b, nil))
append(cons(a, nil), cons(a, cons(b, cons(a, nil))), cons(a, cons(a, cons(b, cons(a, nil))))) <= append(nil, cons(a, cons(b, cons(a, nil))), cons(a, cons(b, cons(a, nil))))
append(cons(a, nil), cons(b, cons(a, cons(a, cons(a, nil)))), cons(a, cons(a, cons(a, nil)))) <= append(nil, cons(b, cons(a, cons(a, cons(a, nil)))), cons(a, cons(a, nil)))
append(cons(a, nil), cons(b, cons(b, nil)), cons(a, cons(b, cons(b, nil)))) <= append(nil, cons(b, cons(b, nil)), cons(b, cons(b, nil)))
False <= append(nil, cons(b, nil), cons(a, cons(a, nil)))
False <= append(nil, cons(b, nil), cons(a, nil))
False <= prefix(cons(a, cons(a, nil)), cons(a, nil))
prefix(cons(a, cons(a, cons(a, nil))), cons(a, cons(b, nil))) <= prefix(cons(a, cons(a, nil)), cons(b, nil))
False <= prefix(cons(a, cons(b, nil)), cons(a, cons(a, nil)))
False <= prefix(cons(a, nil), cons(b, cons(a, nil)))
False <= prefix(cons(a, nil), cons(b, nil))
False <= prefix(cons(a, nil), nil)
False <= prefix(cons(b, nil), cons(a, cons(a, nil)))
False <= prefix(cons(b, nil), cons(a, nil))
}

Current best model:
|_

_r_1 ->
{
  _r_1(cons(x_0_0, x_0_1), a) <= _r_3(x_0_0)
  _r_1(cons(x_0_0, x_0_1), b) <= True
  _r_1(nil, a) <= True
}
;
_r_2 ->
{
  _r_2(a, cons(x_1_0, x_1_1)) <= True
  _r_2(a, nil) <= True
  _r_2(b, cons(x_1_0, x_1_1)) <= _r_3(x_1_0)
}
;
_r_3 ->
{
  _r_3(b) <= True
}
;
append ->
{
  append(cons(x_0_0, x_0_1), cons(x_1_0, x_1_1), cons(x_2_0, x_2_1)) <= _r_1(x_0_1, x_1_0) /\ _r_1(x_1_1, x_2_0) /\ prefix(x_1_1, x_2_1)
  append(cons(x_0_0, x_0_1), cons(x_1_0, x_1_1), cons(x_2_0, x_2_1)) <= _r_1(x_0_1, x_2_0) /\ _r_1(x_1_1, x_2_0) /\ _r_2(x_1_0, x_2_1) /\ append(x_0_1, x_1_1, x_2_1) /\ prefix(x_0_1, x_2_1) /\ prefix(x_1_1, x_2_1)
  append(cons(x_0_0, x_0_1), cons(x_1_0, x_1_1), cons(x_2_0, x_2_1)) <= _r_1(x_0_1, x_2_0) /\ _r_2(x_0_0, x_1_1) /\ _r_2(x_1_0, x_2_1) /\ append(x_0_1, x_1_1, x_2_1)
  append(cons(x_0_0, x_0_1), cons(x_1_0, x_1_1), cons(x_2_0, x_2_1)) <= _r_1(x_1_1, x_2_0) /\ _r_2(x_1_0, x_2_1) /\ append(x_0_1, x_1_1, x_2_1) /\ prefix(x_0_1, x_2_1)
  append(cons(x_0_0, x_0_1), cons(x_1_0, x_1_1), cons(x_2_0, x_2_1)) <= _r_2(x_1_0, x_2_1) /\ _r_3(x_0_0) /\ append(x_0_1, x_1_1, x_2_1)
  append(cons(x_0_0, x_0_1), nil, cons(x_2_0, x_2_1)) <= True
  append(nil, cons(x_1_0, x_1_1), cons(x_2_0, x_2_1)) <= _r_2(x_1_0, x_2_1) /\ prefix(x_1_1, x_2_1)
  append(nil, cons(x_1_0, x_1_1), cons(x_2_0, x_2_1)) <= _r_3(x_1_0) /\ _r_3(x_2_0) /\ prefix(x_1_1, x_2_1)
  append(nil, nil, cons(x_2_0, x_2_1)) <= True
  append(nil, nil, nil) <= True
}
;
prefix ->
{
  prefix(cons(x_0_0, x_0_1), cons(x_1_0, x_1_1)) <= _r_1(x_0_1, x_1_0) /\ _r_2(x_0_0, x_1_1) /\ _r_3(x_0_0)
  prefix(cons(x_0_0, x_0_1), cons(x_1_0, x_1_1)) <= _r_1(x_0_1, x_1_0) /\ _r_2(x_0_0, x_1_1) /\ _r_3(x_1_0)
  prefix(cons(x_0_0, x_0_1), cons(x_1_0, x_1_1)) <= _r_1(x_0_1, x_1_0) /\ _r_2(x_0_0, x_1_1) /\ prefix(x_0_1, x_1_1)
  prefix(cons(x_0_0, x_0_1), cons(x_1_0, x_1_1)) <= _r_2(x_0_0, x_1_1) /\ _r_3(x_0_0)
  prefix(cons(x_0_0, x_0_1), cons(x_1_0, x_1_1)) <= _r_3(x_0_0) /\ _r_3(x_1_0) /\ prefix(x_0_1, x_1_1)
  prefix(nil, cons(x_1_0, x_1_1)) <= True
  prefix(nil, cons(x_1_0, x_1_1)) <= _r_3(x_1_0)
  prefix(nil, nil) <= True
}

--
Equality automata are defined for: {elt, eltlist}
_|








