Solving ../../../../benchmarks/smtlib/true/tree_shallow_taller_node.smt2...

Inference procedure has parameters:
Ice fuel: 200
Timeout: 40s
Convolution: right


Learning problem is:

env: {
elt -> {a, b}  ;  etree -> {leaf, node}  ;  nat -> {s, z}
}
definition:
{
(le_nat, P:
{() -> le_nat([z, s(nn2)])
(le_nat([nn1, nn2])) -> le_nat([s(nn1), s(nn2)])
(le_nat([s(nn1), s(nn2)])) -> le_nat([nn1, nn2])
(le_nat([s(nn1), z])) -> BOT
(le_nat([z, z])) -> BOT}
)
(max, F:
{(le_nat([n, m])) -> max([n, m, m])
(not le_nat([n, m])) -> max([n, m, n])}
(max([_g, _h, _i]) /\ max([_g, _h, _j])) -> eq_nat([_i, _j])
)
(shallower, P:
{() -> shallower([leaf, n])
(shallower([t1, m]) /\ shallower([t2, m])) -> shallower([node(e, t1, t2), s(m)])
(shallower([t1, m]) /\ shallower([node(e, t1, t2), s(m)])) -> shallower([t2, m])
(not shallower([t1, m]) /\ shallower([node(e, t1, t2), s(m)])) -> BOT
(shallower([node(e, t1, t2), z])) -> BOT}
)
(taller, P:
{() -> taller([leaf, z])
() -> taller([node(e, t1, t2), z])
(taller([t1, m])) -> taller([node(e, t1, t2), s(m)])
(not taller([t1, m]) /\ taller([t2, m])) -> taller([node(e, t1, t2), s(m)])
(not taller([t1, m]) /\ not taller([t2, m]) /\ taller([node(e, t1, t2), s(m)])) -> BOT
(taller([leaf, s(m)])) -> BOT}
)
}

properties:
{(max([n1, n2, _k]) /\ taller([t1, n1]) /\ taller([t2, n2])) -> taller([node(e, t1, t2), s(_k)]), (max([n1, n2, _l]) /\ shallower([t1, n1]) /\ shallower([t2, n2])) -> shallower([node(e, t1, t2), s(_l)])}


over-approximation: {le_nat, max}
under-approximation: {le_nat}

Clause system for inference is:

{
() -> le_nat([z, s(nn2)]) -> 0  ;  () -> shallower([leaf, n]) -> 0  ;  () -> taller([leaf, z]) -> 0  ;  () -> taller([node(e, t1, t2), z]) -> 0  ;  (le_nat([n, m])) -> max([n, m, m]) -> 0  ;  (not le_nat([n, m])) -> max([n, m, n]) -> 0  ;  (le_nat([nn1, nn2])) -> le_nat([s(nn1), s(nn2)]) -> 0  ;  (le_nat([s(nn1), s(nn2)])) -> le_nat([nn1, nn2]) -> 0  ;  (le_nat([s(nn1), z])) -> BOT -> 0  ;  (le_nat([z, z])) -> BOT -> 0  ;  (max([n1, n2, _k]) /\ taller([t1, n1]) /\ taller([t2, n2])) -> taller([node(e, t1, t2), s(_k)]) -> 0  ;  (max([n1, n2, _l]) /\ shallower([t1, n1]) /\ shallower([t2, n2])) -> shallower([node(e, t1, t2), s(_l)]) -> 0  ;  (shallower([t1, m]) /\ shallower([t2, m])) -> shallower([node(e, t1, t2), s(m)]) -> 0  ;  (shallower([t1, m]) /\ shallower([node(e, t1, t2), s(m)])) -> shallower([t2, m]) -> 0  ;  (not shallower([t1, m]) /\ shallower([node(e, t1, t2), s(m)])) -> BOT -> 0  ;  (shallower([node(e, t1, t2), z])) -> BOT -> 0  ;  (taller([t1, m])) -> taller([node(e, t1, t2), s(m)]) -> 0  ;  (not taller([t1, m]) /\ taller([t2, m])) -> taller([node(e, t1, t2), s(m)]) -> 0  ;  (not taller([t1, m]) /\ not taller([t2, m]) /\ taller([node(e, t1, t2), s(m)])) -> BOT -> 0  ;  (taller([leaf, s(m)])) -> BOT -> 0
}


Solving took 40.001274 seconds.
DontKnow. Stopped because: timeout
Working model:
|_
{
le_nat -> 
{{{
Q={q_gen_9950, q_gen_9957, q_gen_9958, q_gen_9973, q_gen_9983, q_gen_9989, q_gen_9990},
Q_f={},
Delta=
{
<z>() -> q_gen_9958
<s>(q_gen_9958) -> q_gen_9990
<z, z>() -> q_gen_9950
<z, s>(q_gen_9958) -> q_gen_9957
<s, s>(q_gen_9957) -> q_gen_9973
<s, s>(q_gen_9950) -> q_gen_9983
<z, s>(q_gen_9990) -> q_gen_9989
}

Datatype: <nat, nat>
Convolution form: right
}}}
  ;  max -> 
{{{
Q={q_gen_9951, q_gen_9974, q_gen_9975, q_gen_9984},
Q_f={},
Delta=
{
<z, z>() -> q_gen_9975
<z, z, z>() -> q_gen_9951
<z, s, s>(q_gen_9975) -> q_gen_9974
<s, s, s>(q_gen_9951) -> q_gen_9984
}

Datatype: <nat, nat, nat>
Convolution form: right
}}}
  ;  shallower -> 
{{{
Q={q_gen_9956, q_gen_9970, q_gen_9971, q_gen_9972, q_gen_9977, q_gen_9978, q_gen_9979, q_gen_9980, q_gen_9981, q_gen_9987, q_gen_9988},
Q_f={},
Delta=
{
<leaf>() -> q_gen_9971
<b>() -> q_gen_9972
<z>() -> q_gen_9978
<a>() -> q_gen_9981
<s>(q_gen_9978) -> q_gen_9988
<leaf, z>() -> q_gen_9956
<node, s>(q_gen_9972, q_gen_9971, q_gen_9956) -> q_gen_9970
<leaf, s>(q_gen_9978) -> q_gen_9977
<node, s>(q_gen_9972, q_gen_9971, q_gen_9970) -> q_gen_9979
<node, s>(q_gen_9981, q_gen_9971, q_gen_9956) -> q_gen_9980
<leaf, s>(q_gen_9988) -> q_gen_9987
}

Datatype: <etree, nat>
Convolution form: right
}}}
  ;  taller -> 
{{{
Q={q_gen_9952, q_gen_9953, q_gen_9954, q_gen_9955, q_gen_9959, q_gen_9960, q_gen_9961, q_gen_9962, q_gen_9963, q_gen_9964, q_gen_9965, q_gen_9966, q_gen_9967, q_gen_9968, q_gen_9969, q_gen_9976, q_gen_9982, q_gen_9985, q_gen_9986},
Q_f={},
Delta=
{
<leaf>() -> q_gen_9953
<b>() -> q_gen_9954
<node>(q_gen_9961, q_gen_9953, q_gen_9953) -> q_gen_9960
<a>() -> q_gen_9961
<node>(q_gen_9954, q_gen_9953, q_gen_9960) -> q_gen_9963
<z>() -> q_gen_9968
<node>(q_gen_9954, q_gen_9960, q_gen_9960) -> q_gen_9969
<node>(q_gen_9954, q_gen_9953, q_gen_9953) -> q_gen_9986
<node, z>(q_gen_9954, q_gen_9953, q_gen_9953) -> q_gen_9952
<leaf, z>() -> q_gen_9955
<node, z>(q_gen_9954, q_gen_9953, q_gen_9960) -> q_gen_9959
<node, s>(q_gen_9954, q_gen_9963, q_gen_9955) -> q_gen_9962
<node, s>(q_gen_9954, q_gen_9960, q_gen_9965) -> q_gen_9964
<node, z>(q_gen_9961, q_gen_9953, q_gen_9953) -> q_gen_9965
<node, s>(q_gen_9954, q_gen_9969, q_gen_9967) -> q_gen_9966
<leaf, s>(q_gen_9968) -> q_gen_9967
<node, s>(q_gen_9954, q_gen_9953, q_gen_9967) -> q_gen_9976
<node, s>(q_gen_9954, q_gen_9953, q_gen_9955) -> q_gen_9982
<node, z>(q_gen_9954, q_gen_9953, q_gen_9986) -> q_gen_9985
}

Datatype: <etree, nat>
Convolution form: right
}}}

}
--
Equality automata are defined for: {eq_elt, eq_etree, eq_nat}
_|

-------------------
STEPS:
-------------------------------------------
Step 0, which took 0.004675 s (model generation: 0.003836,  model checking: 0.000839):

Model:
|_
{
le_nat -> 
{{{
Q={},
Q_f={},
Delta=
{

}

Datatype: <nat, nat>
Convolution form: right
}}}
  ;  max -> 
{{{
Q={},
Q_f={},
Delta=
{

}

Datatype: <nat, nat, nat>
Convolution form: right
}}}
  ;  shallower -> 
{{{
Q={},
Q_f={},
Delta=
{

}

Datatype: <etree, nat>
Convolution form: right
}}}
  ;  taller -> 
{{{
Q={},
Q_f={},
Delta=
{

}

Datatype: <etree, nat>
Convolution form: right
}}}

}
--
Equality automata are defined for: {eq_elt, eq_etree, eq_nat}
_|

Teacher's answer:
New clause system:
{
() -> le_nat([z, s(nn2)]) -> 0  ;  () -> shallower([leaf, n]) -> 0  ;  () -> taller([leaf, z]) -> 0  ;  () -> taller([node(e, t1, t2), z]) -> 0  ;  (le_nat([n, m])) -> max([n, m, m]) -> 0  ;  (not le_nat([n, m])) -> max([n, m, n]) -> 3  ;  (le_nat([nn1, nn2])) -> le_nat([s(nn1), s(nn2)]) -> 1  ;  (le_nat([s(nn1), s(nn2)])) -> le_nat([nn1, nn2]) -> 1  ;  (le_nat([s(nn1), z])) -> BOT -> 1  ;  (le_nat([z, z])) -> BOT -> 1  ;  (max([n1, n2, _k]) /\ taller([t1, n1]) /\ taller([t2, n2])) -> taller([node(e, t1, t2), s(_k)]) -> 1  ;  (max([n1, n2, _l]) /\ shallower([t1, n1]) /\ shallower([t2, n2])) -> shallower([node(e, t1, t2), s(_l)]) -> 1  ;  (shallower([t1, m]) /\ shallower([t2, m])) -> shallower([node(e, t1, t2), s(m)]) -> 1  ;  (shallower([t1, m]) /\ shallower([node(e, t1, t2), s(m)])) -> shallower([t2, m]) -> 1  ;  (not shallower([t1, m]) /\ shallower([node(e, t1, t2), s(m)])) -> BOT -> 1  ;  (shallower([node(e, t1, t2), z])) -> BOT -> 1  ;  (taller([t1, m])) -> taller([node(e, t1, t2), s(m)]) -> 1  ;  (not taller([t1, m]) /\ taller([t2, m])) -> taller([node(e, t1, t2), s(m)]) -> 1  ;  (not taller([t1, m]) /\ not taller([t2, m]) /\ taller([node(e, t1, t2), s(m)])) -> BOT -> 1  ;  (taller([leaf, s(m)])) -> BOT -> 1
}
Sat witness: Yes: ((not le_nat([n, m])) -> max([n, m, n]), {
m -> z  ;  n -> z
})

-------------------------------------------
Step 1, which took 0.003447 s (model generation: 0.003338,  model checking: 0.000109):

Model:
|_
{
le_nat -> 
{{{
Q={q_gen_9950},
Q_f={},
Delta=
{
<z, z>() -> q_gen_9950
}

Datatype: <nat, nat>
Convolution form: right
}}}
  ;  max -> 
{{{
Q={q_gen_9951},
Q_f={q_gen_9951},
Delta=
{
<z, z, z>() -> q_gen_9951
}

Datatype: <nat, nat, nat>
Convolution form: right
}}}
  ;  shallower -> 
{{{
Q={},
Q_f={},
Delta=
{

}

Datatype: <etree, nat>
Convolution form: right
}}}
  ;  taller -> 
{{{
Q={},
Q_f={},
Delta=
{

}

Datatype: <etree, nat>
Convolution form: right
}}}

}
--
Equality automata are defined for: {eq_elt, eq_etree, eq_nat}
_|

Teacher's answer:
New clause system:
{
() -> le_nat([z, s(nn2)]) -> 0  ;  () -> shallower([leaf, n]) -> 0  ;  () -> taller([leaf, z]) -> 0  ;  () -> taller([node(e, t1, t2), z]) -> 3  ;  (le_nat([n, m])) -> max([n, m, m]) -> 1  ;  (not le_nat([n, m])) -> max([n, m, n]) -> 3  ;  (le_nat([nn1, nn2])) -> le_nat([s(nn1), s(nn2)]) -> 1  ;  (le_nat([s(nn1), s(nn2)])) -> le_nat([nn1, nn2]) -> 1  ;  (le_nat([s(nn1), z])) -> BOT -> 1  ;  (le_nat([z, z])) -> BOT -> 1  ;  (max([n1, n2, _k]) /\ taller([t1, n1]) /\ taller([t2, n2])) -> taller([node(e, t1, t2), s(_k)]) -> 1  ;  (max([n1, n2, _l]) /\ shallower([t1, n1]) /\ shallower([t2, n2])) -> shallower([node(e, t1, t2), s(_l)]) -> 1  ;  (shallower([t1, m]) /\ shallower([t2, m])) -> shallower([node(e, t1, t2), s(m)]) -> 1  ;  (shallower([t1, m]) /\ shallower([node(e, t1, t2), s(m)])) -> shallower([t2, m]) -> 1  ;  (not shallower([t1, m]) /\ shallower([node(e, t1, t2), s(m)])) -> BOT -> 1  ;  (shallower([node(e, t1, t2), z])) -> BOT -> 1  ;  (taller([t1, m])) -> taller([node(e, t1, t2), s(m)]) -> 1  ;  (not taller([t1, m]) /\ taller([t2, m])) -> taller([node(e, t1, t2), s(m)]) -> 1  ;  (not taller([t1, m]) /\ not taller([t2, m]) /\ taller([node(e, t1, t2), s(m)])) -> BOT -> 1  ;  (taller([leaf, s(m)])) -> BOT -> 1
}
Sat witness: Yes: (() -> taller([node(e, t1, t2), z]), {
e -> b  ;  t1 -> leaf  ;  t2 -> leaf
})

-------------------------------------------
Step 2, which took 0.004000 s (model generation: 0.003382,  model checking: 0.000618):

Model:
|_
{
le_nat -> 
{{{
Q={q_gen_9950},
Q_f={},
Delta=
{
<z, z>() -> q_gen_9950
}

Datatype: <nat, nat>
Convolution form: right
}}}
  ;  max -> 
{{{
Q={q_gen_9951},
Q_f={q_gen_9951},
Delta=
{
<z, z, z>() -> q_gen_9951
}

Datatype: <nat, nat, nat>
Convolution form: right
}}}
  ;  shallower -> 
{{{
Q={},
Q_f={},
Delta=
{

}

Datatype: <etree, nat>
Convolution form: right
}}}
  ;  taller -> 
{{{
Q={q_gen_9952, q_gen_9953, q_gen_9954},
Q_f={q_gen_9952},
Delta=
{
<leaf>() -> q_gen_9953
<b>() -> q_gen_9954
<node, z>(q_gen_9954, q_gen_9953, q_gen_9953) -> q_gen_9952
}

Datatype: <etree, nat>
Convolution form: right
}}}

}
--
Equality automata are defined for: {eq_elt, eq_etree, eq_nat}
_|

Teacher's answer:
New clause system:
{
() -> le_nat([z, s(nn2)]) -> 0  ;  () -> shallower([leaf, n]) -> 0  ;  () -> taller([leaf, z]) -> 3  ;  () -> taller([node(e, t1, t2), z]) -> 3  ;  (le_nat([n, m])) -> max([n, m, m]) -> 1  ;  (not le_nat([n, m])) -> max([n, m, n]) -> 3  ;  (le_nat([nn1, nn2])) -> le_nat([s(nn1), s(nn2)]) -> 1  ;  (le_nat([s(nn1), s(nn2)])) -> le_nat([nn1, nn2]) -> 1  ;  (le_nat([s(nn1), z])) -> BOT -> 1  ;  (le_nat([z, z])) -> BOT -> 1  ;  (max([n1, n2, _k]) /\ taller([t1, n1]) /\ taller([t2, n2])) -> taller([node(e, t1, t2), s(_k)]) -> 1  ;  (max([n1, n2, _l]) /\ shallower([t1, n1]) /\ shallower([t2, n2])) -> shallower([node(e, t1, t2), s(_l)]) -> 1  ;  (shallower([t1, m]) /\ shallower([t2, m])) -> shallower([node(e, t1, t2), s(m)]) -> 1  ;  (shallower([t1, m]) /\ shallower([node(e, t1, t2), s(m)])) -> shallower([t2, m]) -> 1  ;  (not shallower([t1, m]) /\ shallower([node(e, t1, t2), s(m)])) -> BOT -> 1  ;  (shallower([node(e, t1, t2), z])) -> BOT -> 1  ;  (taller([t1, m])) -> taller([node(e, t1, t2), s(m)]) -> 1  ;  (not taller([t1, m]) /\ taller([t2, m])) -> taller([node(e, t1, t2), s(m)]) -> 1  ;  (not taller([t1, m]) /\ not taller([t2, m]) /\ taller([node(e, t1, t2), s(m)])) -> BOT -> 1  ;  (taller([leaf, s(m)])) -> BOT -> 1
}
Sat witness: Yes: (() -> taller([leaf, z]), {

})

-------------------------------------------
Step 3, which took 0.003378 s (model generation: 0.003329,  model checking: 0.000049):

Model:
|_
{
le_nat -> 
{{{
Q={q_gen_9950},
Q_f={q_gen_9950},
Delta=
{
<z, z>() -> q_gen_9950
}

Datatype: <nat, nat>
Convolution form: right
}}}
  ;  max -> 
{{{
Q={q_gen_9951},
Q_f={},
Delta=
{
<z, z, z>() -> q_gen_9951
}

Datatype: <nat, nat, nat>
Convolution form: right
}}}
  ;  shallower -> 
{{{
Q={},
Q_f={},
Delta=
{

}

Datatype: <etree, nat>
Convolution form: right
}}}
  ;  taller -> 
{{{
Q={q_gen_9952, q_gen_9953, q_gen_9954},
Q_f={q_gen_9952},
Delta=
{
<leaf>() -> q_gen_9953
<b>() -> q_gen_9954
<leaf, z>() -> q_gen_9952
<node, z>(q_gen_9954, q_gen_9953, q_gen_9953) -> q_gen_9952
}

Datatype: <etree, nat>
Convolution form: right
}}}

}
--
Equality automata are defined for: {eq_elt, eq_etree, eq_nat}
_|

Teacher's answer:
New clause system:
{
() -> le_nat([z, s(nn2)]) -> 0  ;  () -> shallower([leaf, n]) -> 3  ;  () -> taller([leaf, z]) -> 3  ;  () -> taller([node(e, t1, t2), z]) -> 3  ;  (le_nat([n, m])) -> max([n, m, m]) -> 1  ;  (not le_nat([n, m])) -> max([n, m, n]) -> 3  ;  (le_nat([nn1, nn2])) -> le_nat([s(nn1), s(nn2)]) -> 1  ;  (le_nat([s(nn1), s(nn2)])) -> le_nat([nn1, nn2]) -> 1  ;  (le_nat([s(nn1), z])) -> BOT -> 1  ;  (le_nat([z, z])) -> BOT -> 1  ;  (max([n1, n2, _k]) /\ taller([t1, n1]) /\ taller([t2, n2])) -> taller([node(e, t1, t2), s(_k)]) -> 1  ;  (max([n1, n2, _l]) /\ shallower([t1, n1]) /\ shallower([t2, n2])) -> shallower([node(e, t1, t2), s(_l)]) -> 1  ;  (shallower([t1, m]) /\ shallower([t2, m])) -> shallower([node(e, t1, t2), s(m)]) -> 1  ;  (shallower([t1, m]) /\ shallower([node(e, t1, t2), s(m)])) -> shallower([t2, m]) -> 1  ;  (not shallower([t1, m]) /\ shallower([node(e, t1, t2), s(m)])) -> BOT -> 1  ;  (shallower([node(e, t1, t2), z])) -> BOT -> 1  ;  (taller([t1, m])) -> taller([node(e, t1, t2), s(m)]) -> 1  ;  (not taller([t1, m]) /\ taller([t2, m])) -> taller([node(e, t1, t2), s(m)]) -> 1  ;  (not taller([t1, m]) /\ not taller([t2, m]) /\ taller([node(e, t1, t2), s(m)])) -> BOT -> 1  ;  (taller([leaf, s(m)])) -> BOT -> 1
}
Sat witness: Yes: (() -> shallower([leaf, n]), {
n -> z
})

-------------------------------------------
Step 4, which took 0.003245 s (model generation: 0.003201,  model checking: 0.000044):

Model:
|_
{
le_nat -> 
{{{
Q={q_gen_9950},
Q_f={q_gen_9950},
Delta=
{
<z, z>() -> q_gen_9950
}

Datatype: <nat, nat>
Convolution form: right
}}}
  ;  max -> 
{{{
Q={q_gen_9951},
Q_f={},
Delta=
{
<z, z, z>() -> q_gen_9951
}

Datatype: <nat, nat, nat>
Convolution form: right
}}}
  ;  shallower -> 
{{{
Q={q_gen_9956},
Q_f={q_gen_9956},
Delta=
{
<leaf, z>() -> q_gen_9956
}

Datatype: <etree, nat>
Convolution form: right
}}}
  ;  taller -> 
{{{
Q={q_gen_9952, q_gen_9953, q_gen_9954},
Q_f={q_gen_9952},
Delta=
{
<leaf>() -> q_gen_9953
<b>() -> q_gen_9954
<leaf, z>() -> q_gen_9952
<node, z>(q_gen_9954, q_gen_9953, q_gen_9953) -> q_gen_9952
}

Datatype: <etree, nat>
Convolution form: right
}}}

}
--
Equality automata are defined for: {eq_elt, eq_etree, eq_nat}
_|

Teacher's answer:
New clause system:
{
() -> le_nat([z, s(nn2)]) -> 3  ;  () -> shallower([leaf, n]) -> 3  ;  () -> taller([leaf, z]) -> 3  ;  () -> taller([node(e, t1, t2), z]) -> 3  ;  (le_nat([n, m])) -> max([n, m, m]) -> 1  ;  (not le_nat([n, m])) -> max([n, m, n]) -> 3  ;  (le_nat([nn1, nn2])) -> le_nat([s(nn1), s(nn2)]) -> 1  ;  (le_nat([s(nn1), s(nn2)])) -> le_nat([nn1, nn2]) -> 1  ;  (le_nat([s(nn1), z])) -> BOT -> 1  ;  (le_nat([z, z])) -> BOT -> 1  ;  (max([n1, n2, _k]) /\ taller([t1, n1]) /\ taller([t2, n2])) -> taller([node(e, t1, t2), s(_k)]) -> 1  ;  (max([n1, n2, _l]) /\ shallower([t1, n1]) /\ shallower([t2, n2])) -> shallower([node(e, t1, t2), s(_l)]) -> 1  ;  (shallower([t1, m]) /\ shallower([t2, m])) -> shallower([node(e, t1, t2), s(m)]) -> 1  ;  (shallower([t1, m]) /\ shallower([node(e, t1, t2), s(m)])) -> shallower([t2, m]) -> 1  ;  (not shallower([t1, m]) /\ shallower([node(e, t1, t2), s(m)])) -> BOT -> 1  ;  (shallower([node(e, t1, t2), z])) -> BOT -> 1  ;  (taller([t1, m])) -> taller([node(e, t1, t2), s(m)]) -> 1  ;  (not taller([t1, m]) /\ taller([t2, m])) -> taller([node(e, t1, t2), s(m)]) -> 1  ;  (not taller([t1, m]) /\ not taller([t2, m]) /\ taller([node(e, t1, t2), s(m)])) -> BOT -> 1  ;  (taller([leaf, s(m)])) -> BOT -> 1
}
Sat witness: Yes: (() -> le_nat([z, s(nn2)]), {
nn2 -> z
})

-------------------------------------------
Step 5, which took 0.055439 s (model generation: 0.003235,  model checking: 0.052204):

Model:
|_
{
le_nat -> 
{{{
Q={q_gen_9950, q_gen_9958},
Q_f={q_gen_9950},
Delta=
{
<z>() -> q_gen_9958
<z, s>(q_gen_9958) -> q_gen_9950
<z, z>() -> q_gen_9950
}

Datatype: <nat, nat>
Convolution form: right
}}}
  ;  max -> 
{{{
Q={q_gen_9951},
Q_f={},
Delta=
{
<z, z, z>() -> q_gen_9951
}

Datatype: <nat, nat, nat>
Convolution form: right
}}}
  ;  shallower -> 
{{{
Q={q_gen_9956},
Q_f={q_gen_9956},
Delta=
{
<leaf, z>() -> q_gen_9956
}

Datatype: <etree, nat>
Convolution form: right
}}}
  ;  taller -> 
{{{
Q={q_gen_9952, q_gen_9953, q_gen_9954},
Q_f={q_gen_9952},
Delta=
{
<leaf>() -> q_gen_9953
<b>() -> q_gen_9954
<leaf, z>() -> q_gen_9952
<node, z>(q_gen_9954, q_gen_9953, q_gen_9953) -> q_gen_9952
}

Datatype: <etree, nat>
Convolution form: right
}}}

}
--
Equality automata are defined for: {eq_elt, eq_etree, eq_nat}
_|

Teacher's answer:
New clause system:
{
() -> le_nat([z, s(nn2)]) -> 3  ;  () -> shallower([leaf, n]) -> 3  ;  () -> taller([leaf, z]) -> 3  ;  () -> taller([node(e, t1, t2), z]) -> 3  ;  (le_nat([n, m])) -> max([n, m, m]) -> 1  ;  (not le_nat([n, m])) -> max([n, m, n]) -> 3  ;  (le_nat([nn1, nn2])) -> le_nat([s(nn1), s(nn2)]) -> 1  ;  (le_nat([s(nn1), s(nn2)])) -> le_nat([nn1, nn2]) -> 1  ;  (le_nat([s(nn1), z])) -> BOT -> 1  ;  (le_nat([z, z])) -> BOT -> 1  ;  (max([n1, n2, _k]) /\ taller([t1, n1]) /\ taller([t2, n2])) -> taller([node(e, t1, t2), s(_k)]) -> 1  ;  (max([n1, n2, _l]) /\ shallower([t1, n1]) /\ shallower([t2, n2])) -> shallower([node(e, t1, t2), s(_l)]) -> 1  ;  (shallower([t1, m]) /\ shallower([t2, m])) -> shallower([node(e, t1, t2), s(m)]) -> 1  ;  (shallower([t1, m]) /\ shallower([node(e, t1, t2), s(m)])) -> shallower([t2, m]) -> 1  ;  (not shallower([t1, m]) /\ shallower([node(e, t1, t2), s(m)])) -> BOT -> 1  ;  (shallower([node(e, t1, t2), z])) -> BOT -> 1  ;  (taller([t1, m])) -> taller([node(e, t1, t2), s(m)]) -> 1  ;  (not taller([t1, m]) /\ taller([t2, m])) -> taller([node(e, t1, t2), s(m)]) -> 4  ;  (not taller([t1, m]) /\ not taller([t2, m]) /\ taller([node(e, t1, t2), s(m)])) -> BOT -> 2  ;  (taller([leaf, s(m)])) -> BOT -> 2
}
Sat witness: Yes: ((not taller([t1, m]) /\ taller([t2, m])) -> taller([node(e, t1, t2), s(m)]), {
e -> b  ;  m -> z  ;  t1 -> node(b, leaf, node(a, leaf, leaf))  ;  t2 -> leaf
})

-------------------------------------------
Step 6, which took 0.004993 s (model generation: 0.004192,  model checking: 0.000801):

Model:
|_
{
le_nat -> 
{{{
Q={q_gen_9950, q_gen_9958},
Q_f={q_gen_9950},
Delta=
{
<z>() -> q_gen_9958
<z, s>(q_gen_9958) -> q_gen_9950
<z, z>() -> q_gen_9950
}

Datatype: <nat, nat>
Convolution form: right
}}}
  ;  max -> 
{{{
Q={q_gen_9951},
Q_f={},
Delta=
{
<z, z, z>() -> q_gen_9951
}

Datatype: <nat, nat, nat>
Convolution form: right
}}}
  ;  shallower -> 
{{{
Q={q_gen_9956},
Q_f={q_gen_9956},
Delta=
{
<leaf, z>() -> q_gen_9956
}

Datatype: <etree, nat>
Convolution form: right
}}}
  ;  taller -> 
{{{
Q={q_gen_9952, q_gen_9953, q_gen_9954},
Q_f={q_gen_9952},
Delta=
{
<leaf>() -> q_gen_9953
<node>(q_gen_9954, q_gen_9953, q_gen_9953) -> q_gen_9953
<a>() -> q_gen_9954
<b>() -> q_gen_9954
<leaf, z>() -> q_gen_9952
<node, s>(q_gen_9954, q_gen_9953, q_gen_9952) -> q_gen_9952
<node, z>(q_gen_9954, q_gen_9953, q_gen_9953) -> q_gen_9952
}

Datatype: <etree, nat>
Convolution form: right
}}}

}
--
Equality automata are defined for: {eq_elt, eq_etree, eq_nat}
_|

Teacher's answer:
New clause system:
{
() -> le_nat([z, s(nn2)]) -> 3  ;  () -> shallower([leaf, n]) -> 3  ;  () -> taller([leaf, z]) -> 3  ;  () -> taller([node(e, t1, t2), z]) -> 3  ;  (le_nat([n, m])) -> max([n, m, m]) -> 1  ;  (not le_nat([n, m])) -> max([n, m, n]) -> 3  ;  (le_nat([nn1, nn2])) -> le_nat([s(nn1), s(nn2)]) -> 1  ;  (le_nat([s(nn1), s(nn2)])) -> le_nat([nn1, nn2]) -> 1  ;  (le_nat([s(nn1), z])) -> BOT -> 1  ;  (le_nat([z, z])) -> BOT -> 1  ;  (max([n1, n2, _k]) /\ taller([t1, n1]) /\ taller([t2, n2])) -> taller([node(e, t1, t2), s(_k)]) -> 1  ;  (max([n1, n2, _l]) /\ shallower([t1, n1]) /\ shallower([t2, n2])) -> shallower([node(e, t1, t2), s(_l)]) -> 1  ;  (shallower([t1, m]) /\ shallower([t2, m])) -> shallower([node(e, t1, t2), s(m)]) -> 1  ;  (shallower([t1, m]) /\ shallower([node(e, t1, t2), s(m)])) -> shallower([t2, m]) -> 1  ;  (not shallower([t1, m]) /\ shallower([node(e, t1, t2), s(m)])) -> BOT -> 1  ;  (shallower([node(e, t1, t2), z])) -> BOT -> 1  ;  (taller([t1, m])) -> taller([node(e, t1, t2), s(m)]) -> 4  ;  (not taller([t1, m]) /\ taller([t2, m])) -> taller([node(e, t1, t2), s(m)]) -> 4  ;  (not taller([t1, m]) /\ not taller([t2, m]) /\ taller([node(e, t1, t2), s(m)])) -> BOT -> 2  ;  (taller([leaf, s(m)])) -> BOT -> 2
}
Sat witness: Yes: ((taller([t1, m])) -> taller([node(e, t1, t2), s(m)]), {
e -> b  ;  m -> s(z)  ;  t1 -> node(b, node(a, leaf, leaf), node(a, leaf, leaf))  ;  t2 -> leaf
})

-------------------------------------------
Step 7, which took 0.004844 s (model generation: 0.004697,  model checking: 0.000147):

Model:
|_
{
le_nat -> 
{{{
Q={q_gen_9950, q_gen_9958},
Q_f={q_gen_9950},
Delta=
{
<z>() -> q_gen_9958
<z, s>(q_gen_9958) -> q_gen_9950
<z, z>() -> q_gen_9950
}

Datatype: <nat, nat>
Convolution form: right
}}}
  ;  max -> 
{{{
Q={q_gen_9951},
Q_f={},
Delta=
{
<z, z, z>() -> q_gen_9951
}

Datatype: <nat, nat, nat>
Convolution form: right
}}}
  ;  shallower -> 
{{{
Q={q_gen_9956},
Q_f={q_gen_9956},
Delta=
{
<leaf, z>() -> q_gen_9956
}

Datatype: <etree, nat>
Convolution form: right
}}}
  ;  taller -> 
{{{
Q={q_gen_9952, q_gen_9953, q_gen_9954, q_gen_9968},
Q_f={q_gen_9952},
Delta=
{
<leaf>() -> q_gen_9953
<node>(q_gen_9954, q_gen_9953, q_gen_9953) -> q_gen_9953
<a>() -> q_gen_9954
<b>() -> q_gen_9954
<z>() -> q_gen_9968
<leaf, s>(q_gen_9968) -> q_gen_9952
<leaf, z>() -> q_gen_9952
<node, s>(q_gen_9954, q_gen_9953, q_gen_9952) -> q_gen_9952
<node, z>(q_gen_9954, q_gen_9953, q_gen_9953) -> q_gen_9952
}

Datatype: <etree, nat>
Convolution form: right
}}}

}
--
Equality automata are defined for: {eq_elt, eq_etree, eq_nat}
_|

Teacher's answer:
New clause system:
{
() -> le_nat([z, s(nn2)]) -> 3  ;  () -> shallower([leaf, n]) -> 3  ;  () -> taller([leaf, z]) -> 3  ;  () -> taller([node(e, t1, t2), z]) -> 3  ;  (le_nat([n, m])) -> max([n, m, m]) -> 1  ;  (not le_nat([n, m])) -> max([n, m, n]) -> 3  ;  (le_nat([nn1, nn2])) -> le_nat([s(nn1), s(nn2)]) -> 1  ;  (le_nat([s(nn1), s(nn2)])) -> le_nat([nn1, nn2]) -> 1  ;  (le_nat([s(nn1), z])) -> BOT -> 1  ;  (le_nat([z, z])) -> BOT -> 1  ;  (max([n1, n2, _k]) /\ taller([t1, n1]) /\ taller([t2, n2])) -> taller([node(e, t1, t2), s(_k)]) -> 1  ;  (max([n1, n2, _l]) /\ shallower([t1, n1]) /\ shallower([t2, n2])) -> shallower([node(e, t1, t2), s(_l)]) -> 1  ;  (shallower([t1, m]) /\ shallower([t2, m])) -> shallower([node(e, t1, t2), s(m)]) -> 4  ;  (shallower([t1, m]) /\ shallower([node(e, t1, t2), s(m)])) -> shallower([t2, m]) -> 2  ;  (not shallower([t1, m]) /\ shallower([node(e, t1, t2), s(m)])) -> BOT -> 2  ;  (shallower([node(e, t1, t2), z])) -> BOT -> 2  ;  (taller([t1, m])) -> taller([node(e, t1, t2), s(m)]) -> 4  ;  (not taller([t1, m]) /\ taller([t2, m])) -> taller([node(e, t1, t2), s(m)]) -> 4  ;  (not taller([t1, m]) /\ not taller([t2, m]) /\ taller([node(e, t1, t2), s(m)])) -> BOT -> 2  ;  (taller([leaf, s(m)])) -> BOT -> 2
}
Sat witness: Yes: ((shallower([t1, m]) /\ shallower([t2, m])) -> shallower([node(e, t1, t2), s(m)]), {
e -> b  ;  m -> z  ;  t1 -> leaf  ;  t2 -> leaf
})

-------------------------------------------
Step 8, which took 0.005059 s (model generation: 0.004374,  model checking: 0.000685):

Model:
|_
{
le_nat -> 
{{{
Q={q_gen_9950, q_gen_9958},
Q_f={q_gen_9950},
Delta=
{
<z>() -> q_gen_9958
<z, s>(q_gen_9958) -> q_gen_9950
<z, z>() -> q_gen_9950
}

Datatype: <nat, nat>
Convolution form: right
}}}
  ;  max -> 
{{{
Q={q_gen_9951},
Q_f={},
Delta=
{
<z, z, z>() -> q_gen_9951
}

Datatype: <nat, nat, nat>
Convolution form: right
}}}
  ;  shallower -> 
{{{
Q={q_gen_9956, q_gen_9971, q_gen_9972},
Q_f={q_gen_9956},
Delta=
{
<leaf>() -> q_gen_9971
<b>() -> q_gen_9972
<leaf, z>() -> q_gen_9956
<node, s>(q_gen_9972, q_gen_9971, q_gen_9956) -> q_gen_9956
}

Datatype: <etree, nat>
Convolution form: right
}}}
  ;  taller -> 
{{{
Q={q_gen_9952, q_gen_9953, q_gen_9954, q_gen_9968},
Q_f={q_gen_9952},
Delta=
{
<leaf>() -> q_gen_9953
<node>(q_gen_9954, q_gen_9953, q_gen_9953) -> q_gen_9953
<a>() -> q_gen_9954
<b>() -> q_gen_9954
<z>() -> q_gen_9968
<leaf, s>(q_gen_9968) -> q_gen_9952
<leaf, z>() -> q_gen_9952
<node, s>(q_gen_9954, q_gen_9953, q_gen_9952) -> q_gen_9952
<node, z>(q_gen_9954, q_gen_9953, q_gen_9953) -> q_gen_9952
}

Datatype: <etree, nat>
Convolution form: right
}}}

}
--
Equality automata are defined for: {eq_elt, eq_etree, eq_nat}
_|

Teacher's answer:
New clause system:
{
() -> le_nat([z, s(nn2)]) -> 3  ;  () -> shallower([leaf, n]) -> 3  ;  () -> taller([leaf, z]) -> 3  ;  () -> taller([node(e, t1, t2), z]) -> 3  ;  (le_nat([n, m])) -> max([n, m, m]) -> 1  ;  (not le_nat([n, m])) -> max([n, m, n]) -> 3  ;  (le_nat([nn1, nn2])) -> le_nat([s(nn1), s(nn2)]) -> 1  ;  (le_nat([s(nn1), s(nn2)])) -> le_nat([nn1, nn2]) -> 1  ;  (le_nat([s(nn1), z])) -> BOT -> 1  ;  (le_nat([z, z])) -> BOT -> 4  ;  (max([n1, n2, _k]) /\ taller([t1, n1]) /\ taller([t2, n2])) -> taller([node(e, t1, t2), s(_k)]) -> 2  ;  (max([n1, n2, _l]) /\ shallower([t1, n1]) /\ shallower([t2, n2])) -> shallower([node(e, t1, t2), s(_l)]) -> 2  ;  (shallower([t1, m]) /\ shallower([t2, m])) -> shallower([node(e, t1, t2), s(m)]) -> 4  ;  (shallower([t1, m]) /\ shallower([node(e, t1, t2), s(m)])) -> shallower([t2, m]) -> 2  ;  (not shallower([t1, m]) /\ shallower([node(e, t1, t2), s(m)])) -> BOT -> 2  ;  (shallower([node(e, t1, t2), z])) -> BOT -> 2  ;  (taller([t1, m])) -> taller([node(e, t1, t2), s(m)]) -> 4  ;  (not taller([t1, m]) /\ taller([t2, m])) -> taller([node(e, t1, t2), s(m)]) -> 4  ;  (not taller([t1, m]) /\ not taller([t2, m]) /\ taller([node(e, t1, t2), s(m)])) -> BOT -> 2  ;  (taller([leaf, s(m)])) -> BOT -> 2
}
Sat witness: Yes: ((le_nat([z, z])) -> BOT, {

})

-------------------------------------------
Step 9, which took 0.004536 s (model generation: 0.004436,  model checking: 0.000100):

Model:
|_
{
le_nat -> 
{{{
Q={q_gen_9950, q_gen_9957, q_gen_9958},
Q_f={q_gen_9957},
Delta=
{
<z>() -> q_gen_9958
<z, z>() -> q_gen_9950
<z, s>(q_gen_9958) -> q_gen_9957
}

Datatype: <nat, nat>
Convolution form: right
}}}
  ;  max -> 
{{{
Q={q_gen_9951},
Q_f={q_gen_9951},
Delta=
{
<z, z, z>() -> q_gen_9951
}

Datatype: <nat, nat, nat>
Convolution form: right
}}}
  ;  shallower -> 
{{{
Q={q_gen_9956, q_gen_9971, q_gen_9972},
Q_f={q_gen_9956},
Delta=
{
<leaf>() -> q_gen_9971
<b>() -> q_gen_9972
<leaf, z>() -> q_gen_9956
<node, s>(q_gen_9972, q_gen_9971, q_gen_9956) -> q_gen_9956
}

Datatype: <etree, nat>
Convolution form: right
}}}
  ;  taller -> 
{{{
Q={q_gen_9952, q_gen_9953, q_gen_9954, q_gen_9968},
Q_f={q_gen_9952},
Delta=
{
<leaf>() -> q_gen_9953
<node>(q_gen_9954, q_gen_9953, q_gen_9953) -> q_gen_9953
<a>() -> q_gen_9954
<b>() -> q_gen_9954
<z>() -> q_gen_9968
<leaf, s>(q_gen_9968) -> q_gen_9952
<leaf, z>() -> q_gen_9952
<node, s>(q_gen_9954, q_gen_9953, q_gen_9952) -> q_gen_9952
<node, z>(q_gen_9954, q_gen_9953, q_gen_9953) -> q_gen_9952
}

Datatype: <etree, nat>
Convolution form: right
}}}

}
--
Equality automata are defined for: {eq_elt, eq_etree, eq_nat}
_|

Teacher's answer:
New clause system:
{
() -> le_nat([z, s(nn2)]) -> 3  ;  () -> shallower([leaf, n]) -> 3  ;  () -> taller([leaf, z]) -> 3  ;  () -> taller([node(e, t1, t2), z]) -> 3  ;  (le_nat([n, m])) -> max([n, m, m]) -> 1  ;  (not le_nat([n, m])) -> max([n, m, n]) -> 3  ;  (le_nat([nn1, nn2])) -> le_nat([s(nn1), s(nn2)]) -> 4  ;  (le_nat([s(nn1), s(nn2)])) -> le_nat([nn1, nn2]) -> 2  ;  (le_nat([s(nn1), z])) -> BOT -> 2  ;  (le_nat([z, z])) -> BOT -> 4  ;  (max([n1, n2, _k]) /\ taller([t1, n1]) /\ taller([t2, n2])) -> taller([node(e, t1, t2), s(_k)]) -> 2  ;  (max([n1, n2, _l]) /\ shallower([t1, n1]) /\ shallower([t2, n2])) -> shallower([node(e, t1, t2), s(_l)]) -> 2  ;  (shallower([t1, m]) /\ shallower([t2, m])) -> shallower([node(e, t1, t2), s(m)]) -> 4  ;  (shallower([t1, m]) /\ shallower([node(e, t1, t2), s(m)])) -> shallower([t2, m]) -> 2  ;  (not shallower([t1, m]) /\ shallower([node(e, t1, t2), s(m)])) -> BOT -> 2  ;  (shallower([node(e, t1, t2), z])) -> BOT -> 2  ;  (taller([t1, m])) -> taller([node(e, t1, t2), s(m)]) -> 4  ;  (not taller([t1, m]) /\ taller([t2, m])) -> taller([node(e, t1, t2), s(m)]) -> 4  ;  (not taller([t1, m]) /\ not taller([t2, m]) /\ taller([node(e, t1, t2), s(m)])) -> BOT -> 2  ;  (taller([leaf, s(m)])) -> BOT -> 2
}
Sat witness: Yes: ((le_nat([nn1, nn2])) -> le_nat([s(nn1), s(nn2)]), {
nn1 -> z  ;  nn2 -> s(z)
})

-------------------------------------------
Step 10, which took 0.005690 s (model generation: 0.004813,  model checking: 0.000877):

Model:
|_
{
le_nat -> 
{{{
Q={q_gen_9950, q_gen_9957, q_gen_9958},
Q_f={q_gen_9957},
Delta=
{
<z>() -> q_gen_9958
<z, z>() -> q_gen_9950
<s, s>(q_gen_9957) -> q_gen_9957
<z, s>(q_gen_9958) -> q_gen_9957
}

Datatype: <nat, nat>
Convolution form: right
}}}
  ;  max -> 
{{{
Q={q_gen_9951},
Q_f={q_gen_9951},
Delta=
{
<z, z, z>() -> q_gen_9951
}

Datatype: <nat, nat, nat>
Convolution form: right
}}}
  ;  shallower -> 
{{{
Q={q_gen_9956, q_gen_9971, q_gen_9972},
Q_f={q_gen_9956},
Delta=
{
<leaf>() -> q_gen_9971
<b>() -> q_gen_9972
<leaf, z>() -> q_gen_9956
<node, s>(q_gen_9972, q_gen_9971, q_gen_9956) -> q_gen_9956
}

Datatype: <etree, nat>
Convolution form: right
}}}
  ;  taller -> 
{{{
Q={q_gen_9952, q_gen_9953, q_gen_9954, q_gen_9968},
Q_f={q_gen_9952},
Delta=
{
<leaf>() -> q_gen_9953
<node>(q_gen_9954, q_gen_9953, q_gen_9953) -> q_gen_9953
<a>() -> q_gen_9954
<b>() -> q_gen_9954
<z>() -> q_gen_9968
<leaf, s>(q_gen_9968) -> q_gen_9952
<leaf, z>() -> q_gen_9952
<node, s>(q_gen_9954, q_gen_9953, q_gen_9952) -> q_gen_9952
<node, z>(q_gen_9954, q_gen_9953, q_gen_9953) -> q_gen_9952
}

Datatype: <etree, nat>
Convolution form: right
}}}

}
--
Equality automata are defined for: {eq_elt, eq_etree, eq_nat}
_|

Teacher's answer:
New clause system:
{
() -> le_nat([z, s(nn2)]) -> 3  ;  () -> shallower([leaf, n]) -> 3  ;  () -> taller([leaf, z]) -> 3  ;  () -> taller([node(e, t1, t2), z]) -> 3  ;  (le_nat([n, m])) -> max([n, m, m]) -> 4  ;  (not le_nat([n, m])) -> max([n, m, n]) -> 3  ;  (le_nat([nn1, nn2])) -> le_nat([s(nn1), s(nn2)]) -> 4  ;  (le_nat([s(nn1), s(nn2)])) -> le_nat([nn1, nn2]) -> 2  ;  (le_nat([s(nn1), z])) -> BOT -> 2  ;  (le_nat([z, z])) -> BOT -> 4  ;  (max([n1, n2, _k]) /\ taller([t1, n1]) /\ taller([t2, n2])) -> taller([node(e, t1, t2), s(_k)]) -> 2  ;  (max([n1, n2, _l]) /\ shallower([t1, n1]) /\ shallower([t2, n2])) -> shallower([node(e, t1, t2), s(_l)]) -> 2  ;  (shallower([t1, m]) /\ shallower([t2, m])) -> shallower([node(e, t1, t2), s(m)]) -> 4  ;  (shallower([t1, m]) /\ shallower([node(e, t1, t2), s(m)])) -> shallower([t2, m]) -> 2  ;  (not shallower([t1, m]) /\ shallower([node(e, t1, t2), s(m)])) -> BOT -> 2  ;  (shallower([node(e, t1, t2), z])) -> BOT -> 2  ;  (taller([t1, m])) -> taller([node(e, t1, t2), s(m)]) -> 4  ;  (not taller([t1, m]) /\ taller([t2, m])) -> taller([node(e, t1, t2), s(m)]) -> 4  ;  (not taller([t1, m]) /\ not taller([t2, m]) /\ taller([node(e, t1, t2), s(m)])) -> BOT -> 2  ;  (taller([leaf, s(m)])) -> BOT -> 2
}
Sat witness: Yes: ((le_nat([n, m])) -> max([n, m, m]), {
m -> s(z)  ;  n -> z
})

-------------------------------------------
Step 11, which took 0.007816 s (model generation: 0.007798,  model checking: 0.000018):

Model:
|_
{
le_nat -> 
{{{
Q={q_gen_9950, q_gen_9957, q_gen_9958},
Q_f={q_gen_9957},
Delta=
{
<z>() -> q_gen_9958
<z, z>() -> q_gen_9950
<s, s>(q_gen_9957) -> q_gen_9957
<z, s>(q_gen_9958) -> q_gen_9957
}

Datatype: <nat, nat>
Convolution form: right
}}}
  ;  max -> 
{{{
Q={q_gen_9951, q_gen_9975},
Q_f={q_gen_9951},
Delta=
{
<z, z>() -> q_gen_9975
<z, s, s>(q_gen_9975) -> q_gen_9951
<z, z, z>() -> q_gen_9951
}

Datatype: <nat, nat, nat>
Convolution form: right
}}}
  ;  shallower -> 
{{{
Q={q_gen_9956, q_gen_9971, q_gen_9972},
Q_f={q_gen_9956},
Delta=
{
<leaf>() -> q_gen_9971
<b>() -> q_gen_9972
<leaf, z>() -> q_gen_9956
<node, s>(q_gen_9972, q_gen_9971, q_gen_9956) -> q_gen_9956
}

Datatype: <etree, nat>
Convolution form: right
}}}
  ;  taller -> 
{{{
Q={q_gen_9952, q_gen_9953, q_gen_9954, q_gen_9968},
Q_f={q_gen_9952},
Delta=
{
<leaf>() -> q_gen_9953
<node>(q_gen_9954, q_gen_9953, q_gen_9953) -> q_gen_9953
<a>() -> q_gen_9954
<b>() -> q_gen_9954
<z>() -> q_gen_9968
<leaf, s>(q_gen_9968) -> q_gen_9952
<leaf, z>() -> q_gen_9952
<node, s>(q_gen_9954, q_gen_9953, q_gen_9952) -> q_gen_9952
<node, z>(q_gen_9954, q_gen_9953, q_gen_9953) -> q_gen_9952
}

Datatype: <etree, nat>
Convolution form: right
}}}

}
--
Equality automata are defined for: {eq_elt, eq_etree, eq_nat}
_|

Teacher's answer:
New clause system:
{
() -> le_nat([z, s(nn2)]) -> 3  ;  () -> shallower([leaf, n]) -> 3  ;  () -> taller([leaf, z]) -> 3  ;  () -> taller([node(e, t1, t2), z]) -> 3  ;  (le_nat([n, m])) -> max([n, m, m]) -> 4  ;  (not le_nat([n, m])) -> max([n, m, n]) -> 3  ;  (le_nat([nn1, nn2])) -> le_nat([s(nn1), s(nn2)]) -> 4  ;  (le_nat([s(nn1), s(nn2)])) -> le_nat([nn1, nn2]) -> 2  ;  (le_nat([s(nn1), z])) -> BOT -> 2  ;  (le_nat([z, z])) -> BOT -> 4  ;  (max([n1, n2, _k]) /\ taller([t1, n1]) /\ taller([t2, n2])) -> taller([node(e, t1, t2), s(_k)]) -> 2  ;  (max([n1, n2, _l]) /\ shallower([t1, n1]) /\ shallower([t2, n2])) -> shallower([node(e, t1, t2), s(_l)]) -> 2  ;  (shallower([t1, m]) /\ shallower([t2, m])) -> shallower([node(e, t1, t2), s(m)]) -> 4  ;  (shallower([t1, m]) /\ shallower([node(e, t1, t2), s(m)])) -> shallower([t2, m]) -> 2  ;  (not shallower([t1, m]) /\ shallower([node(e, t1, t2), s(m)])) -> BOT -> 2  ;  (shallower([node(e, t1, t2), z])) -> BOT -> 2  ;  (taller([t1, m])) -> taller([node(e, t1, t2), s(m)]) -> 4  ;  (not taller([t1, m]) /\ taller([t2, m])) -> taller([node(e, t1, t2), s(m)]) -> 4  ;  (not taller([t1, m]) /\ not taller([t2, m]) /\ taller([node(e, t1, t2), s(m)])) -> BOT -> 2  ;  (taller([leaf, s(m)])) -> BOT -> 5
}
Sat witness: Yes: ((taller([leaf, s(m)])) -> BOT, {
m -> z
})

-------------------------------------------
Step 12, which took 0.007666 s (model generation: 0.006950,  model checking: 0.000716):

Model:
|_
{
le_nat -> 
{{{
Q={q_gen_9950, q_gen_9957, q_gen_9958},
Q_f={q_gen_9957},
Delta=
{
<z>() -> q_gen_9958
<z, z>() -> q_gen_9950
<s, s>(q_gen_9957) -> q_gen_9957
<z, s>(q_gen_9958) -> q_gen_9957
}

Datatype: <nat, nat>
Convolution form: right
}}}
  ;  max -> 
{{{
Q={q_gen_9951, q_gen_9975},
Q_f={q_gen_9951},
Delta=
{
<z, z>() -> q_gen_9975
<z, s, s>(q_gen_9975) -> q_gen_9951
<z, z, z>() -> q_gen_9951
}

Datatype: <nat, nat, nat>
Convolution form: right
}}}
  ;  shallower -> 
{{{
Q={q_gen_9956, q_gen_9971, q_gen_9972},
Q_f={q_gen_9956},
Delta=
{
<leaf>() -> q_gen_9971
<b>() -> q_gen_9972
<leaf, z>() -> q_gen_9956
<node, s>(q_gen_9972, q_gen_9971, q_gen_9956) -> q_gen_9956
}

Datatype: <etree, nat>
Convolution form: right
}}}
  ;  taller -> 
{{{
Q={q_gen_9952, q_gen_9953, q_gen_9954, q_gen_9967, q_gen_9968},
Q_f={q_gen_9952},
Delta=
{
<leaf>() -> q_gen_9953
<node>(q_gen_9954, q_gen_9953, q_gen_9953) -> q_gen_9953
<a>() -> q_gen_9954
<b>() -> q_gen_9954
<z>() -> q_gen_9968
<leaf, z>() -> q_gen_9952
<node, s>(q_gen_9954, q_gen_9953, q_gen_9952) -> q_gen_9952
<node, s>(q_gen_9954, q_gen_9953, q_gen_9967) -> q_gen_9952
<node, z>(q_gen_9954, q_gen_9953, q_gen_9953) -> q_gen_9952
<leaf, s>(q_gen_9968) -> q_gen_9967
}

Datatype: <etree, nat>
Convolution form: right
}}}

}
--
Equality automata are defined for: {eq_elt, eq_etree, eq_nat}
_|

Teacher's answer:
New clause system:
{
() -> le_nat([z, s(nn2)]) -> 3  ;  () -> shallower([leaf, n]) -> 3  ;  () -> taller([leaf, z]) -> 3  ;  () -> taller([node(e, t1, t2), z]) -> 3  ;  (le_nat([n, m])) -> max([n, m, m]) -> 4  ;  (not le_nat([n, m])) -> max([n, m, n]) -> 3  ;  (le_nat([nn1, nn2])) -> le_nat([s(nn1), s(nn2)]) -> 4  ;  (le_nat([s(nn1), s(nn2)])) -> le_nat([nn1, nn2]) -> 2  ;  (le_nat([s(nn1), z])) -> BOT -> 2  ;  (le_nat([z, z])) -> BOT -> 4  ;  (max([n1, n2, _k]) /\ taller([t1, n1]) /\ taller([t2, n2])) -> taller([node(e, t1, t2), s(_k)]) -> 2  ;  (max([n1, n2, _l]) /\ shallower([t1, n1]) /\ shallower([t2, n2])) -> shallower([node(e, t1, t2), s(_l)]) -> 2  ;  (shallower([t1, m]) /\ shallower([t2, m])) -> shallower([node(e, t1, t2), s(m)]) -> 4  ;  (shallower([t1, m]) /\ shallower([node(e, t1, t2), s(m)])) -> shallower([t2, m]) -> 2  ;  (not shallower([t1, m]) /\ shallower([node(e, t1, t2), s(m)])) -> BOT -> 2  ;  (shallower([node(e, t1, t2), z])) -> BOT -> 2  ;  (taller([t1, m])) -> taller([node(e, t1, t2), s(m)]) -> 4  ;  (not taller([t1, m]) /\ taller([t2, m])) -> taller([node(e, t1, t2), s(m)]) -> 4  ;  (not taller([t1, m]) /\ not taller([t2, m]) /\ taller([node(e, t1, t2), s(m)])) -> BOT -> 5  ;  (taller([leaf, s(m)])) -> BOT -> 5
}
Sat witness: Yes: ((not taller([t1, m]) /\ not taller([t2, m]) /\ taller([node(e, t1, t2), s(m)])) -> BOT, {
e -> b  ;  m -> s(z)  ;  t1 -> leaf  ;  t2 -> leaf
})

-------------------------------------------
Step 13, which took 0.011383 s (model generation: 0.010823,  model checking: 0.000560):

Model:
|_
{
le_nat -> 
{{{
Q={q_gen_9950, q_gen_9957, q_gen_9958},
Q_f={q_gen_9957},
Delta=
{
<z>() -> q_gen_9958
<z, z>() -> q_gen_9950
<s, s>(q_gen_9957) -> q_gen_9957
<z, s>(q_gen_9958) -> q_gen_9957
}

Datatype: <nat, nat>
Convolution form: right
}}}
  ;  max -> 
{{{
Q={q_gen_9951, q_gen_9975},
Q_f={q_gen_9951},
Delta=
{
<z, z>() -> q_gen_9975
<z, s, s>(q_gen_9975) -> q_gen_9951
<z, z, z>() -> q_gen_9951
}

Datatype: <nat, nat, nat>
Convolution form: right
}}}
  ;  shallower -> 
{{{
Q={q_gen_9956, q_gen_9971, q_gen_9972},
Q_f={q_gen_9956},
Delta=
{
<leaf>() -> q_gen_9971
<b>() -> q_gen_9972
<leaf, z>() -> q_gen_9956
<node, s>(q_gen_9972, q_gen_9971, q_gen_9956) -> q_gen_9956
}

Datatype: <etree, nat>
Convolution form: right
}}}
  ;  taller -> 
{{{
Q={q_gen_9952, q_gen_9953, q_gen_9954, q_gen_9962, q_gen_9968},
Q_f={q_gen_9952},
Delta=
{
<leaf>() -> q_gen_9953
<node>(q_gen_9954, q_gen_9953, q_gen_9953) -> q_gen_9953
<a>() -> q_gen_9954
<b>() -> q_gen_9954
<z>() -> q_gen_9968
<leaf, z>() -> q_gen_9952
<node, z>(q_gen_9954, q_gen_9953, q_gen_9953) -> q_gen_9952
<leaf, s>(q_gen_9968) -> q_gen_9962
<node, s>(q_gen_9954, q_gen_9953, q_gen_9952) -> q_gen_9962
<node, s>(q_gen_9954, q_gen_9953, q_gen_9962) -> q_gen_9962
}

Datatype: <etree, nat>
Convolution form: right
}}}

}
--
Equality automata are defined for: {eq_elt, eq_etree, eq_nat}
_|

Teacher's answer:
New clause system:
{
() -> le_nat([z, s(nn2)]) -> 3  ;  () -> shallower([leaf, n]) -> 3  ;  () -> taller([leaf, z]) -> 3  ;  () -> taller([node(e, t1, t2), z]) -> 3  ;  (le_nat([n, m])) -> max([n, m, m]) -> 4  ;  (not le_nat([n, m])) -> max([n, m, n]) -> 3  ;  (le_nat([nn1, nn2])) -> le_nat([s(nn1), s(nn2)]) -> 4  ;  (le_nat([s(nn1), s(nn2)])) -> le_nat([nn1, nn2]) -> 2  ;  (le_nat([s(nn1), z])) -> BOT -> 2  ;  (le_nat([z, z])) -> BOT -> 4  ;  (max([n1, n2, _k]) /\ taller([t1, n1]) /\ taller([t2, n2])) -> taller([node(e, t1, t2), s(_k)]) -> 2  ;  (max([n1, n2, _l]) /\ shallower([t1, n1]) /\ shallower([t2, n2])) -> shallower([node(e, t1, t2), s(_l)]) -> 2  ;  (shallower([t1, m]) /\ shallower([t2, m])) -> shallower([node(e, t1, t2), s(m)]) -> 4  ;  (shallower([t1, m]) /\ shallower([node(e, t1, t2), s(m)])) -> shallower([t2, m]) -> 2  ;  (not shallower([t1, m]) /\ shallower([node(e, t1, t2), s(m)])) -> BOT -> 5  ;  (shallower([node(e, t1, t2), z])) -> BOT -> 3  ;  (taller([t1, m])) -> taller([node(e, t1, t2), s(m)]) -> 4  ;  (not taller([t1, m]) /\ taller([t2, m])) -> taller([node(e, t1, t2), s(m)]) -> 4  ;  (not taller([t1, m]) /\ not taller([t2, m]) /\ taller([node(e, t1, t2), s(m)])) -> BOT -> 5  ;  (taller([leaf, s(m)])) -> BOT -> 5
}
Sat witness: Yes: ((not shallower([t1, m]) /\ shallower([node(e, t1, t2), s(m)])) -> BOT, {
e -> b  ;  m -> s(z)  ;  t1 -> leaf  ;  t2 -> node(b, leaf, leaf)
})

-------------------------------------------
Step 14, which took 0.018567 s (model generation: 0.007253,  model checking: 0.011314):

Model:
|_
{
le_nat -> 
{{{
Q={q_gen_9950, q_gen_9957, q_gen_9958},
Q_f={q_gen_9957},
Delta=
{
<z>() -> q_gen_9958
<z, z>() -> q_gen_9950
<s, s>(q_gen_9957) -> q_gen_9957
<z, s>(q_gen_9958) -> q_gen_9957
}

Datatype: <nat, nat>
Convolution form: right
}}}
  ;  max -> 
{{{
Q={q_gen_9951, q_gen_9975},
Q_f={q_gen_9951},
Delta=
{
<z, z>() -> q_gen_9975
<z, s, s>(q_gen_9975) -> q_gen_9951
<z, z, z>() -> q_gen_9951
}

Datatype: <nat, nat, nat>
Convolution form: right
}}}
  ;  shallower -> 
{{{
Q={q_gen_9956, q_gen_9971, q_gen_9972, q_gen_9978},
Q_f={q_gen_9956},
Delta=
{
<leaf>() -> q_gen_9971
<b>() -> q_gen_9972
<z>() -> q_gen_9978
<leaf, s>(q_gen_9978) -> q_gen_9956
<leaf, z>() -> q_gen_9956
<node, s>(q_gen_9972, q_gen_9971, q_gen_9956) -> q_gen_9956
}

Datatype: <etree, nat>
Convolution form: right
}}}
  ;  taller -> 
{{{
Q={q_gen_9952, q_gen_9953, q_gen_9954, q_gen_9962, q_gen_9968},
Q_f={q_gen_9952},
Delta=
{
<leaf>() -> q_gen_9953
<node>(q_gen_9954, q_gen_9953, q_gen_9953) -> q_gen_9953
<a>() -> q_gen_9954
<b>() -> q_gen_9954
<z>() -> q_gen_9968
<leaf, z>() -> q_gen_9952
<node, z>(q_gen_9954, q_gen_9953, q_gen_9953) -> q_gen_9952
<leaf, s>(q_gen_9968) -> q_gen_9962
<node, s>(q_gen_9954, q_gen_9953, q_gen_9952) -> q_gen_9962
<node, s>(q_gen_9954, q_gen_9953, q_gen_9962) -> q_gen_9962
}

Datatype: <etree, nat>
Convolution form: right
}}}

}
--
Equality automata are defined for: {eq_elt, eq_etree, eq_nat}
_|

Teacher's answer:
New clause system:
{
() -> le_nat([z, s(nn2)]) -> 3  ;  () -> shallower([leaf, n]) -> 3  ;  () -> taller([leaf, z]) -> 3  ;  () -> taller([node(e, t1, t2), z]) -> 3  ;  (le_nat([n, m])) -> max([n, m, m]) -> 4  ;  (not le_nat([n, m])) -> max([n, m, n]) -> 3  ;  (le_nat([nn1, nn2])) -> le_nat([s(nn1), s(nn2)]) -> 4  ;  (le_nat([s(nn1), s(nn2)])) -> le_nat([nn1, nn2]) -> 2  ;  (le_nat([s(nn1), z])) -> BOT -> 2  ;  (le_nat([z, z])) -> BOT -> 4  ;  (max([n1, n2, _k]) /\ taller([t1, n1]) /\ taller([t2, n2])) -> taller([node(e, t1, t2), s(_k)]) -> 2  ;  (max([n1, n2, _l]) /\ shallower([t1, n1]) /\ shallower([t2, n2])) -> shallower([node(e, t1, t2), s(_l)]) -> 5  ;  (shallower([t1, m]) /\ shallower([t2, m])) -> shallower([node(e, t1, t2), s(m)]) -> 4  ;  (shallower([t1, m]) /\ shallower([node(e, t1, t2), s(m)])) -> shallower([t2, m]) -> 3  ;  (not shallower([t1, m]) /\ shallower([node(e, t1, t2), s(m)])) -> BOT -> 5  ;  (shallower([node(e, t1, t2), z])) -> BOT -> 3  ;  (taller([t1, m])) -> taller([node(e, t1, t2), s(m)]) -> 4  ;  (not taller([t1, m]) /\ taller([t2, m])) -> taller([node(e, t1, t2), s(m)]) -> 4  ;  (not taller([t1, m]) /\ not taller([t2, m]) /\ taller([node(e, t1, t2), s(m)])) -> BOT -> 5  ;  (taller([leaf, s(m)])) -> BOT -> 5
}
Sat witness: Yes: ((max([n1, n2, _l]) /\ shallower([t1, n1]) /\ shallower([t2, n2])) -> shallower([node(e, t1, t2), s(_l)]), {
_l -> z  ;  e -> a  ;  n1 -> z  ;  n2 -> z  ;  t1 -> leaf  ;  t2 -> leaf
})

-------------------------------------------
Step 15, which took 0.010125 s (model generation: 0.009713,  model checking: 0.000412):

Model:
|_
{
le_nat -> 
{{{
Q={q_gen_9950, q_gen_9957, q_gen_9958},
Q_f={q_gen_9957},
Delta=
{
<z>() -> q_gen_9958
<z, z>() -> q_gen_9950
<s, s>(q_gen_9957) -> q_gen_9957
<z, s>(q_gen_9958) -> q_gen_9957
}

Datatype: <nat, nat>
Convolution form: right
}}}
  ;  max -> 
{{{
Q={q_gen_9951, q_gen_9975},
Q_f={q_gen_9951},
Delta=
{
<z, z>() -> q_gen_9975
<z, s, s>(q_gen_9975) -> q_gen_9951
<z, z, z>() -> q_gen_9951
}

Datatype: <nat, nat, nat>
Convolution form: right
}}}
  ;  shallower -> 
{{{
Q={q_gen_9956, q_gen_9971, q_gen_9972, q_gen_9978},
Q_f={q_gen_9956},
Delta=
{
<leaf>() -> q_gen_9971
<a>() -> q_gen_9972
<b>() -> q_gen_9972
<z>() -> q_gen_9978
<leaf, s>(q_gen_9978) -> q_gen_9956
<leaf, z>() -> q_gen_9956
<node, s>(q_gen_9972, q_gen_9971, q_gen_9956) -> q_gen_9956
}

Datatype: <etree, nat>
Convolution form: right
}}}
  ;  taller -> 
{{{
Q={q_gen_9952, q_gen_9953, q_gen_9954, q_gen_9962, q_gen_9968},
Q_f={q_gen_9952},
Delta=
{
<leaf>() -> q_gen_9953
<node>(q_gen_9954, q_gen_9953, q_gen_9953) -> q_gen_9953
<a>() -> q_gen_9954
<b>() -> q_gen_9954
<z>() -> q_gen_9968
<leaf, z>() -> q_gen_9952
<node, z>(q_gen_9954, q_gen_9953, q_gen_9953) -> q_gen_9952
<leaf, s>(q_gen_9968) -> q_gen_9962
<node, s>(q_gen_9954, q_gen_9953, q_gen_9952) -> q_gen_9962
<node, s>(q_gen_9954, q_gen_9953, q_gen_9962) -> q_gen_9962
}

Datatype: <etree, nat>
Convolution form: right
}}}

}
--
Equality automata are defined for: {eq_elt, eq_etree, eq_nat}
_|

Teacher's answer:
New clause system:
{
() -> le_nat([z, s(nn2)]) -> 3  ;  () -> shallower([leaf, n]) -> 3  ;  () -> taller([leaf, z]) -> 3  ;  () -> taller([node(e, t1, t2), z]) -> 3  ;  (le_nat([n, m])) -> max([n, m, m]) -> 4  ;  (not le_nat([n, m])) -> max([n, m, n]) -> 3  ;  (le_nat([nn1, nn2])) -> le_nat([s(nn1), s(nn2)]) -> 4  ;  (le_nat([s(nn1), s(nn2)])) -> le_nat([nn1, nn2]) -> 2  ;  (le_nat([s(nn1), z])) -> BOT -> 2  ;  (le_nat([z, z])) -> BOT -> 4  ;  (max([n1, n2, _k]) /\ taller([t1, n1]) /\ taller([t2, n2])) -> taller([node(e, t1, t2), s(_k)]) -> 5  ;  (max([n1, n2, _l]) /\ shallower([t1, n1]) /\ shallower([t2, n2])) -> shallower([node(e, t1, t2), s(_l)]) -> 5  ;  (shallower([t1, m]) /\ shallower([t2, m])) -> shallower([node(e, t1, t2), s(m)]) -> 4  ;  (shallower([t1, m]) /\ shallower([node(e, t1, t2), s(m)])) -> shallower([t2, m]) -> 3  ;  (not shallower([t1, m]) /\ shallower([node(e, t1, t2), s(m)])) -> BOT -> 5  ;  (shallower([node(e, t1, t2), z])) -> BOT -> 3  ;  (taller([t1, m])) -> taller([node(e, t1, t2), s(m)]) -> 4  ;  (not taller([t1, m]) /\ taller([t2, m])) -> taller([node(e, t1, t2), s(m)]) -> 4  ;  (not taller([t1, m]) /\ not taller([t2, m]) /\ taller([node(e, t1, t2), s(m)])) -> BOT -> 5  ;  (taller([leaf, s(m)])) -> BOT -> 5
}
Sat witness: Yes: ((max([n1, n2, _k]) /\ taller([t1, n1]) /\ taller([t2, n2])) -> taller([node(e, t1, t2), s(_k)]), {
_k -> z  ;  e -> b  ;  n1 -> z  ;  n2 -> z  ;  t1 -> leaf  ;  t2 -> leaf
})

-------------------------------------------
Step 16, which took 0.013108 s (model generation: 0.011225,  model checking: 0.001883):

Model:
|_
{
le_nat -> 
{{{
Q={q_gen_9950, q_gen_9957, q_gen_9958},
Q_f={q_gen_9957},
Delta=
{
<z>() -> q_gen_9958
<z, z>() -> q_gen_9950
<s, s>(q_gen_9957) -> q_gen_9957
<z, s>(q_gen_9958) -> q_gen_9957
}

Datatype: <nat, nat>
Convolution form: right
}}}
  ;  max -> 
{{{
Q={q_gen_9951, q_gen_9975},
Q_f={q_gen_9951},
Delta=
{
<z, z>() -> q_gen_9975
<z, s, s>(q_gen_9975) -> q_gen_9951
<z, z, z>() -> q_gen_9951
}

Datatype: <nat, nat, nat>
Convolution form: right
}}}
  ;  shallower -> 
{{{
Q={q_gen_9956, q_gen_9971, q_gen_9972, q_gen_9978},
Q_f={q_gen_9956},
Delta=
{
<leaf>() -> q_gen_9971
<a>() -> q_gen_9972
<b>() -> q_gen_9972
<z>() -> q_gen_9978
<leaf, s>(q_gen_9978) -> q_gen_9956
<leaf, z>() -> q_gen_9956
<node, s>(q_gen_9972, q_gen_9971, q_gen_9956) -> q_gen_9956
}

Datatype: <etree, nat>
Convolution form: right
}}}
  ;  taller -> 
{{{
Q={q_gen_9952, q_gen_9953, q_gen_9954, q_gen_9959, q_gen_9960, q_gen_9968},
Q_f={q_gen_9952},
Delta=
{
<leaf>() -> q_gen_9953
<node>(q_gen_9954, q_gen_9953, q_gen_9960) -> q_gen_9953
<node>(q_gen_9954, q_gen_9960, q_gen_9960) -> q_gen_9953
<a>() -> q_gen_9954
<b>() -> q_gen_9954
<node>(q_gen_9954, q_gen_9953, q_gen_9953) -> q_gen_9960
<z>() -> q_gen_9968
<leaf, z>() -> q_gen_9952
<node, s>(q_gen_9954, q_gen_9953, q_gen_9952) -> q_gen_9952
<node, z>(q_gen_9954, q_gen_9953, q_gen_9953) -> q_gen_9952
<leaf, s>(q_gen_9968) -> q_gen_9959
<node, s>(q_gen_9954, q_gen_9953, q_gen_9959) -> q_gen_9959
<node, s>(q_gen_9954, q_gen_9960, q_gen_9952) -> q_gen_9959
<node, z>(q_gen_9954, q_gen_9953, q_gen_9960) -> q_gen_9959
}

Datatype: <etree, nat>
Convolution form: right
}}}

}
--
Equality automata are defined for: {eq_elt, eq_etree, eq_nat}
_|

Teacher's answer:
New clause system:
{
() -> le_nat([z, s(nn2)]) -> 3  ;  () -> shallower([leaf, n]) -> 3  ;  () -> taller([leaf, z]) -> 3  ;  () -> taller([node(e, t1, t2), z]) -> 3  ;  (le_nat([n, m])) -> max([n, m, m]) -> 4  ;  (not le_nat([n, m])) -> max([n, m, n]) -> 6  ;  (le_nat([nn1, nn2])) -> le_nat([s(nn1), s(nn2)]) -> 4  ;  (le_nat([s(nn1), s(nn2)])) -> le_nat([nn1, nn2]) -> 3  ;  (le_nat([s(nn1), z])) -> BOT -> 3  ;  (le_nat([z, z])) -> BOT -> 4  ;  (max([n1, n2, _k]) /\ taller([t1, n1]) /\ taller([t2, n2])) -> taller([node(e, t1, t2), s(_k)]) -> 5  ;  (max([n1, n2, _l]) /\ shallower([t1, n1]) /\ shallower([t2, n2])) -> shallower([node(e, t1, t2), s(_l)]) -> 5  ;  (shallower([t1, m]) /\ shallower([t2, m])) -> shallower([node(e, t1, t2), s(m)]) -> 4  ;  (shallower([t1, m]) /\ shallower([node(e, t1, t2), s(m)])) -> shallower([t2, m]) -> 4  ;  (not shallower([t1, m]) /\ shallower([node(e, t1, t2), s(m)])) -> BOT -> 5  ;  (shallower([node(e, t1, t2), z])) -> BOT -> 4  ;  (taller([t1, m])) -> taller([node(e, t1, t2), s(m)]) -> 4  ;  (not taller([t1, m]) /\ taller([t2, m])) -> taller([node(e, t1, t2), s(m)]) -> 4  ;  (not taller([t1, m]) /\ not taller([t2, m]) /\ taller([node(e, t1, t2), s(m)])) -> BOT -> 5  ;  (taller([leaf, s(m)])) -> BOT -> 5
}
Sat witness: Yes: ((not le_nat([n, m])) -> max([n, m, n]), {
m -> s(z)  ;  n -> s(z)
})

-------------------------------------------
Step 17, which took 0.012534 s (model generation: 0.011881,  model checking: 0.000653):

Model:
|_
{
le_nat -> 
{{{
Q={q_gen_9950, q_gen_9957, q_gen_9958},
Q_f={q_gen_9957},
Delta=
{
<z>() -> q_gen_9958
<s, s>(q_gen_9950) -> q_gen_9950
<z, z>() -> q_gen_9950
<s, s>(q_gen_9957) -> q_gen_9957
<z, s>(q_gen_9958) -> q_gen_9957
}

Datatype: <nat, nat>
Convolution form: right
}}}
  ;  max -> 
{{{
Q={q_gen_9951, q_gen_9975},
Q_f={q_gen_9951},
Delta=
{
<z, z>() -> q_gen_9975
<s, s, s>(q_gen_9951) -> q_gen_9951
<z, s, s>(q_gen_9975) -> q_gen_9951
<z, z, z>() -> q_gen_9951
}

Datatype: <nat, nat, nat>
Convolution form: right
}}}
  ;  shallower -> 
{{{
Q={q_gen_9956, q_gen_9971, q_gen_9972, q_gen_9978},
Q_f={q_gen_9956},
Delta=
{
<leaf>() -> q_gen_9971
<a>() -> q_gen_9972
<b>() -> q_gen_9972
<z>() -> q_gen_9978
<leaf, s>(q_gen_9978) -> q_gen_9956
<leaf, z>() -> q_gen_9956
<node, s>(q_gen_9972, q_gen_9971, q_gen_9956) -> q_gen_9956
}

Datatype: <etree, nat>
Convolution form: right
}}}
  ;  taller -> 
{{{
Q={q_gen_9952, q_gen_9953, q_gen_9954, q_gen_9959, q_gen_9960, q_gen_9968},
Q_f={q_gen_9952},
Delta=
{
<leaf>() -> q_gen_9953
<node>(q_gen_9954, q_gen_9953, q_gen_9960) -> q_gen_9953
<node>(q_gen_9954, q_gen_9960, q_gen_9960) -> q_gen_9953
<a>() -> q_gen_9954
<b>() -> q_gen_9954
<node>(q_gen_9954, q_gen_9953, q_gen_9953) -> q_gen_9960
<z>() -> q_gen_9968
<leaf, z>() -> q_gen_9952
<node, s>(q_gen_9954, q_gen_9953, q_gen_9952) -> q_gen_9952
<node, z>(q_gen_9954, q_gen_9953, q_gen_9953) -> q_gen_9952
<leaf, s>(q_gen_9968) -> q_gen_9959
<node, s>(q_gen_9954, q_gen_9953, q_gen_9959) -> q_gen_9959
<node, s>(q_gen_9954, q_gen_9960, q_gen_9952) -> q_gen_9959
<node, z>(q_gen_9954, q_gen_9953, q_gen_9960) -> q_gen_9959
}

Datatype: <etree, nat>
Convolution form: right
}}}

}
--
Equality automata are defined for: {eq_elt, eq_etree, eq_nat}
_|

Teacher's answer:
New clause system:
{
() -> le_nat([z, s(nn2)]) -> 3  ;  () -> shallower([leaf, n]) -> 3  ;  () -> taller([leaf, z]) -> 3  ;  () -> taller([node(e, t1, t2), z]) -> 6  ;  (le_nat([n, m])) -> max([n, m, m]) -> 4  ;  (not le_nat([n, m])) -> max([n, m, n]) -> 6  ;  (le_nat([nn1, nn2])) -> le_nat([s(nn1), s(nn2)]) -> 4  ;  (le_nat([s(nn1), s(nn2)])) -> le_nat([nn1, nn2]) -> 4  ;  (le_nat([s(nn1), z])) -> BOT -> 4  ;  (le_nat([z, z])) -> BOT -> 4  ;  (max([n1, n2, _k]) /\ taller([t1, n1]) /\ taller([t2, n2])) -> taller([node(e, t1, t2), s(_k)]) -> 5  ;  (max([n1, n2, _l]) /\ shallower([t1, n1]) /\ shallower([t2, n2])) -> shallower([node(e, t1, t2), s(_l)]) -> 5  ;  (shallower([t1, m]) /\ shallower([t2, m])) -> shallower([node(e, t1, t2), s(m)]) -> 4  ;  (shallower([t1, m]) /\ shallower([node(e, t1, t2), s(m)])) -> shallower([t2, m]) -> 4  ;  (not shallower([t1, m]) /\ shallower([node(e, t1, t2), s(m)])) -> BOT -> 5  ;  (shallower([node(e, t1, t2), z])) -> BOT -> 4  ;  (taller([t1, m])) -> taller([node(e, t1, t2), s(m)]) -> 4  ;  (not taller([t1, m]) /\ taller([t2, m])) -> taller([node(e, t1, t2), s(m)]) -> 4  ;  (not taller([t1, m]) /\ not taller([t2, m]) /\ taller([node(e, t1, t2), s(m)])) -> BOT -> 5  ;  (taller([leaf, s(m)])) -> BOT -> 5
}
Sat witness: Yes: (() -> taller([node(e, t1, t2), z]), {
e -> b  ;  t1 -> leaf  ;  t2 -> node(b, leaf, leaf)
})

-------------------------------------------
Step 18, which took 0.012653 s (model generation: 0.012434,  model checking: 0.000219):

Model:
|_
{
le_nat -> 
{{{
Q={q_gen_9950, q_gen_9957, q_gen_9958},
Q_f={q_gen_9957},
Delta=
{
<z>() -> q_gen_9958
<s, s>(q_gen_9950) -> q_gen_9950
<z, z>() -> q_gen_9950
<s, s>(q_gen_9957) -> q_gen_9957
<z, s>(q_gen_9958) -> q_gen_9957
}

Datatype: <nat, nat>
Convolution form: right
}}}
  ;  max -> 
{{{
Q={q_gen_9951, q_gen_9975},
Q_f={q_gen_9951},
Delta=
{
<z, z>() -> q_gen_9975
<s, s, s>(q_gen_9951) -> q_gen_9951
<z, s, s>(q_gen_9975) -> q_gen_9951
<z, z, z>() -> q_gen_9951
}

Datatype: <nat, nat, nat>
Convolution form: right
}}}
  ;  shallower -> 
{{{
Q={q_gen_9956, q_gen_9971, q_gen_9972, q_gen_9978},
Q_f={q_gen_9956},
Delta=
{
<leaf>() -> q_gen_9971
<a>() -> q_gen_9972
<b>() -> q_gen_9972
<z>() -> q_gen_9978
<leaf, s>(q_gen_9978) -> q_gen_9956
<leaf, z>() -> q_gen_9956
<node, s>(q_gen_9972, q_gen_9971, q_gen_9956) -> q_gen_9956
}

Datatype: <etree, nat>
Convolution form: right
}}}
  ;  taller -> 
{{{
Q={q_gen_9952, q_gen_9953, q_gen_9954, q_gen_9960, q_gen_9967, q_gen_9968},
Q_f={q_gen_9952},
Delta=
{
<leaf>() -> q_gen_9953
<node>(q_gen_9954, q_gen_9953, q_gen_9960) -> q_gen_9953
<a>() -> q_gen_9954
<b>() -> q_gen_9954
<node>(q_gen_9954, q_gen_9953, q_gen_9953) -> q_gen_9960
<node>(q_gen_9954, q_gen_9960, q_gen_9960) -> q_gen_9960
<z>() -> q_gen_9968
<leaf, z>() -> q_gen_9952
<node, s>(q_gen_9954, q_gen_9953, q_gen_9952) -> q_gen_9952
<node, s>(q_gen_9954, q_gen_9960, q_gen_9952) -> q_gen_9952
<node, s>(q_gen_9954, q_gen_9960, q_gen_9967) -> q_gen_9952
<node, z>(q_gen_9954, q_gen_9953, q_gen_9953) -> q_gen_9952
<node, z>(q_gen_9954, q_gen_9953, q_gen_9960) -> q_gen_9952
<leaf, s>(q_gen_9968) -> q_gen_9967
<node, s>(q_gen_9954, q_gen_9953, q_gen_9967) -> q_gen_9967
}

Datatype: <etree, nat>
Convolution form: right
}}}

}
--
Equality automata are defined for: {eq_elt, eq_etree, eq_nat}
_|

Teacher's answer:
New clause system:
{
() -> le_nat([z, s(nn2)]) -> 3  ;  () -> shallower([leaf, n]) -> 6  ;  () -> taller([leaf, z]) -> 4  ;  () -> taller([node(e, t1, t2), z]) -> 6  ;  (le_nat([n, m])) -> max([n, m, m]) -> 4  ;  (not le_nat([n, m])) -> max([n, m, n]) -> 6  ;  (le_nat([nn1, nn2])) -> le_nat([s(nn1), s(nn2)]) -> 4  ;  (le_nat([s(nn1), s(nn2)])) -> le_nat([nn1, nn2]) -> 4  ;  (le_nat([s(nn1), z])) -> BOT -> 4  ;  (le_nat([z, z])) -> BOT -> 4  ;  (max([n1, n2, _k]) /\ taller([t1, n1]) /\ taller([t2, n2])) -> taller([node(e, t1, t2), s(_k)]) -> 5  ;  (max([n1, n2, _l]) /\ shallower([t1, n1]) /\ shallower([t2, n2])) -> shallower([node(e, t1, t2), s(_l)]) -> 5  ;  (shallower([t1, m]) /\ shallower([t2, m])) -> shallower([node(e, t1, t2), s(m)]) -> 4  ;  (shallower([t1, m]) /\ shallower([node(e, t1, t2), s(m)])) -> shallower([t2, m]) -> 4  ;  (not shallower([t1, m]) /\ shallower([node(e, t1, t2), s(m)])) -> BOT -> 5  ;  (shallower([node(e, t1, t2), z])) -> BOT -> 4  ;  (taller([t1, m])) -> taller([node(e, t1, t2), s(m)]) -> 4  ;  (not taller([t1, m]) /\ taller([t2, m])) -> taller([node(e, t1, t2), s(m)]) -> 4  ;  (not taller([t1, m]) /\ not taller([t2, m]) /\ taller([node(e, t1, t2), s(m)])) -> BOT -> 5  ;  (taller([leaf, s(m)])) -> BOT -> 5
}
Sat witness: Yes: (() -> shallower([leaf, n]), {
n -> s(s(z))
})

-------------------------------------------
Step 19, which took 0.015360 s (model generation: 0.015232,  model checking: 0.000128):

Model:
|_
{
le_nat -> 
{{{
Q={q_gen_9950, q_gen_9957, q_gen_9958},
Q_f={q_gen_9957},
Delta=
{
<z>() -> q_gen_9958
<s, s>(q_gen_9950) -> q_gen_9950
<z, z>() -> q_gen_9950
<s, s>(q_gen_9957) -> q_gen_9957
<z, s>(q_gen_9958) -> q_gen_9957
}

Datatype: <nat, nat>
Convolution form: right
}}}
  ;  max -> 
{{{
Q={q_gen_9951, q_gen_9975},
Q_f={q_gen_9951},
Delta=
{
<z, z>() -> q_gen_9975
<s, s, s>(q_gen_9951) -> q_gen_9951
<z, s, s>(q_gen_9975) -> q_gen_9951
<z, z, z>() -> q_gen_9951
}

Datatype: <nat, nat, nat>
Convolution form: right
}}}
  ;  shallower -> 
{{{
Q={q_gen_9956, q_gen_9971, q_gen_9972, q_gen_9978},
Q_f={q_gen_9956},
Delta=
{
<leaf>() -> q_gen_9971
<a>() -> q_gen_9972
<b>() -> q_gen_9972
<s>(q_gen_9978) -> q_gen_9978
<z>() -> q_gen_9978
<leaf, s>(q_gen_9978) -> q_gen_9956
<leaf, z>() -> q_gen_9956
<node, s>(q_gen_9972, q_gen_9971, q_gen_9956) -> q_gen_9956
}

Datatype: <etree, nat>
Convolution form: right
}}}
  ;  taller -> 
{{{
Q={q_gen_9952, q_gen_9953, q_gen_9954, q_gen_9960, q_gen_9967, q_gen_9968},
Q_f={q_gen_9952},
Delta=
{
<leaf>() -> q_gen_9953
<node>(q_gen_9954, q_gen_9953, q_gen_9960) -> q_gen_9953
<a>() -> q_gen_9954
<b>() -> q_gen_9954
<node>(q_gen_9954, q_gen_9953, q_gen_9953) -> q_gen_9960
<node>(q_gen_9954, q_gen_9960, q_gen_9960) -> q_gen_9960
<z>() -> q_gen_9968
<leaf, z>() -> q_gen_9952
<node, s>(q_gen_9954, q_gen_9953, q_gen_9952) -> q_gen_9952
<node, s>(q_gen_9954, q_gen_9960, q_gen_9952) -> q_gen_9952
<node, s>(q_gen_9954, q_gen_9960, q_gen_9967) -> q_gen_9952
<node, z>(q_gen_9954, q_gen_9953, q_gen_9953) -> q_gen_9952
<node, z>(q_gen_9954, q_gen_9953, q_gen_9960) -> q_gen_9952
<leaf, s>(q_gen_9968) -> q_gen_9967
<node, s>(q_gen_9954, q_gen_9953, q_gen_9967) -> q_gen_9967
}

Datatype: <etree, nat>
Convolution form: right
}}}

}
--
Equality automata are defined for: {eq_elt, eq_etree, eq_nat}
_|

Teacher's answer:
New clause system:
{
() -> le_nat([z, s(nn2)]) -> 6  ;  () -> shallower([leaf, n]) -> 6  ;  () -> taller([leaf, z]) -> 4  ;  () -> taller([node(e, t1, t2), z]) -> 6  ;  (le_nat([n, m])) -> max([n, m, m]) -> 4  ;  (not le_nat([n, m])) -> max([n, m, n]) -> 6  ;  (le_nat([nn1, nn2])) -> le_nat([s(nn1), s(nn2)]) -> 4  ;  (le_nat([s(nn1), s(nn2)])) -> le_nat([nn1, nn2]) -> 4  ;  (le_nat([s(nn1), z])) -> BOT -> 4  ;  (le_nat([z, z])) -> BOT -> 4  ;  (max([n1, n2, _k]) /\ taller([t1, n1]) /\ taller([t2, n2])) -> taller([node(e, t1, t2), s(_k)]) -> 5  ;  (max([n1, n2, _l]) /\ shallower([t1, n1]) /\ shallower([t2, n2])) -> shallower([node(e, t1, t2), s(_l)]) -> 5  ;  (shallower([t1, m]) /\ shallower([t2, m])) -> shallower([node(e, t1, t2), s(m)]) -> 4  ;  (shallower([t1, m]) /\ shallower([node(e, t1, t2), s(m)])) -> shallower([t2, m]) -> 4  ;  (not shallower([t1, m]) /\ shallower([node(e, t1, t2), s(m)])) -> BOT -> 5  ;  (shallower([node(e, t1, t2), z])) -> BOT -> 4  ;  (taller([t1, m])) -> taller([node(e, t1, t2), s(m)]) -> 4  ;  (not taller([t1, m]) /\ taller([t2, m])) -> taller([node(e, t1, t2), s(m)]) -> 4  ;  (not taller([t1, m]) /\ not taller([t2, m]) /\ taller([node(e, t1, t2), s(m)])) -> BOT -> 5  ;  (taller([leaf, s(m)])) -> BOT -> 5
}
Sat witness: Yes: (() -> le_nat([z, s(nn2)]), {
nn2 -> s(z)
})

Total time: 40.001274
Reason for stopping: DontKnow. Stopped because: timeout

