Solving ../../../../benchmarks/smtlib/true/mult_leq_succ.smt2...

Inference procedure has parameters:
Ice fuel: 200
Timeout: 40s
Convolution: right


Learning problem is:

env: {
nat -> {s, z}
}
definition:
{
(plus, F:
{() -> plus([n, z, n])
(plus([n, mm, _gz])) -> plus([n, s(mm), s(_gz)])}
(plus([_hz, _iz, _jz]) /\ plus([_hz, _iz, _kz])) -> eq_nat([_jz, _kz])
)
(mult, F:
{() -> mult([n, z, z])
(mult([n, mm, _lz]) /\ plus([n, _lz, _mz])) -> mult([n, s(mm), _mz])}
(mult([_nz, _oz, _pz]) /\ mult([_nz, _oz, _qz])) -> eq_nat([_pz, _qz])
)
(leq, P:
{() -> leq([z, s(nn2)])
() -> leq([z, z])
(leq([nn1, nn2])) -> leq([s(nn1), s(nn2)])
(leq([s(nn1), s(nn2)])) -> leq([nn1, nn2])
(leq([s(nn1), z])) -> BOT}
)
}

properties:
{(mult([n, s(m), _rz])) -> leq([n, _rz])}


over-approximation: {mult, plus}
under-approximation: {leq}

Clause system for inference is:

{
() -> leq([z, s(nn2)]) -> 0  ;  () -> leq([z, z]) -> 0  ;  () -> mult([n, z, z]) -> 0  ;  () -> plus([n, z, n]) -> 0  ;  (leq([nn1, nn2])) -> leq([s(nn1), s(nn2)]) -> 0  ;  (leq([s(nn1), s(nn2)])) -> leq([nn1, nn2]) -> 0  ;  (leq([s(nn1), z])) -> BOT -> 0  ;  (mult([n, mm, _lz]) /\ plus([n, _lz, _mz])) -> mult([n, s(mm), _mz]) -> 0  ;  (mult([n, s(m), _rz])) -> leq([n, _rz]) -> 0  ;  (plus([n, mm, _gz])) -> plus([n, s(mm), s(_gz)]) -> 0
}


Solving took 0.402094 seconds.
Proved
Model:
|_
{
leq -> 
{{{
Q={q_gen_6598, q_gen_6600, q_gen_6625},
Q_f={q_gen_6598},
Delta=
{
<s>(q_gen_6600) -> q_gen_6600
<z>() -> q_gen_6600
<s, s>(q_gen_6598) -> q_gen_6598
<z, s>(q_gen_6600) -> q_gen_6598
<z, z>() -> q_gen_6598
<s, s>(q_gen_6625) -> q_gen_6625
<s, z>(q_gen_6600) -> q_gen_6625
}

Datatype: <nat, nat>
Convolution form: right
}}}
  ;  mult -> 
{{{
Q={q_gen_6597, q_gen_6604, q_gen_6607, q_gen_6614, q_gen_6624, q_gen_6633},
Q_f={q_gen_6597, q_gen_6607},
Delta=
{
<s>(q_gen_6604) -> q_gen_6604
<z>() -> q_gen_6604
<s, s>(q_gen_6614) -> q_gen_6614
<z, s>(q_gen_6604) -> q_gen_6614
<z, z>() -> q_gen_6614
<s, s>(q_gen_6633) -> q_gen_6633
<s, z>(q_gen_6604) -> q_gen_6633
<s, s, s>(q_gen_6597) -> q_gen_6597
<s, z, s>(q_gen_6614) -> q_gen_6597
<z, s, s>(q_gen_6614) -> q_gen_6597
<z, s, s>(q_gen_6633) -> q_gen_6597
<z, s, z>(q_gen_6604) -> q_gen_6597
<z, z, s>(q_gen_6604) -> q_gen_6597
<z, z, z>() -> q_gen_6597
<s, z, s>(q_gen_6633) -> q_gen_6607
<s, z, z>(q_gen_6604) -> q_gen_6607
<s, s, s>(q_gen_6607) -> q_gen_6624
<s, s, s>(q_gen_6624) -> q_gen_6624
}

Datatype: <nat, nat, nat>
Convolution form: right
}}}
  ;  plus -> 
{{{
Q={q_gen_6596, q_gen_6602, q_gen_6612},
Q_f={q_gen_6596},
Delta=
{
<s>(q_gen_6612) -> q_gen_6612
<z>() -> q_gen_6612
<s, s>(q_gen_6602) -> q_gen_6602
<z, s>(q_gen_6612) -> q_gen_6602
<z, z>() -> q_gen_6602
<s, s, s>(q_gen_6596) -> q_gen_6596
<s, z, s>(q_gen_6602) -> q_gen_6596
<z, s, s>(q_gen_6602) -> q_gen_6596
<z, z, s>(q_gen_6612) -> q_gen_6596
<z, z, z>() -> q_gen_6596
}

Datatype: <nat, nat, nat>
Convolution form: right
}}}

}
--
Equality automata are defined for: {eq_nat}
_|

-------------------
STEPS:
-------------------------------------------
Step 0, which took 0.004143 s (model generation: 0.003736,  model checking: 0.000407):

Model:
|_
{
leq -> 
{{{
Q={},
Q_f={},
Delta=
{

}

Datatype: <nat, nat>
Convolution form: right
}}}
  ;  mult -> 
{{{
Q={},
Q_f={},
Delta=
{

}

Datatype: <nat, nat, nat>
Convolution form: right
}}}
  ;  plus -> 
{{{
Q={},
Q_f={},
Delta=
{

}

Datatype: <nat, nat, nat>
Convolution form: right
}}}

}
--
Equality automata are defined for: {eq_nat}
_|

Teacher's answer:
New clause system:
{
() -> leq([z, s(nn2)]) -> 0  ;  () -> leq([z, z]) -> 0  ;  () -> mult([n, z, z]) -> 0  ;  () -> plus([n, z, n]) -> 3  ;  (leq([nn1, nn2])) -> leq([s(nn1), s(nn2)]) -> 1  ;  (leq([s(nn1), s(nn2)])) -> leq([nn1, nn2]) -> 1  ;  (leq([s(nn1), z])) -> BOT -> 1  ;  (mult([n, mm, _lz]) /\ plus([n, _lz, _mz])) -> mult([n, s(mm), _mz]) -> 1  ;  (mult([n, s(m), _rz])) -> leq([n, _rz]) -> 1  ;  (plus([n, mm, _gz])) -> plus([n, s(mm), s(_gz)]) -> 1
}
Sat witness: Yes: (() -> plus([n, z, n]), {
n -> z
})

-------------------------------------------
Step 1, which took 0.003315 s (model generation: 0.003260,  model checking: 0.000055):

Model:
|_
{
leq -> 
{{{
Q={},
Q_f={},
Delta=
{

}

Datatype: <nat, nat>
Convolution form: right
}}}
  ;  mult -> 
{{{
Q={},
Q_f={},
Delta=
{

}

Datatype: <nat, nat, nat>
Convolution form: right
}}}
  ;  plus -> 
{{{
Q={q_gen_6596},
Q_f={q_gen_6596},
Delta=
{
<z, z, z>() -> q_gen_6596
}

Datatype: <nat, nat, nat>
Convolution form: right
}}}

}
--
Equality automata are defined for: {eq_nat}
_|

Teacher's answer:
New clause system:
{
() -> leq([z, s(nn2)]) -> 0  ;  () -> leq([z, z]) -> 0  ;  () -> mult([n, z, z]) -> 3  ;  () -> plus([n, z, n]) -> 3  ;  (leq([nn1, nn2])) -> leq([s(nn1), s(nn2)]) -> 1  ;  (leq([s(nn1), s(nn2)])) -> leq([nn1, nn2]) -> 1  ;  (leq([s(nn1), z])) -> BOT -> 1  ;  (mult([n, mm, _lz]) /\ plus([n, _lz, _mz])) -> mult([n, s(mm), _mz]) -> 1  ;  (mult([n, s(m), _rz])) -> leq([n, _rz]) -> 1  ;  (plus([n, mm, _gz])) -> plus([n, s(mm), s(_gz)]) -> 1
}
Sat witness: Yes: (() -> mult([n, z, z]), {
n -> z
})

-------------------------------------------
Step 2, which took 0.003125 s (model generation: 0.003098,  model checking: 0.000027):

Model:
|_
{
leq -> 
{{{
Q={},
Q_f={},
Delta=
{

}

Datatype: <nat, nat>
Convolution form: right
}}}
  ;  mult -> 
{{{
Q={q_gen_6597},
Q_f={q_gen_6597},
Delta=
{
<z, z, z>() -> q_gen_6597
}

Datatype: <nat, nat, nat>
Convolution form: right
}}}
  ;  plus -> 
{{{
Q={q_gen_6596},
Q_f={q_gen_6596},
Delta=
{
<z, z, z>() -> q_gen_6596
}

Datatype: <nat, nat, nat>
Convolution form: right
}}}

}
--
Equality automata are defined for: {eq_nat}
_|

Teacher's answer:
New clause system:
{
() -> leq([z, s(nn2)]) -> 0  ;  () -> leq([z, z]) -> 3  ;  () -> mult([n, z, z]) -> 3  ;  () -> plus([n, z, n]) -> 3  ;  (leq([nn1, nn2])) -> leq([s(nn1), s(nn2)]) -> 1  ;  (leq([s(nn1), s(nn2)])) -> leq([nn1, nn2]) -> 1  ;  (leq([s(nn1), z])) -> BOT -> 1  ;  (mult([n, mm, _lz]) /\ plus([n, _lz, _mz])) -> mult([n, s(mm), _mz]) -> 1  ;  (mult([n, s(m), _rz])) -> leq([n, _rz]) -> 1  ;  (plus([n, mm, _gz])) -> plus([n, s(mm), s(_gz)]) -> 1
}
Sat witness: Yes: (() -> leq([z, z]), {

})

-------------------------------------------
Step 3, which took 0.003211 s (model generation: 0.003172,  model checking: 0.000039):

Model:
|_
{
leq -> 
{{{
Q={q_gen_6598},
Q_f={q_gen_6598},
Delta=
{
<z, z>() -> q_gen_6598
}

Datatype: <nat, nat>
Convolution form: right
}}}
  ;  mult -> 
{{{
Q={q_gen_6597},
Q_f={q_gen_6597},
Delta=
{
<z, z, z>() -> q_gen_6597
}

Datatype: <nat, nat, nat>
Convolution form: right
}}}
  ;  plus -> 
{{{
Q={q_gen_6596},
Q_f={q_gen_6596},
Delta=
{
<z, z, z>() -> q_gen_6596
}

Datatype: <nat, nat, nat>
Convolution form: right
}}}

}
--
Equality automata are defined for: {eq_nat}
_|

Teacher's answer:
New clause system:
{
() -> leq([z, s(nn2)]) -> 3  ;  () -> leq([z, z]) -> 3  ;  () -> mult([n, z, z]) -> 3  ;  () -> plus([n, z, n]) -> 3  ;  (leq([nn1, nn2])) -> leq([s(nn1), s(nn2)]) -> 1  ;  (leq([s(nn1), s(nn2)])) -> leq([nn1, nn2]) -> 1  ;  (leq([s(nn1), z])) -> BOT -> 1  ;  (mult([n, mm, _lz]) /\ plus([n, _lz, _mz])) -> mult([n, s(mm), _mz]) -> 1  ;  (mult([n, s(m), _rz])) -> leq([n, _rz]) -> 1  ;  (plus([n, mm, _gz])) -> plus([n, s(mm), s(_gz)]) -> 1
}
Sat witness: Yes: (() -> leq([z, s(nn2)]), {
nn2 -> z
})

-------------------------------------------
Step 4, which took 0.003514 s (model generation: 0.003441,  model checking: 0.000073):

Model:
|_
{
leq -> 
{{{
Q={q_gen_6598, q_gen_6600},
Q_f={q_gen_6598},
Delta=
{
<z>() -> q_gen_6600
<z, s>(q_gen_6600) -> q_gen_6598
<z, z>() -> q_gen_6598
}

Datatype: <nat, nat>
Convolution form: right
}}}
  ;  mult -> 
{{{
Q={q_gen_6597},
Q_f={q_gen_6597},
Delta=
{
<z, z, z>() -> q_gen_6597
}

Datatype: <nat, nat, nat>
Convolution form: right
}}}
  ;  plus -> 
{{{
Q={q_gen_6596},
Q_f={q_gen_6596},
Delta=
{
<z, z, z>() -> q_gen_6596
}

Datatype: <nat, nat, nat>
Convolution form: right
}}}

}
--
Equality automata are defined for: {eq_nat}
_|

Teacher's answer:
New clause system:
{
() -> leq([z, s(nn2)]) -> 3  ;  () -> leq([z, z]) -> 3  ;  () -> mult([n, z, z]) -> 3  ;  () -> plus([n, z, n]) -> 3  ;  (leq([nn1, nn2])) -> leq([s(nn1), s(nn2)]) -> 1  ;  (leq([s(nn1), s(nn2)])) -> leq([nn1, nn2]) -> 1  ;  (leq([s(nn1), z])) -> BOT -> 1  ;  (mult([n, mm, _lz]) /\ plus([n, _lz, _mz])) -> mult([n, s(mm), _mz]) -> 1  ;  (mult([n, s(m), _rz])) -> leq([n, _rz]) -> 1  ;  (plus([n, mm, _gz])) -> plus([n, s(mm), s(_gz)]) -> 4
}
Sat witness: Yes: ((plus([n, mm, _gz])) -> plus([n, s(mm), s(_gz)]), {
_gz -> z  ;  mm -> z  ;  n -> z
})

-------------------------------------------
Step 5, which took 0.005369 s (model generation: 0.005118,  model checking: 0.000251):

Model:
|_
{
leq -> 
{{{
Q={q_gen_6598, q_gen_6600},
Q_f={q_gen_6598},
Delta=
{
<z>() -> q_gen_6600
<z, s>(q_gen_6600) -> q_gen_6598
<z, z>() -> q_gen_6598
}

Datatype: <nat, nat>
Convolution form: right
}}}
  ;  mult -> 
{{{
Q={q_gen_6597},
Q_f={q_gen_6597},
Delta=
{
<z, z, z>() -> q_gen_6597
}

Datatype: <nat, nat, nat>
Convolution form: right
}}}
  ;  plus -> 
{{{
Q={q_gen_6596, q_gen_6602},
Q_f={q_gen_6596},
Delta=
{
<z, z>() -> q_gen_6602
<z, s, s>(q_gen_6602) -> q_gen_6596
<z, z, z>() -> q_gen_6596
}

Datatype: <nat, nat, nat>
Convolution form: right
}}}

}
--
Equality automata are defined for: {eq_nat}
_|

Teacher's answer:
New clause system:
{
() -> leq([z, s(nn2)]) -> 3  ;  () -> leq([z, z]) -> 3  ;  () -> mult([n, z, z]) -> 3  ;  () -> plus([n, z, n]) -> 3  ;  (leq([nn1, nn2])) -> leq([s(nn1), s(nn2)]) -> 1  ;  (leq([s(nn1), s(nn2)])) -> leq([nn1, nn2]) -> 1  ;  (leq([s(nn1), z])) -> BOT -> 1  ;  (mult([n, mm, _lz]) /\ plus([n, _lz, _mz])) -> mult([n, s(mm), _mz]) -> 4  ;  (mult([n, s(m), _rz])) -> leq([n, _rz]) -> 2  ;  (plus([n, mm, _gz])) -> plus([n, s(mm), s(_gz)]) -> 4
}
Sat witness: Yes: ((mult([n, mm, _lz]) /\ plus([n, _lz, _mz])) -> mult([n, s(mm), _mz]), {
_lz -> z  ;  _mz -> z  ;  mm -> z  ;  n -> z
})

-------------------------------------------
Step 6, which took 0.010077 s (model generation: 0.009824,  model checking: 0.000253):

Model:
|_
{
leq -> 
{{{
Q={q_gen_6598, q_gen_6600},
Q_f={q_gen_6598},
Delta=
{
<z>() -> q_gen_6600
<z, s>(q_gen_6600) -> q_gen_6598
<z, z>() -> q_gen_6598
}

Datatype: <nat, nat>
Convolution form: right
}}}
  ;  mult -> 
{{{
Q={q_gen_6597, q_gen_6604},
Q_f={q_gen_6597},
Delta=
{
<z>() -> q_gen_6604
<z, s, z>(q_gen_6604) -> q_gen_6597
<z, z, z>() -> q_gen_6597
}

Datatype: <nat, nat, nat>
Convolution form: right
}}}
  ;  plus -> 
{{{
Q={q_gen_6596, q_gen_6602},
Q_f={q_gen_6596},
Delta=
{
<z, z>() -> q_gen_6602
<z, s, s>(q_gen_6602) -> q_gen_6596
<z, z, z>() -> q_gen_6596
}

Datatype: <nat, nat, nat>
Convolution form: right
}}}

}
--
Equality automata are defined for: {eq_nat}
_|

Teacher's answer:
New clause system:
{
() -> leq([z, s(nn2)]) -> 3  ;  () -> leq([z, z]) -> 3  ;  () -> mult([n, z, z]) -> 3  ;  () -> plus([n, z, n]) -> 3  ;  (leq([nn1, nn2])) -> leq([s(nn1), s(nn2)]) -> 4  ;  (leq([s(nn1), s(nn2)])) -> leq([nn1, nn2]) -> 2  ;  (leq([s(nn1), z])) -> BOT -> 2  ;  (mult([n, mm, _lz]) /\ plus([n, _lz, _mz])) -> mult([n, s(mm), _mz]) -> 4  ;  (mult([n, s(m), _rz])) -> leq([n, _rz]) -> 2  ;  (plus([n, mm, _gz])) -> plus([n, s(mm), s(_gz)]) -> 4
}
Sat witness: Yes: ((leq([nn1, nn2])) -> leq([s(nn1), s(nn2)]), {
nn1 -> z  ;  nn2 -> z
})

-------------------------------------------
Step 7, which took 0.009562 s (model generation: 0.009404,  model checking: 0.000158):

Model:
|_
{
leq -> 
{{{
Q={q_gen_6598, q_gen_6600},
Q_f={q_gen_6598},
Delta=
{
<z>() -> q_gen_6600
<s, s>(q_gen_6598) -> q_gen_6598
<z, s>(q_gen_6600) -> q_gen_6598
<z, z>() -> q_gen_6598
}

Datatype: <nat, nat>
Convolution form: right
}}}
  ;  mult -> 
{{{
Q={q_gen_6597, q_gen_6604},
Q_f={q_gen_6597},
Delta=
{
<z>() -> q_gen_6604
<z, s, z>(q_gen_6604) -> q_gen_6597
<z, z, z>() -> q_gen_6597
}

Datatype: <nat, nat, nat>
Convolution form: right
}}}
  ;  plus -> 
{{{
Q={q_gen_6596, q_gen_6602},
Q_f={q_gen_6596},
Delta=
{
<z, z>() -> q_gen_6602
<z, s, s>(q_gen_6602) -> q_gen_6596
<z, z, z>() -> q_gen_6596
}

Datatype: <nat, nat, nat>
Convolution form: right
}}}

}
--
Equality automata are defined for: {eq_nat}
_|

Teacher's answer:
New clause system:
{
() -> leq([z, s(nn2)]) -> 3  ;  () -> leq([z, z]) -> 3  ;  () -> mult([n, z, z]) -> 3  ;  () -> plus([n, z, n]) -> 6  ;  (leq([nn1, nn2])) -> leq([s(nn1), s(nn2)]) -> 4  ;  (leq([s(nn1), s(nn2)])) -> leq([nn1, nn2]) -> 3  ;  (leq([s(nn1), z])) -> BOT -> 3  ;  (mult([n, mm, _lz]) /\ plus([n, _lz, _mz])) -> mult([n, s(mm), _mz]) -> 4  ;  (mult([n, s(m), _rz])) -> leq([n, _rz]) -> 3  ;  (plus([n, mm, _gz])) -> plus([n, s(mm), s(_gz)]) -> 4
}
Sat witness: Yes: (() -> plus([n, z, n]), {
n -> s(z)
})

-------------------------------------------
Step 8, which took 0.003461 s (model generation: 0.003308,  model checking: 0.000153):

Model:
|_
{
leq -> 
{{{
Q={q_gen_6598, q_gen_6600},
Q_f={q_gen_6598},
Delta=
{
<z>() -> q_gen_6600
<s, s>(q_gen_6598) -> q_gen_6598
<z, s>(q_gen_6600) -> q_gen_6598
<z, z>() -> q_gen_6598
}

Datatype: <nat, nat>
Convolution form: right
}}}
  ;  mult -> 
{{{
Q={q_gen_6597, q_gen_6604},
Q_f={q_gen_6597},
Delta=
{
<z>() -> q_gen_6604
<z, s, z>(q_gen_6604) -> q_gen_6597
<z, z, z>() -> q_gen_6597
}

Datatype: <nat, nat, nat>
Convolution form: right
}}}
  ;  plus -> 
{{{
Q={q_gen_6596, q_gen_6602},
Q_f={q_gen_6596},
Delta=
{
<z, z>() -> q_gen_6602
<s, z, s>(q_gen_6602) -> q_gen_6596
<z, s, s>(q_gen_6602) -> q_gen_6596
<z, z, z>() -> q_gen_6596
}

Datatype: <nat, nat, nat>
Convolution form: right
}}}

}
--
Equality automata are defined for: {eq_nat}
_|

Teacher's answer:
New clause system:
{
() -> leq([z, s(nn2)]) -> 3  ;  () -> leq([z, z]) -> 3  ;  () -> mult([n, z, z]) -> 6  ;  () -> plus([n, z, n]) -> 6  ;  (leq([nn1, nn2])) -> leq([s(nn1), s(nn2)]) -> 4  ;  (leq([s(nn1), s(nn2)])) -> leq([nn1, nn2]) -> 4  ;  (leq([s(nn1), z])) -> BOT -> 4  ;  (mult([n, mm, _lz]) /\ plus([n, _lz, _mz])) -> mult([n, s(mm), _mz]) -> 4  ;  (mult([n, s(m), _rz])) -> leq([n, _rz]) -> 4  ;  (plus([n, mm, _gz])) -> plus([n, s(mm), s(_gz)]) -> 4
}
Sat witness: Yes: (() -> mult([n, z, z]), {
n -> s(z)
})

-------------------------------------------
Step 9, which took 0.003472 s (model generation: 0.003407,  model checking: 0.000065):

Model:
|_
{
leq -> 
{{{
Q={q_gen_6598, q_gen_6600},
Q_f={q_gen_6598},
Delta=
{
<z>() -> q_gen_6600
<s, s>(q_gen_6598) -> q_gen_6598
<z, s>(q_gen_6600) -> q_gen_6598
<z, z>() -> q_gen_6598
}

Datatype: <nat, nat>
Convolution form: right
}}}
  ;  mult -> 
{{{
Q={q_gen_6597, q_gen_6604},
Q_f={q_gen_6597},
Delta=
{
<z>() -> q_gen_6604
<s, z, z>(q_gen_6604) -> q_gen_6597
<z, s, z>(q_gen_6604) -> q_gen_6597
<z, z, z>() -> q_gen_6597
}

Datatype: <nat, nat, nat>
Convolution form: right
}}}
  ;  plus -> 
{{{
Q={q_gen_6596, q_gen_6602},
Q_f={q_gen_6596},
Delta=
{
<z, z>() -> q_gen_6602
<s, z, s>(q_gen_6602) -> q_gen_6596
<z, s, s>(q_gen_6602) -> q_gen_6596
<z, z, z>() -> q_gen_6596
}

Datatype: <nat, nat, nat>
Convolution form: right
}}}

}
--
Equality automata are defined for: {eq_nat}
_|

Teacher's answer:
New clause system:
{
() -> leq([z, s(nn2)]) -> 6  ;  () -> leq([z, z]) -> 4  ;  () -> mult([n, z, z]) -> 6  ;  () -> plus([n, z, n]) -> 6  ;  (leq([nn1, nn2])) -> leq([s(nn1), s(nn2)]) -> 4  ;  (leq([s(nn1), s(nn2)])) -> leq([nn1, nn2]) -> 4  ;  (leq([s(nn1), z])) -> BOT -> 4  ;  (mult([n, mm, _lz]) /\ plus([n, _lz, _mz])) -> mult([n, s(mm), _mz]) -> 4  ;  (mult([n, s(m), _rz])) -> leq([n, _rz]) -> 4  ;  (plus([n, mm, _gz])) -> plus([n, s(mm), s(_gz)]) -> 4
}
Sat witness: Yes: (() -> leq([z, s(nn2)]), {
nn2 -> s(z)
})

-------------------------------------------
Step 10, which took 0.011344 s (model generation: 0.011005,  model checking: 0.000339):

Model:
|_
{
leq -> 
{{{
Q={q_gen_6598, q_gen_6600},
Q_f={q_gen_6598},
Delta=
{
<s>(q_gen_6600) -> q_gen_6600
<z>() -> q_gen_6600
<s, s>(q_gen_6598) -> q_gen_6598
<z, s>(q_gen_6600) -> q_gen_6598
<z, z>() -> q_gen_6598
}

Datatype: <nat, nat>
Convolution form: right
}}}
  ;  mult -> 
{{{
Q={q_gen_6597, q_gen_6604},
Q_f={q_gen_6597},
Delta=
{
<z>() -> q_gen_6604
<s, z, z>(q_gen_6604) -> q_gen_6597
<z, s, z>(q_gen_6604) -> q_gen_6597
<z, z, z>() -> q_gen_6597
}

Datatype: <nat, nat, nat>
Convolution form: right
}}}
  ;  plus -> 
{{{
Q={q_gen_6596, q_gen_6602},
Q_f={q_gen_6596},
Delta=
{
<z, z>() -> q_gen_6602
<s, z, s>(q_gen_6602) -> q_gen_6596
<z, s, s>(q_gen_6602) -> q_gen_6596
<z, z, z>() -> q_gen_6596
}

Datatype: <nat, nat, nat>
Convolution form: right
}}}

}
--
Equality automata are defined for: {eq_nat}
_|

Teacher's answer:
New clause system:
{
() -> leq([z, s(nn2)]) -> 6  ;  () -> leq([z, z]) -> 4  ;  () -> mult([n, z, z]) -> 6  ;  () -> plus([n, z, n]) -> 6  ;  (leq([nn1, nn2])) -> leq([s(nn1), s(nn2)]) -> 4  ;  (leq([s(nn1), s(nn2)])) -> leq([nn1, nn2]) -> 4  ;  (leq([s(nn1), z])) -> BOT -> 4  ;  (mult([n, mm, _lz]) /\ plus([n, _lz, _mz])) -> mult([n, s(mm), _mz]) -> 4  ;  (mult([n, s(m), _rz])) -> leq([n, _rz]) -> 4  ;  (plus([n, mm, _gz])) -> plus([n, s(mm), s(_gz)]) -> 7
}
Sat witness: Yes: ((plus([n, mm, _gz])) -> plus([n, s(mm), s(_gz)]), {
_gz -> s(z)  ;  mm -> z  ;  n -> s(z)
})

-------------------------------------------
Step 11, which took 0.012652 s (model generation: 0.012176,  model checking: 0.000476):

Model:
|_
{
leq -> 
{{{
Q={q_gen_6598, q_gen_6600},
Q_f={q_gen_6598},
Delta=
{
<s>(q_gen_6600) -> q_gen_6600
<z>() -> q_gen_6600
<s, s>(q_gen_6598) -> q_gen_6598
<z, s>(q_gen_6600) -> q_gen_6598
<z, z>() -> q_gen_6598
}

Datatype: <nat, nat>
Convolution form: right
}}}
  ;  mult -> 
{{{
Q={q_gen_6597, q_gen_6604},
Q_f={q_gen_6597},
Delta=
{
<z>() -> q_gen_6604
<s, z, z>(q_gen_6604) -> q_gen_6597
<z, s, z>(q_gen_6604) -> q_gen_6597
<z, z, z>() -> q_gen_6597
}

Datatype: <nat, nat, nat>
Convolution form: right
}}}
  ;  plus -> 
{{{
Q={q_gen_6596, q_gen_6602, q_gen_6612},
Q_f={q_gen_6596},
Delta=
{
<z>() -> q_gen_6612
<z, z>() -> q_gen_6602
<s, s, s>(q_gen_6596) -> q_gen_6596
<s, z, s>(q_gen_6602) -> q_gen_6596
<z, s, s>(q_gen_6602) -> q_gen_6596
<z, z, s>(q_gen_6612) -> q_gen_6596
<z, z, z>() -> q_gen_6596
}

Datatype: <nat, nat, nat>
Convolution form: right
}}}

}
--
Equality automata are defined for: {eq_nat}
_|

Teacher's answer:
New clause system:
{
() -> leq([z, s(nn2)]) -> 6  ;  () -> leq([z, z]) -> 4  ;  () -> mult([n, z, z]) -> 6  ;  () -> plus([n, z, n]) -> 6  ;  (leq([nn1, nn2])) -> leq([s(nn1), s(nn2)]) -> 4  ;  (leq([s(nn1), s(nn2)])) -> leq([nn1, nn2]) -> 4  ;  (leq([s(nn1), z])) -> BOT -> 4  ;  (mult([n, mm, _lz]) /\ plus([n, _lz, _mz])) -> mult([n, s(mm), _mz]) -> 7  ;  (mult([n, s(m), _rz])) -> leq([n, _rz]) -> 5  ;  (plus([n, mm, _gz])) -> plus([n, s(mm), s(_gz)]) -> 7
}
Sat witness: Yes: ((mult([n, mm, _lz]) /\ plus([n, _lz, _mz])) -> mult([n, s(mm), _mz]), {
_lz -> z  ;  _mz -> s(z)  ;  mm -> z  ;  n -> z
})

-------------------------------------------
Step 12, which took 0.013288 s (model generation: 0.012490,  model checking: 0.000798):

Model:
|_
{
leq -> 
{{{
Q={q_gen_6598, q_gen_6600},
Q_f={q_gen_6598},
Delta=
{
<s>(q_gen_6600) -> q_gen_6600
<z>() -> q_gen_6600
<s, s>(q_gen_6598) -> q_gen_6598
<z, s>(q_gen_6600) -> q_gen_6598
<z, z>() -> q_gen_6598
}

Datatype: <nat, nat>
Convolution form: right
}}}
  ;  mult -> 
{{{
Q={q_gen_6597, q_gen_6604, q_gen_6614},
Q_f={q_gen_6597},
Delta=
{
<z>() -> q_gen_6604
<z, z>() -> q_gen_6614
<s, z, z>(q_gen_6604) -> q_gen_6597
<z, s, s>(q_gen_6614) -> q_gen_6597
<z, s, z>(q_gen_6604) -> q_gen_6597
<z, z, z>() -> q_gen_6597
}

Datatype: <nat, nat, nat>
Convolution form: right
}}}
  ;  plus -> 
{{{
Q={q_gen_6596, q_gen_6602, q_gen_6612},
Q_f={q_gen_6596},
Delta=
{
<z>() -> q_gen_6612
<z, z>() -> q_gen_6602
<s, s, s>(q_gen_6596) -> q_gen_6596
<s, z, s>(q_gen_6602) -> q_gen_6596
<z, s, s>(q_gen_6602) -> q_gen_6596
<z, z, s>(q_gen_6612) -> q_gen_6596
<z, z, z>() -> q_gen_6596
}

Datatype: <nat, nat, nat>
Convolution form: right
}}}

}
--
Equality automata are defined for: {eq_nat}
_|

Teacher's answer:
New clause system:
{
() -> leq([z, s(nn2)]) -> 6  ;  () -> leq([z, z]) -> 5  ;  () -> mult([n, z, z]) -> 6  ;  () -> plus([n, z, n]) -> 9  ;  (leq([nn1, nn2])) -> leq([s(nn1), s(nn2)]) -> 5  ;  (leq([s(nn1), s(nn2)])) -> leq([nn1, nn2]) -> 5  ;  (leq([s(nn1), z])) -> BOT -> 5  ;  (mult([n, mm, _lz]) /\ plus([n, _lz, _mz])) -> mult([n, s(mm), _mz]) -> 7  ;  (mult([n, s(m), _rz])) -> leq([n, _rz]) -> 6  ;  (plus([n, mm, _gz])) -> plus([n, s(mm), s(_gz)]) -> 7
}
Sat witness: Yes: (() -> plus([n, z, n]), {
n -> s(s(z))
})

-------------------------------------------
Step 13, which took 0.009454 s (model generation: 0.009089,  model checking: 0.000365):

Model:
|_
{
leq -> 
{{{
Q={q_gen_6598, q_gen_6600},
Q_f={q_gen_6598},
Delta=
{
<s>(q_gen_6600) -> q_gen_6600
<z>() -> q_gen_6600
<s, s>(q_gen_6598) -> q_gen_6598
<z, s>(q_gen_6600) -> q_gen_6598
<z, z>() -> q_gen_6598
}

Datatype: <nat, nat>
Convolution form: right
}}}
  ;  mult -> 
{{{
Q={q_gen_6597, q_gen_6604, q_gen_6614},
Q_f={q_gen_6597},
Delta=
{
<z>() -> q_gen_6604
<z, z>() -> q_gen_6614
<s, z, z>(q_gen_6604) -> q_gen_6597
<z, s, s>(q_gen_6614) -> q_gen_6597
<z, s, z>(q_gen_6604) -> q_gen_6597
<z, z, z>() -> q_gen_6597
}

Datatype: <nat, nat, nat>
Convolution form: right
}}}
  ;  plus -> 
{{{
Q={q_gen_6596, q_gen_6602, q_gen_6612},
Q_f={q_gen_6596},
Delta=
{
<z>() -> q_gen_6612
<s, s>(q_gen_6602) -> q_gen_6602
<z, z>() -> q_gen_6602
<s, s, s>(q_gen_6596) -> q_gen_6596
<s, z, s>(q_gen_6602) -> q_gen_6596
<z, s, s>(q_gen_6602) -> q_gen_6596
<z, z, s>(q_gen_6612) -> q_gen_6596
<z, z, z>() -> q_gen_6596
}

Datatype: <nat, nat, nat>
Convolution form: right
}}}

}
--
Equality automata are defined for: {eq_nat}
_|

Teacher's answer:
New clause system:
{
() -> leq([z, s(nn2)]) -> 6  ;  () -> leq([z, z]) -> 6  ;  () -> mult([n, z, z]) -> 9  ;  () -> plus([n, z, n]) -> 9  ;  (leq([nn1, nn2])) -> leq([s(nn1), s(nn2)]) -> 6  ;  (leq([s(nn1), s(nn2)])) -> leq([nn1, nn2]) -> 6  ;  (leq([s(nn1), z])) -> BOT -> 6  ;  (mult([n, mm, _lz]) /\ plus([n, _lz, _mz])) -> mult([n, s(mm), _mz]) -> 7  ;  (mult([n, s(m), _rz])) -> leq([n, _rz]) -> 7  ;  (plus([n, mm, _gz])) -> plus([n, s(mm), s(_gz)]) -> 7
}
Sat witness: Yes: (() -> mult([n, z, z]), {
n -> s(s(z))
})

-------------------------------------------
Step 14, which took 0.013001 s (model generation: 0.012371,  model checking: 0.000630):

Model:
|_
{
leq -> 
{{{
Q={q_gen_6598, q_gen_6600},
Q_f={q_gen_6598},
Delta=
{
<s>(q_gen_6600) -> q_gen_6600
<z>() -> q_gen_6600
<s, s>(q_gen_6598) -> q_gen_6598
<z, s>(q_gen_6600) -> q_gen_6598
<z, z>() -> q_gen_6598
}

Datatype: <nat, nat>
Convolution form: right
}}}
  ;  mult -> 
{{{
Q={q_gen_6597, q_gen_6604, q_gen_6614},
Q_f={q_gen_6597},
Delta=
{
<s>(q_gen_6604) -> q_gen_6604
<z>() -> q_gen_6604
<z, z>() -> q_gen_6614
<s, z, z>(q_gen_6604) -> q_gen_6597
<z, s, s>(q_gen_6614) -> q_gen_6597
<z, s, z>(q_gen_6604) -> q_gen_6597
<z, z, z>() -> q_gen_6597
}

Datatype: <nat, nat, nat>
Convolution form: right
}}}
  ;  plus -> 
{{{
Q={q_gen_6596, q_gen_6602, q_gen_6612},
Q_f={q_gen_6596},
Delta=
{
<z>() -> q_gen_6612
<s, s>(q_gen_6602) -> q_gen_6602
<z, z>() -> q_gen_6602
<s, s, s>(q_gen_6596) -> q_gen_6596
<s, z, s>(q_gen_6602) -> q_gen_6596
<z, s, s>(q_gen_6602) -> q_gen_6596
<z, z, s>(q_gen_6612) -> q_gen_6596
<z, z, z>() -> q_gen_6596
}

Datatype: <nat, nat, nat>
Convolution form: right
}}}

}
--
Equality automata are defined for: {eq_nat}
_|

Teacher's answer:
New clause system:
{
() -> leq([z, s(nn2)]) -> 7  ;  () -> leq([z, z]) -> 7  ;  () -> mult([n, z, z]) -> 9  ;  () -> plus([n, z, n]) -> 9  ;  (leq([nn1, nn2])) -> leq([s(nn1), s(nn2)]) -> 7  ;  (leq([s(nn1), s(nn2)])) -> leq([nn1, nn2]) -> 7  ;  (leq([s(nn1), z])) -> BOT -> 7  ;  (mult([n, mm, _lz]) /\ plus([n, _lz, _mz])) -> mult([n, s(mm), _mz]) -> 7  ;  (mult([n, s(m), _rz])) -> leq([n, _rz]) -> 7  ;  (plus([n, mm, _gz])) -> plus([n, s(mm), s(_gz)]) -> 10
}
Sat witness: Yes: ((plus([n, mm, _gz])) -> plus([n, s(mm), s(_gz)]), {
_gz -> s(z)  ;  mm -> z  ;  n -> z
})

-------------------------------------------
Step 15, which took 0.012258 s (model generation: 0.011673,  model checking: 0.000585):

Model:
|_
{
leq -> 
{{{
Q={q_gen_6598, q_gen_6600},
Q_f={q_gen_6598},
Delta=
{
<s>(q_gen_6600) -> q_gen_6600
<z>() -> q_gen_6600
<s, s>(q_gen_6598) -> q_gen_6598
<z, s>(q_gen_6600) -> q_gen_6598
<z, z>() -> q_gen_6598
}

Datatype: <nat, nat>
Convolution form: right
}}}
  ;  mult -> 
{{{
Q={q_gen_6597, q_gen_6604, q_gen_6614},
Q_f={q_gen_6597},
Delta=
{
<s>(q_gen_6604) -> q_gen_6604
<z>() -> q_gen_6604
<z, z>() -> q_gen_6614
<s, z, z>(q_gen_6604) -> q_gen_6597
<z, s, s>(q_gen_6614) -> q_gen_6597
<z, s, z>(q_gen_6604) -> q_gen_6597
<z, z, z>() -> q_gen_6597
}

Datatype: <nat, nat, nat>
Convolution form: right
}}}
  ;  plus -> 
{{{
Q={q_gen_6596, q_gen_6602, q_gen_6612},
Q_f={q_gen_6596},
Delta=
{
<z>() -> q_gen_6612
<s, s>(q_gen_6602) -> q_gen_6602
<z, s>(q_gen_6612) -> q_gen_6602
<z, z>() -> q_gen_6602
<s, s, s>(q_gen_6596) -> q_gen_6596
<s, z, s>(q_gen_6602) -> q_gen_6596
<z, s, s>(q_gen_6602) -> q_gen_6596
<z, z, s>(q_gen_6612) -> q_gen_6596
<z, z, z>() -> q_gen_6596
}

Datatype: <nat, nat, nat>
Convolution form: right
}}}

}
--
Equality automata are defined for: {eq_nat}
_|

Teacher's answer:
New clause system:
{
() -> leq([z, s(nn2)]) -> 7  ;  () -> leq([z, z]) -> 7  ;  () -> mult([n, z, z]) -> 9  ;  () -> plus([n, z, n]) -> 9  ;  (leq([nn1, nn2])) -> leq([s(nn1), s(nn2)]) -> 7  ;  (leq([s(nn1), s(nn2)])) -> leq([nn1, nn2]) -> 7  ;  (leq([s(nn1), z])) -> BOT -> 7  ;  (mult([n, mm, _lz]) /\ plus([n, _lz, _mz])) -> mult([n, s(mm), _mz]) -> 10  ;  (mult([n, s(m), _rz])) -> leq([n, _rz]) -> 8  ;  (plus([n, mm, _gz])) -> plus([n, s(mm), s(_gz)]) -> 10
}
Sat witness: Yes: ((mult([n, mm, _lz]) /\ plus([n, _lz, _mz])) -> mult([n, s(mm), _mz]), {
_lz -> z  ;  _mz -> s(s(z))  ;  mm -> z  ;  n -> s(z)
})

-------------------------------------------
Step 16, which took 0.013791 s (model generation: 0.013393,  model checking: 0.000398):

Model:
|_
{
leq -> 
{{{
Q={q_gen_6598, q_gen_6600},
Q_f={q_gen_6598},
Delta=
{
<s>(q_gen_6600) -> q_gen_6600
<z>() -> q_gen_6600
<s, s>(q_gen_6598) -> q_gen_6598
<z, s>(q_gen_6600) -> q_gen_6598
<z, z>() -> q_gen_6598
}

Datatype: <nat, nat>
Convolution form: right
}}}
  ;  mult -> 
{{{
Q={q_gen_6597, q_gen_6604, q_gen_6614},
Q_f={q_gen_6597},
Delta=
{
<s>(q_gen_6604) -> q_gen_6604
<z>() -> q_gen_6604
<z, z>() -> q_gen_6614
<s, s, s>(q_gen_6597) -> q_gen_6597
<s, z, z>(q_gen_6604) -> q_gen_6597
<z, s, s>(q_gen_6614) -> q_gen_6597
<z, s, z>(q_gen_6604) -> q_gen_6597
<z, z, s>(q_gen_6604) -> q_gen_6597
<z, z, z>() -> q_gen_6597
}

Datatype: <nat, nat, nat>
Convolution form: right
}}}
  ;  plus -> 
{{{
Q={q_gen_6596, q_gen_6602, q_gen_6612},
Q_f={q_gen_6596},
Delta=
{
<z>() -> q_gen_6612
<s, s>(q_gen_6602) -> q_gen_6602
<z, s>(q_gen_6612) -> q_gen_6602
<z, z>() -> q_gen_6602
<s, s, s>(q_gen_6596) -> q_gen_6596
<s, z, s>(q_gen_6602) -> q_gen_6596
<z, s, s>(q_gen_6602) -> q_gen_6596
<z, z, s>(q_gen_6612) -> q_gen_6596
<z, z, z>() -> q_gen_6596
}

Datatype: <nat, nat, nat>
Convolution form: right
}}}

}
--
Equality automata are defined for: {eq_nat}
_|

Teacher's answer:
New clause system:
{
() -> leq([z, s(nn2)]) -> 8  ;  () -> leq([z, z]) -> 8  ;  () -> mult([n, z, z]) -> 9  ;  () -> plus([n, z, n]) -> 9  ;  (leq([nn1, nn2])) -> leq([s(nn1), s(nn2)]) -> 8  ;  (leq([s(nn1), s(nn2)])) -> leq([nn1, nn2]) -> 8  ;  (leq([s(nn1), z])) -> BOT -> 8  ;  (mult([n, mm, _lz]) /\ plus([n, _lz, _mz])) -> mult([n, s(mm), _mz]) -> 10  ;  (mult([n, s(m), _rz])) -> leq([n, _rz]) -> 11  ;  (plus([n, mm, _gz])) -> plus([n, s(mm), s(_gz)]) -> 10
}
Sat witness: Yes: ((mult([n, s(m), _rz])) -> leq([n, _rz]), {
_rz -> s(z)  ;  m -> z  ;  n -> s(s(z))
})

-------------------------------------------
Step 17, which took 0.011428 s (model generation: 0.011375,  model checking: 0.000053):

Model:
|_
{
leq -> 
{{{
Q={q_gen_6598, q_gen_6600},
Q_f={q_gen_6598},
Delta=
{
<s>(q_gen_6600) -> q_gen_6600
<z>() -> q_gen_6600
<s, s>(q_gen_6598) -> q_gen_6598
<s, z>(q_gen_6600) -> q_gen_6598
<z, s>(q_gen_6600) -> q_gen_6598
<z, z>() -> q_gen_6598
}

Datatype: <nat, nat>
Convolution form: right
}}}
  ;  mult -> 
{{{
Q={q_gen_6597, q_gen_6604, q_gen_6614},
Q_f={q_gen_6597},
Delta=
{
<s>(q_gen_6604) -> q_gen_6604
<z>() -> q_gen_6604
<z, z>() -> q_gen_6614
<s, s, s>(q_gen_6597) -> q_gen_6597
<s, z, z>(q_gen_6604) -> q_gen_6597
<z, s, s>(q_gen_6614) -> q_gen_6597
<z, s, z>(q_gen_6604) -> q_gen_6597
<z, z, s>(q_gen_6604) -> q_gen_6597
<z, z, z>() -> q_gen_6597
}

Datatype: <nat, nat, nat>
Convolution form: right
}}}
  ;  plus -> 
{{{
Q={q_gen_6596, q_gen_6602, q_gen_6612},
Q_f={q_gen_6596},
Delta=
{
<z>() -> q_gen_6612
<s, s>(q_gen_6602) -> q_gen_6602
<z, s>(q_gen_6612) -> q_gen_6602
<z, z>() -> q_gen_6602
<s, s, s>(q_gen_6596) -> q_gen_6596
<s, z, s>(q_gen_6602) -> q_gen_6596
<z, s, s>(q_gen_6602) -> q_gen_6596
<z, z, s>(q_gen_6612) -> q_gen_6596
<z, z, z>() -> q_gen_6596
}

Datatype: <nat, nat, nat>
Convolution form: right
}}}

}
--
Equality automata are defined for: {eq_nat}
_|

Teacher's answer:
New clause system:
{
() -> leq([z, s(nn2)]) -> 8  ;  () -> leq([z, z]) -> 8  ;  () -> mult([n, z, z]) -> 9  ;  () -> plus([n, z, n]) -> 9  ;  (leq([nn1, nn2])) -> leq([s(nn1), s(nn2)]) -> 8  ;  (leq([s(nn1), s(nn2)])) -> leq([nn1, nn2]) -> 8  ;  (leq([s(nn1), z])) -> BOT -> 11  ;  (mult([n, mm, _lz]) /\ plus([n, _lz, _mz])) -> mult([n, s(mm), _mz]) -> 10  ;  (mult([n, s(m), _rz])) -> leq([n, _rz]) -> 11  ;  (plus([n, mm, _gz])) -> plus([n, s(mm), s(_gz)]) -> 10
}
Sat witness: Yes: ((leq([s(nn1), z])) -> BOT, {
nn1 -> z
})

-------------------------------------------
Step 18, which took 0.010885 s (model generation: 0.010743,  model checking: 0.000142):

Model:
|_
{
leq -> 
{{{
Q={q_gen_6598, q_gen_6600, q_gen_6626},
Q_f={q_gen_6598},
Delta=
{
<s>(q_gen_6600) -> q_gen_6600
<z>() -> q_gen_6600
<s, s>(q_gen_6598) -> q_gen_6598
<s, s>(q_gen_6626) -> q_gen_6598
<z, s>(q_gen_6600) -> q_gen_6598
<z, z>() -> q_gen_6598
<s, z>(q_gen_6600) -> q_gen_6626
}

Datatype: <nat, nat>
Convolution form: right
}}}
  ;  mult -> 
{{{
Q={q_gen_6597, q_gen_6604, q_gen_6614},
Q_f={q_gen_6597},
Delta=
{
<s>(q_gen_6604) -> q_gen_6604
<z>() -> q_gen_6604
<z, z>() -> q_gen_6614
<s, s, s>(q_gen_6597) -> q_gen_6597
<s, z, z>(q_gen_6604) -> q_gen_6597
<z, s, s>(q_gen_6614) -> q_gen_6597
<z, s, z>(q_gen_6604) -> q_gen_6597
<z, z, s>(q_gen_6604) -> q_gen_6597
<z, z, z>() -> q_gen_6597
}

Datatype: <nat, nat, nat>
Convolution form: right
}}}
  ;  plus -> 
{{{
Q={q_gen_6596, q_gen_6602, q_gen_6612},
Q_f={q_gen_6596},
Delta=
{
<z>() -> q_gen_6612
<s, s>(q_gen_6602) -> q_gen_6602
<z, s>(q_gen_6612) -> q_gen_6602
<z, z>() -> q_gen_6602
<s, s, s>(q_gen_6596) -> q_gen_6596
<s, z, s>(q_gen_6602) -> q_gen_6596
<z, s, s>(q_gen_6602) -> q_gen_6596
<z, z, s>(q_gen_6612) -> q_gen_6596
<z, z, z>() -> q_gen_6596
}

Datatype: <nat, nat, nat>
Convolution form: right
}}}

}
--
Equality automata are defined for: {eq_nat}
_|

Teacher's answer:
New clause system:
{
() -> leq([z, s(nn2)]) -> 8  ;  () -> leq([z, z]) -> 8  ;  () -> mult([n, z, z]) -> 9  ;  () -> plus([n, z, n]) -> 9  ;  (leq([nn1, nn2])) -> leq([s(nn1), s(nn2)]) -> 8  ;  (leq([s(nn1), s(nn2)])) -> leq([nn1, nn2]) -> 11  ;  (leq([s(nn1), z])) -> BOT -> 11  ;  (mult([n, mm, _lz]) /\ plus([n, _lz, _mz])) -> mult([n, s(mm), _mz]) -> 10  ;  (mult([n, s(m), _rz])) -> leq([n, _rz]) -> 11  ;  (plus([n, mm, _gz])) -> plus([n, s(mm), s(_gz)]) -> 10
}
Sat witness: Yes: ((leq([s(nn1), s(nn2)])) -> leq([nn1, nn2]), {
nn1 -> s(z)  ;  nn2 -> z
})

-------------------------------------------
Step 19, which took 0.009357 s (model generation: 0.008713,  model checking: 0.000644):

Model:
|_
{
leq -> 
{{{
Q={q_gen_6598, q_gen_6600, q_gen_6625},
Q_f={q_gen_6598},
Delta=
{
<s>(q_gen_6600) -> q_gen_6600
<z>() -> q_gen_6600
<s, s>(q_gen_6598) -> q_gen_6598
<z, s>(q_gen_6600) -> q_gen_6598
<z, z>() -> q_gen_6598
<s, s>(q_gen_6625) -> q_gen_6625
<s, z>(q_gen_6600) -> q_gen_6625
}

Datatype: <nat, nat>
Convolution form: right
}}}
  ;  mult -> 
{{{
Q={q_gen_6597, q_gen_6604, q_gen_6614, q_gen_6623},
Q_f={q_gen_6597},
Delta=
{
<s>(q_gen_6604) -> q_gen_6604
<z>() -> q_gen_6604
<z, z>() -> q_gen_6614
<s, s, s>(q_gen_6623) -> q_gen_6597
<s, z, z>(q_gen_6604) -> q_gen_6597
<z, s, s>(q_gen_6614) -> q_gen_6597
<z, s, z>(q_gen_6604) -> q_gen_6597
<z, z, z>() -> q_gen_6597
<s, s, s>(q_gen_6597) -> q_gen_6623
<z, z, s>(q_gen_6604) -> q_gen_6623
}

Datatype: <nat, nat, nat>
Convolution form: right
}}}
  ;  plus -> 
{{{
Q={q_gen_6596, q_gen_6602, q_gen_6612},
Q_f={q_gen_6596},
Delta=
{
<z>() -> q_gen_6612
<s, s>(q_gen_6602) -> q_gen_6602
<z, s>(q_gen_6612) -> q_gen_6602
<z, z>() -> q_gen_6602
<s, s, s>(q_gen_6596) -> q_gen_6596
<s, z, s>(q_gen_6602) -> q_gen_6596
<z, s, s>(q_gen_6602) -> q_gen_6596
<z, z, s>(q_gen_6612) -> q_gen_6596
<z, z, z>() -> q_gen_6596
}

Datatype: <nat, nat, nat>
Convolution form: right
}}}

}
--
Equality automata are defined for: {eq_nat}
_|

Teacher's answer:
New clause system:
{
() -> leq([z, s(nn2)]) -> 9  ;  () -> leq([z, z]) -> 9  ;  () -> mult([n, z, z]) -> 10  ;  () -> plus([n, z, n]) -> 10  ;  (leq([nn1, nn2])) -> leq([s(nn1), s(nn2)]) -> 9  ;  (leq([s(nn1), s(nn2)])) -> leq([nn1, nn2]) -> 11  ;  (leq([s(nn1), z])) -> BOT -> 11  ;  (mult([n, mm, _lz]) /\ plus([n, _lz, _mz])) -> mult([n, s(mm), _mz]) -> 10  ;  (mult([n, s(m), _rz])) -> leq([n, _rz]) -> 11  ;  (plus([n, mm, _gz])) -> plus([n, s(mm), s(_gz)]) -> 13
}
Sat witness: Yes: ((plus([n, mm, _gz])) -> plus([n, s(mm), s(_gz)]), {
_gz -> s(s(z))  ;  mm -> z  ;  n -> s(z)
})

-------------------------------------------
Step 20, which took 0.007115 s (model generation: 0.006745,  model checking: 0.000370):

Model:
|_
{
leq -> 
{{{
Q={q_gen_6598, q_gen_6600, q_gen_6625},
Q_f={q_gen_6598},
Delta=
{
<s>(q_gen_6600) -> q_gen_6600
<z>() -> q_gen_6600
<s, s>(q_gen_6598) -> q_gen_6598
<z, s>(q_gen_6600) -> q_gen_6598
<z, z>() -> q_gen_6598
<s, s>(q_gen_6625) -> q_gen_6625
<s, z>(q_gen_6600) -> q_gen_6625
}

Datatype: <nat, nat>
Convolution form: right
}}}
  ;  mult -> 
{{{
Q={q_gen_6597, q_gen_6604, q_gen_6614, q_gen_6623},
Q_f={q_gen_6597},
Delta=
{
<s>(q_gen_6604) -> q_gen_6604
<z>() -> q_gen_6604
<z, z>() -> q_gen_6614
<s, s, s>(q_gen_6623) -> q_gen_6597
<s, z, z>(q_gen_6604) -> q_gen_6597
<z, s, s>(q_gen_6614) -> q_gen_6597
<z, s, z>(q_gen_6604) -> q_gen_6597
<z, z, z>() -> q_gen_6597
<s, s, s>(q_gen_6597) -> q_gen_6623
<z, z, s>(q_gen_6604) -> q_gen_6623
}

Datatype: <nat, nat, nat>
Convolution form: right
}}}
  ;  plus -> 
{{{
Q={q_gen_6596, q_gen_6602, q_gen_6612},
Q_f={q_gen_6596},
Delta=
{
<s>(q_gen_6612) -> q_gen_6612
<z>() -> q_gen_6612
<s, s>(q_gen_6602) -> q_gen_6602
<z, s>(q_gen_6612) -> q_gen_6602
<z, z>() -> q_gen_6602
<s, s, s>(q_gen_6596) -> q_gen_6596
<s, z, s>(q_gen_6602) -> q_gen_6596
<z, s, s>(q_gen_6602) -> q_gen_6596
<z, z, s>(q_gen_6612) -> q_gen_6596
<z, z, z>() -> q_gen_6596
}

Datatype: <nat, nat, nat>
Convolution form: right
}}}

}
--
Equality automata are defined for: {eq_nat}
_|

Teacher's answer:
New clause system:
{
() -> leq([z, s(nn2)]) -> 10  ;  () -> leq([z, z]) -> 10  ;  () -> mult([n, z, z]) -> 10  ;  () -> plus([n, z, n]) -> 10  ;  (leq([nn1, nn2])) -> leq([s(nn1), s(nn2)]) -> 10  ;  (leq([s(nn1), s(nn2)])) -> leq([nn1, nn2]) -> 11  ;  (leq([s(nn1), z])) -> BOT -> 11  ;  (mult([n, mm, _lz]) /\ plus([n, _lz, _mz])) -> mult([n, s(mm), _mz]) -> 13  ;  (mult([n, s(m), _rz])) -> leq([n, _rz]) -> 11  ;  (plus([n, mm, _gz])) -> plus([n, s(mm), s(_gz)]) -> 13
}
Sat witness: Yes: ((mult([n, mm, _lz]) /\ plus([n, _lz, _mz])) -> mult([n, s(mm), _mz]), {
_lz -> z  ;  _mz -> s(z)  ;  mm -> z  ;  n -> s(z)
})

-------------------------------------------
Step 21, which took 0.011960 s (model generation: 0.011139,  model checking: 0.000821):

Model:
|_
{
leq -> 
{{{
Q={q_gen_6598, q_gen_6600, q_gen_6625},
Q_f={q_gen_6598},
Delta=
{
<s>(q_gen_6600) -> q_gen_6600
<z>() -> q_gen_6600
<s, s>(q_gen_6598) -> q_gen_6598
<z, s>(q_gen_6600) -> q_gen_6598
<z, z>() -> q_gen_6598
<s, s>(q_gen_6625) -> q_gen_6625
<s, z>(q_gen_6600) -> q_gen_6625
}

Datatype: <nat, nat>
Convolution form: right
}}}
  ;  mult -> 
{{{
Q={q_gen_6597, q_gen_6604, q_gen_6607, q_gen_6614, q_gen_6624},
Q_f={q_gen_6597, q_gen_6607},
Delta=
{
<s>(q_gen_6604) -> q_gen_6604
<z>() -> q_gen_6604
<z, z>() -> q_gen_6614
<z, s, z>(q_gen_6604) -> q_gen_6597
<z, z, s>(q_gen_6604) -> q_gen_6597
<z, z, z>() -> q_gen_6597
<s, s, s>(q_gen_6597) -> q_gen_6607
<s, z, z>(q_gen_6604) -> q_gen_6607
<z, s, s>(q_gen_6614) -> q_gen_6607
<s, s, s>(q_gen_6607) -> q_gen_6624
}

Datatype: <nat, nat, nat>
Convolution form: right
}}}
  ;  plus -> 
{{{
Q={q_gen_6596, q_gen_6602, q_gen_6612},
Q_f={q_gen_6596},
Delta=
{
<s>(q_gen_6612) -> q_gen_6612
<z>() -> q_gen_6612
<s, s>(q_gen_6602) -> q_gen_6602
<z, s>(q_gen_6612) -> q_gen_6602
<z, z>() -> q_gen_6602
<s, s, s>(q_gen_6596) -> q_gen_6596
<s, z, s>(q_gen_6602) -> q_gen_6596
<z, s, s>(q_gen_6602) -> q_gen_6596
<z, z, s>(q_gen_6612) -> q_gen_6596
<z, z, z>() -> q_gen_6596
}

Datatype: <nat, nat, nat>
Convolution form: right
}}}

}
--
Equality automata are defined for: {eq_nat}
_|

Teacher's answer:
New clause system:
{
() -> leq([z, s(nn2)]) -> 11  ;  () -> leq([z, z]) -> 11  ;  () -> mult([n, z, z]) -> 11  ;  () -> plus([n, z, n]) -> 11  ;  (leq([nn1, nn2])) -> leq([s(nn1), s(nn2)]) -> 11  ;  (leq([s(nn1), s(nn2)])) -> leq([nn1, nn2]) -> 12  ;  (leq([s(nn1), z])) -> BOT -> 12  ;  (mult([n, mm, _lz]) /\ plus([n, _lz, _mz])) -> mult([n, s(mm), _mz]) -> 16  ;  (mult([n, s(m), _rz])) -> leq([n, _rz]) -> 12  ;  (plus([n, mm, _gz])) -> plus([n, s(mm), s(_gz)]) -> 14
}
Sat witness: Yes: ((mult([n, mm, _lz]) /\ plus([n, _lz, _mz])) -> mult([n, s(mm), _mz]), {
_lz -> s(z)  ;  _mz -> s(s(z))  ;  mm -> s(z)  ;  n -> s(z)
})

-------------------------------------------
Step 22, which took 0.011699 s (model generation: 0.010716,  model checking: 0.000983):

Model:
|_
{
leq -> 
{{{
Q={q_gen_6598, q_gen_6600, q_gen_6625},
Q_f={q_gen_6598},
Delta=
{
<s>(q_gen_6600) -> q_gen_6600
<z>() -> q_gen_6600
<s, s>(q_gen_6598) -> q_gen_6598
<z, s>(q_gen_6600) -> q_gen_6598
<z, z>() -> q_gen_6598
<s, s>(q_gen_6625) -> q_gen_6625
<s, z>(q_gen_6600) -> q_gen_6625
}

Datatype: <nat, nat>
Convolution form: right
}}}
  ;  mult -> 
{{{
Q={q_gen_6597, q_gen_6603, q_gen_6604, q_gen_6614, q_gen_6624},
Q_f={q_gen_6597, q_gen_6603},
Delta=
{
<s>(q_gen_6604) -> q_gen_6604
<z>() -> q_gen_6604
<z, z>() -> q_gen_6614
<s, s, s>(q_gen_6597) -> q_gen_6597
<z, s, s>(q_gen_6614) -> q_gen_6597
<z, z, s>(q_gen_6604) -> q_gen_6597
<z, z, z>() -> q_gen_6597
<s, z, z>(q_gen_6604) -> q_gen_6603
<z, s, z>(q_gen_6604) -> q_gen_6603
<s, s, s>(q_gen_6603) -> q_gen_6624
}

Datatype: <nat, nat, nat>
Convolution form: right
}}}
  ;  plus -> 
{{{
Q={q_gen_6596, q_gen_6602, q_gen_6612},
Q_f={q_gen_6596},
Delta=
{
<s>(q_gen_6612) -> q_gen_6612
<z>() -> q_gen_6612
<s, s>(q_gen_6602) -> q_gen_6602
<z, s>(q_gen_6612) -> q_gen_6602
<z, z>() -> q_gen_6602
<s, s, s>(q_gen_6596) -> q_gen_6596
<s, z, s>(q_gen_6602) -> q_gen_6596
<z, s, s>(q_gen_6602) -> q_gen_6596
<z, z, s>(q_gen_6612) -> q_gen_6596
<z, z, z>() -> q_gen_6596
}

Datatype: <nat, nat, nat>
Convolution form: right
}}}

}
--
Equality automata are defined for: {eq_nat}
_|

Teacher's answer:
New clause system:
{
() -> leq([z, s(nn2)]) -> 12  ;  () -> leq([z, z]) -> 12  ;  () -> mult([n, z, z]) -> 12  ;  () -> plus([n, z, n]) -> 12  ;  (leq([nn1, nn2])) -> leq([s(nn1), s(nn2)]) -> 12  ;  (leq([s(nn1), s(nn2)])) -> leq([nn1, nn2]) -> 13  ;  (leq([s(nn1), z])) -> BOT -> 13  ;  (mult([n, mm, _lz]) /\ plus([n, _lz, _mz])) -> mult([n, s(mm), _mz]) -> 19  ;  (mult([n, s(m), _rz])) -> leq([n, _rz]) -> 13  ;  (plus([n, mm, _gz])) -> plus([n, s(mm), s(_gz)]) -> 15
}
Sat witness: Yes: ((mult([n, mm, _lz]) /\ plus([n, _lz, _mz])) -> mult([n, s(mm), _mz]), {
_lz -> z  ;  _mz -> s(z)  ;  mm -> s(z)  ;  n -> z
})

-------------------------------------------
Step 23, which took 0.013534 s (model generation: 0.012937,  model checking: 0.000597):

Model:
|_
{
leq -> 
{{{
Q={q_gen_6598, q_gen_6600, q_gen_6625},
Q_f={q_gen_6598},
Delta=
{
<s>(q_gen_6600) -> q_gen_6600
<z>() -> q_gen_6600
<s, s>(q_gen_6598) -> q_gen_6598
<z, s>(q_gen_6600) -> q_gen_6598
<z, z>() -> q_gen_6598
<s, s>(q_gen_6625) -> q_gen_6625
<s, z>(q_gen_6600) -> q_gen_6625
}

Datatype: <nat, nat>
Convolution form: right
}}}
  ;  mult -> 
{{{
Q={q_gen_6597, q_gen_6603, q_gen_6604, q_gen_6614, q_gen_6623},
Q_f={q_gen_6597, q_gen_6603},
Delta=
{
<s>(q_gen_6604) -> q_gen_6604
<z>() -> q_gen_6604
<s, z>(q_gen_6604) -> q_gen_6614
<z, z>() -> q_gen_6614
<s, s, s>(q_gen_6623) -> q_gen_6597
<z, s, s>(q_gen_6614) -> q_gen_6597
<z, z, z>() -> q_gen_6597
<s, s, s>(q_gen_6597) -> q_gen_6603
<s, z, z>(q_gen_6604) -> q_gen_6603
<z, s, z>(q_gen_6604) -> q_gen_6603
<s, s, s>(q_gen_6603) -> q_gen_6623
<z, z, s>(q_gen_6604) -> q_gen_6623
}

Datatype: <nat, nat, nat>
Convolution form: right
}}}
  ;  plus -> 
{{{
Q={q_gen_6596, q_gen_6602, q_gen_6612},
Q_f={q_gen_6596},
Delta=
{
<s>(q_gen_6612) -> q_gen_6612
<z>() -> q_gen_6612
<s, s>(q_gen_6602) -> q_gen_6602
<z, s>(q_gen_6612) -> q_gen_6602
<z, z>() -> q_gen_6602
<s, s, s>(q_gen_6596) -> q_gen_6596
<s, z, s>(q_gen_6602) -> q_gen_6596
<z, s, s>(q_gen_6602) -> q_gen_6596
<z, z, s>(q_gen_6612) -> q_gen_6596
<z, z, z>() -> q_gen_6596
}

Datatype: <nat, nat, nat>
Convolution form: right
}}}

}
--
Equality automata are defined for: {eq_nat}
_|

Teacher's answer:
New clause system:
{
() -> leq([z, s(nn2)]) -> 13  ;  () -> leq([z, z]) -> 13  ;  () -> mult([n, z, z]) -> 13  ;  () -> plus([n, z, n]) -> 13  ;  (leq([nn1, nn2])) -> leq([s(nn1), s(nn2)]) -> 13  ;  (leq([s(nn1), s(nn2)])) -> leq([nn1, nn2]) -> 13  ;  (leq([s(nn1), z])) -> BOT -> 13  ;  (mult([n, mm, _lz]) /\ plus([n, _lz, _mz])) -> mult([n, s(mm), _mz]) -> 19  ;  (mult([n, s(m), _rz])) -> leq([n, _rz]) -> 16  ;  (plus([n, mm, _gz])) -> plus([n, s(mm), s(_gz)]) -> 15
}
Sat witness: Yes: ((mult([n, s(m), _rz])) -> leq([n, _rz]), {
_rz -> s(s(s(z)))  ;  m -> s(s(z))  ;  n -> s(s(s(s(z))))
})

-------------------------------------------
Step 24, which took 0.017731 s (model generation: 0.017097,  model checking: 0.000634):

Model:
|_
{
leq -> 
{{{
Q={q_gen_6598, q_gen_6600, q_gen_6625},
Q_f={q_gen_6598},
Delta=
{
<s>(q_gen_6600) -> q_gen_6600
<z>() -> q_gen_6600
<s, s>(q_gen_6598) -> q_gen_6598
<z, s>(q_gen_6600) -> q_gen_6598
<z, z>() -> q_gen_6598
<s, s>(q_gen_6625) -> q_gen_6625
<s, z>(q_gen_6600) -> q_gen_6625
}

Datatype: <nat, nat>
Convolution form: right
}}}
  ;  mult -> 
{{{
Q={q_gen_6597, q_gen_6603, q_gen_6604, q_gen_6614, q_gen_6624},
Q_f={q_gen_6597, q_gen_6603},
Delta=
{
<s>(q_gen_6604) -> q_gen_6604
<z>() -> q_gen_6604
<s, z>(q_gen_6604) -> q_gen_6614
<z, z>() -> q_gen_6614
<z, s, s>(q_gen_6614) -> q_gen_6597
<z, z, s>(q_gen_6604) -> q_gen_6597
<z, z, z>() -> q_gen_6597
<s, s, s>(q_gen_6597) -> q_gen_6603
<s, s, s>(q_gen_6624) -> q_gen_6603
<s, z, z>(q_gen_6604) -> q_gen_6603
<z, s, z>(q_gen_6604) -> q_gen_6603
<s, s, s>(q_gen_6603) -> q_gen_6624
}

Datatype: <nat, nat, nat>
Convolution form: right
}}}
  ;  plus -> 
{{{
Q={q_gen_6596, q_gen_6602, q_gen_6612},
Q_f={q_gen_6596},
Delta=
{
<s>(q_gen_6612) -> q_gen_6612
<z>() -> q_gen_6612
<s, s>(q_gen_6602) -> q_gen_6602
<z, s>(q_gen_6612) -> q_gen_6602
<z, z>() -> q_gen_6602
<s, s, s>(q_gen_6596) -> q_gen_6596
<s, z, s>(q_gen_6602) -> q_gen_6596
<z, s, s>(q_gen_6602) -> q_gen_6596
<z, z, s>(q_gen_6612) -> q_gen_6596
<z, z, z>() -> q_gen_6596
}

Datatype: <nat, nat, nat>
Convolution form: right
}}}

}
--
Equality automata are defined for: {eq_nat}
_|

Teacher's answer:
New clause system:
{
() -> leq([z, s(nn2)]) -> 14  ;  () -> leq([z, z]) -> 14  ;  () -> mult([n, z, z]) -> 14  ;  () -> plus([n, z, n]) -> 14  ;  (leq([nn1, nn2])) -> leq([s(nn1), s(nn2)]) -> 14  ;  (leq([s(nn1), s(nn2)])) -> leq([nn1, nn2]) -> 14  ;  (leq([s(nn1), z])) -> BOT -> 14  ;  (mult([n, mm, _lz]) /\ plus([n, _lz, _mz])) -> mult([n, s(mm), _mz]) -> 19  ;  (mult([n, s(m), _rz])) -> leq([n, _rz]) -> 19  ;  (plus([n, mm, _gz])) -> plus([n, s(mm), s(_gz)]) -> 16
}
Sat witness: Yes: ((mult([n, s(m), _rz])) -> leq([n, _rz]), {
_rz -> s(s(z))  ;  m -> s(z)  ;  n -> s(s(s(z)))
})

-------------------------------------------
Step 25, which took 0.012382 s (model generation: 0.011225,  model checking: 0.001157):

Model:
|_
{
leq -> 
{{{
Q={q_gen_6598, q_gen_6600, q_gen_6625},
Q_f={q_gen_6598},
Delta=
{
<s>(q_gen_6600) -> q_gen_6600
<z>() -> q_gen_6600
<s, s>(q_gen_6598) -> q_gen_6598
<z, s>(q_gen_6600) -> q_gen_6598
<z, z>() -> q_gen_6598
<s, s>(q_gen_6625) -> q_gen_6625
<s, z>(q_gen_6600) -> q_gen_6625
}

Datatype: <nat, nat>
Convolution form: right
}}}
  ;  mult -> 
{{{
Q={q_gen_6597, q_gen_6603, q_gen_6604, q_gen_6614, q_gen_6624},
Q_f={q_gen_6597, q_gen_6603},
Delta=
{
<s>(q_gen_6604) -> q_gen_6604
<z>() -> q_gen_6604
<s, z>(q_gen_6604) -> q_gen_6614
<z, z>() -> q_gen_6614
<z, s, s>(q_gen_6614) -> q_gen_6597
<z, z, s>(q_gen_6604) -> q_gen_6597
<z, z, z>() -> q_gen_6597
<s, s, s>(q_gen_6597) -> q_gen_6603
<s, z, z>(q_gen_6604) -> q_gen_6603
<z, s, z>(q_gen_6604) -> q_gen_6603
<s, s, s>(q_gen_6603) -> q_gen_6624
<s, s, s>(q_gen_6624) -> q_gen_6624
}

Datatype: <nat, nat, nat>
Convolution form: right
}}}
  ;  plus -> 
{{{
Q={q_gen_6596, q_gen_6602, q_gen_6612},
Q_f={q_gen_6596},
Delta=
{
<s>(q_gen_6612) -> q_gen_6612
<z>() -> q_gen_6612
<s, s>(q_gen_6602) -> q_gen_6602
<z, s>(q_gen_6612) -> q_gen_6602
<z, z>() -> q_gen_6602
<s, s, s>(q_gen_6596) -> q_gen_6596
<s, z, s>(q_gen_6602) -> q_gen_6596
<z, s, s>(q_gen_6602) -> q_gen_6596
<z, z, s>(q_gen_6612) -> q_gen_6596
<z, z, z>() -> q_gen_6596
}

Datatype: <nat, nat, nat>
Convolution form: right
}}}

}
--
Equality automata are defined for: {eq_nat}
_|

Teacher's answer:
New clause system:
{
() -> leq([z, s(nn2)]) -> 15  ;  () -> leq([z, z]) -> 15  ;  () -> mult([n, z, z]) -> 15  ;  () -> plus([n, z, n]) -> 15  ;  (leq([nn1, nn2])) -> leq([s(nn1), s(nn2)]) -> 15  ;  (leq([s(nn1), s(nn2)])) -> leq([nn1, nn2]) -> 15  ;  (leq([s(nn1), z])) -> BOT -> 15  ;  (mult([n, mm, _lz]) /\ plus([n, _lz, _mz])) -> mult([n, s(mm), _mz]) -> 22  ;  (mult([n, s(m), _rz])) -> leq([n, _rz]) -> 20  ;  (plus([n, mm, _gz])) -> plus([n, s(mm), s(_gz)]) -> 17
}
Sat witness: Yes: ((mult([n, mm, _lz]) /\ plus([n, _lz, _mz])) -> mult([n, s(mm), _mz]), {
_lz -> s(z)  ;  _mz -> s(z)  ;  mm -> s(z)  ;  n -> s(z)
})

-------------------------------------------
Step 26, which took 0.016060 s (model generation: 0.015153,  model checking: 0.000907):

Model:
|_
{
leq -> 
{{{
Q={q_gen_6598, q_gen_6600, q_gen_6625},
Q_f={q_gen_6598},
Delta=
{
<s>(q_gen_6600) -> q_gen_6600
<z>() -> q_gen_6600
<s, s>(q_gen_6598) -> q_gen_6598
<z, s>(q_gen_6600) -> q_gen_6598
<z, z>() -> q_gen_6598
<s, s>(q_gen_6625) -> q_gen_6625
<s, z>(q_gen_6600) -> q_gen_6625
}

Datatype: <nat, nat>
Convolution form: right
}}}
  ;  mult -> 
{{{
Q={q_gen_6597, q_gen_6604, q_gen_6607, q_gen_6614, q_gen_6624},
Q_f={q_gen_6597, q_gen_6607},
Delta=
{
<s>(q_gen_6604) -> q_gen_6604
<z>() -> q_gen_6604
<s, z>(q_gen_6604) -> q_gen_6614
<z, z>() -> q_gen_6614
<z, s, s>(q_gen_6614) -> q_gen_6597
<z, s, z>(q_gen_6604) -> q_gen_6597
<z, z, s>(q_gen_6604) -> q_gen_6597
<z, z, z>() -> q_gen_6597
<s, s, s>(q_gen_6597) -> q_gen_6607
<s, z, z>(q_gen_6604) -> q_gen_6607
<s, s, s>(q_gen_6607) -> q_gen_6624
<s, s, s>(q_gen_6624) -> q_gen_6624
}

Datatype: <nat, nat, nat>
Convolution form: right
}}}
  ;  plus -> 
{{{
Q={q_gen_6596, q_gen_6602, q_gen_6612},
Q_f={q_gen_6596},
Delta=
{
<s>(q_gen_6612) -> q_gen_6612
<z>() -> q_gen_6612
<s, s>(q_gen_6602) -> q_gen_6602
<z, s>(q_gen_6612) -> q_gen_6602
<z, z>() -> q_gen_6602
<s, s, s>(q_gen_6596) -> q_gen_6596
<s, z, s>(q_gen_6602) -> q_gen_6596
<z, s, s>(q_gen_6602) -> q_gen_6596
<z, z, s>(q_gen_6612) -> q_gen_6596
<z, z, z>() -> q_gen_6596
}

Datatype: <nat, nat, nat>
Convolution form: right
}}}

}
--
Equality automata are defined for: {eq_nat}
_|

Teacher's answer:
New clause system:
{
() -> leq([z, s(nn2)]) -> 16  ;  () -> leq([z, z]) -> 16  ;  () -> mult([n, z, z]) -> 16  ;  () -> plus([n, z, n]) -> 16  ;  (leq([nn1, nn2])) -> leq([s(nn1), s(nn2)]) -> 16  ;  (leq([s(nn1), s(nn2)])) -> leq([nn1, nn2]) -> 16  ;  (leq([s(nn1), z])) -> BOT -> 16  ;  (mult([n, mm, _lz]) /\ plus([n, _lz, _mz])) -> mult([n, s(mm), _mz]) -> 25  ;  (mult([n, s(m), _rz])) -> leq([n, _rz]) -> 21  ;  (plus([n, mm, _gz])) -> plus([n, s(mm), s(_gz)]) -> 18
}
Sat witness: Yes: ((mult([n, mm, _lz]) /\ plus([n, _lz, _mz])) -> mult([n, s(mm), _mz]), {
_lz -> z  ;  _mz -> s(s(s(z)))  ;  mm -> z  ;  n -> s(s(z))
})

-------------------------------------------
Step 27, which took 0.015899 s (model generation: 0.015291,  model checking: 0.000608):

Model:
|_
{
leq -> 
{{{
Q={q_gen_6598, q_gen_6600, q_gen_6625},
Q_f={q_gen_6598},
Delta=
{
<s>(q_gen_6600) -> q_gen_6600
<z>() -> q_gen_6600
<s, s>(q_gen_6598) -> q_gen_6598
<z, s>(q_gen_6600) -> q_gen_6598
<z, z>() -> q_gen_6598
<s, s>(q_gen_6625) -> q_gen_6625
<s, z>(q_gen_6600) -> q_gen_6625
}

Datatype: <nat, nat>
Convolution form: right
}}}
  ;  mult -> 
{{{
Q={q_gen_6597, q_gen_6604, q_gen_6607, q_gen_6614, q_gen_6624},
Q_f={q_gen_6597, q_gen_6607},
Delta=
{
<s>(q_gen_6604) -> q_gen_6604
<z>() -> q_gen_6604
<s, z>(q_gen_6604) -> q_gen_6614
<z, s>(q_gen_6604) -> q_gen_6614
<z, z>() -> q_gen_6614
<s, s, s>(q_gen_6597) -> q_gen_6597
<s, z, s>(q_gen_6614) -> q_gen_6597
<z, s, s>(q_gen_6614) -> q_gen_6597
<z, s, z>(q_gen_6604) -> q_gen_6597
<z, z, s>(q_gen_6604) -> q_gen_6597
<z, z, z>() -> q_gen_6597
<s, z, z>(q_gen_6604) -> q_gen_6607
<s, s, s>(q_gen_6607) -> q_gen_6624
<s, s, s>(q_gen_6624) -> q_gen_6624
}

Datatype: <nat, nat, nat>
Convolution form: right
}}}
  ;  plus -> 
{{{
Q={q_gen_6596, q_gen_6602, q_gen_6612},
Q_f={q_gen_6596},
Delta=
{
<s>(q_gen_6612) -> q_gen_6612
<z>() -> q_gen_6612
<s, s>(q_gen_6602) -> q_gen_6602
<z, s>(q_gen_6612) -> q_gen_6602
<z, z>() -> q_gen_6602
<s, s, s>(q_gen_6596) -> q_gen_6596
<s, z, s>(q_gen_6602) -> q_gen_6596
<z, s, s>(q_gen_6602) -> q_gen_6596
<z, z, s>(q_gen_6612) -> q_gen_6596
<z, z, z>() -> q_gen_6596
}

Datatype: <nat, nat, nat>
Convolution form: right
}}}

}
--
Equality automata are defined for: {eq_nat}
_|

Teacher's answer:
New clause system:
{
() -> leq([z, s(nn2)]) -> 17  ;  () -> leq([z, z]) -> 17  ;  () -> mult([n, z, z]) -> 17  ;  () -> plus([n, z, n]) -> 17  ;  (leq([nn1, nn2])) -> leq([s(nn1), s(nn2)]) -> 17  ;  (leq([s(nn1), s(nn2)])) -> leq([nn1, nn2]) -> 17  ;  (leq([s(nn1), z])) -> BOT -> 17  ;  (mult([n, mm, _lz]) /\ plus([n, _lz, _mz])) -> mult([n, s(mm), _mz]) -> 25  ;  (mult([n, s(m), _rz])) -> leq([n, _rz]) -> 24  ;  (plus([n, mm, _gz])) -> plus([n, s(mm), s(_gz)]) -> 19
}
Sat witness: Yes: ((mult([n, s(m), _rz])) -> leq([n, _rz]), {
_rz -> s(s(z))  ;  m -> z  ;  n -> s(s(s(z)))
})

-------------------------------------------
Step 28, which took 0.016872 s (model generation: 0.016759,  model checking: 0.000113):

Model:
|_
{
leq -> 
{{{
Q={q_gen_6598, q_gen_6600, q_gen_6625, q_gen_6626},
Q_f={q_gen_6598},
Delta=
{
<s>(q_gen_6600) -> q_gen_6600
<z>() -> q_gen_6600
<s, s>(q_gen_6598) -> q_gen_6598
<s, s>(q_gen_6625) -> q_gen_6598
<z, s>(q_gen_6600) -> q_gen_6598
<z, z>() -> q_gen_6598
<s, s>(q_gen_6626) -> q_gen_6625
<s, z>(q_gen_6600) -> q_gen_6626
}

Datatype: <nat, nat>
Convolution form: right
}}}
  ;  mult -> 
{{{
Q={q_gen_6597, q_gen_6604, q_gen_6607, q_gen_6614, q_gen_6623},
Q_f={q_gen_6597, q_gen_6607},
Delta=
{
<s>(q_gen_6604) -> q_gen_6604
<z>() -> q_gen_6604
<s, z>(q_gen_6604) -> q_gen_6614
<z, s>(q_gen_6604) -> q_gen_6614
<z, z>() -> q_gen_6614
<s, s, s>(q_gen_6623) -> q_gen_6597
<s, z, s>(q_gen_6614) -> q_gen_6597
<z, s, s>(q_gen_6614) -> q_gen_6597
<z, s, z>(q_gen_6604) -> q_gen_6597
<z, z, z>() -> q_gen_6597
<s, s, s>(q_gen_6597) -> q_gen_6607
<s, z, z>(q_gen_6604) -> q_gen_6607
<s, s, s>(q_gen_6607) -> q_gen_6623
<z, z, s>(q_gen_6604) -> q_gen_6623
}

Datatype: <nat, nat, nat>
Convolution form: right
}}}
  ;  plus -> 
{{{
Q={q_gen_6596, q_gen_6602, q_gen_6612},
Q_f={q_gen_6596},
Delta=
{
<s>(q_gen_6612) -> q_gen_6612
<z>() -> q_gen_6612
<s, s>(q_gen_6602) -> q_gen_6602
<z, s>(q_gen_6612) -> q_gen_6602
<z, z>() -> q_gen_6602
<s, s, s>(q_gen_6596) -> q_gen_6596
<s, z, s>(q_gen_6602) -> q_gen_6596
<z, s, s>(q_gen_6602) -> q_gen_6596
<z, z, s>(q_gen_6612) -> q_gen_6596
<z, z, z>() -> q_gen_6596
}

Datatype: <nat, nat, nat>
Convolution form: right
}}}

}
--
Equality automata are defined for: {eq_nat}
_|

Teacher's answer:
New clause system:
{
() -> leq([z, s(nn2)]) -> 17  ;  () -> leq([z, z]) -> 17  ;  () -> mult([n, z, z]) -> 17  ;  () -> plus([n, z, n]) -> 17  ;  (leq([nn1, nn2])) -> leq([s(nn1), s(nn2)]) -> 17  ;  (leq([s(nn1), s(nn2)])) -> leq([nn1, nn2]) -> 20  ;  (leq([s(nn1), z])) -> BOT -> 18  ;  (mult([n, mm, _lz]) /\ plus([n, _lz, _mz])) -> mult([n, s(mm), _mz]) -> 25  ;  (mult([n, s(m), _rz])) -> leq([n, _rz]) -> 24  ;  (plus([n, mm, _gz])) -> plus([n, s(mm), s(_gz)]) -> 19
}
Sat witness: Yes: ((leq([s(nn1), s(nn2)])) -> leq([nn1, nn2]), {
nn1 -> s(s(z))  ;  nn2 -> s(z)
})

-------------------------------------------
Step 29, which took 0.015223 s (model generation: 0.014276,  model checking: 0.000947):

Model:
|_
{
leq -> 
{{{
Q={q_gen_6598, q_gen_6600, q_gen_6625},
Q_f={q_gen_6598},
Delta=
{
<s>(q_gen_6600) -> q_gen_6600
<z>() -> q_gen_6600
<s, s>(q_gen_6598) -> q_gen_6598
<z, s>(q_gen_6600) -> q_gen_6598
<z, z>() -> q_gen_6598
<s, s>(q_gen_6625) -> q_gen_6625
<s, z>(q_gen_6600) -> q_gen_6625
}

Datatype: <nat, nat>
Convolution form: right
}}}
  ;  mult -> 
{{{
Q={q_gen_6597, q_gen_6604, q_gen_6607, q_gen_6614, q_gen_6624, q_gen_6633},
Q_f={q_gen_6597, q_gen_6607},
Delta=
{
<s>(q_gen_6604) -> q_gen_6604
<z>() -> q_gen_6604
<z, s>(q_gen_6604) -> q_gen_6614
<z, z>() -> q_gen_6614
<s, z>(q_gen_6604) -> q_gen_6633
<s, z, s>(q_gen_6614) -> q_gen_6597
<z, s, s>(q_gen_6614) -> q_gen_6597
<z, s, z>(q_gen_6604) -> q_gen_6597
<z, z, s>(q_gen_6604) -> q_gen_6597
<z, z, z>() -> q_gen_6597
<s, s, s>(q_gen_6597) -> q_gen_6607
<s, z, z>(q_gen_6604) -> q_gen_6607
<z, s, s>(q_gen_6633) -> q_gen_6607
<s, s, s>(q_gen_6607) -> q_gen_6624
<s, s, s>(q_gen_6624) -> q_gen_6624
<s, z, s>(q_gen_6633) -> q_gen_6624
}

Datatype: <nat, nat, nat>
Convolution form: right
}}}
  ;  plus -> 
{{{
Q={q_gen_6596, q_gen_6602, q_gen_6612},
Q_f={q_gen_6596},
Delta=
{
<s>(q_gen_6612) -> q_gen_6612
<z>() -> q_gen_6612
<s, s>(q_gen_6602) -> q_gen_6602
<z, s>(q_gen_6612) -> q_gen_6602
<z, z>() -> q_gen_6602
<s, s, s>(q_gen_6596) -> q_gen_6596
<s, z, s>(q_gen_6602) -> q_gen_6596
<z, s, s>(q_gen_6602) -> q_gen_6596
<z, z, s>(q_gen_6612) -> q_gen_6596
<z, z, z>() -> q_gen_6596
}

Datatype: <nat, nat, nat>
Convolution form: right
}}}

}
--
Equality automata are defined for: {eq_nat}
_|

Teacher's answer:
New clause system:
{
() -> leq([z, s(nn2)]) -> 18  ;  () -> leq([z, z]) -> 18  ;  () -> mult([n, z, z]) -> 18  ;  () -> plus([n, z, n]) -> 18  ;  (leq([nn1, nn2])) -> leq([s(nn1), s(nn2)]) -> 18  ;  (leq([s(nn1), s(nn2)])) -> leq([nn1, nn2]) -> 21  ;  (leq([s(nn1), z])) -> BOT -> 19  ;  (mult([n, mm, _lz]) /\ plus([n, _lz, _mz])) -> mult([n, s(mm), _mz]) -> 28  ;  (mult([n, s(m), _rz])) -> leq([n, _rz]) -> 25  ;  (plus([n, mm, _gz])) -> plus([n, s(mm), s(_gz)]) -> 20
}
Sat witness: Yes: ((mult([n, mm, _lz]) /\ plus([n, _lz, _mz])) -> mult([n, s(mm), _mz]), {
_lz -> s(z)  ;  _mz -> s(s(z))  ;  mm -> s(s(z))  ;  n -> s(z)
})

-------------------------------------------
Step 30, which took 0.016999 s (model generation: 0.016085,  model checking: 0.000914):

Model:
|_
{
leq -> 
{{{
Q={q_gen_6598, q_gen_6600, q_gen_6625},
Q_f={q_gen_6598},
Delta=
{
<s>(q_gen_6600) -> q_gen_6600
<z>() -> q_gen_6600
<s, s>(q_gen_6598) -> q_gen_6598
<z, s>(q_gen_6600) -> q_gen_6598
<z, z>() -> q_gen_6598
<s, s>(q_gen_6625) -> q_gen_6625
<s, z>(q_gen_6600) -> q_gen_6625
}

Datatype: <nat, nat>
Convolution form: right
}}}
  ;  mult -> 
{{{
Q={q_gen_6597, q_gen_6604, q_gen_6607, q_gen_6614, q_gen_6624, q_gen_6644},
Q_f={q_gen_6597, q_gen_6607},
Delta=
{
<s>(q_gen_6604) -> q_gen_6604
<z>() -> q_gen_6604
<s, z>(q_gen_6604) -> q_gen_6614
<z, z>() -> q_gen_6614
<z, s>(q_gen_6604) -> q_gen_6644
<s, s, s>(q_gen_6597) -> q_gen_6597
<s, z, s>(q_gen_6644) -> q_gen_6597
<z, s, s>(q_gen_6614) -> q_gen_6597
<z, s, z>(q_gen_6604) -> q_gen_6597
<z, z, s>(q_gen_6604) -> q_gen_6597
<z, z, z>() -> q_gen_6597
<s, z, s>(q_gen_6614) -> q_gen_6607
<s, z, z>(q_gen_6604) -> q_gen_6607
<s, s, s>(q_gen_6607) -> q_gen_6624
<s, s, s>(q_gen_6624) -> q_gen_6624
}

Datatype: <nat, nat, nat>
Convolution form: right
}}}
  ;  plus -> 
{{{
Q={q_gen_6596, q_gen_6602, q_gen_6612},
Q_f={q_gen_6596},
Delta=
{
<s>(q_gen_6612) -> q_gen_6612
<z>() -> q_gen_6612
<s, s>(q_gen_6602) -> q_gen_6602
<z, s>(q_gen_6612) -> q_gen_6602
<z, z>() -> q_gen_6602
<s, s, s>(q_gen_6596) -> q_gen_6596
<s, z, s>(q_gen_6602) -> q_gen_6596
<z, s, s>(q_gen_6602) -> q_gen_6596
<z, z, s>(q_gen_6612) -> q_gen_6596
<z, z, z>() -> q_gen_6596
}

Datatype: <nat, nat, nat>
Convolution form: right
}}}

}
--
Equality automata are defined for: {eq_nat}
_|

Teacher's answer:
New clause system:
{
() -> leq([z, s(nn2)]) -> 19  ;  () -> leq([z, z]) -> 19  ;  () -> mult([n, z, z]) -> 19  ;  () -> plus([n, z, n]) -> 19  ;  (leq([nn1, nn2])) -> leq([s(nn1), s(nn2)]) -> 19  ;  (leq([s(nn1), s(nn2)])) -> leq([nn1, nn2]) -> 22  ;  (leq([s(nn1), z])) -> BOT -> 20  ;  (mult([n, mm, _lz]) /\ plus([n, _lz, _mz])) -> mult([n, s(mm), _mz]) -> 31  ;  (mult([n, s(m), _rz])) -> leq([n, _rz]) -> 26  ;  (plus([n, mm, _gz])) -> plus([n, s(mm), s(_gz)]) -> 21
}
Sat witness: Yes: ((mult([n, mm, _lz]) /\ plus([n, _lz, _mz])) -> mult([n, s(mm), _mz]), {
_lz -> z  ;  _mz -> s(s(z))  ;  mm -> z  ;  n -> s(s(z))
})

-------------------------------------------
Step 31, which took 0.018469 s (model generation: 0.017555,  model checking: 0.000914):

Model:
|_
{
leq -> 
{{{
Q={q_gen_6598, q_gen_6600, q_gen_6625},
Q_f={q_gen_6598},
Delta=
{
<s>(q_gen_6600) -> q_gen_6600
<z>() -> q_gen_6600
<s, s>(q_gen_6598) -> q_gen_6598
<z, s>(q_gen_6600) -> q_gen_6598
<z, z>() -> q_gen_6598
<s, s>(q_gen_6625) -> q_gen_6625
<s, z>(q_gen_6600) -> q_gen_6625
}

Datatype: <nat, nat>
Convolution form: right
}}}
  ;  mult -> 
{{{
Q={q_gen_6597, q_gen_6604, q_gen_6607, q_gen_6614, q_gen_6624, q_gen_6633},
Q_f={q_gen_6597, q_gen_6607},
Delta=
{
<s>(q_gen_6604) -> q_gen_6604
<z>() -> q_gen_6604
<z, s>(q_gen_6604) -> q_gen_6614
<z, z>() -> q_gen_6614
<s, z>(q_gen_6604) -> q_gen_6633
<s, z, s>(q_gen_6614) -> q_gen_6597
<z, s, s>(q_gen_6614) -> q_gen_6597
<z, s, s>(q_gen_6633) -> q_gen_6597
<z, s, z>(q_gen_6604) -> q_gen_6597
<z, z, s>(q_gen_6604) -> q_gen_6597
<z, z, z>() -> q_gen_6597
<s, s, s>(q_gen_6597) -> q_gen_6607
<s, z, z>(q_gen_6604) -> q_gen_6607
<s, s, s>(q_gen_6607) -> q_gen_6624
<s, s, s>(q_gen_6624) -> q_gen_6624
<s, z, s>(q_gen_6633) -> q_gen_6624
}

Datatype: <nat, nat, nat>
Convolution form: right
}}}
  ;  plus -> 
{{{
Q={q_gen_6596, q_gen_6602, q_gen_6612},
Q_f={q_gen_6596},
Delta=
{
<s>(q_gen_6612) -> q_gen_6612
<z>() -> q_gen_6612
<s, s>(q_gen_6602) -> q_gen_6602
<z, s>(q_gen_6612) -> q_gen_6602
<z, z>() -> q_gen_6602
<s, s, s>(q_gen_6596) -> q_gen_6596
<s, z, s>(q_gen_6602) -> q_gen_6596
<z, s, s>(q_gen_6602) -> q_gen_6596
<z, z, s>(q_gen_6612) -> q_gen_6596
<z, z, z>() -> q_gen_6596
}

Datatype: <nat, nat, nat>
Convolution form: right
}}}

}
--
Equality automata are defined for: {eq_nat}
_|

Teacher's answer:
New clause system:
{
() -> leq([z, s(nn2)]) -> 20  ;  () -> leq([z, z]) -> 20  ;  () -> mult([n, z, z]) -> 20  ;  () -> plus([n, z, n]) -> 20  ;  (leq([nn1, nn2])) -> leq([s(nn1), s(nn2)]) -> 20  ;  (leq([s(nn1), s(nn2)])) -> leq([nn1, nn2]) -> 23  ;  (leq([s(nn1), z])) -> BOT -> 21  ;  (mult([n, mm, _lz]) /\ plus([n, _lz, _mz])) -> mult([n, s(mm), _mz]) -> 34  ;  (mult([n, s(m), _rz])) -> leq([n, _rz]) -> 27  ;  (plus([n, mm, _gz])) -> plus([n, s(mm), s(_gz)]) -> 22
}
Sat witness: Yes: ((mult([n, mm, _lz]) /\ plus([n, _lz, _mz])) -> mult([n, s(mm), _mz]), {
_lz -> s(s(z))  ;  _mz -> s(s(z))  ;  mm -> s(z)  ;  n -> s(s(z))
})

-------------------------------------------
Step 32, which took 0.015200 s (model generation: 0.014650,  model checking: 0.000550):

Model:
|_
{
leq -> 
{{{
Q={q_gen_6598, q_gen_6600, q_gen_6625},
Q_f={q_gen_6598},
Delta=
{
<s>(q_gen_6600) -> q_gen_6600
<z>() -> q_gen_6600
<s, s>(q_gen_6598) -> q_gen_6598
<z, s>(q_gen_6600) -> q_gen_6598
<z, z>() -> q_gen_6598
<s, s>(q_gen_6625) -> q_gen_6625
<s, z>(q_gen_6600) -> q_gen_6625
}

Datatype: <nat, nat>
Convolution form: right
}}}
  ;  mult -> 
{{{
Q={q_gen_6597, q_gen_6604, q_gen_6607, q_gen_6614, q_gen_6624, q_gen_6633},
Q_f={q_gen_6597, q_gen_6607},
Delta=
{
<s>(q_gen_6604) -> q_gen_6604
<z>() -> q_gen_6604
<z, s>(q_gen_6604) -> q_gen_6614
<z, z>() -> q_gen_6614
<s, z>(q_gen_6604) -> q_gen_6633
<s, s, s>(q_gen_6597) -> q_gen_6597
<s, z, s>(q_gen_6614) -> q_gen_6597
<z, s, s>(q_gen_6614) -> q_gen_6597
<z, s, s>(q_gen_6633) -> q_gen_6597
<z, s, z>(q_gen_6604) -> q_gen_6597
<z, z, s>(q_gen_6604) -> q_gen_6597
<z, z, z>() -> q_gen_6597
<s, z, z>(q_gen_6604) -> q_gen_6607
<s, s, s>(q_gen_6607) -> q_gen_6624
<s, s, s>(q_gen_6624) -> q_gen_6624
<s, z, s>(q_gen_6633) -> q_gen_6624
}

Datatype: <nat, nat, nat>
Convolution form: right
}}}
  ;  plus -> 
{{{
Q={q_gen_6596, q_gen_6602, q_gen_6612},
Q_f={q_gen_6596},
Delta=
{
<s>(q_gen_6612) -> q_gen_6612
<z>() -> q_gen_6612
<s, s>(q_gen_6602) -> q_gen_6602
<z, s>(q_gen_6612) -> q_gen_6602
<z, z>() -> q_gen_6602
<s, s, s>(q_gen_6596) -> q_gen_6596
<s, z, s>(q_gen_6602) -> q_gen_6596
<z, s, s>(q_gen_6602) -> q_gen_6596
<z, z, s>(q_gen_6612) -> q_gen_6596
<z, z, z>() -> q_gen_6596
}

Datatype: <nat, nat, nat>
Convolution form: right
}}}

}
--
Equality automata are defined for: {eq_nat}
_|

Teacher's answer:
New clause system:
{
() -> leq([z, s(nn2)]) -> 21  ;  () -> leq([z, z]) -> 21  ;  () -> mult([n, z, z]) -> 21  ;  () -> plus([n, z, n]) -> 21  ;  (leq([nn1, nn2])) -> leq([s(nn1), s(nn2)]) -> 21  ;  (leq([s(nn1), s(nn2)])) -> leq([nn1, nn2]) -> 24  ;  (leq([s(nn1), z])) -> BOT -> 22  ;  (mult([n, mm, _lz]) /\ plus([n, _lz, _mz])) -> mult([n, s(mm), _mz]) -> 37  ;  (mult([n, s(m), _rz])) -> leq([n, _rz]) -> 28  ;  (plus([n, mm, _gz])) -> plus([n, s(mm), s(_gz)]) -> 23
}
Sat witness: Yes: ((mult([n, mm, _lz]) /\ plus([n, _lz, _mz])) -> mult([n, s(mm), _mz]), {
_lz -> z  ;  _mz -> s(s(s(z)))  ;  mm -> z  ;  n -> s(s(s(z)))
})

-------------------------------------------
Step 33, which took 0.020601 s (model generation: 0.019488,  model checking: 0.001113):

Model:
|_
{
leq -> 
{{{
Q={q_gen_6598, q_gen_6600, q_gen_6625},
Q_f={q_gen_6598},
Delta=
{
<s>(q_gen_6600) -> q_gen_6600
<z>() -> q_gen_6600
<s, s>(q_gen_6598) -> q_gen_6598
<z, s>(q_gen_6600) -> q_gen_6598
<z, z>() -> q_gen_6598
<s, s>(q_gen_6625) -> q_gen_6625
<s, z>(q_gen_6600) -> q_gen_6625
}

Datatype: <nat, nat>
Convolution form: right
}}}
  ;  mult -> 
{{{
Q={q_gen_6597, q_gen_6604, q_gen_6607, q_gen_6614, q_gen_6624, q_gen_6633},
Q_f={q_gen_6597, q_gen_6607},
Delta=
{
<s>(q_gen_6604) -> q_gen_6604
<z>() -> q_gen_6604
<s, s>(q_gen_6614) -> q_gen_6614
<z, s>(q_gen_6604) -> q_gen_6614
<z, z>() -> q_gen_6614
<s, z>(q_gen_6604) -> q_gen_6633
<s, s, s>(q_gen_6597) -> q_gen_6597
<s, z, s>(q_gen_6614) -> q_gen_6597
<z, s, s>(q_gen_6614) -> q_gen_6597
<z, s, s>(q_gen_6633) -> q_gen_6597
<z, s, z>(q_gen_6604) -> q_gen_6597
<z, z, s>(q_gen_6604) -> q_gen_6597
<z, z, z>() -> q_gen_6597
<s, z, z>(q_gen_6604) -> q_gen_6607
<s, s, s>(q_gen_6607) -> q_gen_6624
<s, s, s>(q_gen_6624) -> q_gen_6624
<s, z, s>(q_gen_6633) -> q_gen_6624
}

Datatype: <nat, nat, nat>
Convolution form: right
}}}
  ;  plus -> 
{{{
Q={q_gen_6596, q_gen_6602, q_gen_6612},
Q_f={q_gen_6596},
Delta=
{
<s>(q_gen_6612) -> q_gen_6612
<z>() -> q_gen_6612
<s, s>(q_gen_6602) -> q_gen_6602
<z, s>(q_gen_6612) -> q_gen_6602
<z, z>() -> q_gen_6602
<s, s, s>(q_gen_6596) -> q_gen_6596
<s, z, s>(q_gen_6602) -> q_gen_6596
<z, s, s>(q_gen_6602) -> q_gen_6596
<z, z, s>(q_gen_6612) -> q_gen_6596
<z, z, z>() -> q_gen_6596
}

Datatype: <nat, nat, nat>
Convolution form: right
}}}

}
--
Equality automata are defined for: {eq_nat}
_|

Teacher's answer:
New clause system:
{
() -> leq([z, s(nn2)]) -> 22  ;  () -> leq([z, z]) -> 22  ;  () -> mult([n, z, z]) -> 22  ;  () -> plus([n, z, n]) -> 22  ;  (leq([nn1, nn2])) -> leq([s(nn1), s(nn2)]) -> 22  ;  (leq([s(nn1), s(nn2)])) -> leq([nn1, nn2]) -> 25  ;  (leq([s(nn1), z])) -> BOT -> 23  ;  (mult([n, mm, _lz]) /\ plus([n, _lz, _mz])) -> mult([n, s(mm), _mz]) -> 40  ;  (mult([n, s(m), _rz])) -> leq([n, _rz]) -> 29  ;  (plus([n, mm, _gz])) -> plus([n, s(mm), s(_gz)]) -> 24
}
Sat witness: Yes: ((mult([n, mm, _lz]) /\ plus([n, _lz, _mz])) -> mult([n, s(mm), _mz]), {
_lz -> z  ;  _mz -> s(s(z))  ;  mm -> s(s(z))  ;  n -> z
})

Total time: 0.402094
Reason for stopping: Proved

