Solving ../../benchmarks/smtlib/true/isaplanner_prop28.smt2...

Inference procedure has parameters:
Timeout: Some(40.) (sec)
Approximation method: remove functionnality constraint where possible



Learning problem is:

env: {
nat -> {s, z}  ;  natlist -> {cons, nil}
}
definition:
{
(append, F:
{
append(nil, l2, l2) <= True
append(cons(h1, t1), l2, cons(h1, _zj)) <= append(t1, l2, _zj)
}
eq_natlist(_ck, _dk) <= append(_ak, _bk, _ck) /\ append(_ak, _bk, _dk)
)
(member, P:
{
member(h, cons(h, t)) <= True
eq_nat(e, h) \/ member(e, cons(h, t)) <= member(e, t)
eq_nat(e, h) \/ member(e, t) <= member(e, cons(h, t))
False <= member(e, nil)
}
)
}

properties:
{
member(e, _ek) <= append(l, cons(e, nil), _ek)
}


over-approximation: {append}
under-approximation: {member}

Clause system for inference is:

{
append(nil, l2, l2) <= True
member(h, cons(h, t)) <= True
member(e, _ek) <= append(l, cons(e, nil), _ek)
append(cons(h1, t1), l2, cons(h1, _zj)) <= append(t1, l2, _zj)
eq_nat(e, h) \/ member(e, cons(h, t)) <= member(e, t)
eq_nat(e, h) \/ member(e, t) <= member(e, cons(h, t))
False <= member(e, nil)
}


Solving took 39.733882 seconds.
Maybe:  timeout during learner
Last solver state:

Clauses:
{
append(nil, l2, l2) <= True
member(h, cons(h, t)) <= True
member(e, _ek) <= append(l, cons(e, nil), _ek)
append(cons(h1, t1), l2, cons(h1, _zj)) <= append(t1, l2, _zj)
eq_nat(e, h) \/ member(e, cons(h, t)) <= member(e, t)
eq_nat(e, h) \/ member(e, t) <= member(e, cons(h, t))
False <= member(e, nil)
}

Accumulated learning constraints:
{
append(cons(s(z), nil), cons(z, nil), cons(s(z), cons(z, nil))) <= True
append(cons(z, nil), cons(s(z), nil), cons(z, cons(s(z), nil))) <= True
append(cons(z, nil), cons(z, nil), cons(z, cons(z, nil))) <= True
append(cons(z, nil), nil, cons(z, nil)) <= True
append(nil, cons(s(s(s(s(z)))), nil), cons(s(s(s(s(z)))), nil)) <= True
append(nil, cons(s(s(s(z))), nil), cons(s(s(s(z))), nil)) <= True
append(nil, cons(s(s(z)), nil), cons(s(s(z)), nil)) <= True
append(nil, cons(s(z), nil), cons(s(z), nil)) <= True
append(nil, cons(z, nil), cons(z, nil)) <= True
append(nil, nil, nil) <= True
member(s(s(s(s(z)))), cons(s(s(s(s(z)))), nil)) <= True
member(s(s(s(z))), cons(s(s(s(z))), nil)) <= True
member(s(s(z)), cons(s(s(z)), nil)) <= True
member(s(s(z)), cons(z, cons(s(s(z)), nil))) <= True
member(s(s(z)), cons(z, cons(z, cons(s(s(z)), nil)))) <= True
member(s(z), cons(s(z), nil)) <= True
member(s(z), cons(z, cons(s(z), nil))) <= True
member(s(z), cons(z, cons(z, cons(s(z), nil)))) <= True
member(z, cons(s(z), cons(s(z), cons(z, nil)))) <= True
member(z, cons(s(z), cons(z, nil))) <= True
member(z, cons(z, nil)) <= True
append(cons(z, cons(s(z), nil)), cons(s(z), nil), cons(z, cons(s(z), nil))) <= append(cons(s(z), nil), cons(s(z), nil), cons(s(z), nil))
False <= append(cons(s(z), nil), cons(s(z), nil), cons(z, nil))
False <= append(cons(s(z), nil), cons(z, nil), cons(s(z), nil))
append(cons(z, cons(z, nil)), cons(s(s(s(z))), nil), cons(z, cons(z, cons(s(z), nil)))) <= append(cons(z, nil), cons(s(s(s(z))), nil), cons(z, cons(s(z), nil)))
member(s(s(s(z))), cons(z, cons(s(z), nil))) <= append(cons(z, nil), cons(s(s(s(z))), nil), cons(z, cons(s(z), nil)))
append(cons(z, cons(z, nil)), cons(s(s(z)), nil), cons(z, cons(z, cons(z, cons(s(s(z)), nil))))) <= append(cons(z, nil), cons(s(s(z)), nil), cons(z, cons(z, cons(s(s(z)), nil))))
False <= append(cons(z, nil), cons(s(z), nil), cons(z, cons(z, nil)))
False <= append(cons(z, nil), cons(s(z), nil), cons(z, nil))
False <= append(cons(z, nil), cons(z, nil), cons(s(z), nil))
False <= append(nil, cons(s(s(z)), nil), cons(z, nil))
False <= append(nil, cons(s(z), nil), cons(s(s(z)), nil))
False <= append(nil, cons(s(z), nil), cons(z, nil))
append(cons(z, nil), cons(z, nil), cons(z, cons(s(s(z)), nil))) <= append(nil, cons(z, nil), cons(s(s(z)), nil))
False <= append(nil, cons(z, nil), cons(s(z), nil))
member(s(s(s(s(z)))), cons(s(z), nil)) <= member(s(s(s(s(z)))), cons(z, cons(s(z), nil)))
member(s(s(s(z))), cons(z, cons(s(z), nil))) <= member(s(s(s(z))), cons(s(z), nil))
False <= member(s(s(s(z))), cons(z, nil))
False <= member(s(s(s(z))), nil)
False <= member(s(s(z)), cons(s(z), nil))
False <= member(s(s(z)), cons(z, cons(z, nil)))
False <= member(s(s(z)), cons(z, nil))
False <= member(s(s(z)), nil)
False <= member(s(z), cons(s(s(z)), nil))
False <= member(s(z), cons(z, cons(s(s(z)), nil)))
False <= member(s(z), cons(z, cons(z, cons(z, nil))))
False <= member(s(z), cons(z, cons(z, nil)))
False <= member(s(z), cons(z, nil))
False <= member(s(z), nil)
False <= member(z, cons(s(s(z)), nil))
False <= member(z, cons(s(z), cons(s(z), nil)))
False <= member(z, cons(s(z), nil))
False <= member(z, nil)
}

Current best model:
|_

_r_1 ->
{
  _r_1(s(x_0_0), cons(x_1_0, x_1_1)) <= _r_6(x_1_0)
  _r_1(z, cons(x_1_0, x_1_1)) <= _r_3(x_1_1)
  _r_1(z, cons(x_1_0, x_1_1)) <= _r_4(x_1_0)
}
;
_r_2 ->
{
  _r_2(cons(x_0_0, x_0_1)) <= _r_2(x_0_1)
  _r_2(cons(x_0_0, x_0_1)) <= _r_5(x_0_0)
}
;
_r_3 ->
{
  _r_3(cons(x_0_0, x_0_1)) <= True
}
;
_r_4 ->
{
  _r_4(s(x_0_0)) <= _r_5(x_0_0)
}
;
_r_5 ->
{
  _r_5(z) <= True
}
;
_r_6 ->
{
  _r_6(s(x_0_0)) <= _r_4(x_0_0)
  _r_6(s(x_0_0)) <= _r_6(x_0_0)
}
;
append ->
{
  append(cons(x_0_0, x_0_1), cons(x_1_0, x_1_1), cons(x_2_0, x_2_1)) <= member(x_1_0, x_2_1)
  append(cons(x_0_0, x_0_1), nil, cons(x_2_0, x_2_1)) <= True
  append(nil, cons(x_1_0, x_1_1), cons(x_2_0, x_2_1)) <= _r_4(x_1_0) /\ _r_4(x_2_0)
  append(nil, cons(x_1_0, x_1_1), cons(x_2_0, x_2_1)) <= _r_5(x_1_0) /\ _r_5(x_2_0)
  append(nil, cons(x_1_0, x_1_1), cons(x_2_0, x_2_1)) <= _r_6(x_1_0) /\ _r_6(x_2_0)
  append(nil, nil, nil) <= True
}
;
member ->
{
  member(s(x_0_0), cons(x_1_0, x_1_1)) <= _r_1(x_0_0, x_1_1)
  member(s(x_0_0), cons(x_1_0, x_1_1)) <= _r_4(x_0_0) /\ _r_6(x_1_0)
  member(s(x_0_0), cons(x_1_0, x_1_1)) <= _r_4(x_1_0) /\ _r_5(x_0_0)
  member(s(x_0_0), cons(x_1_0, x_1_1)) <= _r_6(x_0_0) /\ _r_6(x_1_0)
  member(z, cons(x_1_0, x_1_1)) <= _r_2(x_1_1)
  member(z, cons(x_1_0, x_1_1)) <= _r_5(x_1_0)
}

--
Equality automata are defined for: {nat, natlist}
_|






-------------------
STEPS:
-------------------------------------------
Step 0, which took 0.007347 s (model generation: 0.007270,  model checking: 0.000077):

Ground examples at the beginning of this step are:
{

}

Learner proposed model:
Found Model:
|_

append ->
{
  
}
;
member ->
{
  
}

--
Equality automata are defined for: {nat, natlist}
_|


Answer of teacher:


append(nil, l2, l2) <= True -> Yes: {
l2 -> nil
}
member(h, cons(h, t)) <= True -> Yes: {
h -> z
}
member(e, _ek) <= append(l, cons(e, nil), _ek) -> No: ()
append(cons(h1, t1), l2, cons(h1, _zj)) <= append(t1, l2, _zj) -> No: ()
eq_nat(e, h) \/ member(e, cons(h, t)) <= member(e, t) -> No: ()
eq_nat(e, h) \/ member(e, t) <= member(e, cons(h, t)) -> No: ()
False <= member(e, nil) -> No: ()



-------------------------------------------
Step 1, which took 0.007324 s (model generation: 0.007270,  model checking: 0.000054):

Ground examples at the beginning of this step are:
{
append(nil, nil, nil) <= True
member(z, cons(z, nil)) <= True
}

Learner proposed model:
Found Model:
|_

append ->
{
  append(nil, nil, nil) <= True
}
;
member ->
{
  member(z, cons(x_1_0, x_1_1)) <= True
}

--
Equality automata are defined for: {nat, natlist}
_|


Answer of teacher:


append(nil, l2, l2) <= True -> Yes: {
l2 -> cons(l2_0, l2_1)
}
member(h, cons(h, t)) <= True -> Yes: {
h -> s(h_0)
}
member(e, _ek) <= append(l, cons(e, nil), _ek) -> No: ()
append(cons(h1, t1), l2, cons(h1, _zj)) <= append(t1, l2, _zj) -> Yes: {
_zj -> nil  ;  l2 -> nil  ;  t1 -> nil
}
eq_nat(e, h) \/ member(e, cons(h, t)) <= member(e, t) -> No: ()
eq_nat(e, h) \/ member(e, t) <= member(e, cons(h, t)) -> Yes: {
e -> z  ;  h -> s(h_0)  ;  t -> nil
}
False <= member(e, nil) -> No: ()



-------------------------------------------
Step 2, which took 0.008831 s (model generation: 0.008756,  model checking: 0.000075):

Ground examples at the beginning of this step are:
{
append(cons(z, nil), nil, cons(z, nil)) <= True
append(nil, cons(z, nil), cons(z, nil)) <= True
append(nil, nil, nil) <= True
member(s(z), cons(s(z), nil)) <= True
member(z, cons(z, nil)) <= True
member(z, nil) <= member(z, cons(s(z), nil))
}

Learner proposed model:
Found Model:
|_

append ->
{
  append(cons(x_0_0, x_0_1), nil, cons(x_2_0, x_2_1)) <= True
  append(nil, cons(x_1_0, x_1_1), cons(x_2_0, x_2_1)) <= True
  append(nil, nil, nil) <= True
}
;
member ->
{
  member(s(x_0_0), cons(x_1_0, x_1_1)) <= True
  member(z, cons(x_1_0, x_1_1)) <= True
  member(z, nil) <= True
}

--
Equality automata are defined for: {nat, natlist}
_|


Answer of teacher:


append(nil, l2, l2) <= True -> No: ()
member(h, cons(h, t)) <= True -> No: ()
member(e, _ek) <= append(l, cons(e, nil), _ek) -> No: ()
append(cons(h1, t1), l2, cons(h1, _zj)) <= append(t1, l2, _zj) -> Yes: {
_zj -> cons(_zj_0, _zj_1)  ;  l2 -> cons(l2_0, l2_1)  ;  t1 -> nil
}
eq_nat(e, h) \/ member(e, cons(h, t)) <= member(e, t) -> No: ()
eq_nat(e, h) \/ member(e, t) <= member(e, cons(h, t)) -> Yes: {
e -> s(e_0)  ;  h -> z  ;  t -> nil
}
False <= member(e, nil) -> Yes: {
e -> z
}



-------------------------------------------
Step 3, which took 0.018180 s (model generation: 0.018035,  model checking: 0.000145):

Ground examples at the beginning of this step are:
{
append(cons(z, nil), cons(z, nil), cons(z, cons(z, nil))) <= True
append(cons(z, nil), nil, cons(z, nil)) <= True
append(nil, cons(z, nil), cons(z, nil)) <= True
append(nil, nil, nil) <= True
member(s(z), cons(s(z), nil)) <= True
member(z, cons(z, nil)) <= True
member(s(z), nil) <= member(s(z), cons(z, nil))
False <= member(z, cons(s(z), nil))
False <= member(z, nil)
}

Learner proposed model:
Found Model:
|_

_r_1 ->
{
  _r_1(z) <= True
}
;
append ->
{
  append(cons(x_0_0, x_0_1), cons(x_1_0, x_1_1), cons(x_2_0, x_2_1)) <= True
  append(cons(x_0_0, x_0_1), nil, cons(x_2_0, x_2_1)) <= True
  append(nil, cons(x_1_0, x_1_1), cons(x_2_0, x_2_1)) <= True
  append(nil, nil, nil) <= True
}
;
member ->
{
  member(s(x_0_0), cons(x_1_0, x_1_1)) <= True
  member(s(x_0_0), nil) <= True
  member(z, cons(x_1_0, x_1_1)) <= _r_1(x_1_0)
}

--
Equality automata are defined for: {nat, natlist}
_|


Answer of teacher:


append(nil, l2, l2) <= True -> No: ()
member(h, cons(h, t)) <= True -> No: ()
member(e, _ek) <= append(l, cons(e, nil), _ek) -> Yes: {
_ek -> cons(s(v0_0), _ek_1)  ;  e -> z  ;  l -> nil
}
append(cons(h1, t1), l2, cons(h1, _zj)) <= append(t1, l2, _zj) -> No: ()
eq_nat(e, h) \/ member(e, cons(h, t)) <= member(e, t) -> Yes: {
e -> z  ;  h -> s(h_0)  ;  t -> cons(z, t_1)
}
eq_nat(e, h) \/ member(e, t) <= member(e, cons(h, t)) -> No: ()
False <= member(e, nil) -> Yes: {
e -> s(e_0)
}



-------------------------------------------
Step 4, which took 0.046886 s (model generation: 0.046303,  model checking: 0.000583):

Ground examples at the beginning of this step are:
{
append(cons(z, nil), cons(z, nil), cons(z, cons(z, nil))) <= True
append(cons(z, nil), nil, cons(z, nil)) <= True
append(nil, cons(z, nil), cons(z, nil)) <= True
append(nil, nil, nil) <= True
member(s(z), cons(s(z), nil)) <= True
member(z, cons(s(z), cons(z, nil))) <= True
member(z, cons(z, nil)) <= True
False <= append(nil, cons(z, nil), cons(s(z), nil))
False <= member(s(z), cons(z, nil))
False <= member(s(z), nil)
False <= member(z, cons(s(z), nil))
False <= member(z, nil)
}

Learner proposed model:
Found Model:
|_

_r_1 ->
{
  _r_1(cons(x_0_0, x_0_1)) <= True
}
;
_r_2 ->
{
  _r_2(z) <= True
}
;
_r_3 ->
{
  _r_3(s(x_0_0)) <= True
}
;
append ->
{
  append(cons(x_0_0, x_0_1), cons(x_1_0, x_1_1), cons(x_2_0, x_2_1)) <= True
  append(cons(x_0_0, x_0_1), nil, cons(x_2_0, x_2_1)) <= True
  append(nil, cons(x_1_0, x_1_1), cons(x_2_0, x_2_1)) <= _r_2(x_2_0)
  append(nil, nil, nil) <= True
}
;
member ->
{
  member(s(x_0_0), cons(x_1_0, x_1_1)) <= _r_3(x_1_0)
  member(z, cons(x_1_0, x_1_1)) <= _r_1(x_1_1)
  member(z, cons(x_1_0, x_1_1)) <= _r_2(x_1_0)
}

--
Equality automata are defined for: {nat, natlist}
_|


Answer of teacher:


append(nil, l2, l2) <= True -> Yes: {
l2 -> cons(s(v0_0), l2_1)
}
member(h, cons(h, t)) <= True -> No: ()
member(e, _ek) <= append(l, cons(e, nil), _ek) -> Yes: {
_ek -> cons(s(v0_0), nil)  ;  e -> z  ;  l -> cons(l_0, l_1)
}
append(cons(h1, t1), l2, cons(h1, _zj)) <= append(t1, l2, _zj) -> No: ()
eq_nat(e, h) \/ member(e, cons(h, t)) <= member(e, t) -> Yes: {
e -> s(e_0)  ;  h -> z  ;  t -> cons(s(v0_0), t_1)
}
eq_nat(e, h) \/ member(e, t) <= member(e, cons(h, t)) -> Yes: {
e -> s(z)  ;  h -> s(s(v1_0))  ;  t -> nil
}
False <= member(e, nil) -> No: ()



-------------------------------------------
Step 5, which took 0.065630 s (model generation: 0.064725,  model checking: 0.000905):

Ground examples at the beginning of this step are:
{
append(cons(z, nil), cons(z, nil), cons(z, cons(z, nil))) <= True
append(cons(z, nil), nil, cons(z, nil)) <= True
append(nil, cons(s(z), nil), cons(s(z), nil)) <= True
append(nil, cons(z, nil), cons(z, nil)) <= True
append(nil, nil, nil) <= True
member(s(z), cons(s(z), nil)) <= True
member(s(z), cons(z, cons(s(z), nil))) <= True
member(z, cons(s(z), cons(z, nil))) <= True
member(z, cons(z, nil)) <= True
False <= append(cons(z, nil), cons(z, nil), cons(s(z), nil))
False <= append(nil, cons(z, nil), cons(s(z), nil))
False <= member(s(z), cons(s(s(z)), nil))
False <= member(s(z), cons(z, nil))
False <= member(s(z), nil)
False <= member(z, cons(s(z), nil))
False <= member(z, nil)
}

Learner proposed model:
Found Model:
|_

_r_1 ->
{
  _r_1(cons(x_0_0, x_0_1)) <= True
}
;
_r_2 ->
{
  _r_2(s(x_0_0)) <= _r_3(x_0_0)
}
;
_r_3 ->
{
  _r_3(z) <= True
}
;
append ->
{
  append(cons(x_0_0, x_0_1), cons(x_1_0, x_1_1), cons(x_2_0, x_2_1)) <= _r_3(x_2_0)
  append(cons(x_0_0, x_0_1), nil, cons(x_2_0, x_2_1)) <= True
  append(nil, cons(x_1_0, x_1_1), cons(x_2_0, x_2_1)) <= _r_2(x_1_0)
  append(nil, cons(x_1_0, x_1_1), cons(x_2_0, x_2_1)) <= _r_3(x_2_0)
  append(nil, nil, nil) <= True
}
;
member ->
{
  member(s(x_0_0), cons(x_1_0, x_1_1)) <= _r_1(x_1_1)
  member(s(x_0_0), cons(x_1_0, x_1_1)) <= _r_2(x_1_0)
  member(z, cons(x_1_0, x_1_1)) <= _r_1(x_1_1)
  member(z, cons(x_1_0, x_1_1)) <= _r_3(x_1_0)
}

--
Equality automata are defined for: {nat, natlist}
_|


Answer of teacher:


append(nil, l2, l2) <= True -> Yes: {
l2 -> cons(s(s(v0_0)), l2_1)
}
member(h, cons(h, t)) <= True -> Yes: {
h -> s(s(v0_0))  ;  t -> nil
}
member(e, _ek) <= append(l, cons(e, nil), _ek) -> Yes: {
_ek -> cons(z, nil)  ;  e -> s(z)  ;  l -> nil
}
append(cons(h1, t1), l2, cons(h1, _zj)) <= append(t1, l2, _zj) -> Yes: {
_zj -> cons(_zj_0, _zj_1)  ;  h1 -> s(v0_0)  ;  l2 -> cons(s(z), l2_1)  ;  t1 -> nil
}
eq_nat(e, h) \/ member(e, cons(h, t)) <= member(e, t) -> No: ()
eq_nat(e, h) \/ member(e, t) <= member(e, cons(h, t)) -> Yes: {
e -> z  ;  h -> s(h_0)  ;  t -> cons(s(v0_0), nil)
}
False <= member(e, nil) -> No: ()



-------------------------------------------
Step 6, which took 0.158840 s (model generation: 0.157422,  model checking: 0.001418):

Ground examples at the beginning of this step are:
{
append(cons(z, nil), cons(z, nil), cons(z, cons(z, nil))) <= True
append(cons(z, nil), nil, cons(z, nil)) <= True
append(nil, cons(s(s(z)), nil), cons(s(s(z)), nil)) <= True
append(nil, cons(s(z), nil), cons(s(z), nil)) <= True
append(nil, cons(z, nil), cons(z, nil)) <= True
append(nil, nil, nil) <= True
member(s(s(z)), cons(s(s(z)), nil)) <= True
member(s(z), cons(s(z), nil)) <= True
member(s(z), cons(z, cons(s(z), nil))) <= True
member(z, cons(s(z), cons(z, nil))) <= True
member(z, cons(z, nil)) <= True
False <= append(cons(z, nil), cons(z, nil), cons(s(z), nil))
False <= append(nil, cons(s(z), nil), cons(z, nil))
False <= append(nil, cons(z, nil), cons(s(z), nil))
False <= member(s(z), cons(s(s(z)), nil))
False <= member(s(z), cons(z, nil))
False <= member(s(z), nil)
False <= member(z, cons(s(z), cons(s(z), nil)))
False <= member(z, cons(s(z), nil))
False <= member(z, nil)
}

Learner proposed model:
Found Model:
|_

_r_1 ->
{
  _r_1(cons(x_0_0, x_0_1)) <= _r_3(x_0_0)
}
;
_r_2 ->
{
  _r_2(cons(x_0_0, x_0_1)) <= True
}
;
_r_3 ->
{
  _r_3(s(x_0_0)) <= _r_4(x_0_0)
  _r_3(z) <= True
}
;
_r_4 ->
{
  _r_4(s(x_0_0)) <= _r_3(x_0_0)
}
;
append ->
{
  append(cons(x_0_0, x_0_1), cons(x_1_0, x_1_1), cons(x_2_0, x_2_1)) <= _r_3(x_2_0)
  append(cons(x_0_0, x_0_1), nil, cons(x_2_0, x_2_1)) <= True
  append(nil, cons(x_1_0, x_1_1), cons(x_2_0, x_2_1)) <= _r_3(x_1_0) /\ _r_3(x_2_0)
  append(nil, cons(x_1_0, x_1_1), cons(x_2_0, x_2_1)) <= _r_4(x_1_0) /\ _r_4(x_2_0)
  append(nil, nil, nil) <= True
}
;
member ->
{
  member(s(x_0_0), cons(x_1_0, x_1_1)) <= _r_2(x_1_1)
  member(s(x_0_0), cons(x_1_0, x_1_1)) <= _r_4(x_0_0)
  member(s(x_0_0), cons(x_1_0, x_1_1)) <= _r_4(x_1_0)
  member(z, cons(x_1_0, x_1_1)) <= _r_1(x_1_1)
  member(z, cons(x_1_0, x_1_1)) <= _r_3(x_1_0)
}

--
Equality automata are defined for: {nat, natlist}
_|


Answer of teacher:


append(nil, l2, l2) <= True -> No: ()
member(h, cons(h, t)) <= True -> No: ()
member(e, _ek) <= append(l, cons(e, nil), _ek) -> Yes: {
_ek -> cons(z, nil)  ;  e -> s(z)  ;  l -> cons(l_0, l_1)
}
append(cons(h1, t1), l2, cons(h1, _zj)) <= append(t1, l2, _zj) -> Yes: {
_zj -> cons(z, _zj_1)  ;  h1 -> s(z)  ;  l2 -> cons(z, l2_1)  ;  t1 -> nil
}
eq_nat(e, h) \/ member(e, cons(h, t)) <= member(e, t) -> Yes: {
e -> z  ;  h -> s(z)  ;  t -> cons(s(z), cons(z, v0_1))
}
eq_nat(e, h) \/ member(e, t) <= member(e, cons(h, t)) -> Yes: {
e -> s(s(z))  ;  h -> z  ;  t -> nil
}
False <= member(e, nil) -> No: ()



-------------------------------------------
Step 7, which took 0.236685 s (model generation: 0.235015,  model checking: 0.001670):

Ground examples at the beginning of this step are:
{
append(cons(s(z), nil), cons(z, nil), cons(s(z), cons(z, nil))) <= True
append(cons(z, nil), cons(z, nil), cons(z, cons(z, nil))) <= True
append(cons(z, nil), nil, cons(z, nil)) <= True
append(nil, cons(s(s(z)), nil), cons(s(s(z)), nil)) <= True
append(nil, cons(s(z), nil), cons(s(z), nil)) <= True
append(nil, cons(z, nil), cons(z, nil)) <= True
append(nil, nil, nil) <= True
member(s(s(z)), cons(s(s(z)), nil)) <= True
member(s(z), cons(s(z), nil)) <= True
member(s(z), cons(z, cons(s(z), nil))) <= True
member(z, cons(s(z), cons(s(z), cons(z, nil)))) <= True
member(z, cons(s(z), cons(z, nil))) <= True
member(z, cons(z, nil)) <= True
False <= append(cons(z, nil), cons(s(z), nil), cons(z, nil))
False <= append(cons(z, nil), cons(z, nil), cons(s(z), nil))
False <= append(nil, cons(s(z), nil), cons(z, nil))
False <= append(nil, cons(z, nil), cons(s(z), nil))
member(s(s(z)), nil) <= member(s(s(z)), cons(z, nil))
False <= member(s(z), cons(s(s(z)), nil))
False <= member(s(z), cons(z, nil))
False <= member(s(z), nil)
False <= member(z, cons(s(z), cons(s(z), nil)))
False <= member(z, cons(s(z), nil))
False <= member(z, nil)
}

Learner proposed model:
Found Model:
|_

_r_1 ->
{
  _r_1(cons(x_0_0, x_0_1)) <= True
}
;
_r_2 ->
{
  _r_2(cons(x_0_0, x_0_1)) <= _r_2(x_0_1)
  _r_2(cons(x_0_0, x_0_1)) <= _r_3(x_0_0)
}
;
_r_3 ->
{
  _r_3(z) <= True
}
;
_r_4 ->
{
  _r_4(s(x_0_0)) <= _r_3(x_0_0)
}
;
append ->
{
  append(cons(x_0_0, x_0_1), cons(x_1_0, x_1_1), cons(x_2_0, x_2_1)) <= member(x_1_0, x_2_1)
  append(cons(x_0_0, x_0_1), nil, cons(x_2_0, x_2_1)) <= True
  append(nil, cons(x_1_0, x_1_1), cons(x_2_0, x_2_1)) <= _r_3(x_1_0) /\ _r_3(x_2_0)
  append(nil, cons(x_1_0, x_1_1), cons(x_2_0, x_2_1)) <= _r_4(x_1_0) /\ _r_4(x_2_0)
  append(nil, cons(x_1_0, x_1_1), cons(x_2_0, x_2_1)) <= member(x_1_0, x_2_1)
  append(nil, nil, nil) <= True
}
;
member ->
{
  member(s(x_0_0), cons(x_1_0, x_1_1)) <= _r_1(x_1_1)
  member(s(x_0_0), cons(x_1_0, x_1_1)) <= _r_4(x_0_0)
  member(s(x_0_0), cons(x_1_0, x_1_1)) <= _r_4(x_1_0)
  member(s(x_0_0), nil) <= _r_4(x_0_0)
  member(z, cons(x_1_0, x_1_1)) <= _r_2(x_1_1)
  member(z, cons(x_1_0, x_1_1)) <= _r_3(x_1_0)
}

--
Equality automata are defined for: {nat, natlist}
_|


Answer of teacher:


append(nil, l2, l2) <= True -> Yes: {
l2 -> cons(s(s(s(v0_0))), nil)
}
member(h, cons(h, t)) <= True -> Yes: {
h -> s(s(s(v0_0)))  ;  t -> nil
}
member(e, _ek) <= append(l, cons(e, nil), _ek) -> No: ()
append(cons(h1, t1), l2, cons(h1, _zj)) <= append(t1, l2, _zj) -> No: ()
eq_nat(e, h) \/ member(e, cons(h, t)) <= member(e, t) -> No: ()
eq_nat(e, h) \/ member(e, t) <= member(e, cons(h, t)) -> Yes: {
e -> s(z)  ;  h -> z  ;  t -> cons(z, nil)
}
False <= member(e, nil) -> Yes: {
e -> s(s(z))
}



-------------------------------------------
Step 8, which took 0.618704 s (model generation: 0.617607,  model checking: 0.001097):

Ground examples at the beginning of this step are:
{
append(cons(s(z), nil), cons(z, nil), cons(s(z), cons(z, nil))) <= True
append(cons(z, nil), cons(z, nil), cons(z, cons(z, nil))) <= True
append(cons(z, nil), nil, cons(z, nil)) <= True
append(nil, cons(s(s(s(z))), nil), cons(s(s(s(z))), nil)) <= True
append(nil, cons(s(s(z)), nil), cons(s(s(z)), nil)) <= True
append(nil, cons(s(z), nil), cons(s(z), nil)) <= True
append(nil, cons(z, nil), cons(z, nil)) <= True
append(nil, nil, nil) <= True
member(s(s(s(z))), cons(s(s(s(z))), nil)) <= True
member(s(s(z)), cons(s(s(z)), nil)) <= True
member(s(z), cons(s(z), nil)) <= True
member(s(z), cons(z, cons(s(z), nil))) <= True
member(z, cons(s(z), cons(s(z), cons(z, nil)))) <= True
member(z, cons(s(z), cons(z, nil))) <= True
member(z, cons(z, nil)) <= True
False <= append(cons(z, nil), cons(s(z), nil), cons(z, nil))
False <= append(cons(z, nil), cons(z, nil), cons(s(z), nil))
False <= append(nil, cons(s(z), nil), cons(z, nil))
False <= append(nil, cons(z, nil), cons(s(z), nil))
False <= member(s(s(z)), cons(z, nil))
False <= member(s(s(z)), nil)
False <= member(s(z), cons(s(s(z)), nil))
False <= member(s(z), cons(z, cons(z, nil)))
False <= member(s(z), cons(z, nil))
False <= member(s(z), nil)
False <= member(z, cons(s(z), cons(s(z), nil)))
False <= member(z, cons(s(z), nil))
False <= member(z, nil)
}

Learner proposed model:
Found Model:
|_

_r_1 ->
{
  _r_1(s(x_0_0), s(x_1_0)) <= True
  _r_1(z, s(x_1_0)) <= _r_5(x_1_0)
}
;
_r_2 ->
{
  _r_2(cons(x_0_0, x_0_1)) <= _r_4(x_0_0)
}
;
_r_3 ->
{
  _r_3(cons(x_0_0, x_0_1)) <= _r_3(x_0_1)
  _r_3(cons(x_0_0, x_0_1)) <= _r_5(x_0_0)
}
;
_r_4 ->
{
  _r_4(s(x_0_0)) <= True
}
;
_r_5 ->
{
  _r_5(z) <= True
}
;
append ->
{
  append(cons(x_0_0, x_0_1), cons(x_1_0, x_1_1), cons(x_2_0, x_2_1)) <= _r_4(x_0_0)
  append(cons(x_0_0, x_0_1), cons(x_1_0, x_1_1), cons(x_2_0, x_2_1)) <= _r_5(x_1_0) /\ _r_5(x_2_0)
  append(cons(x_0_0, x_0_1), nil, cons(x_2_0, x_2_1)) <= True
  append(nil, cons(x_1_0, x_1_1), cons(x_2_0, x_2_1)) <= _r_4(x_1_0) /\ _r_4(x_2_0)
  append(nil, cons(x_1_0, x_1_1), cons(x_2_0, x_2_1)) <= _r_5(x_1_0) /\ _r_5(x_2_0)
  append(nil, nil, nil) <= True
}
;
member ->
{
  member(s(x_0_0), cons(x_1_0, x_1_1)) <= _r_1(x_0_0, x_1_0)
  member(s(x_0_0), cons(x_1_0, x_1_1)) <= _r_2(x_1_1)
  member(z, cons(x_1_0, x_1_1)) <= _r_3(x_1_1)
  member(z, cons(x_1_0, x_1_1)) <= _r_5(x_1_0)
}

--
Equality automata are defined for: {nat, natlist}
_|


Answer of teacher:


append(nil, l2, l2) <= True -> No: ()
member(h, cons(h, t)) <= True -> No: ()
member(e, _ek) <= append(l, cons(e, nil), _ek) -> Yes: {
_ek -> cons(z, nil)  ;  e -> s(z)  ;  l -> cons(s(v0_0), l_1)
}
append(cons(h1, t1), l2, cons(h1, _zj)) <= append(t1, l2, _zj) -> Yes: {
_zj -> cons(_zj_0, _zj_1)  ;  h1 -> z  ;  l2 -> cons(s(v0_0), l2_1)  ;  t1 -> cons(s(v0_0), t1_1)
}
eq_nat(e, h) \/ member(e, cons(h, t)) <= member(e, t) -> Yes: {
e -> s(z)  ;  h -> z  ;  t -> cons(z, cons(s(v0_0), v0_1))
}
eq_nat(e, h) \/ member(e, t) <= member(e, cons(h, t)) -> Yes: {
e -> s(s(v0_0))  ;  h -> s(z)  ;  t -> nil
}
False <= member(e, nil) -> No: ()



-------------------------------------------
Step 9, which took 0.770086 s (model generation: 0.768399,  model checking: 0.001687):

Ground examples at the beginning of this step are:
{
append(cons(s(z), nil), cons(z, nil), cons(s(z), cons(z, nil))) <= True
append(cons(z, nil), cons(z, nil), cons(z, cons(z, nil))) <= True
append(cons(z, nil), nil, cons(z, nil)) <= True
append(nil, cons(s(s(s(z))), nil), cons(s(s(s(z))), nil)) <= True
append(nil, cons(s(s(z)), nil), cons(s(s(z)), nil)) <= True
append(nil, cons(s(z), nil), cons(s(z), nil)) <= True
append(nil, cons(z, nil), cons(z, nil)) <= True
append(nil, nil, nil) <= True
member(s(s(s(z))), cons(s(s(s(z))), nil)) <= True
member(s(s(z)), cons(s(s(z)), nil)) <= True
member(s(z), cons(s(z), nil)) <= True
member(s(z), cons(z, cons(s(z), nil))) <= True
member(s(z), cons(z, cons(z, cons(s(z), nil)))) <= True
member(z, cons(s(z), cons(s(z), cons(z, nil)))) <= True
member(z, cons(s(z), cons(z, nil))) <= True
member(z, cons(z, nil)) <= True
False <= append(cons(s(z), nil), cons(s(z), nil), cons(z, nil))
False <= append(cons(z, nil), cons(s(z), nil), cons(z, nil))
False <= append(cons(z, nil), cons(z, nil), cons(s(z), nil))
False <= append(nil, cons(s(z), nil), cons(z, nil))
False <= append(nil, cons(z, nil), cons(s(z), nil))
False <= member(s(s(z)), cons(s(z), nil))
False <= member(s(s(z)), cons(z, nil))
False <= member(s(s(z)), nil)
False <= member(s(z), cons(s(s(z)), nil))
False <= member(s(z), cons(z, cons(z, nil)))
False <= member(s(z), cons(z, nil))
False <= member(s(z), nil)
False <= member(z, cons(s(z), cons(s(z), nil)))
False <= member(z, cons(s(z), nil))
False <= member(z, nil)
}

Learner proposed model:
Found Model:
|_

_r_1 ->
{
  _r_1(s(x_0_0), s(x_1_0)) <= _r_1(x_0_0, x_1_0)
  _r_1(z, s(x_1_0)) <= _r_4(x_1_0)
}
;
_r_2 ->
{
  _r_2(cons(x_0_0, x_0_1)) <= _r_2(x_0_1)
  _r_2(cons(x_0_0, x_0_1)) <= _r_4(x_0_0)
}
;
_r_3 ->
{
  _r_3(cons(x_0_0, x_0_1)) <= _r_3(x_0_1)
  _r_3(cons(x_0_0, x_0_1)) <= _r_5(x_0_0)
}
;
_r_4 ->
{
  _r_4(z) <= True
}
;
_r_5 ->
{
  _r_5(s(x_0_0)) <= True
}
;
append ->
{
  append(cons(x_0_0, x_0_1), cons(x_1_0, x_1_1), cons(x_2_0, x_2_1)) <= _r_4(x_1_0) /\ _r_4(x_2_0)
  append(cons(x_0_0, x_0_1), cons(x_1_0, x_1_1), cons(x_2_0, x_2_1)) <= _r_5(x_0_0) /\ _r_5(x_2_0)
  append(cons(x_0_0, x_0_1), nil, cons(x_2_0, x_2_1)) <= True
  append(nil, cons(x_1_0, x_1_1), cons(x_2_0, x_2_1)) <= _r_4(x_1_0) /\ _r_4(x_2_0)
  append(nil, cons(x_1_0, x_1_1), cons(x_2_0, x_2_1)) <= _r_5(x_1_0) /\ _r_5(x_2_0)
  append(nil, nil, nil) <= True
}
;
member ->
{
  member(s(x_0_0), cons(x_1_0, x_1_1)) <= _r_1(x_0_0, x_1_0)
  member(s(x_0_0), cons(x_1_0, x_1_1)) <= _r_3(x_1_1)
  member(z, cons(x_1_0, x_1_1)) <= _r_2(x_1_1)
  member(z, cons(x_1_0, x_1_1)) <= _r_4(x_1_0)
}

--
Equality automata are defined for: {nat, natlist}
_|


Answer of teacher:


append(nil, l2, l2) <= True -> No: ()
member(h, cons(h, t)) <= True -> No: ()
member(e, _ek) <= append(l, cons(e, nil), _ek) -> Yes: {
_ek -> cons(s(v0_0), nil)  ;  e -> z  ;  l -> cons(s(v0_0), l_1)
}
append(cons(h1, t1), l2, cons(h1, _zj)) <= append(t1, l2, _zj) -> Yes: {
_zj -> cons(s(v0_0), _zj_1)  ;  h1 -> z  ;  l2 -> cons(s(v0_0), l2_1)  ;  t1 -> cons(s(v0_0), t1_1)
}
eq_nat(e, h) \/ member(e, cons(h, t)) <= member(e, t) -> No: ()
eq_nat(e, h) \/ member(e, t) <= member(e, cons(h, t)) -> Yes: {
e -> s(z)  ;  h -> z  ;  t -> cons(s(s(v0_0)), nil)
}
False <= member(e, nil) -> No: ()



-------------------------------------------
Step 10, which took 1.177433 s (model generation: 1.172165,  model checking: 0.005268):

Ground examples at the beginning of this step are:
{
append(cons(s(z), nil), cons(z, nil), cons(s(z), cons(z, nil))) <= True
append(cons(z, nil), cons(z, nil), cons(z, cons(z, nil))) <= True
append(cons(z, nil), nil, cons(z, nil)) <= True
append(nil, cons(s(s(s(z))), nil), cons(s(s(s(z))), nil)) <= True
append(nil, cons(s(s(z)), nil), cons(s(s(z)), nil)) <= True
append(nil, cons(s(z), nil), cons(s(z), nil)) <= True
append(nil, cons(z, nil), cons(z, nil)) <= True
append(nil, nil, nil) <= True
member(s(s(s(z))), cons(s(s(s(z))), nil)) <= True
member(s(s(z)), cons(s(s(z)), nil)) <= True
member(s(z), cons(s(z), nil)) <= True
member(s(z), cons(z, cons(s(z), nil))) <= True
member(s(z), cons(z, cons(z, cons(s(z), nil)))) <= True
member(z, cons(s(z), cons(s(z), cons(z, nil)))) <= True
member(z, cons(s(z), cons(z, nil))) <= True
member(z, cons(z, nil)) <= True
append(cons(z, cons(s(z), nil)), cons(s(z), nil), cons(z, cons(s(z), nil))) <= append(cons(s(z), nil), cons(s(z), nil), cons(s(z), nil))
False <= append(cons(s(z), nil), cons(s(z), nil), cons(z, nil))
False <= append(cons(s(z), nil), cons(z, nil), cons(s(z), nil))
False <= append(cons(z, nil), cons(s(z), nil), cons(z, nil))
False <= append(cons(z, nil), cons(z, nil), cons(s(z), nil))
False <= append(nil, cons(s(z), nil), cons(z, nil))
False <= append(nil, cons(z, nil), cons(s(z), nil))
False <= member(s(s(z)), cons(s(z), nil))
False <= member(s(s(z)), cons(z, nil))
False <= member(s(s(z)), nil)
False <= member(s(z), cons(s(s(z)), nil))
False <= member(s(z), cons(z, cons(s(s(z)), nil)))
False <= member(s(z), cons(z, cons(z, nil)))
False <= member(s(z), cons(z, nil))
False <= member(s(z), nil)
False <= member(z, cons(s(z), cons(s(z), nil)))
False <= member(z, cons(s(z), nil))
False <= member(z, nil)
}

Learner proposed model:
Found Model:
|_

_r_1 ->
{
  _r_1(s(x_0_0), s(x_1_0)) <= True
  _r_1(z, z) <= True
}
;
_r_2 ->
{
  _r_2(cons(x_0_0, x_0_1)) <= _r_2(x_0_1)
  _r_2(cons(x_0_0, x_0_1)) <= _r_4(x_0_0)
}
;
_r_3 ->
{
  _r_3(cons(x_0_0, x_0_1)) <= _r_3(x_0_1)
  _r_3(cons(x_0_0, x_0_1)) <= _r_5(x_0_0)
}
;
_r_4 ->
{
  _r_4(s(x_0_0)) <= _r_5(x_0_0)
  _r_4(z) <= True
}
;
_r_5 ->
{
  _r_5(s(x_0_0)) <= _r_4(x_0_0)
}
;
append ->
{
  append(cons(x_0_0, x_0_1), cons(x_1_0, x_1_1), cons(x_2_0, x_2_1)) <= _r_2(x_2_1)
  append(cons(x_0_0, x_0_1), nil, cons(x_2_0, x_2_1)) <= True
  append(nil, cons(x_1_0, x_1_1), cons(x_2_0, x_2_1)) <= _r_1(x_1_0, x_2_0)
  append(nil, nil, nil) <= True
}
;
member ->
{
  member(s(x_0_0), cons(x_1_0, x_1_1)) <= _r_1(x_0_0, x_1_0) /\ _r_4(x_1_0) /\ _r_5(x_0_0)
  member(s(x_0_0), cons(x_1_0, x_1_1)) <= _r_3(x_1_1)
  member(s(x_0_0), cons(x_1_0, x_1_1)) <= _r_4(x_0_0) /\ _r_5(x_1_0)
  member(z, cons(x_1_0, x_1_1)) <= _r_2(x_1_1)
  member(z, cons(x_1_0, x_1_1)) <= _r_4(x_1_0)
}

--
Equality automata are defined for: {nat, natlist}
_|


Answer of teacher:


append(nil, l2, l2) <= True -> No: ()
member(h, cons(h, t)) <= True -> No: ()
member(e, _ek) <= append(l, cons(e, nil), _ek) -> Yes: {
_ek -> cons(z, cons(z, nil))  ;  e -> s(z)  ;  l -> cons(l_0, l_1)
}
append(cons(h1, t1), l2, cons(h1, _zj)) <= append(t1, l2, _zj) -> Yes: {
_zj -> cons(s(z), nil)  ;  l2 -> cons(s(v0_0), l2_1)  ;  t1 -> nil
}
eq_nat(e, h) \/ member(e, cons(h, t)) <= member(e, t) -> Yes: {
e -> s(s(z))  ;  h -> z  ;  t -> cons(s(s(z)), nil)
}
eq_nat(e, h) \/ member(e, t) <= member(e, cons(h, t)) -> Yes: {
e -> z  ;  h -> s(s(z))  ;  t -> nil
}
False <= member(e, nil) -> No: ()



-------------------------------------------
Step 11, which took 1.496002 s (model generation: 1.471496,  model checking: 0.024506):

Ground examples at the beginning of this step are:
{
append(cons(s(z), nil), cons(z, nil), cons(s(z), cons(z, nil))) <= True
append(cons(z, nil), cons(s(z), nil), cons(z, cons(s(z), nil))) <= True
append(cons(z, nil), cons(z, nil), cons(z, cons(z, nil))) <= True
append(cons(z, nil), nil, cons(z, nil)) <= True
append(nil, cons(s(s(s(z))), nil), cons(s(s(s(z))), nil)) <= True
append(nil, cons(s(s(z)), nil), cons(s(s(z)), nil)) <= True
append(nil, cons(s(z), nil), cons(s(z), nil)) <= True
append(nil, cons(z, nil), cons(z, nil)) <= True
append(nil, nil, nil) <= True
member(s(s(s(z))), cons(s(s(s(z))), nil)) <= True
member(s(s(z)), cons(s(s(z)), nil)) <= True
member(s(s(z)), cons(z, cons(s(s(z)), nil))) <= True
member(s(z), cons(s(z), nil)) <= True
member(s(z), cons(z, cons(s(z), nil))) <= True
member(s(z), cons(z, cons(z, cons(s(z), nil)))) <= True
member(z, cons(s(z), cons(s(z), cons(z, nil)))) <= True
member(z, cons(s(z), cons(z, nil))) <= True
member(z, cons(z, nil)) <= True
append(cons(z, cons(s(z), nil)), cons(s(z), nil), cons(z, cons(s(z), nil))) <= append(cons(s(z), nil), cons(s(z), nil), cons(s(z), nil))
False <= append(cons(s(z), nil), cons(s(z), nil), cons(z, nil))
False <= append(cons(s(z), nil), cons(z, nil), cons(s(z), nil))
False <= append(cons(z, nil), cons(s(z), nil), cons(z, cons(z, nil)))
False <= append(cons(z, nil), cons(s(z), nil), cons(z, nil))
False <= append(cons(z, nil), cons(z, nil), cons(s(z), nil))
False <= append(nil, cons(s(z), nil), cons(z, nil))
False <= append(nil, cons(z, nil), cons(s(z), nil))
False <= member(s(s(z)), cons(s(z), nil))
False <= member(s(s(z)), cons(z, nil))
False <= member(s(s(z)), nil)
False <= member(s(z), cons(s(s(z)), nil))
False <= member(s(z), cons(z, cons(s(s(z)), nil)))
False <= member(s(z), cons(z, cons(z, nil)))
False <= member(s(z), cons(z, nil))
False <= member(s(z), nil)
False <= member(z, cons(s(s(z)), nil))
False <= member(z, cons(s(z), cons(s(z), nil)))
False <= member(z, cons(s(z), nil))
False <= member(z, nil)
}

Learner proposed model:
Found Model:
|_

_r_1 ->
{
  _r_1(cons(x_0_0, x_0_1)) <= _r_1(x_0_1)
  _r_1(cons(x_0_0, x_0_1)) <= _r_5(x_0_0)
}
;
_r_2 ->
{
  _r_2(cons(x_0_0, x_0_1)) <= _r_2(x_0_1)
  _r_2(cons(x_0_0, x_0_1)) <= _r_3(x_0_0)
  _r_2(cons(x_0_0, x_0_1)) <= _r_4(x_0_0)
}
;
_r_3 ->
{
  _r_3(z) <= True
}
;
_r_4 ->
{
  _r_4(s(x_0_0)) <= _r_5(x_0_0)
}
;
_r_5 ->
{
  _r_5(s(x_0_0)) <= _r_3(x_0_0)
}
;
append ->
{
  append(cons(x_0_0, x_0_1), cons(x_1_0, x_1_1), cons(x_2_0, x_2_1)) <= member(x_1_0, x_2_1)
  append(cons(x_0_0, x_0_1), nil, cons(x_2_0, x_2_1)) <= True
  append(nil, cons(x_1_0, x_1_1), cons(x_2_0, x_2_1)) <= _r_3(x_1_0) /\ _r_3(x_2_0)
  append(nil, cons(x_1_0, x_1_1), cons(x_2_0, x_2_1)) <= _r_4(x_1_0)
  append(nil, cons(x_1_0, x_1_1), cons(x_2_0, x_2_1)) <= _r_5(x_1_0) /\ _r_5(x_2_0)
  append(nil, cons(x_1_0, x_1_1), cons(x_2_0, x_2_1)) <= member(x_1_0, x_2_1)
  append(nil, nil, nil) <= True
}
;
member ->
{
  member(s(x_0_0), cons(x_1_0, x_1_1)) <= _r_1(x_1_1)
  member(s(x_0_0), cons(x_1_0, x_1_1)) <= _r_2(x_1_1) /\ _r_5(x_0_0)
  member(s(x_0_0), cons(x_1_0, x_1_1)) <= _r_3(x_0_0) /\ _r_5(x_1_0)
  member(s(x_0_0), cons(x_1_0, x_1_1)) <= _r_4(x_0_0)
  member(s(x_0_0), cons(x_1_0, x_1_1)) <= _r_4(x_1_0) /\ _r_5(x_0_0)
  member(s(x_0_0), nil) <= _r_4(x_0_0)
  member(z, cons(x_1_0, x_1_1)) <= _r_2(x_1_1)
  member(z, cons(x_1_0, x_1_1)) <= _r_3(x_1_0)
}

--
Equality automata are defined for: {nat, natlist}
_|


Answer of teacher:


append(nil, l2, l2) <= True -> Yes: {
l2 -> cons(s(s(s(s(v0_0)))), nil)
}
member(h, cons(h, t)) <= True -> Yes: {
h -> s(s(s(s(v0_0))))  ;  t -> nil
}
member(e, _ek) <= append(l, cons(e, nil), _ek) -> Yes: {
_ek -> cons(z, nil)  ;  e -> s(s(z))  ;  l -> nil
}
append(cons(h1, t1), l2, cons(h1, _zj)) <= append(t1, l2, _zj) -> Yes: {
_zj -> cons(z, nil)  ;  l2 -> cons(s(s(z)), l2_1)  ;  t1 -> nil
}
eq_nat(e, h) \/ member(e, cons(h, t)) <= member(e, t) -> No: ()
eq_nat(e, h) \/ member(e, t) <= member(e, cons(h, t)) -> Yes: {
e -> s(s(s(s(v0_0))))  ;  h -> z  ;  t -> cons(s(z), nil)
}
False <= member(e, nil) -> Yes: {
e -> s(s(s(z)))
}



-------------------------------------------
Step 12, which took 2.041253 s (model generation: 2.020469,  model checking: 0.020784):

Ground examples at the beginning of this step are:
{
append(cons(s(z), nil), cons(z, nil), cons(s(z), cons(z, nil))) <= True
append(cons(z, nil), cons(s(z), nil), cons(z, cons(s(z), nil))) <= True
append(cons(z, nil), cons(z, nil), cons(z, cons(z, nil))) <= True
append(cons(z, nil), nil, cons(z, nil)) <= True
append(nil, cons(s(s(s(s(z)))), nil), cons(s(s(s(s(z)))), nil)) <= True
append(nil, cons(s(s(s(z))), nil), cons(s(s(s(z))), nil)) <= True
append(nil, cons(s(s(z)), nil), cons(s(s(z)), nil)) <= True
append(nil, cons(s(z), nil), cons(s(z), nil)) <= True
append(nil, cons(z, nil), cons(z, nil)) <= True
append(nil, nil, nil) <= True
member(s(s(s(s(z)))), cons(s(s(s(s(z)))), nil)) <= True
member(s(s(s(z))), cons(s(s(s(z))), nil)) <= True
member(s(s(z)), cons(s(s(z)), nil)) <= True
member(s(s(z)), cons(z, cons(s(s(z)), nil))) <= True
member(s(z), cons(s(z), nil)) <= True
member(s(z), cons(z, cons(s(z), nil))) <= True
member(s(z), cons(z, cons(z, cons(s(z), nil)))) <= True
member(z, cons(s(z), cons(s(z), cons(z, nil)))) <= True
member(z, cons(s(z), cons(z, nil))) <= True
member(z, cons(z, nil)) <= True
append(cons(z, cons(s(z), nil)), cons(s(z), nil), cons(z, cons(s(z), nil))) <= append(cons(s(z), nil), cons(s(z), nil), cons(s(z), nil))
False <= append(cons(s(z), nil), cons(s(z), nil), cons(z, nil))
False <= append(cons(s(z), nil), cons(z, nil), cons(s(z), nil))
False <= append(cons(z, nil), cons(s(z), nil), cons(z, cons(z, nil)))
False <= append(cons(z, nil), cons(s(z), nil), cons(z, nil))
False <= append(cons(z, nil), cons(z, nil), cons(s(z), nil))
False <= append(nil, cons(s(s(z)), nil), cons(z, nil))
False <= append(nil, cons(s(z), nil), cons(z, nil))
False <= append(nil, cons(z, nil), cons(s(z), nil))
member(s(s(s(s(z)))), cons(s(z), nil)) <= member(s(s(s(s(z)))), cons(z, cons(s(z), nil)))
False <= member(s(s(s(z))), nil)
False <= member(s(s(z)), cons(s(z), nil))
False <= member(s(s(z)), cons(z, nil))
False <= member(s(s(z)), nil)
False <= member(s(z), cons(s(s(z)), nil))
False <= member(s(z), cons(z, cons(s(s(z)), nil)))
False <= member(s(z), cons(z, cons(z, nil)))
False <= member(s(z), cons(z, nil))
False <= member(s(z), nil)
False <= member(z, cons(s(s(z)), nil))
False <= member(z, cons(s(z), cons(s(z), nil)))
False <= member(z, cons(s(z), nil))
False <= member(z, nil)
}

Learner proposed model:
Found Model:
|_

_r_1 ->
{
  _r_1(cons(x_0_0, x_0_1)) <= _r_1(x_0_1)
  _r_1(cons(x_0_0, x_0_1)) <= _r_3(x_0_0)
  _r_1(cons(x_0_0, x_0_1)) <= _r_4(x_0_0)
}
;
_r_2 ->
{
  _r_2(cons(x_0_0, x_0_1)) <= _r_2(x_0_1)
  _r_2(cons(x_0_0, x_0_1)) <= _r_5(x_0_0)
}
;
_r_3 ->
{
  _r_3(s(x_0_0)) <= _r_3(x_0_0)
  _r_3(s(x_0_0)) <= _r_5(x_0_0)
}
;
_r_4 ->
{
  _r_4(z) <= True
}
;
_r_5 ->
{
  _r_5(s(x_0_0)) <= _r_4(x_0_0)
}
;
append ->
{
  append(cons(x_0_0, x_0_1), cons(x_1_0, x_1_1), cons(x_2_0, x_2_1)) <= member(x_1_0, x_2_1)
  append(cons(x_0_0, x_0_1), nil, cons(x_2_0, x_2_1)) <= True
  append(nil, cons(x_1_0, x_1_1), cons(x_2_0, x_2_1)) <= _r_3(x_2_0)
  append(nil, cons(x_1_0, x_1_1), cons(x_2_0, x_2_1)) <= _r_4(x_1_0) /\ _r_4(x_2_0)
  append(nil, cons(x_1_0, x_1_1), cons(x_2_0, x_2_1)) <= _r_5(x_1_0) /\ _r_5(x_2_0)
  append(nil, nil, nil) <= True
}
;
member ->
{
  member(s(x_0_0), cons(x_1_0, x_1_1)) <= _r_1(x_1_1) /\ _r_5(x_0_0)
  member(s(x_0_0), cons(x_1_0, x_1_1)) <= _r_2(x_1_1)
  member(s(x_0_0), cons(x_1_0, x_1_1)) <= _r_3(x_0_0)
  member(s(x_0_0), cons(x_1_0, x_1_1)) <= _r_3(x_1_0) /\ _r_5(x_0_0)
  member(s(x_0_0), cons(x_1_0, x_1_1)) <= _r_4(x_0_0) /\ _r_5(x_1_0)
  member(z, cons(x_1_0, x_1_1)) <= _r_1(x_1_1)
  member(z, cons(x_1_0, x_1_1)) <= _r_4(x_1_0)
}

--
Equality automata are defined for: {nat, natlist}
_|


Answer of teacher:


append(nil, l2, l2) <= True -> No: ()
member(h, cons(h, t)) <= True -> No: ()
member(e, _ek) <= append(l, cons(e, nil), _ek) -> Yes: {
_ek -> cons(s(s(z)), nil)  ;  e -> s(z)  ;  l -> nil
}
append(cons(h1, t1), l2, cons(h1, _zj)) <= append(t1, l2, _zj) -> Yes: {
_zj -> cons(s(s(z)), nil)  ;  l2 -> cons(z, l2_1)  ;  t1 -> nil
}
eq_nat(e, h) \/ member(e, cons(h, t)) <= member(e, t) -> No: ()
eq_nat(e, h) \/ member(e, t) <= member(e, cons(h, t)) -> Yes: {
e -> s(s(s(z)))  ;  h -> z  ;  t -> nil
}
False <= member(e, nil) -> No: ()



-------------------------------------------
Step 13, which took 2.580107 s (model generation: 2.530879,  model checking: 0.049228):

Ground examples at the beginning of this step are:
{
append(cons(s(z), nil), cons(z, nil), cons(s(z), cons(z, nil))) <= True
append(cons(z, nil), cons(s(z), nil), cons(z, cons(s(z), nil))) <= True
append(cons(z, nil), cons(z, nil), cons(z, cons(z, nil))) <= True
append(cons(z, nil), nil, cons(z, nil)) <= True
append(nil, cons(s(s(s(s(z)))), nil), cons(s(s(s(s(z)))), nil)) <= True
append(nil, cons(s(s(s(z))), nil), cons(s(s(s(z))), nil)) <= True
append(nil, cons(s(s(z)), nil), cons(s(s(z)), nil)) <= True
append(nil, cons(s(z), nil), cons(s(z), nil)) <= True
append(nil, cons(z, nil), cons(z, nil)) <= True
append(nil, nil, nil) <= True
member(s(s(s(s(z)))), cons(s(s(s(s(z)))), nil)) <= True
member(s(s(s(z))), cons(s(s(s(z))), nil)) <= True
member(s(s(z)), cons(s(s(z)), nil)) <= True
member(s(s(z)), cons(z, cons(s(s(z)), nil))) <= True
member(s(z), cons(s(z), nil)) <= True
member(s(z), cons(z, cons(s(z), nil))) <= True
member(s(z), cons(z, cons(z, cons(s(z), nil)))) <= True
member(z, cons(s(z), cons(s(z), cons(z, nil)))) <= True
member(z, cons(s(z), cons(z, nil))) <= True
member(z, cons(z, nil)) <= True
append(cons(z, cons(s(z), nil)), cons(s(z), nil), cons(z, cons(s(z), nil))) <= append(cons(s(z), nil), cons(s(z), nil), cons(s(z), nil))
False <= append(cons(s(z), nil), cons(s(z), nil), cons(z, nil))
False <= append(cons(s(z), nil), cons(z, nil), cons(s(z), nil))
False <= append(cons(z, nil), cons(s(z), nil), cons(z, cons(z, nil)))
False <= append(cons(z, nil), cons(s(z), nil), cons(z, nil))
False <= append(cons(z, nil), cons(z, nil), cons(s(z), nil))
False <= append(nil, cons(s(s(z)), nil), cons(z, nil))
False <= append(nil, cons(s(z), nil), cons(s(s(z)), nil))
False <= append(nil, cons(s(z), nil), cons(z, nil))
append(cons(z, nil), cons(z, nil), cons(z, cons(s(s(z)), nil))) <= append(nil, cons(z, nil), cons(s(s(z)), nil))
False <= append(nil, cons(z, nil), cons(s(z), nil))
member(s(s(s(s(z)))), cons(s(z), nil)) <= member(s(s(s(s(z)))), cons(z, cons(s(z), nil)))
False <= member(s(s(s(z))), cons(z, nil))
False <= member(s(s(s(z))), nil)
False <= member(s(s(z)), cons(s(z), nil))
False <= member(s(s(z)), cons(z, nil))
False <= member(s(s(z)), nil)
False <= member(s(z), cons(s(s(z)), nil))
False <= member(s(z), cons(z, cons(s(s(z)), nil)))
False <= member(s(z), cons(z, cons(z, nil)))
False <= member(s(z), cons(z, nil))
False <= member(s(z), nil)
False <= member(z, cons(s(s(z)), nil))
False <= member(z, cons(s(z), cons(s(z), nil)))
False <= member(z, cons(s(z), nil))
False <= member(z, nil)
}

Learner proposed model:
Found Model:
|_

_r_1 ->
{
  _r_1(cons(x_0_0, x_0_1)) <= _r_1(x_0_1)
  _r_1(cons(x_0_0, x_0_1)) <= _r_3(x_0_0)
  _r_1(cons(x_0_0, x_0_1)) <= _r_4(x_0_0)
}
;
_r_2 ->
{
  _r_2(cons(x_0_0, x_0_1)) <= _r_2(x_0_1)
  _r_2(cons(x_0_0, x_0_1)) <= _r_5(x_0_0)
}
;
_r_3 ->
{
  _r_3(z) <= True
}
;
_r_4 ->
{
  _r_4(s(x_0_0)) <= _r_5(x_0_0)
}
;
_r_5 ->
{
  _r_5(s(x_0_0)) <= _r_3(x_0_0)
  _r_5(s(x_0_0)) <= _r_4(x_0_0)
}
;
append ->
{
  append(cons(x_0_0, x_0_1), cons(x_1_0, x_1_1), cons(x_2_0, x_2_1)) <= member(x_1_0, x_2_1)
  append(cons(x_0_0, x_0_1), nil, cons(x_2_0, x_2_1)) <= True
  append(nil, cons(x_1_0, x_1_1), cons(x_2_0, x_2_1)) <= _r_3(x_1_0) /\ _r_3(x_2_0)
  append(nil, cons(x_1_0, x_1_1), cons(x_2_0, x_2_1)) <= _r_4(x_1_0) /\ _r_4(x_2_0)
  append(nil, cons(x_1_0, x_1_1), cons(x_2_0, x_2_1)) <= _r_5(x_1_0) /\ _r_5(x_2_0)
  append(nil, nil, nil) <= True
}
;
member ->
{
  member(s(x_0_0), cons(x_1_0, x_1_1)) <= _r_1(x_1_1) /\ _r_5(x_0_0)
  member(s(x_0_0), cons(x_1_0, x_1_1)) <= _r_2(x_1_1) /\ _r_3(x_0_0)
  member(s(x_0_0), cons(x_1_0, x_1_1)) <= _r_3(x_0_0) /\ _r_5(x_1_0)
  member(s(x_0_0), cons(x_1_0, x_1_1)) <= _r_4(x_0_0) /\ _r_5(x_1_0)
  member(s(x_0_0), cons(x_1_0, x_1_1)) <= _r_4(x_1_0) /\ _r_5(x_0_0)
  member(z, cons(x_1_0, x_1_1)) <= _r_1(x_1_1)
  member(z, cons(x_1_0, x_1_1)) <= _r_3(x_1_0)
}

--
Equality automata are defined for: {nat, natlist}
_|


Answer of teacher:


append(nil, l2, l2) <= True -> No: ()
member(h, cons(h, t)) <= True -> No: ()
member(e, _ek) <= append(l, cons(e, nil), _ek) -> Yes: {
_ek -> cons(z, cons(s(z), nil))  ;  e -> s(s(s(z)))  ;  l -> cons(l_0, l_1)
}
append(cons(h1, t1), l2, cons(h1, _zj)) <= append(t1, l2, _zj) -> Yes: {
_zj -> cons(z, cons(s(z), v1_1))  ;  l2 -> cons(s(s(s(z))), l2_1)  ;  t1 -> cons(t1_0, t1_1)
}
eq_nat(e, h) \/ member(e, cons(h, t)) <= member(e, t) -> Yes: {
e -> s(s(s(z)))  ;  h -> z  ;  t -> cons(s(z), nil)
}
eq_nat(e, h) \/ member(e, t) <= member(e, cons(h, t)) -> Yes: {
e -> s(s(z))  ;  h -> z  ;  t -> cons(z, nil)
}
False <= member(e, nil) -> No: ()



-------------------------------------------
Step 14, which took 22.467777 s (model generation: 22.453955,  model checking: 0.013822):

Ground examples at the beginning of this step are:
{
append(cons(s(z), nil), cons(z, nil), cons(s(z), cons(z, nil))) <= True
append(cons(z, nil), cons(s(z), nil), cons(z, cons(s(z), nil))) <= True
append(cons(z, nil), cons(z, nil), cons(z, cons(z, nil))) <= True
append(cons(z, nil), nil, cons(z, nil)) <= True
append(nil, cons(s(s(s(s(z)))), nil), cons(s(s(s(s(z)))), nil)) <= True
append(nil, cons(s(s(s(z))), nil), cons(s(s(s(z))), nil)) <= True
append(nil, cons(s(s(z)), nil), cons(s(s(z)), nil)) <= True
append(nil, cons(s(z), nil), cons(s(z), nil)) <= True
append(nil, cons(z, nil), cons(z, nil)) <= True
append(nil, nil, nil) <= True
member(s(s(s(s(z)))), cons(s(s(s(s(z)))), nil)) <= True
member(s(s(s(z))), cons(s(s(s(z))), nil)) <= True
member(s(s(z)), cons(s(s(z)), nil)) <= True
member(s(s(z)), cons(z, cons(s(s(z)), nil))) <= True
member(s(z), cons(s(z), nil)) <= True
member(s(z), cons(z, cons(s(z), nil))) <= True
member(s(z), cons(z, cons(z, cons(s(z), nil)))) <= True
member(z, cons(s(z), cons(s(z), cons(z, nil)))) <= True
member(z, cons(s(z), cons(z, nil))) <= True
member(z, cons(z, nil)) <= True
append(cons(z, cons(s(z), nil)), cons(s(z), nil), cons(z, cons(s(z), nil))) <= append(cons(s(z), nil), cons(s(z), nil), cons(s(z), nil))
False <= append(cons(s(z), nil), cons(s(z), nil), cons(z, nil))
False <= append(cons(s(z), nil), cons(z, nil), cons(s(z), nil))
append(cons(z, cons(z, nil)), cons(s(s(s(z))), nil), cons(z, cons(z, cons(s(z), nil)))) <= append(cons(z, nil), cons(s(s(s(z))), nil), cons(z, cons(s(z), nil)))
member(s(s(s(z))), cons(z, cons(s(z), nil))) <= append(cons(z, nil), cons(s(s(s(z))), nil), cons(z, cons(s(z), nil)))
False <= append(cons(z, nil), cons(s(z), nil), cons(z, cons(z, nil)))
False <= append(cons(z, nil), cons(s(z), nil), cons(z, nil))
False <= append(cons(z, nil), cons(z, nil), cons(s(z), nil))
False <= append(nil, cons(s(s(z)), nil), cons(z, nil))
False <= append(nil, cons(s(z), nil), cons(s(s(z)), nil))
False <= append(nil, cons(s(z), nil), cons(z, nil))
append(cons(z, nil), cons(z, nil), cons(z, cons(s(s(z)), nil))) <= append(nil, cons(z, nil), cons(s(s(z)), nil))
False <= append(nil, cons(z, nil), cons(s(z), nil))
member(s(s(s(s(z)))), cons(s(z), nil)) <= member(s(s(s(s(z)))), cons(z, cons(s(z), nil)))
member(s(s(s(z))), cons(z, cons(s(z), nil))) <= member(s(s(s(z))), cons(s(z), nil))
False <= member(s(s(s(z))), cons(z, nil))
False <= member(s(s(s(z))), nil)
False <= member(s(s(z)), cons(s(z), nil))
False <= member(s(s(z)), cons(z, cons(z, nil)))
False <= member(s(s(z)), cons(z, nil))
False <= member(s(s(z)), nil)
False <= member(s(z), cons(s(s(z)), nil))
False <= member(s(z), cons(z, cons(s(s(z)), nil)))
False <= member(s(z), cons(z, cons(z, nil)))
False <= member(s(z), cons(z, nil))
False <= member(s(z), nil)
False <= member(z, cons(s(s(z)), nil))
False <= member(z, cons(s(z), cons(s(z), nil)))
False <= member(z, cons(s(z), nil))
False <= member(z, nil)
}

Learner proposed model:
Found Model:
|_

_r_1 ->
{
  _r_1(s(x_0_0), cons(x_1_0, x_1_1)) <= _r_6(x_1_0)
  _r_1(z, cons(x_1_0, x_1_1)) <= _r_3(x_1_1)
  _r_1(z, cons(x_1_0, x_1_1)) <= _r_4(x_1_0)
}
;
_r_2 ->
{
  _r_2(cons(x_0_0, x_0_1)) <= _r_2(x_0_1)
  _r_2(cons(x_0_0, x_0_1)) <= _r_5(x_0_0)
}
;
_r_3 ->
{
  _r_3(cons(x_0_0, x_0_1)) <= True
}
;
_r_4 ->
{
  _r_4(s(x_0_0)) <= _r_5(x_0_0)
}
;
_r_5 ->
{
  _r_5(z) <= True
}
;
_r_6 ->
{
  _r_6(s(x_0_0)) <= _r_4(x_0_0)
  _r_6(s(x_0_0)) <= _r_6(x_0_0)
}
;
append ->
{
  append(cons(x_0_0, x_0_1), cons(x_1_0, x_1_1), cons(x_2_0, x_2_1)) <= member(x_1_0, x_2_1)
  append(cons(x_0_0, x_0_1), nil, cons(x_2_0, x_2_1)) <= True
  append(nil, cons(x_1_0, x_1_1), cons(x_2_0, x_2_1)) <= _r_4(x_1_0) /\ _r_4(x_2_0)
  append(nil, cons(x_1_0, x_1_1), cons(x_2_0, x_2_1)) <= _r_5(x_1_0) /\ _r_5(x_2_0)
  append(nil, cons(x_1_0, x_1_1), cons(x_2_0, x_2_1)) <= _r_6(x_1_0) /\ _r_6(x_2_0)
  append(nil, nil, nil) <= True
}
;
member ->
{
  member(s(x_0_0), cons(x_1_0, x_1_1)) <= _r_1(x_0_0, x_1_1)
  member(s(x_0_0), cons(x_1_0, x_1_1)) <= _r_4(x_0_0) /\ _r_6(x_1_0)
  member(s(x_0_0), cons(x_1_0, x_1_1)) <= _r_4(x_1_0) /\ _r_5(x_0_0)
  member(s(x_0_0), cons(x_1_0, x_1_1)) <= _r_6(x_0_0) /\ _r_6(x_1_0)
  member(z, cons(x_1_0, x_1_1)) <= _r_2(x_1_1)
  member(z, cons(x_1_0, x_1_1)) <= _r_5(x_1_0)
}

--
Equality automata are defined for: {nat, natlist}
_|


Answer of teacher:


append(nil, l2, l2) <= True -> No: ()
member(h, cons(h, t)) <= True -> No: ()
member(e, _ek) <= append(l, cons(e, nil), _ek) -> Yes: {
_ek -> cons(z, cons(z, cons(s(s(z)), v1_1)))  ;  e -> s(s(v0_0))  ;  l -> cons(l_0, l_1)
}
append(cons(h1, t1), l2, cons(h1, _zj)) <= append(t1, l2, _zj) -> Yes: {
_zj -> cons(z, cons(z, cons(s(s(z)), v1_1)))  ;  l2 -> cons(s(s(v0_0)), l2_1)  ;  t1 -> cons(t1_0, t1_1)
}
eq_nat(e, h) \/ member(e, cons(h, t)) <= member(e, t) -> Yes: {
e -> s(s(v0_0))  ;  h -> z  ;  t -> cons(z, cons(s(s(z)), v1_1))
}
eq_nat(e, h) \/ member(e, t) <= member(e, cons(h, t)) -> Yes: {
e -> s(z)  ;  h -> z  ;  t -> cons(z, cons(z, nil))
}
False <= member(e, nil) -> No: ()



Ground examples:
{
append(cons(s(z), nil), cons(z, nil), cons(s(z), cons(z, nil))) <= True
append(cons(z, nil), cons(s(z), nil), cons(z, cons(s(z), nil))) <= True
append(cons(z, nil), cons(z, nil), cons(z, cons(z, nil))) <= True
append(cons(z, nil), nil, cons(z, nil)) <= True
append(nil, cons(s(s(s(s(z)))), nil), cons(s(s(s(s(z)))), nil)) <= True
append(nil, cons(s(s(s(z))), nil), cons(s(s(s(z))), nil)) <= True
append(nil, cons(s(s(z)), nil), cons(s(s(z)), nil)) <= True
append(nil, cons(s(z), nil), cons(s(z), nil)) <= True
append(nil, cons(z, nil), cons(z, nil)) <= True
append(nil, nil, nil) <= True
member(s(s(s(s(z)))), cons(s(s(s(s(z)))), nil)) <= True
member(s(s(s(z))), cons(s(s(s(z))), nil)) <= True
member(s(s(z)), cons(s(s(z)), nil)) <= True
member(s(s(z)), cons(z, cons(s(s(z)), nil))) <= True
member(s(s(z)), cons(z, cons(z, cons(s(s(z)), nil)))) <= True
member(s(z), cons(s(z), nil)) <= True
member(s(z), cons(z, cons(s(z), nil))) <= True
member(s(z), cons(z, cons(z, cons(s(z), nil)))) <= True
member(z, cons(s(z), cons(s(z), cons(z, nil)))) <= True
member(z, cons(s(z), cons(z, nil))) <= True
member(z, cons(z, nil)) <= True
append(cons(z, cons(s(z), nil)), cons(s(z), nil), cons(z, cons(s(z), nil))) <= append(cons(s(z), nil), cons(s(z), nil), cons(s(z), nil))
False <= append(cons(s(z), nil), cons(s(z), nil), cons(z, nil))
False <= append(cons(s(z), nil), cons(z, nil), cons(s(z), nil))
append(cons(z, cons(z, nil)), cons(s(s(s(z))), nil), cons(z, cons(z, cons(s(z), nil)))) <= append(cons(z, nil), cons(s(s(s(z))), nil), cons(z, cons(s(z), nil)))
member(s(s(s(z))), cons(z, cons(s(z), nil))) <= append(cons(z, nil), cons(s(s(s(z))), nil), cons(z, cons(s(z), nil)))
append(cons(z, cons(z, nil)), cons(s(s(z)), nil), cons(z, cons(z, cons(z, cons(s(s(z)), nil))))) <= append(cons(z, nil), cons(s(s(z)), nil), cons(z, cons(z, cons(s(s(z)), nil))))
False <= append(cons(z, nil), cons(s(z), nil), cons(z, cons(z, nil)))
False <= append(cons(z, nil), cons(s(z), nil), cons(z, nil))
False <= append(cons(z, nil), cons(z, nil), cons(s(z), nil))
False <= append(nil, cons(s(s(z)), nil), cons(z, nil))
False <= append(nil, cons(s(z), nil), cons(s(s(z)), nil))
False <= append(nil, cons(s(z), nil), cons(z, nil))
append(cons(z, nil), cons(z, nil), cons(z, cons(s(s(z)), nil))) <= append(nil, cons(z, nil), cons(s(s(z)), nil))
False <= append(nil, cons(z, nil), cons(s(z), nil))
member(s(s(s(s(z)))), cons(s(z), nil)) <= member(s(s(s(s(z)))), cons(z, cons(s(z), nil)))
member(s(s(s(z))), cons(z, cons(s(z), nil))) <= member(s(s(s(z))), cons(s(z), nil))
False <= member(s(s(s(z))), cons(z, nil))
False <= member(s(s(s(z))), nil)
False <= member(s(s(z)), cons(s(z), nil))
False <= member(s(s(z)), cons(z, cons(z, nil)))
False <= member(s(s(z)), cons(z, nil))
False <= member(s(s(z)), nil)
False <= member(s(z), cons(s(s(z)), nil))
False <= member(s(z), cons(z, cons(s(s(z)), nil)))
False <= member(s(z), cons(z, cons(z, cons(z, nil))))
False <= member(s(z), cons(z, cons(z, nil)))
False <= member(s(z), cons(z, nil))
False <= member(s(z), nil)
False <= member(z, cons(s(s(z)), nil))
False <= member(z, cons(s(z), cons(s(z), nil)))
False <= member(z, cons(s(z), nil))
False <= member(z, nil)
}

Learner output:
Maybe

Last ice step stopped before teacher could answer
Total time: 39.733882
Learner time: 31.579766
Teacher time: 0.121320
Reasons for stopping: Maybe:  timeout during learner
Last solver state:

Clauses:
{
append(nil, l2, l2) <= True
member(h, cons(h, t)) <= True
member(e, _ek) <= append(l, cons(e, nil), _ek)
append(cons(h1, t1), l2, cons(h1, _zj)) <= append(t1, l2, _zj)
eq_nat(e, h) \/ member(e, cons(h, t)) <= member(e, t)
eq_nat(e, h) \/ member(e, t) <= member(e, cons(h, t))
False <= member(e, nil)
}

Accumulated learning constraints:
{
append(cons(s(z), nil), cons(z, nil), cons(s(z), cons(z, nil))) <= True
append(cons(z, nil), cons(s(z), nil), cons(z, cons(s(z), nil))) <= True
append(cons(z, nil), cons(z, nil), cons(z, cons(z, nil))) <= True
append(cons(z, nil), nil, cons(z, nil)) <= True
append(nil, cons(s(s(s(s(z)))), nil), cons(s(s(s(s(z)))), nil)) <= True
append(nil, cons(s(s(s(z))), nil), cons(s(s(s(z))), nil)) <= True
append(nil, cons(s(s(z)), nil), cons(s(s(z)), nil)) <= True
append(nil, cons(s(z), nil), cons(s(z), nil)) <= True
append(nil, cons(z, nil), cons(z, nil)) <= True
append(nil, nil, nil) <= True
member(s(s(s(s(z)))), cons(s(s(s(s(z)))), nil)) <= True
member(s(s(s(z))), cons(s(s(s(z))), nil)) <= True
member(s(s(z)), cons(s(s(z)), nil)) <= True
member(s(s(z)), cons(z, cons(s(s(z)), nil))) <= True
member(s(s(z)), cons(z, cons(z, cons(s(s(z)), nil)))) <= True
member(s(z), cons(s(z), nil)) <= True
member(s(z), cons(z, cons(s(z), nil))) <= True
member(s(z), cons(z, cons(z, cons(s(z), nil)))) <= True
member(z, cons(s(z), cons(s(z), cons(z, nil)))) <= True
member(z, cons(s(z), cons(z, nil))) <= True
member(z, cons(z, nil)) <= True
append(cons(z, cons(s(z), nil)), cons(s(z), nil), cons(z, cons(s(z), nil))) <= append(cons(s(z), nil), cons(s(z), nil), cons(s(z), nil))
False <= append(cons(s(z), nil), cons(s(z), nil), cons(z, nil))
False <= append(cons(s(z), nil), cons(z, nil), cons(s(z), nil))
append(cons(z, cons(z, nil)), cons(s(s(s(z))), nil), cons(z, cons(z, cons(s(z), nil)))) <= append(cons(z, nil), cons(s(s(s(z))), nil), cons(z, cons(s(z), nil)))
member(s(s(s(z))), cons(z, cons(s(z), nil))) <= append(cons(z, nil), cons(s(s(s(z))), nil), cons(z, cons(s(z), nil)))
append(cons(z, cons(z, nil)), cons(s(s(z)), nil), cons(z, cons(z, cons(z, cons(s(s(z)), nil))))) <= append(cons(z, nil), cons(s(s(z)), nil), cons(z, cons(z, cons(s(s(z)), nil))))
False <= append(cons(z, nil), cons(s(z), nil), cons(z, cons(z, nil)))
False <= append(cons(z, nil), cons(s(z), nil), cons(z, nil))
False <= append(cons(z, nil), cons(z, nil), cons(s(z), nil))
False <= append(nil, cons(s(s(z)), nil), cons(z, nil))
False <= append(nil, cons(s(z), nil), cons(s(s(z)), nil))
False <= append(nil, cons(s(z), nil), cons(z, nil))
append(cons(z, nil), cons(z, nil), cons(z, cons(s(s(z)), nil))) <= append(nil, cons(z, nil), cons(s(s(z)), nil))
False <= append(nil, cons(z, nil), cons(s(z), nil))
member(s(s(s(s(z)))), cons(s(z), nil)) <= member(s(s(s(s(z)))), cons(z, cons(s(z), nil)))
member(s(s(s(z))), cons(z, cons(s(z), nil))) <= member(s(s(s(z))), cons(s(z), nil))
False <= member(s(s(s(z))), cons(z, nil))
False <= member(s(s(s(z))), nil)
False <= member(s(s(z)), cons(s(z), nil))
False <= member(s(s(z)), cons(z, cons(z, nil)))
False <= member(s(s(z)), cons(z, nil))
False <= member(s(s(z)), nil)
False <= member(s(z), cons(s(s(z)), nil))
False <= member(s(z), cons(z, cons(s(s(z)), nil)))
False <= member(s(z), cons(z, cons(z, cons(z, nil))))
False <= member(s(z), cons(z, cons(z, nil)))
False <= member(s(z), cons(z, nil))
False <= member(s(z), nil)
False <= member(z, cons(s(s(z)), nil))
False <= member(z, cons(s(z), cons(s(z), nil)))
False <= member(z, cons(s(z), nil))
False <= member(z, nil)
}

Current best model:
|_

_r_1 ->
{
  _r_1(s(x_0_0), cons(x_1_0, x_1_1)) <= _r_6(x_1_0)
  _r_1(z, cons(x_1_0, x_1_1)) <= _r_3(x_1_1)
  _r_1(z, cons(x_1_0, x_1_1)) <= _r_4(x_1_0)
}
;
_r_2 ->
{
  _r_2(cons(x_0_0, x_0_1)) <= _r_2(x_0_1)
  _r_2(cons(x_0_0, x_0_1)) <= _r_5(x_0_0)
}
;
_r_3 ->
{
  _r_3(cons(x_0_0, x_0_1)) <= True
}
;
_r_4 ->
{
  _r_4(s(x_0_0)) <= _r_5(x_0_0)
}
;
_r_5 ->
{
  _r_5(z) <= True
}
;
_r_6 ->
{
  _r_6(s(x_0_0)) <= _r_4(x_0_0)
  _r_6(s(x_0_0)) <= _r_6(x_0_0)
}
;
append ->
{
  append(cons(x_0_0, x_0_1), cons(x_1_0, x_1_1), cons(x_2_0, x_2_1)) <= member(x_1_0, x_2_1)
  append(cons(x_0_0, x_0_1), nil, cons(x_2_0, x_2_1)) <= True
  append(nil, cons(x_1_0, x_1_1), cons(x_2_0, x_2_1)) <= _r_4(x_1_0) /\ _r_4(x_2_0)
  append(nil, cons(x_1_0, x_1_1), cons(x_2_0, x_2_1)) <= _r_5(x_1_0) /\ _r_5(x_2_0)
  append(nil, cons(x_1_0, x_1_1), cons(x_2_0, x_2_1)) <= _r_6(x_1_0) /\ _r_6(x_2_0)
  append(nil, nil, nil) <= True
}
;
member ->
{
  member(s(x_0_0), cons(x_1_0, x_1_1)) <= _r_1(x_0_0, x_1_1)
  member(s(x_0_0), cons(x_1_0, x_1_1)) <= _r_4(x_0_0) /\ _r_6(x_1_0)
  member(s(x_0_0), cons(x_1_0, x_1_1)) <= _r_4(x_1_0) /\ _r_5(x_0_0)
  member(s(x_0_0), cons(x_1_0, x_1_1)) <= _r_6(x_0_0) /\ _r_6(x_1_0)
  member(z, cons(x_1_0, x_1_1)) <= _r_2(x_1_1)
  member(z, cons(x_1_0, x_1_1)) <= _r_5(x_1_0)
}

--
Equality automata are defined for: {nat, natlist}
_|








