Solving ../../benchmarks/smtlib/true/prefix_count.smt2...

Inference procedure has parameters:
Timeout: Some(40.) (sec)
Approximation method: remove functionnality constraint where possible



Learning problem is:

env: {
elt -> {a, b}  ;  eltlist -> {cons, nil}  ;  nat -> {s, z}
}
definition:
{
(leq, P:
{
leq(z, s(nn2)) <= True
leq(z, z) <= True
leq(s(nn1), s(nn2)) <= leq(nn1, nn2)
leq(nn1, nn2) <= leq(s(nn1), s(nn2))
False <= leq(s(nn1), z)
}
)
(prefix, P:
{
prefix(nil, y) <= True
prefix(cons(y2, zs), cons(y2, ys)) <= prefix(zs, ys)
prefix(zs, ys) <= prefix(cons(y2, zs), cons(y2, ys))
eq_elt(z, y2) <= prefix(cons(z, zs), cons(y2, ys))
False <= prefix(cons(z, zs), nil)
}
)
(count, F:
{
count(x, nil, z) <= True
count(x, cons(x, t1), s(_una)) <= count(x, t1, _una)
eq_elt(h1, x) \/ count(x, cons(h1, t1), _vna) <= count(x, t1, _vna)
}
eq_nat(_yna, _zna) <= count(_wna, _xna, _yna) /\ count(_wna, _xna, _zna)
)
}

properties:
{
leq(_aoa, _boa) <= count(x, l1, _aoa) /\ count(x, l2, _boa) /\ prefix(l1, l2)
}


over-approximation: {count, prefix}
under-approximation: {leq}

Clause system for inference is:

{
count(x, nil, z) <= True
leq(z, s(nn2)) <= True
leq(z, z) <= True
prefix(nil, y) <= True
leq(_aoa, _boa) <= count(x, l1, _aoa) /\ count(x, l2, _boa) /\ prefix(l1, l2)
count(x, cons(x, t1), s(_una)) <= count(x, t1, _una)
eq_elt(h1, x) \/ count(x, cons(h1, t1), _vna) <= count(x, t1, _vna)
leq(s(nn1), s(nn2)) <= leq(nn1, nn2)
leq(nn1, nn2) <= leq(s(nn1), s(nn2))
False <= leq(s(nn1), z)
prefix(cons(y2, zs), cons(y2, ys)) <= prefix(zs, ys)
prefix(zs, ys) <= prefix(cons(y2, zs), cons(y2, ys))
eq_elt(z, y2) <= prefix(cons(z, zs), cons(y2, ys))
False <= prefix(cons(z, zs), nil)
}


Solving took 40.366878 seconds.
Maybe:  other: Some clauses could not be checked:
{
{count([x, nil, z])} -> out of time
{leq([z, s(nn2)])} -> out of time
{leq([z, z])} -> out of time
{prefix([nil, y])} -> out of time
{leq([_aoa, _boa]), ~count([x, l1, _aoa]), ~count([x, l2, _boa]), ~prefix([l1, l2])} -> out of time
{count([x, cons(x, t1), s(_una)]), ~count([x, t1, _una])} -> out of time
{eq_elt([h1, x]), count([x, cons(h1, t1), _vna]), ~count([x, t1, _vna])} -> out of time
{leq([s(nn1), s(nn2)]), ~leq([nn1, nn2])} -> out of time
{leq([nn1, nn2]), ~leq([s(nn1), s(nn2)])} -> out of time
{~leq([s(nn1), z])} -> out of time
{prefix([cons(y2, zs), cons(y2, ys)]), ~prefix([zs, ys])} -> out of time
{prefix([zs, ys]), ~prefix([cons(y2, zs), cons(y2, ys)])} -> out of time
{eq_elt([z, y2]), ~prefix([cons(z, zs), cons(y2, ys)])} -> out of time
{~prefix([cons(z, zs), nil])} -> out of time
}

Last solver state:

Clauses:
{
count(x, nil, z) <= True
leq(z, s(nn2)) <= True
leq(z, z) <= True
prefix(nil, y) <= True
leq(_aoa, _boa) <= count(x, l1, _aoa) /\ count(x, l2, _boa) /\ prefix(l1, l2)
count(x, cons(x, t1), s(_una)) <= count(x, t1, _una)
eq_elt(h1, x) \/ count(x, cons(h1, t1), _vna) <= count(x, t1, _vna)
leq(s(nn1), s(nn2)) <= leq(nn1, nn2)
leq(nn1, nn2) <= leq(s(nn1), s(nn2))
False <= leq(s(nn1), z)
prefix(cons(y2, zs), cons(y2, ys)) <= prefix(zs, ys)
prefix(zs, ys) <= prefix(cons(y2, zs), cons(y2, ys))
eq_elt(z, y2) <= prefix(cons(z, zs), cons(y2, ys))
False <= prefix(cons(z, zs), nil)
}

Accumulated learning constraints:
{
count(a, cons(a, cons(b, nil)), s(z)) <= True
count(a, cons(a, nil), s(z)) <= True
count(a, cons(b, cons(a, nil)), s(z)) <= True
count(a, cons(b, cons(b, cons(a, nil))), s(z)) <= True
count(a, cons(b, cons(b, nil)), z) <= True
count(a, cons(b, nil), z) <= True
count(a, nil, z) <= True
count(b, cons(a, cons(a, cons(b, nil))), s(z)) <= True
count(b, cons(a, cons(a, nil)), z) <= True
count(b, cons(a, cons(b, nil)), s(z)) <= True
count(b, cons(a, nil), z) <= True
count(b, cons(b, cons(a, cons(b, nil))), s(s(z))) <= True
count(b, cons(b, cons(a, nil)), s(z)) <= True
count(b, cons(b, nil), s(z)) <= True
count(b, nil, z) <= True
leq(s(s(z)), s(s(z))) <= True
leq(s(z), s(z)) <= True
leq(z, s(z)) <= True
leq(z, z) <= True
prefix(cons(a, cons(b, nil)), cons(a, cons(b, nil))) <= True
prefix(cons(a, nil), cons(a, cons(a, nil))) <= True
prefix(cons(a, nil), cons(a, nil)) <= True
prefix(cons(b, cons(a, nil)), cons(b, cons(a, nil))) <= True
prefix(cons(b, cons(b, nil)), cons(b, cons(b, nil))) <= True
prefix(cons(b, nil), cons(b, nil)) <= True
prefix(nil, cons(a, cons(a, nil))) <= True
prefix(nil, cons(a, nil)) <= True
prefix(nil, nil) <= True
False <= count(a, cons(a, cons(a, nil)), s(s(z))) /\ count(a, cons(a, cons(a, nil)), s(z)) /\ prefix(cons(a, cons(a, nil)), cons(a, cons(a, nil)))
count(a, cons(a, cons(a, cons(a, nil))), s(s(z))) <= count(a, cons(a, cons(a, nil)), s(z))
False <= count(a, cons(a, cons(b, nil)), z)
False <= count(a, cons(a, nil), s(s(z)))
False <= count(a, cons(a, nil), z)
False <= count(a, cons(b, cons(a, nil)), z)
False <= count(a, cons(b, cons(b, nil)), s(z))
False <= count(a, cons(b, nil), s(z))
count(b, cons(b, cons(a, cons(a, nil))), s(s(z))) <= count(b, cons(a, cons(a, nil)), s(z))
False <= count(b, cons(a, cons(a, nil)), s(z)) /\ prefix(cons(a, cons(a, nil)), cons(a, cons(a, nil)))
False <= count(b, cons(a, cons(b, nil)), z)
False <= count(b, cons(a, nil), s(z))
False <= count(b, cons(b, cons(a, nil)), s(s(z)))
False <= count(b, cons(b, cons(a, nil)), z)
False <= count(b, cons(b, cons(b, nil)), s(s(z))) /\ count(b, cons(b, cons(b, nil)), s(z))
False <= count(b, cons(b, nil), s(s(z)))
False <= count(b, cons(b, nil), z)
False <= leq(s(s(z)), s(z))
False <= leq(s(z), z)
False <= prefix(cons(a, cons(a, nil)), cons(a, nil))
False <= prefix(cons(a, cons(b, nil)), cons(a, cons(a, nil)))
False <= prefix(cons(a, nil), cons(b, nil))
False <= prefix(cons(a, nil), nil)
False <= prefix(cons(b, cons(a, nil)), cons(b, nil))
False <= prefix(cons(b, nil), cons(a, nil))
}

Current best model:
|_

_r_1 ->
{
  _r_1(cons(x_0_0, x_0_1), s(x_1_0)) <= _r_3(x_0_1)
  _r_1(cons(x_0_0, x_0_1), z) <= _r_3(x_0_1)
  _r_1(cons(x_0_0, x_0_1), z) <= _r_5(x_0_0)
  _r_1(nil, z) <= True
}
;
_r_2 ->
{
  _r_2(cons(x_0_0, x_0_1)) <= _r_6(x_0_0)
  _r_2(nil) <= True
}
;
_r_3 ->
{
  _r_3(cons(x_0_0, x_0_1)) <= True
}
;
_r_4 ->
{
  _r_4(cons(x_0_0, x_0_1)) <= _r_5(x_0_0)
  _r_4(nil) <= True
}
;
_r_5 ->
{
  _r_5(a) <= True
}
;
_r_6 ->
{
  _r_6(b) <= True
}
;
count ->
{
  count(a, cons(x_1_0, x_1_1), s(x_2_0)) <= _r_1(x_1_1, x_2_0) /\ _r_3(x_1_1)
  count(a, cons(x_1_0, x_1_1), s(x_2_0)) <= _r_1(x_1_1, x_2_0) /\ _r_4(x_1_1) /\ _r_5(x_1_0)
  count(a, cons(x_1_0, x_1_1), s(x_2_0)) <= _r_3(x_1_1) /\ _r_5(x_1_0)
  count(a, cons(x_1_0, x_1_1), z) <= _r_2(x_1_1) /\ _r_6(x_1_0)
  count(a, nil, z) <= True
  count(b, cons(x_1_0, x_1_1), s(x_2_0)) <= _r_1(x_1_1, x_2_0) /\ _r_3(x_1_1)
  count(b, cons(x_1_0, x_1_1), s(x_2_0)) <= _r_1(x_1_1, x_2_0) /\ _r_6(x_1_0)
  count(b, cons(x_1_0, x_1_1), s(x_2_0)) <= _r_3(x_1_1) /\ _r_5(x_1_0)
  count(b, cons(x_1_0, x_1_1), z) <= _r_4(x_1_1) /\ _r_5(x_1_0)
  count(b, nil, z) <= True
}
;
leq ->
{
  leq(s(x_0_0), s(x_1_0)) <= leq(x_0_0, x_1_0)
  leq(z, s(x_1_0)) <= True
  leq(z, z) <= True
}
;
prefix ->
{
  prefix(cons(x_0_0, x_0_1), cons(x_1_0, x_1_1)) <= _r_2(x_0_1) /\ _r_5(x_0_0) /\ _r_5(x_1_0) /\ prefix(x_0_1, x_1_1)
  prefix(cons(x_0_0, x_0_1), cons(x_1_0, x_1_1)) <= _r_6(x_0_0) /\ _r_6(x_1_0) /\ prefix(x_0_1, x_1_1)
  prefix(nil, cons(x_1_0, x_1_1)) <= True
  prefix(nil, nil) <= True
}

--
Equality automata are defined for: {elt, eltlist, nat}
_|






-------------------
STEPS:
-------------------------------------------
Step 0, which took 0.007343 s (model generation: 0.007218,  model checking: 0.000125):

Ground examples at the beginning of this step are:
{

}

Learner proposed model:
Found Model:
|_

count ->
{
  
}
;
leq ->
{
  
}
;
prefix ->
{
  
}

--
Equality automata are defined for: {elt, eltlist, nat}
_|


Answer of teacher:


count(x, nil, z) <= True -> Yes: {
x -> b
}
leq(z, s(nn2)) <= True -> Yes: {

}
leq(z, z) <= True -> Yes: {

}
prefix(nil, y) <= True -> Yes: {
y -> nil
}
leq(_aoa, _boa) <= count(x, l1, _aoa) /\ count(x, l2, _boa) /\ prefix(l1, l2) -> No: ()
count(x, cons(x, t1), s(_una)) <= count(x, t1, _una) -> No: ()
eq_elt(h1, x) \/ count(x, cons(h1, t1), _vna) <= count(x, t1, _vna) -> No: ()
leq(s(nn1), s(nn2)) <= leq(nn1, nn2) -> No: ()
leq(nn1, nn2) <= leq(s(nn1), s(nn2)) -> No: ()
False <= leq(s(nn1), z) -> No: ()
prefix(cons(y2, zs), cons(y2, ys)) <= prefix(zs, ys) -> No: ()
prefix(zs, ys) <= prefix(cons(y2, zs), cons(y2, ys)) -> No: ()
eq_elt(z, y2) <= prefix(cons(z, zs), cons(y2, ys)) -> No: ()
False <= prefix(cons(z, zs), nil) -> No: ()



-------------------------------------------
Step 1, which took 0.007694 s (model generation: 0.007308,  model checking: 0.000386):

Ground examples at the beginning of this step are:
{
count(b, nil, z) <= True
leq(z, s(z)) <= True
leq(z, z) <= True
prefix(nil, nil) <= True
}

Learner proposed model:
Found Model:
|_

count ->
{
  count(b, nil, z) <= True
}
;
leq ->
{
  leq(z, s(x_1_0)) <= True
  leq(z, z) <= True
}
;
prefix ->
{
  prefix(nil, nil) <= True
}

--
Equality automata are defined for: {elt, eltlist, nat}
_|


Answer of teacher:


count(x, nil, z) <= True -> Yes: {
x -> a
}
leq(z, s(nn2)) <= True -> No: ()
leq(z, z) <= True -> No: ()
prefix(nil, y) <= True -> Yes: {
y -> cons(y_0, y_1)
}
leq(_aoa, _boa) <= count(x, l1, _aoa) /\ count(x, l2, _boa) /\ prefix(l1, l2) -> No: ()
count(x, cons(x, t1), s(_una)) <= count(x, t1, _una) -> Yes: {
_una -> z  ;  t1 -> nil  ;  x -> b
}
eq_elt(h1, x) \/ count(x, cons(h1, t1), _vna) <= count(x, t1, _vna) -> Yes: {
_vna -> z  ;  h1 -> a  ;  t1 -> nil  ;  x -> b
}
leq(s(nn1), s(nn2)) <= leq(nn1, nn2) -> Yes: {
nn1 -> z  ;  nn2 -> z
}
leq(nn1, nn2) <= leq(s(nn1), s(nn2)) -> No: ()
False <= leq(s(nn1), z) -> No: ()
prefix(cons(y2, zs), cons(y2, ys)) <= prefix(zs, ys) -> Yes: {
ys -> nil  ;  zs -> nil
}
prefix(zs, ys) <= prefix(cons(y2, zs), cons(y2, ys)) -> No: ()
eq_elt(z, y2) <= prefix(cons(z, zs), cons(y2, ys)) -> No: ()
False <= prefix(cons(z, zs), nil) -> No: ()



-------------------------------------------
Step 2, which took 0.009703 s (model generation: 0.009547,  model checking: 0.000156):

Ground examples at the beginning of this step are:
{
count(a, nil, z) <= True
count(b, cons(a, nil), z) <= True
count(b, cons(b, nil), s(z)) <= True
count(b, nil, z) <= True
leq(s(z), s(z)) <= True
leq(z, s(z)) <= True
leq(z, z) <= True
prefix(cons(a, nil), cons(a, nil)) <= True
prefix(nil, cons(a, nil)) <= True
prefix(nil, nil) <= True
}

Learner proposed model:
Found Model:
|_

count ->
{
  count(a, nil, z) <= True
  count(b, cons(x_1_0, x_1_1), s(x_2_0)) <= True
  count(b, cons(x_1_0, x_1_1), z) <= True
  count(b, nil, z) <= True
}
;
leq ->
{
  leq(s(x_0_0), s(x_1_0)) <= True
  leq(z, s(x_1_0)) <= True
  leq(z, z) <= True
}
;
prefix ->
{
  prefix(cons(x_0_0, x_0_1), cons(x_1_0, x_1_1)) <= True
  prefix(nil, cons(x_1_0, x_1_1)) <= True
  prefix(nil, nil) <= True
}

--
Equality automata are defined for: {elt, eltlist, nat}
_|


Answer of teacher:


count(x, nil, z) <= True -> No: ()
leq(z, s(nn2)) <= True -> No: ()
leq(z, z) <= True -> No: ()
prefix(nil, y) <= True -> No: ()
leq(_aoa, _boa) <= count(x, l1, _aoa) /\ count(x, l2, _boa) /\ prefix(l1, l2) -> Yes: {
_aoa -> s(_aoa_0)  ;  _boa -> z  ;  l1 -> cons(l1_0, l1_1)  ;  l2 -> cons(l2_0, l2_1)  ;  x -> b
}
count(x, cons(x, t1), s(_una)) <= count(x, t1, _una) -> Yes: {
_una -> z  ;  t1 -> nil  ;  x -> a
}
eq_elt(h1, x) \/ count(x, cons(h1, t1), _vna) <= count(x, t1, _vna) -> Yes: {
_vna -> z  ;  h1 -> b  ;  t1 -> nil  ;  x -> a
}
leq(s(nn1), s(nn2)) <= leq(nn1, nn2) -> No: ()
leq(nn1, nn2) <= leq(s(nn1), s(nn2)) -> Yes: {
nn1 -> s(v0_0)  ;  nn2 -> z
}
False <= leq(s(nn1), z) -> No: ()
prefix(cons(y2, zs), cons(y2, ys)) <= prefix(zs, ys) -> No: ()
prefix(zs, ys) <= prefix(cons(y2, zs), cons(y2, ys)) -> Yes: {
ys -> nil  ;  zs -> cons(v0_0, v0_1)
}
eq_elt(z, y2) <= prefix(cons(z, zs), cons(y2, ys)) -> Yes: {
y2 -> a  ;  z -> b
}
False <= prefix(cons(z, zs), nil) -> No: ()



-------------------------------------------
Step 3, which took 0.015436 s (model generation: 0.015089,  model checking: 0.000347):

Ground examples at the beginning of this step are:
{
count(a, cons(a, nil), s(z)) <= True
count(a, cons(b, nil), z) <= True
count(a, nil, z) <= True
count(b, cons(a, nil), z) <= True
count(b, cons(b, nil), s(z)) <= True
count(b, nil, z) <= True
leq(s(z), s(z)) <= True
leq(z, s(z)) <= True
leq(z, z) <= True
prefix(cons(a, nil), cons(a, nil)) <= True
prefix(nil, cons(a, nil)) <= True
prefix(nil, nil) <= True
leq(s(z), z) <= count(b, cons(a, nil), s(z))
leq(s(z), z) <= leq(s(s(z)), s(z))
prefix(cons(a, nil), nil) <= prefix(cons(a, cons(a, nil)), cons(a, nil))
False <= prefix(cons(b, nil), cons(a, nil))
}

Learner proposed model:
Found Model:
|_

_r_1 ->
{
  _r_1(a) <= True
}
;
count ->
{
  count(a, cons(x_1_0, x_1_1), s(x_2_0)) <= True
  count(a, cons(x_1_0, x_1_1), z) <= True
  count(a, nil, z) <= True
  count(b, cons(x_1_0, x_1_1), s(x_2_0)) <= True
  count(b, cons(x_1_0, x_1_1), z) <= True
  count(b, nil, z) <= True
}
;
leq ->
{
  leq(s(x_0_0), s(x_1_0)) <= True
  leq(s(x_0_0), z) <= True
  leq(z, s(x_1_0)) <= True
  leq(z, z) <= True
}
;
prefix ->
{
  prefix(cons(x_0_0, x_0_1), cons(x_1_0, x_1_1)) <= _r_1(x_0_0)
  prefix(cons(x_0_0, x_0_1), nil) <= True
  prefix(nil, cons(x_1_0, x_1_1)) <= True
  prefix(nil, nil) <= True
}

--
Equality automata are defined for: {elt, eltlist, nat}
_|


Answer of teacher:


count(x, nil, z) <= True -> No: ()
leq(z, s(nn2)) <= True -> No: ()
leq(z, z) <= True -> No: ()
prefix(nil, y) <= True -> No: ()
leq(_aoa, _boa) <= count(x, l1, _aoa) /\ count(x, l2, _boa) /\ prefix(l1, l2) -> No: ()
count(x, cons(x, t1), s(_una)) <= count(x, t1, _una) -> No: ()
eq_elt(h1, x) \/ count(x, cons(h1, t1), _vna) <= count(x, t1, _vna) -> No: ()
leq(s(nn1), s(nn2)) <= leq(nn1, nn2) -> No: ()
leq(nn1, nn2) <= leq(s(nn1), s(nn2)) -> No: ()
False <= leq(s(nn1), z) -> Yes: {

}
prefix(cons(y2, zs), cons(y2, ys)) <= prefix(zs, ys) -> Yes: {
y2 -> b  ;  ys -> nil  ;  zs -> nil
}
prefix(zs, ys) <= prefix(cons(y2, zs), cons(y2, ys)) -> Yes: {
y2 -> a  ;  ys -> cons(v1_0, v1_1)  ;  zs -> cons(b, v0_1)
}
eq_elt(z, y2) <= prefix(cons(z, zs), cons(y2, ys)) -> Yes: {
y2 -> b  ;  z -> a
}
False <= prefix(cons(z, zs), nil) -> Yes: {

}



-------------------------------------------
Step 4, which took 0.025236 s (model generation: 0.024714,  model checking: 0.000522):

Ground examples at the beginning of this step are:
{
count(a, cons(a, nil), s(z)) <= True
count(a, cons(b, nil), z) <= True
count(a, nil, z) <= True
count(b, cons(a, nil), z) <= True
count(b, cons(b, nil), s(z)) <= True
count(b, nil, z) <= True
leq(s(z), s(z)) <= True
leq(z, s(z)) <= True
leq(z, z) <= True
prefix(cons(a, nil), cons(a, nil)) <= True
prefix(cons(b, nil), cons(b, nil)) <= True
prefix(nil, cons(a, nil)) <= True
prefix(nil, nil) <= True
False <= count(b, cons(a, nil), s(z))
False <= leq(s(s(z)), s(z))
False <= leq(s(z), z)
False <= prefix(cons(a, cons(a, nil)), cons(a, nil))
False <= prefix(cons(a, cons(b, nil)), cons(a, cons(a, nil)))
False <= prefix(cons(a, nil), cons(b, nil))
False <= prefix(cons(a, nil), nil)
False <= prefix(cons(b, nil), cons(a, nil))
}

Learner proposed model:
Found Model:
|_

_r_1 ->
{
  _r_1(a, a) <= True
  _r_1(b, b) <= True
}
;
_r_2 ->
{
  _r_2(b) <= True
}
;
count ->
{
  count(a, cons(x_1_0, x_1_1), s(x_2_0)) <= True
  count(a, cons(x_1_0, x_1_1), z) <= True
  count(a, nil, z) <= True
  count(b, cons(x_1_0, x_1_1), s(x_2_0)) <= _r_2(x_1_0)
  count(b, cons(x_1_0, x_1_1), z) <= True
  count(b, nil, z) <= True
}
;
leq ->
{
  leq(s(x_0_0), s(x_1_0)) <= leq(x_0_0, x_1_0)
  leq(z, s(x_1_0)) <= True
  leq(z, z) <= True
}
;
prefix ->
{
  prefix(cons(x_0_0, x_0_1), cons(x_1_0, x_1_1)) <= _r_1(x_0_0, x_1_0) /\ prefix(x_0_1, x_1_1)
  prefix(nil, cons(x_1_0, x_1_1)) <= True
  prefix(nil, nil) <= True
}

--
Equality automata are defined for: {elt, eltlist, nat}
_|


Answer of teacher:


count(x, nil, z) <= True -> No: ()
leq(z, s(nn2)) <= True -> No: ()
leq(z, z) <= True -> No: ()
prefix(nil, y) <= True -> No: ()
leq(_aoa, _boa) <= count(x, l1, _aoa) /\ count(x, l2, _boa) /\ prefix(l1, l2) -> Yes: {
_aoa -> s(_aoa_0)  ;  _boa -> z  ;  l1 -> cons(b, nil)  ;  l2 -> cons(b, nil)  ;  x -> a
}
count(x, cons(x, t1), s(_una)) <= count(x, t1, _una) -> No: ()
eq_elt(h1, x) \/ count(x, cons(h1, t1), _vna) <= count(x, t1, _vna) -> Yes: {
_vna -> s(_vna_0)  ;  h1 -> a  ;  t1 -> cons(b, t1_1)  ;  x -> b
}
leq(s(nn1), s(nn2)) <= leq(nn1, nn2) -> No: ()
leq(nn1, nn2) <= leq(s(nn1), s(nn2)) -> No: ()
False <= leq(s(nn1), z) -> No: ()
prefix(cons(y2, zs), cons(y2, ys)) <= prefix(zs, ys) -> No: ()
prefix(zs, ys) <= prefix(cons(y2, zs), cons(y2, ys)) -> No: ()
eq_elt(z, y2) <= prefix(cons(z, zs), cons(y2, ys)) -> No: ()
False <= prefix(cons(z, zs), nil) -> No: ()



-------------------------------------------
Step 5, which took 0.043185 s (model generation: 0.042006,  model checking: 0.001179):

Ground examples at the beginning of this step are:
{
count(a, cons(a, nil), s(z)) <= True
count(a, cons(b, nil), z) <= True
count(a, nil, z) <= True
count(b, cons(a, cons(b, nil)), s(z)) <= True
count(b, cons(a, nil), z) <= True
count(b, cons(b, nil), s(z)) <= True
count(b, nil, z) <= True
leq(s(z), s(z)) <= True
leq(z, s(z)) <= True
leq(z, z) <= True
prefix(cons(a, nil), cons(a, nil)) <= True
prefix(cons(b, nil), cons(b, nil)) <= True
prefix(nil, cons(a, nil)) <= True
prefix(nil, nil) <= True
False <= count(a, cons(b, nil), s(z))
False <= count(b, cons(a, nil), s(z))
False <= leq(s(s(z)), s(z))
False <= leq(s(z), z)
False <= prefix(cons(a, cons(a, nil)), cons(a, nil))
False <= prefix(cons(a, cons(b, nil)), cons(a, cons(a, nil)))
False <= prefix(cons(a, nil), cons(b, nil))
False <= prefix(cons(a, nil), nil)
False <= prefix(cons(b, nil), cons(a, nil))
}

Learner proposed model:
Found Model:
|_

_r_1 ->
{
  _r_1(cons(x_0_0, x_0_1)) <= True
}
;
_r_2 ->
{
  _r_2(b) <= True
}
;
_r_3 ->
{
  _r_3(a) <= True
}
;
count ->
{
  count(a, cons(x_1_0, x_1_1), s(x_2_0)) <= _r_3(x_1_0)
  count(a, cons(x_1_0, x_1_1), z) <= True
  count(a, nil, z) <= True
  count(b, cons(x_1_0, x_1_1), s(x_2_0)) <= _r_1(x_1_1)
  count(b, cons(x_1_0, x_1_1), s(x_2_0)) <= _r_2(x_1_0)
  count(b, cons(x_1_0, x_1_1), z) <= True
  count(b, nil, z) <= True
}
;
leq ->
{
  leq(s(x_0_0), s(x_1_0)) <= leq(x_0_0, x_1_0)
  leq(z, s(x_1_0)) <= True
  leq(z, z) <= True
}
;
prefix ->
{
  prefix(cons(x_0_0, x_0_1), cons(x_1_0, x_1_1)) <= _r_2(x_0_0) /\ _r_2(x_1_0)
  prefix(cons(x_0_0, x_0_1), cons(x_1_0, x_1_1)) <= _r_3(x_0_0) /\ _r_3(x_1_0) /\ prefix(x_0_1, x_1_1)
  prefix(nil, cons(x_1_0, x_1_1)) <= True
  prefix(nil, nil) <= True
}

--
Equality automata are defined for: {elt, eltlist, nat}
_|


Answer of teacher:


count(x, nil, z) <= True -> No: ()
leq(z, s(nn2)) <= True -> No: ()
leq(z, z) <= True -> No: ()
prefix(nil, y) <= True -> No: ()
leq(_aoa, _boa) <= count(x, l1, _aoa) /\ count(x, l2, _boa) /\ prefix(l1, l2) -> Yes: {
_aoa -> s(_aoa_0)  ;  _boa -> z  ;  l1 -> cons(b, l1_1)  ;  l2 -> cons(b, l2_1)  ;  x -> b
}
count(x, cons(x, t1), s(_una)) <= count(x, t1, _una) -> No: ()
eq_elt(h1, x) \/ count(x, cons(h1, t1), _vna) <= count(x, t1, _vna) -> Yes: {
_vna -> s(_vna_0)  ;  h1 -> b  ;  t1 -> cons(a, t1_1)  ;  x -> a
}
leq(s(nn1), s(nn2)) <= leq(nn1, nn2) -> No: ()
leq(nn1, nn2) <= leq(s(nn1), s(nn2)) -> No: ()
False <= leq(s(nn1), z) -> No: ()
prefix(cons(y2, zs), cons(y2, ys)) <= prefix(zs, ys) -> No: ()
prefix(zs, ys) <= prefix(cons(y2, zs), cons(y2, ys)) -> Yes: {
y2 -> b  ;  ys -> nil  ;  zs -> cons(v0_0, v0_1)
}
eq_elt(z, y2) <= prefix(cons(z, zs), cons(y2, ys)) -> No: ()
False <= prefix(cons(z, zs), nil) -> No: ()



-------------------------------------------
Step 6, which took 0.050252 s (model generation: 0.048346,  model checking: 0.001906):

Ground examples at the beginning of this step are:
{
count(a, cons(a, nil), s(z)) <= True
count(a, cons(b, cons(a, nil)), s(z)) <= True
count(a, cons(b, nil), z) <= True
count(a, nil, z) <= True
count(b, cons(a, cons(b, nil)), s(z)) <= True
count(b, cons(a, nil), z) <= True
count(b, cons(b, nil), s(z)) <= True
count(b, nil, z) <= True
leq(s(z), s(z)) <= True
leq(z, s(z)) <= True
leq(z, z) <= True
prefix(cons(a, nil), cons(a, nil)) <= True
prefix(cons(b, nil), cons(b, nil)) <= True
prefix(nil, cons(a, nil)) <= True
prefix(nil, nil) <= True
False <= count(a, cons(b, nil), s(z))
False <= count(b, cons(a, nil), s(z))
False <= count(b, cons(b, nil), z)
False <= leq(s(s(z)), s(z))
False <= leq(s(z), z)
False <= prefix(cons(a, cons(a, nil)), cons(a, nil))
False <= prefix(cons(a, cons(b, nil)), cons(a, cons(a, nil)))
False <= prefix(cons(a, nil), cons(b, nil))
False <= prefix(cons(a, nil), nil)
False <= prefix(cons(b, cons(a, nil)), cons(b, nil))
False <= prefix(cons(b, nil), cons(a, nil))
}

Learner proposed model:
Found Model:
|_

_r_1 ->
{
  _r_1(cons(x_0_0, x_0_1)) <= True
}
;
_r_2 ->
{
  _r_2(b) <= True
}
;
_r_3 ->
{
  _r_3(a) <= True
}
;
count ->
{
  count(a, cons(x_1_0, x_1_1), s(x_2_0)) <= _r_1(x_1_1)
  count(a, cons(x_1_0, x_1_1), s(x_2_0)) <= _r_3(x_1_0)
  count(a, cons(x_1_0, x_1_1), z) <= True
  count(a, nil, z) <= True
  count(b, cons(x_1_0, x_1_1), s(x_2_0)) <= _r_1(x_1_1)
  count(b, cons(x_1_0, x_1_1), s(x_2_0)) <= _r_2(x_1_0)
  count(b, cons(x_1_0, x_1_1), z) <= _r_3(x_1_0)
  count(b, nil, z) <= True
}
;
leq ->
{
  leq(s(x_0_0), s(x_1_0)) <= leq(x_0_0, x_1_0)
  leq(z, s(x_1_0)) <= True
  leq(z, z) <= True
}
;
prefix ->
{
  prefix(cons(x_0_0, x_0_1), cons(x_1_0, x_1_1)) <= _r_2(x_0_0) /\ _r_2(x_1_0) /\ prefix(x_0_1, x_1_1)
  prefix(cons(x_0_0, x_0_1), cons(x_1_0, x_1_1)) <= _r_3(x_0_0) /\ _r_3(x_1_0) /\ prefix(x_0_1, x_1_1)
  prefix(nil, cons(x_1_0, x_1_1)) <= True
  prefix(nil, nil) <= True
}

--
Equality automata are defined for: {elt, eltlist, nat}
_|


Answer of teacher:


count(x, nil, z) <= True -> No: ()
leq(z, s(nn2)) <= True -> No: ()
leq(z, z) <= True -> No: ()
prefix(nil, y) <= True -> No: ()
leq(_aoa, _boa) <= count(x, l1, _aoa) /\ count(x, l2, _boa) /\ prefix(l1, l2) -> Yes: {
_aoa -> s(_aoa_0)  ;  _boa -> z  ;  l1 -> cons(a, nil)  ;  l2 -> cons(a, nil)  ;  x -> a
}
count(x, cons(x, t1), s(_una)) <= count(x, t1, _una) -> No: ()
eq_elt(h1, x) \/ count(x, cons(h1, t1), _vna) <= count(x, t1, _vna) -> No: ()
leq(s(nn1), s(nn2)) <= leq(nn1, nn2) -> No: ()
leq(nn1, nn2) <= leq(s(nn1), s(nn2)) -> No: ()
False <= leq(s(nn1), z) -> No: ()
prefix(cons(y2, zs), cons(y2, ys)) <= prefix(zs, ys) -> No: ()
prefix(zs, ys) <= prefix(cons(y2, zs), cons(y2, ys)) -> No: ()
eq_elt(z, y2) <= prefix(cons(z, zs), cons(y2, ys)) -> No: ()
False <= prefix(cons(z, zs), nil) -> No: ()



-------------------------------------------
Step 7, which took 0.050014 s (model generation: 0.048476,  model checking: 0.001538):

Ground examples at the beginning of this step are:
{
count(a, cons(a, nil), s(z)) <= True
count(a, cons(b, cons(a, nil)), s(z)) <= True
count(a, cons(b, nil), z) <= True
count(a, nil, z) <= True
count(b, cons(a, cons(b, nil)), s(z)) <= True
count(b, cons(a, nil), z) <= True
count(b, cons(b, nil), s(z)) <= True
count(b, nil, z) <= True
leq(s(z), s(z)) <= True
leq(z, s(z)) <= True
leq(z, z) <= True
prefix(cons(a, nil), cons(a, nil)) <= True
prefix(cons(b, nil), cons(b, nil)) <= True
prefix(nil, cons(a, nil)) <= True
prefix(nil, nil) <= True
False <= count(a, cons(a, nil), z)
False <= count(a, cons(b, nil), s(z))
False <= count(b, cons(a, nil), s(z))
False <= count(b, cons(b, nil), z)
False <= leq(s(s(z)), s(z))
False <= leq(s(z), z)
False <= prefix(cons(a, cons(a, nil)), cons(a, nil))
False <= prefix(cons(a, cons(b, nil)), cons(a, cons(a, nil)))
False <= prefix(cons(a, nil), cons(b, nil))
False <= prefix(cons(a, nil), nil)
False <= prefix(cons(b, cons(a, nil)), cons(b, nil))
False <= prefix(cons(b, nil), cons(a, nil))
}

Learner proposed model:
Found Model:
|_

_r_1 ->
{
  _r_1(cons(x_0_0, x_0_1)) <= True
}
;
_r_2 ->
{
  _r_2(a) <= True
}
;
_r_3 ->
{
  _r_3(b) <= True
}
;
count ->
{
  count(a, cons(x_1_0, x_1_1), s(x_2_0)) <= _r_1(x_1_1)
  count(a, cons(x_1_0, x_1_1), s(x_2_0)) <= _r_2(x_1_0)
  count(a, cons(x_1_0, x_1_1), z) <= _r_3(x_1_0)
  count(a, nil, z) <= True
  count(b, cons(x_1_0, x_1_1), s(x_2_0)) <= _r_1(x_1_1)
  count(b, cons(x_1_0, x_1_1), s(x_2_0)) <= _r_3(x_1_0)
  count(b, cons(x_1_0, x_1_1), z) <= _r_2(x_1_0)
  count(b, nil, z) <= True
}
;
leq ->
{
  leq(s(x_0_0), s(x_1_0)) <= leq(x_0_0, x_1_0)
  leq(z, s(x_1_0)) <= True
  leq(z, z) <= True
}
;
prefix ->
{
  prefix(cons(x_0_0, x_0_1), cons(x_1_0, x_1_1)) <= _r_2(x_0_0) /\ _r_2(x_1_0) /\ prefix(x_0_1, x_1_1)
  prefix(cons(x_0_0, x_0_1), cons(x_1_0, x_1_1)) <= _r_3(x_0_0) /\ _r_3(x_1_0) /\ prefix(x_0_1, x_1_1)
  prefix(nil, cons(x_1_0, x_1_1)) <= True
  prefix(nil, nil) <= True
}

--
Equality automata are defined for: {elt, eltlist, nat}
_|


Answer of teacher:


count(x, nil, z) <= True -> No: ()
leq(z, s(nn2)) <= True -> No: ()
leq(z, z) <= True -> No: ()
prefix(nil, y) <= True -> No: ()
leq(_aoa, _boa) <= count(x, l1, _aoa) /\ count(x, l2, _boa) /\ prefix(l1, l2) -> Yes: {
_aoa -> s(s(v0_0))  ;  _boa -> s(z)  ;  l1 -> cons(b, nil)  ;  l2 -> cons(b, nil)  ;  x -> b
}
count(x, cons(x, t1), s(_una)) <= count(x, t1, _una) -> No: ()
eq_elt(h1, x) \/ count(x, cons(h1, t1), _vna) <= count(x, t1, _vna) -> No: ()
leq(s(nn1), s(nn2)) <= leq(nn1, nn2) -> No: ()
leq(nn1, nn2) <= leq(s(nn1), s(nn2)) -> No: ()
False <= leq(s(nn1), z) -> No: ()
prefix(cons(y2, zs), cons(y2, ys)) <= prefix(zs, ys) -> No: ()
prefix(zs, ys) <= prefix(cons(y2, zs), cons(y2, ys)) -> No: ()
eq_elt(z, y2) <= prefix(cons(z, zs), cons(y2, ys)) -> No: ()
False <= prefix(cons(z, zs), nil) -> No: ()



-------------------------------------------
Step 8, which took 0.075939 s (model generation: 0.074317,  model checking: 0.001622):

Ground examples at the beginning of this step are:
{
count(a, cons(a, nil), s(z)) <= True
count(a, cons(b, cons(a, nil)), s(z)) <= True
count(a, cons(b, nil), z) <= True
count(a, nil, z) <= True
count(b, cons(a, cons(b, nil)), s(z)) <= True
count(b, cons(a, nil), z) <= True
count(b, cons(b, nil), s(z)) <= True
count(b, nil, z) <= True
leq(s(z), s(z)) <= True
leq(z, s(z)) <= True
leq(z, z) <= True
prefix(cons(a, nil), cons(a, nil)) <= True
prefix(cons(b, nil), cons(b, nil)) <= True
prefix(nil, cons(a, nil)) <= True
prefix(nil, nil) <= True
False <= count(a, cons(a, nil), z)
False <= count(a, cons(b, nil), s(z))
False <= count(b, cons(a, nil), s(z))
False <= count(b, cons(b, nil), s(s(z)))
False <= count(b, cons(b, nil), z)
False <= leq(s(s(z)), s(z))
False <= leq(s(z), z)
False <= prefix(cons(a, cons(a, nil)), cons(a, nil))
False <= prefix(cons(a, cons(b, nil)), cons(a, cons(a, nil)))
False <= prefix(cons(a, nil), cons(b, nil))
False <= prefix(cons(a, nil), nil)
False <= prefix(cons(b, cons(a, nil)), cons(b, nil))
False <= prefix(cons(b, nil), cons(a, nil))
}

Learner proposed model:
Found Model:
|_

_r_1 ->
{
  _r_1(z) <= True
}
;
_r_2 ->
{
  _r_2(cons(x_0_0, x_0_1)) <= True
}
;
_r_3 ->
{
  _r_3(a) <= True
}
;
_r_4 ->
{
  _r_4(b) <= True
}
;
count ->
{
  count(a, cons(x_1_0, x_1_1), s(x_2_0)) <= _r_2(x_1_1)
  count(a, cons(x_1_0, x_1_1), s(x_2_0)) <= _r_3(x_1_0)
  count(a, cons(x_1_0, x_1_1), z) <= _r_4(x_1_0)
  count(a, nil, z) <= True
  count(b, cons(x_1_0, x_1_1), s(x_2_0)) <= _r_1(x_2_0) /\ _r_4(x_1_0)
  count(b, cons(x_1_0, x_1_1), s(x_2_0)) <= _r_2(x_1_1)
  count(b, cons(x_1_0, x_1_1), z) <= _r_3(x_1_0)
  count(b, nil, z) <= True
}
;
leq ->
{
  leq(s(x_0_0), s(x_1_0)) <= _r_1(x_0_0)
  leq(z, s(x_1_0)) <= True
  leq(z, z) <= True
}
;
prefix ->
{
  prefix(cons(x_0_0, x_0_1), cons(x_1_0, x_1_1)) <= _r_3(x_0_0) /\ _r_3(x_1_0) /\ prefix(x_0_1, x_1_1)
  prefix(cons(x_0_0, x_0_1), cons(x_1_0, x_1_1)) <= _r_4(x_0_0) /\ _r_4(x_1_0) /\ prefix(x_0_1, x_1_1)
  prefix(nil, cons(x_1_0, x_1_1)) <= True
  prefix(nil, nil) <= True
}

--
Equality automata are defined for: {elt, eltlist, nat}
_|


Answer of teacher:


count(x, nil, z) <= True -> No: ()
leq(z, s(nn2)) <= True -> No: ()
leq(z, z) <= True -> No: ()
prefix(nil, y) <= True -> No: ()
leq(_aoa, _boa) <= count(x, l1, _aoa) /\ count(x, l2, _boa) /\ prefix(l1, l2) -> Yes: {
_aoa -> s(s(v0_0))  ;  _boa -> s(_boa_0)  ;  l1 -> cons(a, nil)  ;  l2 -> cons(a, nil)  ;  x -> a
}
count(x, cons(x, t1), s(_una)) <= count(x, t1, _una) -> No: ()
eq_elt(h1, x) \/ count(x, cons(h1, t1), _vna) <= count(x, t1, _vna) -> No: ()
leq(s(nn1), s(nn2)) <= leq(nn1, nn2) -> Yes: {
nn1 -> s(z)  ;  nn2 -> s(v1_0)
}
leq(nn1, nn2) <= leq(s(nn1), s(nn2)) -> No: ()
False <= leq(s(nn1), z) -> No: ()
prefix(cons(y2, zs), cons(y2, ys)) <= prefix(zs, ys) -> No: ()
prefix(zs, ys) <= prefix(cons(y2, zs), cons(y2, ys)) -> No: ()
eq_elt(z, y2) <= prefix(cons(z, zs), cons(y2, ys)) -> No: ()
False <= prefix(cons(z, zs), nil) -> No: ()



-------------------------------------------
Step 9, which took 0.085958 s (model generation: 0.082996,  model checking: 0.002962):

Ground examples at the beginning of this step are:
{
count(a, cons(a, nil), s(z)) <= True
count(a, cons(b, cons(a, nil)), s(z)) <= True
count(a, cons(b, nil), z) <= True
count(a, nil, z) <= True
count(b, cons(a, cons(b, nil)), s(z)) <= True
count(b, cons(a, nil), z) <= True
count(b, cons(b, nil), s(z)) <= True
count(b, nil, z) <= True
leq(s(s(z)), s(s(z))) <= True
leq(s(z), s(z)) <= True
leq(z, s(z)) <= True
leq(z, z) <= True
prefix(cons(a, nil), cons(a, nil)) <= True
prefix(cons(b, nil), cons(b, nil)) <= True
prefix(nil, cons(a, nil)) <= True
prefix(nil, nil) <= True
False <= count(a, cons(a, nil), s(s(z)))
False <= count(a, cons(a, nil), z)
False <= count(a, cons(b, nil), s(z))
False <= count(b, cons(a, nil), s(z))
False <= count(b, cons(b, nil), s(s(z)))
False <= count(b, cons(b, nil), z)
False <= leq(s(s(z)), s(z))
False <= leq(s(z), z)
False <= prefix(cons(a, cons(a, nil)), cons(a, nil))
False <= prefix(cons(a, cons(b, nil)), cons(a, cons(a, nil)))
False <= prefix(cons(a, nil), cons(b, nil))
False <= prefix(cons(a, nil), nil)
False <= prefix(cons(b, cons(a, nil)), cons(b, nil))
False <= prefix(cons(b, nil), cons(a, nil))
}

Learner proposed model:
Found Model:
|_

_r_1 ->
{
  _r_1(nil, z) <= True
}
;
_r_2 ->
{
  _r_2(cons(x_0_0, x_0_1), z) <= True
}
;
_r_3 ->
{
  _r_3(b) <= True
}
;
_r_4 ->
{
  _r_4(a) <= True
}
;
count ->
{
  count(a, cons(x_1_0, x_1_1), s(x_2_0)) <= _r_1(x_1_1, x_2_0) /\ _r_4(x_1_0)
  count(a, cons(x_1_0, x_1_1), s(x_2_0)) <= _r_2(x_1_1, x_2_0)
  count(a, cons(x_1_0, x_1_1), z) <= _r_3(x_1_0)
  count(a, nil, z) <= True
  count(b, cons(x_1_0, x_1_1), s(x_2_0)) <= _r_1(x_1_1, x_2_0) /\ _r_3(x_1_0)
  count(b, cons(x_1_0, x_1_1), s(x_2_0)) <= _r_2(x_1_1, x_2_0)
  count(b, cons(x_1_0, x_1_1), z) <= _r_4(x_1_0)
  count(b, nil, z) <= True
}
;
leq ->
{
  leq(s(x_0_0), s(x_1_0)) <= leq(x_0_0, x_1_0)
  leq(z, s(x_1_0)) <= True
  leq(z, z) <= True
}
;
prefix ->
{
  prefix(cons(x_0_0, x_0_1), cons(x_1_0, x_1_1)) <= _r_3(x_0_0) /\ _r_3(x_1_0) /\ prefix(x_0_1, x_1_1)
  prefix(cons(x_0_0, x_0_1), cons(x_1_0, x_1_1)) <= _r_4(x_0_0) /\ _r_4(x_1_0) /\ prefix(x_0_1, x_1_1)
  prefix(nil, cons(x_1_0, x_1_1)) <= True
  prefix(nil, nil) <= True
}

--
Equality automata are defined for: {elt, eltlist, nat}
_|


Answer of teacher:


count(x, nil, z) <= True -> No: ()
leq(z, s(nn2)) <= True -> No: ()
leq(z, z) <= True -> No: ()
prefix(nil, y) <= True -> No: ()
leq(_aoa, _boa) <= count(x, l1, _aoa) /\ count(x, l2, _boa) /\ prefix(l1, l2) -> Yes: {
_aoa -> s(z)  ;  _boa -> z  ;  l1 -> cons(a, cons(a, nil))  ;  l2 -> cons(a, cons(a, nil))  ;  x -> b
}
count(x, cons(x, t1), s(_una)) <= count(x, t1, _una) -> Yes: {
_una -> s(z)  ;  t1 -> cons(t1_0, cons(v0_0, v0_1))  ;  x -> b
}
eq_elt(h1, x) \/ count(x, cons(h1, t1), _vna) <= count(x, t1, _vna) -> No: ()
leq(s(nn1), s(nn2)) <= leq(nn1, nn2) -> No: ()
leq(nn1, nn2) <= leq(s(nn1), s(nn2)) -> No: ()
False <= leq(s(nn1), z) -> No: ()
prefix(cons(y2, zs), cons(y2, ys)) <= prefix(zs, ys) -> No: ()
prefix(zs, ys) <= prefix(cons(y2, zs), cons(y2, ys)) -> No: ()
eq_elt(z, y2) <= prefix(cons(z, zs), cons(y2, ys)) -> No: ()
False <= prefix(cons(z, zs), nil) -> No: ()



-------------------------------------------
Step 10, which took 0.106455 s (model generation: 0.103911,  model checking: 0.002544):

Ground examples at the beginning of this step are:
{
count(a, cons(a, nil), s(z)) <= True
count(a, cons(b, cons(a, nil)), s(z)) <= True
count(a, cons(b, nil), z) <= True
count(a, nil, z) <= True
count(b, cons(a, cons(b, nil)), s(z)) <= True
count(b, cons(a, nil), z) <= True
count(b, cons(b, nil), s(z)) <= True
count(b, nil, z) <= True
leq(s(s(z)), s(s(z))) <= True
leq(s(z), s(z)) <= True
leq(z, s(z)) <= True
leq(z, z) <= True
prefix(cons(a, nil), cons(a, nil)) <= True
prefix(cons(b, nil), cons(b, nil)) <= True
prefix(nil, cons(a, nil)) <= True
prefix(nil, nil) <= True
False <= count(a, cons(a, nil), s(s(z)))
False <= count(a, cons(a, nil), z)
False <= count(a, cons(b, nil), s(z))
count(b, cons(b, cons(a, cons(a, nil))), s(s(z))) <= count(b, cons(a, cons(a, nil)), s(z))
False <= count(b, cons(a, cons(a, nil)), s(z)) /\ count(b, cons(a, cons(a, nil)), z) /\ prefix(cons(a, cons(a, nil)), cons(a, cons(a, nil)))
False <= count(b, cons(a, nil), s(z))
False <= count(b, cons(b, nil), s(s(z)))
False <= count(b, cons(b, nil), z)
False <= leq(s(s(z)), s(z))
False <= leq(s(z), z)
False <= prefix(cons(a, cons(a, nil)), cons(a, nil))
False <= prefix(cons(a, cons(b, nil)), cons(a, cons(a, nil)))
False <= prefix(cons(a, nil), cons(b, nil))
False <= prefix(cons(a, nil), nil)
False <= prefix(cons(b, cons(a, nil)), cons(b, nil))
False <= prefix(cons(b, nil), cons(a, nil))
}

Learner proposed model:
Found Model:
|_

_r_1 ->
{
  _r_1(cons(x_0_0, x_0_1), s(x_1_0)) <= True
  _r_1(cons(x_0_0, x_0_1), z) <= _r_4(x_0_0)
  _r_1(nil, z) <= True
}
;
_r_2 ->
{
  _r_2(cons(x_0_0, x_0_1)) <= True
}
;
_r_3 ->
{
  _r_3(a) <= True
}
;
_r_4 ->
{
  _r_4(b) <= True
}
;
count ->
{
  count(a, cons(x_1_0, x_1_1), s(x_2_0)) <= _r_1(x_1_1, x_2_0) /\ _r_3(x_1_0)
  count(a, cons(x_1_0, x_1_1), s(x_2_0)) <= _r_2(x_1_1)
  count(a, cons(x_1_0, x_1_1), z) <= _r_4(x_1_0)
  count(a, nil, z) <= True
  count(b, cons(x_1_0, x_1_1), s(x_2_0)) <= _r_1(x_1_1, x_2_0) /\ _r_2(x_1_1)
  count(b, cons(x_1_0, x_1_1), s(x_2_0)) <= _r_1(x_1_1, x_2_0) /\ _r_4(x_1_0)
  count(b, cons(x_1_0, x_1_1), z) <= _r_3(x_1_0)
  count(b, nil, z) <= True
}
;
leq ->
{
  leq(s(x_0_0), s(x_1_0)) <= leq(x_0_0, x_1_0)
  leq(z, s(x_1_0)) <= True
  leq(z, z) <= True
}
;
prefix ->
{
  prefix(cons(x_0_0, x_0_1), cons(x_1_0, x_1_1)) <= _r_3(x_0_0) /\ _r_3(x_1_0) /\ prefix(x_0_1, x_1_1)
  prefix(cons(x_0_0, x_0_1), cons(x_1_0, x_1_1)) <= _r_4(x_0_0) /\ _r_4(x_1_0) /\ prefix(x_0_1, x_1_1)
  prefix(nil, cons(x_1_0, x_1_1)) <= True
  prefix(nil, nil) <= True
}

--
Equality automata are defined for: {elt, eltlist, nat}
_|


Answer of teacher:


count(x, nil, z) <= True -> No: ()
leq(z, s(nn2)) <= True -> No: ()
leq(z, z) <= True -> No: ()
prefix(nil, y) <= True -> No: ()
leq(_aoa, _boa) <= count(x, l1, _aoa) /\ count(x, l2, _boa) /\ prefix(l1, l2) -> Yes: {
_aoa -> s(_aoa_0)  ;  _boa -> z  ;  l1 -> cons(b, cons(b, nil))  ;  l2 -> cons(b, cons(b, nil))  ;  x -> a
}
count(x, cons(x, t1), s(_una)) <= count(x, t1, _una) -> Yes: {
_una -> z  ;  t1 -> cons(a, t1_1)  ;  x -> b
}
eq_elt(h1, x) \/ count(x, cons(h1, t1), _vna) <= count(x, t1, _vna) -> Yes: {
_vna -> s(z)  ;  h1 -> a  ;  t1 -> cons(a, cons(b, v0_1))  ;  x -> b
}
leq(s(nn1), s(nn2)) <= leq(nn1, nn2) -> No: ()
leq(nn1, nn2) <= leq(s(nn1), s(nn2)) -> No: ()
False <= leq(s(nn1), z) -> No: ()
prefix(cons(y2, zs), cons(y2, ys)) <= prefix(zs, ys) -> No: ()
prefix(zs, ys) <= prefix(cons(y2, zs), cons(y2, ys)) -> No: ()
eq_elt(z, y2) <= prefix(cons(z, zs), cons(y2, ys)) -> No: ()
False <= prefix(cons(z, zs), nil) -> No: ()



-------------------------------------------
Step 11, which took 0.245996 s (model generation: 0.243789,  model checking: 0.002207):

Ground examples at the beginning of this step are:
{
count(a, cons(a, nil), s(z)) <= True
count(a, cons(b, cons(a, nil)), s(z)) <= True
count(a, cons(b, nil), z) <= True
count(a, nil, z) <= True
count(b, cons(a, cons(a, cons(b, nil))), s(z)) <= True
count(b, cons(a, cons(b, nil)), s(z)) <= True
count(b, cons(a, nil), z) <= True
count(b, cons(b, cons(a, nil)), s(z)) <= True
count(b, cons(b, nil), s(z)) <= True
count(b, nil, z) <= True
leq(s(s(z)), s(s(z))) <= True
leq(s(z), s(z)) <= True
leq(z, s(z)) <= True
leq(z, z) <= True
prefix(cons(a, nil), cons(a, nil)) <= True
prefix(cons(b, nil), cons(b, nil)) <= True
prefix(nil, cons(a, nil)) <= True
prefix(nil, nil) <= True
False <= count(a, cons(a, nil), s(s(z)))
False <= count(a, cons(a, nil), z)
False <= count(a, cons(b, cons(b, nil)), s(z)) /\ count(a, cons(b, cons(b, nil)), z) /\ prefix(cons(b, cons(b, nil)), cons(b, cons(b, nil)))
False <= count(a, cons(b, nil), s(z))
count(b, cons(b, cons(a, cons(a, nil))), s(s(z))) <= count(b, cons(a, cons(a, nil)), s(z))
False <= count(b, cons(a, cons(a, nil)), s(z)) /\ count(b, cons(a, cons(a, nil)), z) /\ prefix(cons(a, cons(a, nil)), cons(a, cons(a, nil)))
False <= count(b, cons(a, nil), s(z))
False <= count(b, cons(b, nil), s(s(z)))
False <= count(b, cons(b, nil), z)
False <= leq(s(s(z)), s(z))
False <= leq(s(z), z)
False <= prefix(cons(a, cons(a, nil)), cons(a, nil))
False <= prefix(cons(a, cons(b, nil)), cons(a, cons(a, nil)))
False <= prefix(cons(a, nil), cons(b, nil))
False <= prefix(cons(a, nil), nil)
False <= prefix(cons(b, cons(a, nil)), cons(b, nil))
False <= prefix(cons(b, nil), cons(a, nil))
}

Learner proposed model:
Found Model:
|_

_r_1 ->
{
  _r_1(cons(x_0_0, x_0_1), s(x_1_0)) <= True
  _r_1(nil, z) <= True
}
;
_r_2 ->
{
  _r_2(cons(x_0_0, x_0_1), z) <= True
}
;
_r_3 ->
{
  _r_3(nil) <= True
}
;
_r_4 ->
{
  _r_4(a) <= True
}
;
_r_5 ->
{
  _r_5(b) <= True
}
;
count ->
{
  count(a, cons(x_1_0, x_1_1), s(x_2_0)) <= _r_1(x_1_1, x_2_0) /\ _r_4(x_1_0)
  count(a, cons(x_1_0, x_1_1), s(x_2_0)) <= _r_2(x_1_1, x_2_0)
  count(a, cons(x_1_0, x_1_1), z) <= _r_5(x_1_0)
  count(a, nil, z) <= True
  count(b, cons(x_1_0, x_1_1), s(x_2_0)) <= _r_1(x_1_1, x_2_0) /\ _r_5(x_1_0)
  count(b, cons(x_1_0, x_1_1), s(x_2_0)) <= _r_2(x_1_1, x_2_0)
  count(b, cons(x_1_0, x_1_1), z) <= _r_4(x_1_0)
  count(b, nil, z) <= True
}
;
leq ->
{
  leq(s(x_0_0), s(x_1_0)) <= leq(x_0_0, x_1_0)
  leq(z, s(x_1_0)) <= True
  leq(z, z) <= True
}
;
prefix ->
{
  prefix(cons(x_0_0, x_0_1), cons(x_1_0, x_1_1)) <= _r_3(x_0_1) /\ _r_4(x_0_0) /\ _r_4(x_1_0)
  prefix(cons(x_0_0, x_0_1), cons(x_1_0, x_1_1)) <= _r_3(x_0_1) /\ _r_5(x_0_0) /\ _r_5(x_1_0)
  prefix(nil, cons(x_1_0, x_1_1)) <= True
  prefix(nil, nil) <= True
}

--
Equality automata are defined for: {elt, eltlist, nat}
_|


Answer of teacher:


count(x, nil, z) <= True -> No: ()
leq(z, s(nn2)) <= True -> No: ()
leq(z, z) <= True -> No: ()
prefix(nil, y) <= True -> No: ()
leq(_aoa, _boa) <= count(x, l1, _aoa) /\ count(x, l2, _boa) /\ prefix(l1, l2) -> No: ()
count(x, cons(x, t1), s(_una)) <= count(x, t1, _una) -> No: ()
eq_elt(h1, x) \/ count(x, cons(h1, t1), _vna) <= count(x, t1, _vna) -> Yes: {
_vna -> s(s(v1_0))  ;  h1 -> a  ;  t1 -> cons(b, cons(v0_0, v0_1))  ;  x -> b
}
leq(s(nn1), s(nn2)) <= leq(nn1, nn2) -> No: ()
leq(nn1, nn2) <= leq(s(nn1), s(nn2)) -> No: ()
False <= leq(s(nn1), z) -> No: ()
prefix(cons(y2, zs), cons(y2, ys)) <= prefix(zs, ys) -> Yes: {
ys -> cons(b, v1_1)  ;  zs -> cons(b, nil)
}
prefix(zs, ys) <= prefix(cons(y2, zs), cons(y2, ys)) -> No: ()
eq_elt(z, y2) <= prefix(cons(z, zs), cons(y2, ys)) -> No: ()
False <= prefix(cons(z, zs), nil) -> No: ()



-------------------------------------------
Step 12, which took 0.415057 s (model generation: 0.411762,  model checking: 0.003295):

Ground examples at the beginning of this step are:
{
count(a, cons(a, nil), s(z)) <= True
count(a, cons(b, cons(a, nil)), s(z)) <= True
count(a, cons(b, nil), z) <= True
count(a, nil, z) <= True
count(b, cons(a, cons(a, cons(b, nil))), s(z)) <= True
count(b, cons(a, cons(b, nil)), s(z)) <= True
count(b, cons(a, nil), z) <= True
count(b, cons(b, cons(a, nil)), s(z)) <= True
count(b, cons(b, nil), s(z)) <= True
count(b, nil, z) <= True
leq(s(s(z)), s(s(z))) <= True
leq(s(z), s(z)) <= True
leq(z, s(z)) <= True
leq(z, z) <= True
prefix(cons(a, cons(b, nil)), cons(a, cons(b, nil))) <= True
prefix(cons(a, nil), cons(a, nil)) <= True
prefix(cons(b, nil), cons(b, nil)) <= True
prefix(nil, cons(a, nil)) <= True
prefix(nil, nil) <= True
False <= count(a, cons(a, nil), s(s(z)))
False <= count(a, cons(a, nil), z)
False <= count(a, cons(b, cons(b, nil)), s(z)) /\ count(a, cons(b, cons(b, nil)), z) /\ prefix(cons(b, cons(b, nil)), cons(b, cons(b, nil)))
False <= count(a, cons(b, nil), s(z))
count(b, cons(b, cons(a, cons(a, nil))), s(s(z))) <= count(b, cons(a, cons(a, nil)), s(z))
False <= count(b, cons(a, cons(a, nil)), s(z)) /\ count(b, cons(a, cons(a, nil)), z) /\ prefix(cons(a, cons(a, nil)), cons(a, cons(a, nil)))
False <= count(b, cons(a, nil), s(z))
count(b, cons(a, cons(b, cons(a, nil))), s(s(z))) <= count(b, cons(b, cons(a, nil)), s(s(z)))
False <= count(b, cons(b, nil), s(s(z)))
False <= count(b, cons(b, nil), z)
False <= leq(s(s(z)), s(z))
False <= leq(s(z), z)
False <= prefix(cons(a, cons(a, nil)), cons(a, nil))
False <= prefix(cons(a, cons(b, nil)), cons(a, cons(a, nil)))
False <= prefix(cons(a, nil), cons(b, nil))
False <= prefix(cons(a, nil), nil)
False <= prefix(cons(b, cons(a, nil)), cons(b, nil))
False <= prefix(cons(b, nil), cons(a, nil))
}

Learner proposed model:
Found Model:
|_

_r_1 ->
{
  _r_1(z) <= True
}
;
_r_2 ->
{
  _r_2(cons(x_0_0, x_0_1)) <= True
}
;
_r_3 ->
{
  _r_3(nil) <= True
}
;
_r_4 ->
{
  _r_4(a) <= True
}
;
_r_5 ->
{
  _r_5(b) <= True
}
;
count ->
{
  count(a, cons(x_1_0, x_1_1), s(x_2_0)) <= _r_1(x_2_0) /\ _r_4(x_1_0)
  count(a, cons(x_1_0, x_1_1), s(x_2_0)) <= _r_2(x_1_1)
  count(a, cons(x_1_0, x_1_1), z) <= _r_3(x_1_1) /\ _r_5(x_1_0)
  count(a, nil, z) <= True
  count(b, cons(x_1_0, x_1_1), s(x_2_0)) <= _r_1(x_2_0) /\ _r_5(x_1_0)
  count(b, cons(x_1_0, x_1_1), s(x_2_0)) <= _r_2(x_1_1)
  count(b, cons(x_1_0, x_1_1), z) <= _r_3(x_1_1) /\ _r_4(x_1_0)
  count(b, nil, z) <= True
}
;
leq ->
{
  leq(s(x_0_0), s(x_1_0)) <= leq(x_0_0, x_1_0)
  leq(z, s(x_1_0)) <= True
  leq(z, z) <= True
}
;
prefix ->
{
  prefix(cons(x_0_0, x_0_1), cons(x_1_0, x_1_1)) <= _r_4(x_0_0) /\ _r_4(x_1_0) /\ prefix(x_0_1, x_1_1)
  prefix(cons(x_0_0, x_0_1), cons(x_1_0, x_1_1)) <= _r_5(x_0_0) /\ _r_5(x_1_0) /\ prefix(x_0_1, x_1_1)
  prefix(nil, cons(x_1_0, x_1_1)) <= True
  prefix(nil, nil) <= True
}

--
Equality automata are defined for: {elt, eltlist, nat}
_|


Answer of teacher:


count(x, nil, z) <= True -> No: ()
leq(z, s(nn2)) <= True -> No: ()
leq(z, z) <= True -> No: ()
prefix(nil, y) <= True -> No: ()
leq(_aoa, _boa) <= count(x, l1, _aoa) /\ count(x, l2, _boa) /\ prefix(l1, l2) -> Yes: {
_aoa -> s(s(v1_0))  ;  _boa -> s(z)  ;  l1 -> cons(b, cons(b, nil))  ;  l2 -> cons(b, cons(b, nil))  ;  x -> b
}
count(x, cons(x, t1), s(_una)) <= count(x, t1, _una) -> No: ()
eq_elt(h1, x) \/ count(x, cons(h1, t1), _vna) <= count(x, t1, _vna) -> Yes: {
_vna -> z  ;  h1 -> b  ;  t1 -> cons(b, nil)  ;  x -> a
}
leq(s(nn1), s(nn2)) <= leq(nn1, nn2) -> No: ()
leq(nn1, nn2) <= leq(s(nn1), s(nn2)) -> No: ()
False <= leq(s(nn1), z) -> No: ()
prefix(cons(y2, zs), cons(y2, ys)) <= prefix(zs, ys) -> No: ()
prefix(zs, ys) <= prefix(cons(y2, zs), cons(y2, ys)) -> No: ()
eq_elt(z, y2) <= prefix(cons(z, zs), cons(y2, ys)) -> No: ()
False <= prefix(cons(z, zs), nil) -> No: ()



-------------------------------------------
Step 13, which took 0.703725 s (model generation: 0.700324,  model checking: 0.003401):

Ground examples at the beginning of this step are:
{
count(a, cons(a, nil), s(z)) <= True
count(a, cons(b, cons(a, nil)), s(z)) <= True
count(a, cons(b, cons(b, nil)), z) <= True
count(a, cons(b, nil), z) <= True
count(a, nil, z) <= True
count(b, cons(a, cons(a, cons(b, nil))), s(z)) <= True
count(b, cons(a, cons(b, nil)), s(z)) <= True
count(b, cons(a, nil), z) <= True
count(b, cons(b, cons(a, nil)), s(z)) <= True
count(b, cons(b, nil), s(z)) <= True
count(b, nil, z) <= True
leq(s(s(z)), s(s(z))) <= True
leq(s(z), s(z)) <= True
leq(z, s(z)) <= True
leq(z, z) <= True
prefix(cons(a, cons(b, nil)), cons(a, cons(b, nil))) <= True
prefix(cons(a, nil), cons(a, nil)) <= True
prefix(cons(b, nil), cons(b, nil)) <= True
prefix(nil, cons(a, nil)) <= True
prefix(nil, nil) <= True
False <= count(a, cons(a, nil), s(s(z)))
False <= count(a, cons(a, nil), z)
False <= count(a, cons(b, cons(b, nil)), s(z)) /\ prefix(cons(b, cons(b, nil)), cons(b, cons(b, nil)))
False <= count(a, cons(b, nil), s(z))
count(b, cons(b, cons(a, cons(a, nil))), s(s(z))) <= count(b, cons(a, cons(a, nil)), s(z))
False <= count(b, cons(a, cons(a, nil)), s(z)) /\ count(b, cons(a, cons(a, nil)), z) /\ prefix(cons(a, cons(a, nil)), cons(a, cons(a, nil)))
False <= count(b, cons(a, nil), s(z))
count(b, cons(a, cons(b, cons(a, nil))), s(s(z))) <= count(b, cons(b, cons(a, nil)), s(s(z)))
False <= count(b, cons(b, cons(b, nil)), s(s(z))) /\ count(b, cons(b, cons(b, nil)), s(z)) /\ prefix(cons(b, cons(b, nil)), cons(b, cons(b, nil)))
False <= count(b, cons(b, nil), s(s(z)))
False <= count(b, cons(b, nil), z)
False <= leq(s(s(z)), s(z))
False <= leq(s(z), z)
False <= prefix(cons(a, cons(a, nil)), cons(a, nil))
False <= prefix(cons(a, cons(b, nil)), cons(a, cons(a, nil)))
False <= prefix(cons(a, nil), cons(b, nil))
False <= prefix(cons(a, nil), nil)
False <= prefix(cons(b, cons(a, nil)), cons(b, nil))
False <= prefix(cons(b, nil), cons(a, nil))
}

Learner proposed model:
Found Model:
|_

_r_1 ->
{
  _r_1(z) <= True
}
;
_r_2 ->
{
  _r_2(cons(x_0_0, x_0_1)) <= True
}
;
_r_3 ->
{
  _r_3(nil) <= True
}
;
_r_4 ->
{
  _r_4(a) <= True
}
;
_r_5 ->
{
  _r_5(b) <= True
}
;
count ->
{
  count(a, cons(x_1_0, x_1_1), s(x_2_0)) <= _r_1(x_2_0) /\ _r_4(x_1_0)
  count(a, cons(x_1_0, x_1_1), s(x_2_0)) <= _r_2(x_1_1)
  count(a, cons(x_1_0, x_1_1), z) <= _r_5(x_1_0)
  count(a, nil, z) <= True
  count(b, cons(x_1_0, x_1_1), s(x_2_0)) <= _r_1(x_2_0) /\ _r_5(x_1_0)
  count(b, cons(x_1_0, x_1_1), s(x_2_0)) <= _r_2(x_1_1)
  count(b, cons(x_1_0, x_1_1), z) <= _r_3(x_1_1) /\ _r_4(x_1_0)
  count(b, nil, z) <= True
}
;
leq ->
{
  leq(s(x_0_0), s(x_1_0)) <= leq(x_0_0, x_1_0)
  leq(z, s(x_1_0)) <= True
  leq(z, z) <= True
}
;
prefix ->
{
  prefix(cons(x_0_0, x_0_1), cons(x_1_0, x_1_1)) <= _r_3(x_1_1) /\ _r_5(x_0_0) /\ _r_5(x_1_0) /\ prefix(x_0_1, x_1_1)
  prefix(cons(x_0_0, x_0_1), cons(x_1_0, x_1_1)) <= _r_4(x_0_0) /\ _r_4(x_1_0) /\ prefix(x_0_1, x_1_1)
  prefix(nil, cons(x_1_0, x_1_1)) <= True
  prefix(nil, nil) <= True
}

--
Equality automata are defined for: {elt, eltlist, nat}
_|


Answer of teacher:


count(x, nil, z) <= True -> No: ()
leq(z, s(nn2)) <= True -> No: ()
leq(z, z) <= True -> No: ()
prefix(nil, y) <= True -> No: ()
leq(_aoa, _boa) <= count(x, l1, _aoa) /\ count(x, l2, _boa) /\ prefix(l1, l2) -> Yes: {
_aoa -> s(s(v1_0))  ;  _boa -> s(z)  ;  l1 -> cons(a, cons(a, nil))  ;  l2 -> cons(a, cons(a, nil))  ;  x -> a
}
count(x, cons(x, t1), s(_una)) <= count(x, t1, _una) -> No: ()
eq_elt(h1, x) \/ count(x, cons(h1, t1), _vna) <= count(x, t1, _vna) -> Yes: {
_vna -> z  ;  h1 -> a  ;  t1 -> cons(a, nil)  ;  x -> b
}
leq(s(nn1), s(nn2)) <= leq(nn1, nn2) -> No: ()
leq(nn1, nn2) <= leq(s(nn1), s(nn2)) -> No: ()
False <= leq(s(nn1), z) -> No: ()
prefix(cons(y2, zs), cons(y2, ys)) <= prefix(zs, ys) -> Yes: {
y2 -> b  ;  ys -> cons(a, nil)  ;  zs -> cons(a, nil)
}
prefix(zs, ys) <= prefix(cons(y2, zs), cons(y2, ys)) -> No: ()
eq_elt(z, y2) <= prefix(cons(z, zs), cons(y2, ys)) -> No: ()
False <= prefix(cons(z, zs), nil) -> No: ()



-------------------------------------------
Step 14, which took 0.793746 s (model generation: 0.788529,  model checking: 0.005217):

Ground examples at the beginning of this step are:
{
count(a, cons(a, nil), s(z)) <= True
count(a, cons(b, cons(a, nil)), s(z)) <= True
count(a, cons(b, cons(b, nil)), z) <= True
count(a, cons(b, nil), z) <= True
count(a, nil, z) <= True
count(b, cons(a, cons(a, cons(b, nil))), s(z)) <= True
count(b, cons(a, cons(a, nil)), z) <= True
count(b, cons(a, cons(b, nil)), s(z)) <= True
count(b, cons(a, nil), z) <= True
count(b, cons(b, cons(a, nil)), s(z)) <= True
count(b, cons(b, nil), s(z)) <= True
count(b, nil, z) <= True
leq(s(s(z)), s(s(z))) <= True
leq(s(z), s(z)) <= True
leq(z, s(z)) <= True
leq(z, z) <= True
prefix(cons(a, cons(b, nil)), cons(a, cons(b, nil))) <= True
prefix(cons(a, nil), cons(a, nil)) <= True
prefix(cons(b, cons(a, nil)), cons(b, cons(a, nil))) <= True
prefix(cons(b, nil), cons(b, nil)) <= True
prefix(nil, cons(a, nil)) <= True
prefix(nil, nil) <= True
False <= count(a, cons(a, cons(a, nil)), s(s(z))) /\ count(a, cons(a, cons(a, nil)), s(z)) /\ prefix(cons(a, cons(a, nil)), cons(a, cons(a, nil)))
False <= count(a, cons(a, nil), s(s(z)))
False <= count(a, cons(a, nil), z)
False <= count(a, cons(b, cons(b, nil)), s(z)) /\ prefix(cons(b, cons(b, nil)), cons(b, cons(b, nil)))
False <= count(a, cons(b, nil), s(z))
count(b, cons(b, cons(a, cons(a, nil))), s(s(z))) <= count(b, cons(a, cons(a, nil)), s(z))
False <= count(b, cons(a, cons(a, nil)), s(z)) /\ prefix(cons(a, cons(a, nil)), cons(a, cons(a, nil)))
False <= count(b, cons(a, nil), s(z))
count(b, cons(a, cons(b, cons(a, nil))), s(s(z))) <= count(b, cons(b, cons(a, nil)), s(s(z)))
False <= count(b, cons(b, cons(b, nil)), s(s(z))) /\ count(b, cons(b, cons(b, nil)), s(z)) /\ prefix(cons(b, cons(b, nil)), cons(b, cons(b, nil)))
False <= count(b, cons(b, nil), s(s(z)))
False <= count(b, cons(b, nil), z)
False <= leq(s(s(z)), s(z))
False <= leq(s(z), z)
False <= prefix(cons(a, cons(a, nil)), cons(a, nil))
False <= prefix(cons(a, cons(b, nil)), cons(a, cons(a, nil)))
False <= prefix(cons(a, nil), cons(b, nil))
False <= prefix(cons(a, nil), nil)
False <= prefix(cons(b, cons(a, nil)), cons(b, nil))
False <= prefix(cons(b, nil), cons(a, nil))
}

Learner proposed model:
Found Model:
|_

_r_1 ->
{
  _r_1(cons(x_0_0, x_0_1), s(x_1_0)) <= True
  _r_1(cons(x_0_0, x_0_1), z) <= _r_4(x_0_0)
  _r_1(nil, z) <= True
}
;
_r_2 ->
{
  _r_2(cons(x_0_0, x_0_1)) <= _r_5(x_0_0)
  _r_2(nil) <= True
}
;
_r_3 ->
{
  _r_3(cons(x_0_0, x_0_1)) <= True
}
;
_r_4 ->
{
  _r_4(a) <= True
}
;
_r_5 ->
{
  _r_5(b) <= True
}
;
count ->
{
  count(a, cons(x_1_0, x_1_1), s(x_2_0)) <= _r_1(x_1_1, x_2_0) /\ _r_3(x_1_1)
  count(a, cons(x_1_0, x_1_1), s(x_2_0)) <= _r_1(x_1_1, x_2_0) /\ _r_4(x_1_0)
  count(a, cons(x_1_0, x_1_1), z) <= _r_5(x_1_0)
  count(a, nil, z) <= True
  count(b, cons(x_1_0, x_1_1), s(x_2_0)) <= _r_1(x_1_1, x_2_0) /\ _r_5(x_1_0)
  count(b, cons(x_1_0, x_1_1), s(x_2_0)) <= _r_3(x_1_1) /\ _r_4(x_1_0)
  count(b, cons(x_1_0, x_1_1), z) <= _r_4(x_1_0)
  count(b, nil, z) <= True
}
;
leq ->
{
  leq(s(x_0_0), s(x_1_0)) <= leq(x_0_0, x_1_0)
  leq(z, s(x_1_0)) <= True
  leq(z, z) <= True
}
;
prefix ->
{
  prefix(cons(x_0_0, x_0_1), cons(x_1_0, x_1_1)) <= _r_2(x_1_1) /\ _r_4(x_0_0) /\ _r_4(x_1_0) /\ prefix(x_0_1, x_1_1)
  prefix(cons(x_0_0, x_0_1), cons(x_1_0, x_1_1)) <= _r_5(x_0_0) /\ _r_5(x_1_0) /\ prefix(x_0_1, x_1_1)
  prefix(nil, cons(x_1_0, x_1_1)) <= _r_2(x_1_1)
  prefix(nil, nil) <= True
}

--
Equality automata are defined for: {elt, eltlist, nat}
_|


Answer of teacher:


count(x, nil, z) <= True -> No: ()
leq(z, s(nn2)) <= True -> No: ()
leq(z, z) <= True -> No: ()
prefix(nil, y) <= True -> Yes: {
y -> cons(y_0, cons(a, v0_1))
}
leq(_aoa, _boa) <= count(x, l1, _aoa) /\ count(x, l2, _boa) /\ prefix(l1, l2) -> Yes: {
_aoa -> s(_aoa_0)  ;  _boa -> z  ;  l1 -> cons(a, cons(b, nil))  ;  l2 -> cons(a, cons(b, nil))  ;  x -> b
}
count(x, cons(x, t1), s(_una)) <= count(x, t1, _una) -> Yes: {
_una -> z  ;  t1 -> cons(b, t1_1)  ;  x -> a
}
eq_elt(h1, x) \/ count(x, cons(h1, t1), _vna) <= count(x, t1, _vna) -> Yes: {
_vna -> s(z)  ;  h1 -> b  ;  t1 -> cons(b, cons(a, v0_1))  ;  x -> a
}
leq(s(nn1), s(nn2)) <= leq(nn1, nn2) -> No: ()
leq(nn1, nn2) <= leq(s(nn1), s(nn2)) -> No: ()
False <= leq(s(nn1), z) -> No: ()
prefix(cons(y2, zs), cons(y2, ys)) <= prefix(zs, ys) -> Yes: {
y2 -> a  ;  ys -> cons(a, nil)  ;  zs -> nil
}
prefix(zs, ys) <= prefix(cons(y2, zs), cons(y2, ys)) -> No: ()
eq_elt(z, y2) <= prefix(cons(z, zs), cons(y2, ys)) -> No: ()
False <= prefix(cons(z, zs), nil) -> No: ()



-------------------------------------------
Step 15, which took 1.597827 s (model generation: 1.589676,  model checking: 0.008151):

Ground examples at the beginning of this step are:
{
count(a, cons(a, cons(b, nil)), s(z)) <= True
count(a, cons(a, nil), s(z)) <= True
count(a, cons(b, cons(a, nil)), s(z)) <= True
count(a, cons(b, cons(b, cons(a, nil))), s(z)) <= True
count(a, cons(b, cons(b, nil)), z) <= True
count(a, cons(b, nil), z) <= True
count(a, nil, z) <= True
count(b, cons(a, cons(a, cons(b, nil))), s(z)) <= True
count(b, cons(a, cons(a, nil)), z) <= True
count(b, cons(a, cons(b, nil)), s(z)) <= True
count(b, cons(a, nil), z) <= True
count(b, cons(b, cons(a, nil)), s(z)) <= True
count(b, cons(b, nil), s(z)) <= True
count(b, nil, z) <= True
leq(s(s(z)), s(s(z))) <= True
leq(s(z), s(z)) <= True
leq(z, s(z)) <= True
leq(z, z) <= True
prefix(cons(a, cons(b, nil)), cons(a, cons(b, nil))) <= True
prefix(cons(a, nil), cons(a, cons(a, nil))) <= True
prefix(cons(a, nil), cons(a, nil)) <= True
prefix(cons(b, cons(a, nil)), cons(b, cons(a, nil))) <= True
prefix(cons(b, nil), cons(b, nil)) <= True
prefix(nil, cons(a, cons(a, nil))) <= True
prefix(nil, cons(a, nil)) <= True
prefix(nil, nil) <= True
False <= count(a, cons(a, cons(a, nil)), s(s(z))) /\ count(a, cons(a, cons(a, nil)), s(z)) /\ prefix(cons(a, cons(a, nil)), cons(a, cons(a, nil)))
False <= count(a, cons(a, nil), s(s(z)))
False <= count(a, cons(a, nil), z)
False <= count(a, cons(b, cons(b, nil)), s(z)) /\ prefix(cons(b, cons(b, nil)), cons(b, cons(b, nil)))
False <= count(a, cons(b, nil), s(z))
count(b, cons(b, cons(a, cons(a, nil))), s(s(z))) <= count(b, cons(a, cons(a, nil)), s(z))
False <= count(b, cons(a, cons(a, nil)), s(z)) /\ prefix(cons(a, cons(a, nil)), cons(a, cons(a, nil)))
False <= count(b, cons(a, cons(b, nil)), z)
False <= count(b, cons(a, nil), s(z))
count(b, cons(a, cons(b, cons(a, nil))), s(s(z))) <= count(b, cons(b, cons(a, nil)), s(s(z)))
False <= count(b, cons(b, cons(b, nil)), s(s(z))) /\ count(b, cons(b, cons(b, nil)), s(z)) /\ prefix(cons(b, cons(b, nil)), cons(b, cons(b, nil)))
False <= count(b, cons(b, nil), s(s(z)))
False <= count(b, cons(b, nil), z)
False <= leq(s(s(z)), s(z))
False <= leq(s(z), z)
False <= prefix(cons(a, cons(a, nil)), cons(a, nil))
False <= prefix(cons(a, cons(b, nil)), cons(a, cons(a, nil)))
False <= prefix(cons(a, nil), cons(b, nil))
False <= prefix(cons(a, nil), nil)
False <= prefix(cons(b, cons(a, nil)), cons(b, nil))
False <= prefix(cons(b, nil), cons(a, nil))
}

Learner proposed model:
Found Model:
|_

_r_1 ->
{
  _r_1(cons(x_0_0, x_0_1), s(x_1_0)) <= True
  _r_1(cons(x_0_0, x_0_1), z) <= _r_3(x_0_1)
  _r_1(cons(x_0_0, x_0_1), z) <= _r_5(x_0_0)
  _r_1(nil, z) <= True
}
;
_r_2 ->
{
  _r_2(cons(x_0_0, x_0_1)) <= _r_4(x_0_0)
  _r_2(nil) <= True
}
;
_r_3 ->
{
  _r_3(cons(x_0_0, x_0_1)) <= True
}
;
_r_4 ->
{
  _r_4(a) <= True
}
;
_r_5 ->
{
  _r_5(b) <= True
}
;
count ->
{
  count(a, cons(x_1_0, x_1_1), s(x_2_0)) <= _r_1(x_1_1, x_2_0) /\ _r_4(x_1_0)
  count(a, cons(x_1_0, x_1_1), s(x_2_0)) <= _r_3(x_1_1) /\ _r_5(x_1_0)
  count(a, cons(x_1_0, x_1_1), z) <= _r_5(x_1_0)
  count(a, nil, z) <= True
  count(b, cons(x_1_0, x_1_1), s(x_2_0)) <= _r_1(x_1_1, x_2_0) /\ _r_3(x_1_1)
  count(b, cons(x_1_0, x_1_1), s(x_2_0)) <= _r_1(x_1_1, x_2_0) /\ _r_5(x_1_0)
  count(b, cons(x_1_0, x_1_1), s(x_2_0)) <= _r_3(x_1_1) /\ _r_5(x_1_0)
  count(b, cons(x_1_0, x_1_1), z) <= _r_2(x_1_1) /\ _r_4(x_1_0)
  count(b, nil, z) <= True
}
;
leq ->
{
  leq(s(x_0_0), s(x_1_0)) <= leq(x_0_0, x_1_0)
  leq(z, s(x_1_0)) <= True
  leq(z, z) <= True
}
;
prefix ->
{
  prefix(cons(x_0_0, x_0_1), cons(x_1_0, x_1_1)) <= _r_2(x_0_1) /\ _r_5(x_0_0) /\ _r_5(x_1_0) /\ prefix(x_0_1, x_1_1)
  prefix(cons(x_0_0, x_0_1), cons(x_1_0, x_1_1)) <= _r_4(x_0_0) /\ _r_4(x_1_0) /\ prefix(x_0_1, x_1_1)
  prefix(nil, cons(x_1_0, x_1_1)) <= True
  prefix(nil, nil) <= True
}

--
Equality automata are defined for: {elt, eltlist, nat}
_|


Answer of teacher:


count(x, nil, z) <= True -> No: ()
leq(z, s(nn2)) <= True -> No: ()
leq(z, z) <= True -> No: ()
prefix(nil, y) <= True -> No: ()
leq(_aoa, _boa) <= count(x, l1, _aoa) /\ count(x, l2, _boa) /\ prefix(l1, l2) -> Yes: {
_aoa -> s(_aoa_0)  ;  _boa -> z  ;  l1 -> cons(b, cons(a, nil))  ;  l2 -> cons(b, cons(a, nil))  ;  x -> a
}
count(x, cons(x, t1), s(_una)) <= count(x, t1, _una) -> No: ()
eq_elt(h1, x) \/ count(x, cons(h1, t1), _vna) <= count(x, t1, _vna) -> No: ()
leq(s(nn1), s(nn2)) <= leq(nn1, nn2) -> No: ()
leq(nn1, nn2) <= leq(s(nn1), s(nn2)) -> No: ()
False <= leq(s(nn1), z) -> No: ()
prefix(cons(y2, zs), cons(y2, ys)) <= prefix(zs, ys) -> Yes: {
y2 -> b  ;  ys -> cons(b, nil)  ;  zs -> cons(b, nil)
}
prefix(zs, ys) <= prefix(cons(y2, zs), cons(y2, ys)) -> No: ()
eq_elt(z, y2) <= prefix(cons(z, zs), cons(y2, ys)) -> No: ()
False <= prefix(cons(z, zs), nil) -> No: ()



-------------------------------------------
Step 16, which took 4.678681 s (model generation: 4.674606,  model checking: 0.004075):

Ground examples at the beginning of this step are:
{
count(a, cons(a, cons(b, nil)), s(z)) <= True
count(a, cons(a, nil), s(z)) <= True
count(a, cons(b, cons(a, nil)), s(z)) <= True
count(a, cons(b, cons(b, cons(a, nil))), s(z)) <= True
count(a, cons(b, cons(b, nil)), z) <= True
count(a, cons(b, nil), z) <= True
count(a, nil, z) <= True
count(b, cons(a, cons(a, cons(b, nil))), s(z)) <= True
count(b, cons(a, cons(a, nil)), z) <= True
count(b, cons(a, cons(b, nil)), s(z)) <= True
count(b, cons(a, nil), z) <= True
count(b, cons(b, cons(a, nil)), s(z)) <= True
count(b, cons(b, nil), s(z)) <= True
count(b, nil, z) <= True
leq(s(s(z)), s(s(z))) <= True
leq(s(z), s(z)) <= True
leq(z, s(z)) <= True
leq(z, z) <= True
prefix(cons(a, cons(b, nil)), cons(a, cons(b, nil))) <= True
prefix(cons(a, nil), cons(a, cons(a, nil))) <= True
prefix(cons(a, nil), cons(a, nil)) <= True
prefix(cons(b, cons(a, nil)), cons(b, cons(a, nil))) <= True
prefix(cons(b, cons(b, nil)), cons(b, cons(b, nil))) <= True
prefix(cons(b, nil), cons(b, nil)) <= True
prefix(nil, cons(a, cons(a, nil))) <= True
prefix(nil, cons(a, nil)) <= True
prefix(nil, nil) <= True
False <= count(a, cons(a, cons(a, nil)), s(s(z))) /\ count(a, cons(a, cons(a, nil)), s(z)) /\ prefix(cons(a, cons(a, nil)), cons(a, cons(a, nil)))
False <= count(a, cons(a, nil), s(s(z)))
False <= count(a, cons(a, nil), z)
False <= count(a, cons(b, cons(a, nil)), z)
False <= count(a, cons(b, cons(b, nil)), s(z))
False <= count(a, cons(b, nil), s(z))
count(b, cons(b, cons(a, cons(a, nil))), s(s(z))) <= count(b, cons(a, cons(a, nil)), s(z))
False <= count(b, cons(a, cons(a, nil)), s(z)) /\ prefix(cons(a, cons(a, nil)), cons(a, cons(a, nil)))
False <= count(b, cons(a, cons(b, nil)), z)
False <= count(b, cons(a, nil), s(z))
count(b, cons(a, cons(b, cons(a, nil))), s(s(z))) <= count(b, cons(b, cons(a, nil)), s(s(z)))
False <= count(b, cons(b, cons(b, nil)), s(s(z))) /\ count(b, cons(b, cons(b, nil)), s(z))
False <= count(b, cons(b, nil), s(s(z)))
False <= count(b, cons(b, nil), z)
False <= leq(s(s(z)), s(z))
False <= leq(s(z), z)
False <= prefix(cons(a, cons(a, nil)), cons(a, nil))
False <= prefix(cons(a, cons(b, nil)), cons(a, cons(a, nil)))
False <= prefix(cons(a, nil), cons(b, nil))
False <= prefix(cons(a, nil), nil)
False <= prefix(cons(b, cons(a, nil)), cons(b, nil))
False <= prefix(cons(b, nil), cons(a, nil))
}

Learner proposed model:
Found Model:
|_

_r_1 ->
{
  _r_1(z) <= True
}
;
_r_2 ->
{
  _r_2(nil) <= True
}
;
_r_3 ->
{
  _r_3(cons(x_0_0, x_0_1)) <= _r_3(x_0_1)
  _r_3(cons(x_0_0, x_0_1)) <= _r_6(x_0_0)
}
;
_r_4 ->
{
  _r_4(cons(x_0_0, x_0_1)) <= _r_4(x_0_1)
  _r_4(cons(x_0_0, x_0_1)) <= _r_5(x_0_0)
}
;
_r_5 ->
{
  _r_5(b) <= True
}
;
_r_6 ->
{
  _r_6(a) <= True
}
;
count ->
{
  count(a, cons(x_1_0, x_1_1), s(x_2_0)) <= _r_1(x_2_0) /\ _r_3(x_1_1)
  count(a, cons(x_1_0, x_1_1), s(x_2_0)) <= _r_1(x_2_0) /\ _r_6(x_1_0)
  count(a, cons(x_1_0, x_1_1), z) <= _r_2(x_1_1) /\ _r_5(x_1_0)
  count(a, cons(x_1_0, x_1_1), z) <= _r_4(x_1_1)
  count(a, nil, z) <= True
  count(b, cons(x_1_0, x_1_1), s(x_2_0)) <= _r_1(x_2_0) /\ _r_5(x_1_0)
  count(b, cons(x_1_0, x_1_1), s(x_2_0)) <= _r_4(x_1_1) /\ _r_6(x_1_0)
  count(b, cons(x_1_0, x_1_1), z) <= _r_2(x_1_1) /\ _r_6(x_1_0)
  count(b, cons(x_1_0, x_1_1), z) <= _r_3(x_1_1)
  count(b, nil, z) <= True
}
;
leq ->
{
  leq(s(x_0_0), s(x_1_0)) <= leq(x_0_0, x_1_0)
  leq(z, s(x_1_0)) <= True
  leq(z, z) <= True
}
;
prefix ->
{
  prefix(cons(x_0_0, x_0_1), cons(x_1_0, x_1_1)) <= _r_5(x_0_0) /\ _r_5(x_1_0) /\ prefix(x_0_1, x_1_1)
  prefix(cons(x_0_0, x_0_1), cons(x_1_0, x_1_1)) <= _r_6(x_0_0) /\ _r_6(x_1_0) /\ prefix(x_0_1, x_1_1)
  prefix(nil, cons(x_1_0, x_1_1)) <= True
  prefix(nil, nil) <= True
}

--
Equality automata are defined for: {elt, eltlist, nat}
_|


Answer of teacher:


count(x, nil, z) <= True -> No: ()
leq(z, s(nn2)) <= True -> No: ()
leq(z, z) <= True -> No: ()
prefix(nil, y) <= True -> No: ()
leq(_aoa, _boa) <= count(x, l1, _aoa) /\ count(x, l2, _boa) /\ prefix(l1, l2) -> Yes: {
_aoa -> s(z)  ;  _boa -> z  ;  l1 -> cons(a, cons(b, nil))  ;  l2 -> cons(a, cons(b, nil))  ;  x -> a
}
count(x, cons(x, t1), s(_una)) <= count(x, t1, _una) -> Yes: {
_una -> s(_una_0)  ;  t1 -> cons(a, cons(b, v0_1))  ;  x -> b
}
eq_elt(h1, x) \/ count(x, cons(h1, t1), _vna) <= count(x, t1, _vna) -> No: ()
leq(s(nn1), s(nn2)) <= leq(nn1, nn2) -> No: ()
leq(nn1, nn2) <= leq(s(nn1), s(nn2)) -> No: ()
False <= leq(s(nn1), z) -> No: ()
prefix(cons(y2, zs), cons(y2, ys)) <= prefix(zs, ys) -> No: ()
prefix(zs, ys) <= prefix(cons(y2, zs), cons(y2, ys)) -> No: ()
eq_elt(z, y2) <= prefix(cons(z, zs), cons(y2, ys)) -> No: ()
False <= prefix(cons(z, zs), nil) -> No: ()



-------------------------------------------
Step 17, which took 25.320751 s (model generation: 25.310713,  model checking: 0.010038):

Ground examples at the beginning of this step are:
{
count(a, cons(a, cons(b, nil)), s(z)) <= True
count(a, cons(a, nil), s(z)) <= True
count(a, cons(b, cons(a, nil)), s(z)) <= True
count(a, cons(b, cons(b, cons(a, nil))), s(z)) <= True
count(a, cons(b, cons(b, nil)), z) <= True
count(a, cons(b, nil), z) <= True
count(a, nil, z) <= True
count(b, cons(a, cons(a, cons(b, nil))), s(z)) <= True
count(b, cons(a, cons(a, nil)), z) <= True
count(b, cons(a, cons(b, nil)), s(z)) <= True
count(b, cons(a, nil), z) <= True
count(b, cons(b, cons(a, cons(b, nil))), s(s(z))) <= True
count(b, cons(b, cons(a, nil)), s(z)) <= True
count(b, cons(b, nil), s(z)) <= True
count(b, nil, z) <= True
leq(s(s(z)), s(s(z))) <= True
leq(s(z), s(z)) <= True
leq(z, s(z)) <= True
leq(z, z) <= True
prefix(cons(a, cons(b, nil)), cons(a, cons(b, nil))) <= True
prefix(cons(a, nil), cons(a, cons(a, nil))) <= True
prefix(cons(a, nil), cons(a, nil)) <= True
prefix(cons(b, cons(a, nil)), cons(b, cons(a, nil))) <= True
prefix(cons(b, cons(b, nil)), cons(b, cons(b, nil))) <= True
prefix(cons(b, nil), cons(b, nil)) <= True
prefix(nil, cons(a, cons(a, nil))) <= True
prefix(nil, cons(a, nil)) <= True
prefix(nil, nil) <= True
False <= count(a, cons(a, cons(a, nil)), s(s(z))) /\ count(a, cons(a, cons(a, nil)), s(z)) /\ prefix(cons(a, cons(a, nil)), cons(a, cons(a, nil)))
False <= count(a, cons(a, cons(b, nil)), z)
False <= count(a, cons(a, nil), s(s(z)))
False <= count(a, cons(a, nil), z)
False <= count(a, cons(b, cons(a, nil)), z)
False <= count(a, cons(b, cons(b, nil)), s(z))
False <= count(a, cons(b, nil), s(z))
count(b, cons(b, cons(a, cons(a, nil))), s(s(z))) <= count(b, cons(a, cons(a, nil)), s(z))
False <= count(b, cons(a, cons(a, nil)), s(z)) /\ prefix(cons(a, cons(a, nil)), cons(a, cons(a, nil)))
False <= count(b, cons(a, cons(b, nil)), z)
False <= count(b, cons(a, nil), s(z))
count(b, cons(a, cons(b, cons(a, nil))), s(s(z))) <= count(b, cons(b, cons(a, nil)), s(s(z)))
False <= count(b, cons(b, cons(b, nil)), s(s(z))) /\ count(b, cons(b, cons(b, nil)), s(z))
False <= count(b, cons(b, nil), s(s(z)))
False <= count(b, cons(b, nil), z)
False <= leq(s(s(z)), s(z))
False <= leq(s(z), z)
False <= prefix(cons(a, cons(a, nil)), cons(a, nil))
False <= prefix(cons(a, cons(b, nil)), cons(a, cons(a, nil)))
False <= prefix(cons(a, nil), cons(b, nil))
False <= prefix(cons(a, nil), nil)
False <= prefix(cons(b, cons(a, nil)), cons(b, nil))
False <= prefix(cons(b, nil), cons(a, nil))
}

Learner proposed model:
Found Model:
|_

_r_1 ->
{
  _r_1(z) <= True
}
;
_r_2 ->
{
  _r_2(cons(x_0_0, x_0_1)) <= _r_2(x_0_1)
  _r_2(cons(x_0_0, x_0_1)) <= _r_5(x_0_0)
}
;
_r_3 ->
{
  _r_3(cons(x_0_0, x_0_1)) <= _r_3(x_0_1)
  _r_3(cons(x_0_0, x_0_1)) <= _r_6(x_0_0)
}
;
_r_4 ->
{
  _r_4(nil) <= True
}
;
_r_5 ->
{
  _r_5(a) <= True
}
;
_r_6 ->
{
  _r_6(b) <= True
}
;
count ->
{
  count(a, cons(x_1_0, x_1_1), s(x_2_0)) <= _r_1(x_2_0) /\ _r_2(x_1_1)
  count(a, cons(x_1_0, x_1_1), s(x_2_0)) <= _r_1(x_2_0) /\ _r_5(x_1_0)
  count(a, cons(x_1_0, x_1_1), z) <= _r_3(x_1_1) /\ _r_6(x_1_0)
  count(a, cons(x_1_0, x_1_1), z) <= _r_4(x_1_1) /\ _r_6(x_1_0)
  count(a, nil, z) <= True
  count(b, cons(x_1_0, x_1_1), s(x_2_0)) <= _r_1(x_2_0) /\ _r_6(x_1_0)
  count(b, cons(x_1_0, x_1_1), s(x_2_0)) <= _r_2(x_1_1) /\ _r_6(x_1_0)
  count(b, cons(x_1_0, x_1_1), s(x_2_0)) <= _r_3(x_1_1) /\ _r_5(x_1_0)
  count(b, cons(x_1_0, x_1_1), z) <= _r_2(x_1_1)
  count(b, cons(x_1_0, x_1_1), z) <= _r_4(x_1_1) /\ _r_5(x_1_0)
  count(b, nil, z) <= True
}
;
leq ->
{
  leq(s(x_0_0), s(x_1_0)) <= leq(x_0_0, x_1_0)
  leq(z, s(x_1_0)) <= True
  leq(z, z) <= True
}
;
prefix ->
{
  prefix(cons(x_0_0, x_0_1), cons(x_1_0, x_1_1)) <= _r_5(x_0_0) /\ _r_5(x_1_0) /\ prefix(x_0_1, x_1_1)
  prefix(cons(x_0_0, x_0_1), cons(x_1_0, x_1_1)) <= _r_6(x_0_0) /\ _r_6(x_1_0) /\ prefix(x_0_1, x_1_1)
  prefix(nil, cons(x_1_0, x_1_1)) <= True
  prefix(nil, nil) <= True
}

--
Equality automata are defined for: {elt, eltlist, nat}
_|


Answer of teacher:


count(x, nil, z) <= True -> No: ()
leq(z, s(nn2)) <= True -> No: ()
leq(z, z) <= True -> No: ()
prefix(nil, y) <= True -> No: ()
leq(_aoa, _boa) <= count(x, l1, _aoa) /\ count(x, l2, _boa) /\ prefix(l1, l2) -> Yes: {
_aoa -> s(z)  ;  _boa -> z  ;  l1 -> cons(b, cons(a, nil))  ;  l2 -> cons(b, cons(a, nil))  ;  x -> b
}
count(x, cons(x, t1), s(_una)) <= count(x, t1, _una) -> Yes: {
_una -> s(z)  ;  t1 -> cons(t1_0, cons(a, v0_1))  ;  x -> a
}
eq_elt(h1, x) \/ count(x, cons(h1, t1), _vna) <= count(x, t1, _vna) -> No: ()
leq(s(nn1), s(nn2)) <= leq(nn1, nn2) -> No: ()
leq(nn1, nn2) <= leq(s(nn1), s(nn2)) -> No: ()
False <= leq(s(nn1), z) -> No: ()
prefix(cons(y2, zs), cons(y2, ys)) <= prefix(zs, ys) -> No: ()
prefix(zs, ys) <= prefix(cons(y2, zs), cons(y2, ys)) -> No: ()
eq_elt(z, y2) <= prefix(cons(z, zs), cons(y2, ys)) -> No: ()
False <= prefix(cons(z, zs), nil) -> No: ()



-------------------------------------------
Step 18, which took 5.077013 s (model generation: 5.063661,  model checking: 0.013352):

Ground examples at the beginning of this step are:
{
count(a, cons(a, cons(b, nil)), s(z)) <= True
count(a, cons(a, nil), s(z)) <= True
count(a, cons(b, cons(a, nil)), s(z)) <= True
count(a, cons(b, cons(b, cons(a, nil))), s(z)) <= True
count(a, cons(b, cons(b, nil)), z) <= True
count(a, cons(b, nil), z) <= True
count(a, nil, z) <= True
count(b, cons(a, cons(a, cons(b, nil))), s(z)) <= True
count(b, cons(a, cons(a, nil)), z) <= True
count(b, cons(a, cons(b, nil)), s(z)) <= True
count(b, cons(a, nil), z) <= True
count(b, cons(b, cons(a, cons(b, nil))), s(s(z))) <= True
count(b, cons(b, cons(a, nil)), s(z)) <= True
count(b, cons(b, nil), s(z)) <= True
count(b, nil, z) <= True
leq(s(s(z)), s(s(z))) <= True
leq(s(z), s(z)) <= True
leq(z, s(z)) <= True
leq(z, z) <= True
prefix(cons(a, cons(b, nil)), cons(a, cons(b, nil))) <= True
prefix(cons(a, nil), cons(a, cons(a, nil))) <= True
prefix(cons(a, nil), cons(a, nil)) <= True
prefix(cons(b, cons(a, nil)), cons(b, cons(a, nil))) <= True
prefix(cons(b, cons(b, nil)), cons(b, cons(b, nil))) <= True
prefix(cons(b, nil), cons(b, nil)) <= True
prefix(nil, cons(a, cons(a, nil))) <= True
prefix(nil, cons(a, nil)) <= True
prefix(nil, nil) <= True
False <= count(a, cons(a, cons(a, nil)), s(s(z))) /\ count(a, cons(a, cons(a, nil)), s(z)) /\ prefix(cons(a, cons(a, nil)), cons(a, cons(a, nil)))
count(a, cons(a, cons(a, cons(a, nil))), s(s(z))) <= count(a, cons(a, cons(a, nil)), s(z))
False <= count(a, cons(a, cons(b, nil)), z)
False <= count(a, cons(a, nil), s(s(z)))
False <= count(a, cons(a, nil), z)
False <= count(a, cons(b, cons(a, nil)), z)
False <= count(a, cons(b, cons(b, nil)), s(z))
False <= count(a, cons(b, nil), s(z))
count(b, cons(b, cons(a, cons(a, nil))), s(s(z))) <= count(b, cons(a, cons(a, nil)), s(z))
False <= count(b, cons(a, cons(a, nil)), s(z)) /\ prefix(cons(a, cons(a, nil)), cons(a, cons(a, nil)))
False <= count(b, cons(a, cons(b, nil)), z)
False <= count(b, cons(a, nil), s(z))
count(b, cons(a, cons(b, cons(a, nil))), s(s(z))) <= count(b, cons(b, cons(a, nil)), s(s(z)))
False <= count(b, cons(b, cons(a, nil)), z)
False <= count(b, cons(b, cons(b, nil)), s(s(z))) /\ count(b, cons(b, cons(b, nil)), s(z))
False <= count(b, cons(b, nil), s(s(z)))
False <= count(b, cons(b, nil), z)
False <= leq(s(s(z)), s(z))
False <= leq(s(z), z)
False <= prefix(cons(a, cons(a, nil)), cons(a, nil))
False <= prefix(cons(a, cons(b, nil)), cons(a, cons(a, nil)))
False <= prefix(cons(a, nil), cons(b, nil))
False <= prefix(cons(a, nil), nil)
False <= prefix(cons(b, cons(a, nil)), cons(b, nil))
False <= prefix(cons(b, nil), cons(a, nil))
}

Learner proposed model:
Found Model:
|_

_r_1 ->
{
  _r_1(z) <= True
}
;
_r_2 ->
{
  _r_2(nil) <= True
}
;
_r_3 ->
{
  _r_3(cons(x_0_0, x_0_1)) <= _r_3(x_0_1)
  _r_3(cons(x_0_0, x_0_1)) <= _r_5(x_0_0)
}
;
_r_4 ->
{
  _r_4(cons(x_0_0, x_0_1)) <= _r_4(x_0_1)
  _r_4(cons(x_0_0, x_0_1)) <= _r_6(x_0_0)
}
;
_r_5 ->
{
  _r_5(a) <= True
}
;
_r_6 ->
{
  _r_6(b) <= True
}
;
count ->
{
  count(a, cons(x_1_0, x_1_1), s(x_2_0)) <= _r_1(x_2_0) /\ _r_2(x_1_1) /\ _r_5(x_1_0)
  count(a, cons(x_1_0, x_1_1), s(x_2_0)) <= _r_3(x_1_1) /\ _r_6(x_1_0)
  count(a, cons(x_1_0, x_1_1), s(x_2_0)) <= _r_4(x_1_1) /\ _r_5(x_1_0)
  count(a, cons(x_1_0, x_1_1), z) <= _r_2(x_1_1) /\ _r_6(x_1_0)
  count(a, cons(x_1_0, x_1_1), z) <= _r_4(x_1_1) /\ _r_6(x_1_0)
  count(a, nil, z) <= True
  count(b, cons(x_1_0, x_1_1), s(x_2_0)) <= _r_1(x_2_0) /\ _r_6(x_1_0)
  count(b, cons(x_1_0, x_1_1), s(x_2_0)) <= _r_3(x_1_1) /\ _r_6(x_1_0)
  count(b, cons(x_1_0, x_1_1), s(x_2_0)) <= _r_4(x_1_1) /\ _r_5(x_1_0)
  count(b, cons(x_1_0, x_1_1), z) <= _r_2(x_1_1) /\ _r_5(x_1_0)
  count(b, cons(x_1_0, x_1_1), z) <= _r_3(x_1_1) /\ _r_5(x_1_0)
  count(b, nil, z) <= True
}
;
leq ->
{
  leq(s(x_0_0), s(x_1_0)) <= leq(x_0_0, x_1_0)
  leq(z, s(x_1_0)) <= True
  leq(z, z) <= True
}
;
prefix ->
{
  prefix(cons(x_0_0, x_0_1), cons(x_1_0, x_1_1)) <= _r_5(x_0_0) /\ _r_5(x_1_0) /\ prefix(x_0_1, x_1_1)
  prefix(cons(x_0_0, x_0_1), cons(x_1_0, x_1_1)) <= _r_6(x_0_0) /\ _r_6(x_1_0) /\ prefix(x_0_1, x_1_1)
  prefix(nil, cons(x_1_0, x_1_1)) <= True
  prefix(nil, nil) <= True
}

--
Equality automata are defined for: {elt, eltlist, nat}
_|


Answer of teacher:


count(x, nil, z) <= True -> No: ()
leq(z, s(nn2)) <= True -> No: ()
leq(z, z) <= True -> No: ()
prefix(nil, y) <= True -> No: ()
leq(_aoa, _boa) <= count(x, l1, _aoa) /\ count(x, l2, _boa) /\ prefix(l1, l2) -> Yes: {
_aoa -> s(s(v1_0))  ;  _boa -> s(z)  ;  l1 -> cons(b, cons(a, nil))  ;  l2 -> cons(b, cons(a, nil))  ;  x -> b
}
leq(s(nn1), s(nn2)) <= leq(nn1, nn2) -> No: ()
leq(nn1, nn2) <= leq(s(nn1), s(nn2)) -> No: ()
False <= leq(s(nn1), z) -> No: ()
prefix(cons(y2, zs), cons(y2, ys)) <= prefix(zs, ys) -> No: ()
prefix(zs, ys) <= prefix(cons(y2, zs), cons(y2, ys)) -> No: ()
eq_elt(z, y2) <= prefix(cons(z, zs), cons(y2, ys)) -> No: ()
False <= prefix(cons(z, zs), nil) -> No: ()



-------------------------------------------
Step 19, which took 1.055534 s (model generation: 1.055499,  model checking: 0.000035):

Ground examples at the beginning of this step are:
{
count(a, cons(a, cons(b, nil)), s(z)) <= True
count(a, cons(a, nil), s(z)) <= True
count(a, cons(b, cons(a, nil)), s(z)) <= True
count(a, cons(b, cons(b, cons(a, nil))), s(z)) <= True
count(a, cons(b, cons(b, nil)), z) <= True
count(a, cons(b, nil), z) <= True
count(a, nil, z) <= True
count(b, cons(a, cons(a, cons(b, nil))), s(z)) <= True
count(b, cons(a, cons(a, nil)), z) <= True
count(b, cons(a, cons(b, nil)), s(z)) <= True
count(b, cons(a, nil), z) <= True
count(b, cons(b, cons(a, cons(b, nil))), s(s(z))) <= True
count(b, cons(b, cons(a, nil)), s(z)) <= True
count(b, cons(b, nil), s(z)) <= True
count(b, nil, z) <= True
leq(s(s(z)), s(s(z))) <= True
leq(s(z), s(z)) <= True
leq(z, s(z)) <= True
leq(z, z) <= True
prefix(cons(a, cons(b, nil)), cons(a, cons(b, nil))) <= True
prefix(cons(a, nil), cons(a, cons(a, nil))) <= True
prefix(cons(a, nil), cons(a, nil)) <= True
prefix(cons(b, cons(a, nil)), cons(b, cons(a, nil))) <= True
prefix(cons(b, cons(b, nil)), cons(b, cons(b, nil))) <= True
prefix(cons(b, nil), cons(b, nil)) <= True
prefix(nil, cons(a, cons(a, nil))) <= True
prefix(nil, cons(a, nil)) <= True
prefix(nil, nil) <= True
False <= count(a, cons(a, cons(a, nil)), s(s(z))) /\ count(a, cons(a, cons(a, nil)), s(z)) /\ prefix(cons(a, cons(a, nil)), cons(a, cons(a, nil)))
count(a, cons(a, cons(a, cons(a, nil))), s(s(z))) <= count(a, cons(a, cons(a, nil)), s(z))
False <= count(a, cons(a, cons(b, nil)), z)
False <= count(a, cons(a, nil), s(s(z)))
False <= count(a, cons(a, nil), z)
False <= count(a, cons(b, cons(a, nil)), z)
False <= count(a, cons(b, cons(b, nil)), s(z))
False <= count(a, cons(b, nil), s(z))
count(b, cons(b, cons(a, cons(a, nil))), s(s(z))) <= count(b, cons(a, cons(a, nil)), s(z))
False <= count(b, cons(a, cons(a, nil)), s(z)) /\ prefix(cons(a, cons(a, nil)), cons(a, cons(a, nil)))
False <= count(b, cons(a, cons(b, nil)), z)
False <= count(b, cons(a, nil), s(z))
False <= count(b, cons(b, cons(a, nil)), s(s(z)))
False <= count(b, cons(b, cons(a, nil)), z)
False <= count(b, cons(b, cons(b, nil)), s(s(z))) /\ count(b, cons(b, cons(b, nil)), s(z))
False <= count(b, cons(b, nil), s(s(z)))
False <= count(b, cons(b, nil), z)
False <= leq(s(s(z)), s(z))
False <= leq(s(z), z)
False <= prefix(cons(a, cons(a, nil)), cons(a, nil))
False <= prefix(cons(a, cons(b, nil)), cons(a, cons(a, nil)))
False <= prefix(cons(a, nil), cons(b, nil))
False <= prefix(cons(a, nil), nil)
False <= prefix(cons(b, cons(a, nil)), cons(b, nil))
False <= prefix(cons(b, nil), cons(a, nil))
}

Learner proposed model:
Found Model:
|_

_r_1 ->
{
  _r_1(cons(x_0_0, x_0_1), s(x_1_0)) <= _r_3(x_0_1)
  _r_1(cons(x_0_0, x_0_1), z) <= _r_3(x_0_1)
  _r_1(cons(x_0_0, x_0_1), z) <= _r_5(x_0_0)
  _r_1(nil, z) <= True
}
;
_r_2 ->
{
  _r_2(cons(x_0_0, x_0_1)) <= _r_6(x_0_0)
  _r_2(nil) <= True
}
;
_r_3 ->
{
  _r_3(cons(x_0_0, x_0_1)) <= True
}
;
_r_4 ->
{
  _r_4(cons(x_0_0, x_0_1)) <= _r_5(x_0_0)
  _r_4(nil) <= True
}
;
_r_5 ->
{
  _r_5(a) <= True
}
;
_r_6 ->
{
  _r_6(b) <= True
}
;
count ->
{
  count(a, cons(x_1_0, x_1_1), s(x_2_0)) <= _r_1(x_1_1, x_2_0) /\ _r_3(x_1_1)
  count(a, cons(x_1_0, x_1_1), s(x_2_0)) <= _r_1(x_1_1, x_2_0) /\ _r_4(x_1_1) /\ _r_5(x_1_0)
  count(a, cons(x_1_0, x_1_1), s(x_2_0)) <= _r_3(x_1_1) /\ _r_5(x_1_0)
  count(a, cons(x_1_0, x_1_1), z) <= _r_2(x_1_1) /\ _r_6(x_1_0)
  count(a, nil, z) <= True
  count(b, cons(x_1_0, x_1_1), s(x_2_0)) <= _r_1(x_1_1, x_2_0) /\ _r_3(x_1_1)
  count(b, cons(x_1_0, x_1_1), s(x_2_0)) <= _r_1(x_1_1, x_2_0) /\ _r_6(x_1_0)
  count(b, cons(x_1_0, x_1_1), s(x_2_0)) <= _r_3(x_1_1) /\ _r_5(x_1_0)
  count(b, cons(x_1_0, x_1_1), z) <= _r_4(x_1_1) /\ _r_5(x_1_0)
  count(b, nil, z) <= True
}
;
leq ->
{
  leq(s(x_0_0), s(x_1_0)) <= leq(x_0_0, x_1_0)
  leq(z, s(x_1_0)) <= True
  leq(z, z) <= True
}
;
prefix ->
{
  prefix(cons(x_0_0, x_0_1), cons(x_1_0, x_1_1)) <= _r_2(x_0_1) /\ _r_5(x_0_0) /\ _r_5(x_1_0) /\ prefix(x_0_1, x_1_1)
  prefix(cons(x_0_0, x_0_1), cons(x_1_0, x_1_1)) <= _r_6(x_0_0) /\ _r_6(x_1_0) /\ prefix(x_0_1, x_1_1)
  prefix(nil, cons(x_1_0, x_1_1)) <= True
  prefix(nil, nil) <= True
}

--
Equality automata are defined for: {elt, eltlist, nat}
_|


Answer of teacher:


count(x, nil, z) <= True -> Maybe: out of time
leq(z, s(nn2)) <= True -> Maybe: out of time
leq(z, z) <= True -> Maybe: out of time
prefix(nil, y) <= True -> Maybe: out of time
leq(_aoa, _boa) <= count(x, l1, _aoa) /\ count(x, l2, _boa) /\ prefix(l1, l2) -> Maybe: out of time
count(x, cons(x, t1), s(_una)) <= count(x, t1, _una) -> Maybe: out of time
eq_elt(h1, x) \/ count(x, cons(h1, t1), _vna) <= count(x, t1, _vna) -> Maybe: out of time
leq(s(nn1), s(nn2)) <= leq(nn1, nn2) -> Maybe: out of time
leq(nn1, nn2) <= leq(s(nn1), s(nn2)) -> Maybe: out of time
False <= leq(s(nn1), z) -> Maybe: out of time
prefix(cons(y2, zs), cons(y2, ys)) <= prefix(zs, ys) -> Maybe: out of time
prefix(zs, ys) <= prefix(cons(y2, zs), cons(y2, ys)) -> Maybe: out of time
eq_elt(z, y2) <= prefix(cons(z, zs), cons(y2, ys)) -> Maybe: out of time
False <= prefix(cons(z, zs), nil) -> Maybe: out of time




Total time: 40.366878
Learner time: 40.302487
Teacher time: 0.063058
Reasons for stopping: Maybe:  other: Some clauses could not be checked:
{
{count([x, nil, z])} -> out of time
{leq([z, s(nn2)])} -> out of time
{leq([z, z])} -> out of time
{prefix([nil, y])} -> out of time
{leq([_aoa, _boa]), ~count([x, l1, _aoa]), ~count([x, l2, _boa]), ~prefix([l1, l2])} -> out of time
{count([x, cons(x, t1), s(_una)]), ~count([x, t1, _una])} -> out of time
{eq_elt([h1, x]), count([x, cons(h1, t1), _vna]), ~count([x, t1, _vna])} -> out of time
{leq([s(nn1), s(nn2)]), ~leq([nn1, nn2])} -> out of time
{leq([nn1, nn2]), ~leq([s(nn1), s(nn2)])} -> out of time
{~leq([s(nn1), z])} -> out of time
{prefix([cons(y2, zs), cons(y2, ys)]), ~prefix([zs, ys])} -> out of time
{prefix([zs, ys]), ~prefix([cons(y2, zs), cons(y2, ys)])} -> out of time
{eq_elt([z, y2]), ~prefix([cons(z, zs), cons(y2, ys)])} -> out of time
{~prefix([cons(z, zs), nil])} -> out of time
}

Last solver state:

Clauses:
{
count(x, nil, z) <= True
leq(z, s(nn2)) <= True
leq(z, z) <= True
prefix(nil, y) <= True
leq(_aoa, _boa) <= count(x, l1, _aoa) /\ count(x, l2, _boa) /\ prefix(l1, l2)
count(x, cons(x, t1), s(_una)) <= count(x, t1, _una)
eq_elt(h1, x) \/ count(x, cons(h1, t1), _vna) <= count(x, t1, _vna)
leq(s(nn1), s(nn2)) <= leq(nn1, nn2)
leq(nn1, nn2) <= leq(s(nn1), s(nn2))
False <= leq(s(nn1), z)
prefix(cons(y2, zs), cons(y2, ys)) <= prefix(zs, ys)
prefix(zs, ys) <= prefix(cons(y2, zs), cons(y2, ys))
eq_elt(z, y2) <= prefix(cons(z, zs), cons(y2, ys))
False <= prefix(cons(z, zs), nil)
}

Accumulated learning constraints:
{
count(a, cons(a, cons(b, nil)), s(z)) <= True
count(a, cons(a, nil), s(z)) <= True
count(a, cons(b, cons(a, nil)), s(z)) <= True
count(a, cons(b, cons(b, cons(a, nil))), s(z)) <= True
count(a, cons(b, cons(b, nil)), z) <= True
count(a, cons(b, nil), z) <= True
count(a, nil, z) <= True
count(b, cons(a, cons(a, cons(b, nil))), s(z)) <= True
count(b, cons(a, cons(a, nil)), z) <= True
count(b, cons(a, cons(b, nil)), s(z)) <= True
count(b, cons(a, nil), z) <= True
count(b, cons(b, cons(a, cons(b, nil))), s(s(z))) <= True
count(b, cons(b, cons(a, nil)), s(z)) <= True
count(b, cons(b, nil), s(z)) <= True
count(b, nil, z) <= True
leq(s(s(z)), s(s(z))) <= True
leq(s(z), s(z)) <= True
leq(z, s(z)) <= True
leq(z, z) <= True
prefix(cons(a, cons(b, nil)), cons(a, cons(b, nil))) <= True
prefix(cons(a, nil), cons(a, cons(a, nil))) <= True
prefix(cons(a, nil), cons(a, nil)) <= True
prefix(cons(b, cons(a, nil)), cons(b, cons(a, nil))) <= True
prefix(cons(b, cons(b, nil)), cons(b, cons(b, nil))) <= True
prefix(cons(b, nil), cons(b, nil)) <= True
prefix(nil, cons(a, cons(a, nil))) <= True
prefix(nil, cons(a, nil)) <= True
prefix(nil, nil) <= True
False <= count(a, cons(a, cons(a, nil)), s(s(z))) /\ count(a, cons(a, cons(a, nil)), s(z)) /\ prefix(cons(a, cons(a, nil)), cons(a, cons(a, nil)))
count(a, cons(a, cons(a, cons(a, nil))), s(s(z))) <= count(a, cons(a, cons(a, nil)), s(z))
False <= count(a, cons(a, cons(b, nil)), z)
False <= count(a, cons(a, nil), s(s(z)))
False <= count(a, cons(a, nil), z)
False <= count(a, cons(b, cons(a, nil)), z)
False <= count(a, cons(b, cons(b, nil)), s(z))
False <= count(a, cons(b, nil), s(z))
count(b, cons(b, cons(a, cons(a, nil))), s(s(z))) <= count(b, cons(a, cons(a, nil)), s(z))
False <= count(b, cons(a, cons(a, nil)), s(z)) /\ prefix(cons(a, cons(a, nil)), cons(a, cons(a, nil)))
False <= count(b, cons(a, cons(b, nil)), z)
False <= count(b, cons(a, nil), s(z))
False <= count(b, cons(b, cons(a, nil)), s(s(z)))
False <= count(b, cons(b, cons(a, nil)), z)
False <= count(b, cons(b, cons(b, nil)), s(s(z))) /\ count(b, cons(b, cons(b, nil)), s(z))
False <= count(b, cons(b, nil), s(s(z)))
False <= count(b, cons(b, nil), z)
False <= leq(s(s(z)), s(z))
False <= leq(s(z), z)
False <= prefix(cons(a, cons(a, nil)), cons(a, nil))
False <= prefix(cons(a, cons(b, nil)), cons(a, cons(a, nil)))
False <= prefix(cons(a, nil), cons(b, nil))
False <= prefix(cons(a, nil), nil)
False <= prefix(cons(b, cons(a, nil)), cons(b, nil))
False <= prefix(cons(b, nil), cons(a, nil))
}

Current best model:
|_

_r_1 ->
{
  _r_1(cons(x_0_0, x_0_1), s(x_1_0)) <= _r_3(x_0_1)
  _r_1(cons(x_0_0, x_0_1), z) <= _r_3(x_0_1)
  _r_1(cons(x_0_0, x_0_1), z) <= _r_5(x_0_0)
  _r_1(nil, z) <= True
}
;
_r_2 ->
{
  _r_2(cons(x_0_0, x_0_1)) <= _r_6(x_0_0)
  _r_2(nil) <= True
}
;
_r_3 ->
{
  _r_3(cons(x_0_0, x_0_1)) <= True
}
;
_r_4 ->
{
  _r_4(cons(x_0_0, x_0_1)) <= _r_5(x_0_0)
  _r_4(nil) <= True
}
;
_r_5 ->
{
  _r_5(a) <= True
}
;
_r_6 ->
{
  _r_6(b) <= True
}
;
count ->
{
  count(a, cons(x_1_0, x_1_1), s(x_2_0)) <= _r_1(x_1_1, x_2_0) /\ _r_3(x_1_1)
  count(a, cons(x_1_0, x_1_1), s(x_2_0)) <= _r_1(x_1_1, x_2_0) /\ _r_4(x_1_1) /\ _r_5(x_1_0)
  count(a, cons(x_1_0, x_1_1), s(x_2_0)) <= _r_3(x_1_1) /\ _r_5(x_1_0)
  count(a, cons(x_1_0, x_1_1), z) <= _r_2(x_1_1) /\ _r_6(x_1_0)
  count(a, nil, z) <= True
  count(b, cons(x_1_0, x_1_1), s(x_2_0)) <= _r_1(x_1_1, x_2_0) /\ _r_3(x_1_1)
  count(b, cons(x_1_0, x_1_1), s(x_2_0)) <= _r_1(x_1_1, x_2_0) /\ _r_6(x_1_0)
  count(b, cons(x_1_0, x_1_1), s(x_2_0)) <= _r_3(x_1_1) /\ _r_5(x_1_0)
  count(b, cons(x_1_0, x_1_1), z) <= _r_4(x_1_1) /\ _r_5(x_1_0)
  count(b, nil, z) <= True
}
;
leq ->
{
  leq(s(x_0_0), s(x_1_0)) <= leq(x_0_0, x_1_0)
  leq(z, s(x_1_0)) <= True
  leq(z, z) <= True
}
;
prefix ->
{
  prefix(cons(x_0_0, x_0_1), cons(x_1_0, x_1_1)) <= _r_2(x_0_1) /\ _r_5(x_0_0) /\ _r_5(x_1_0) /\ prefix(x_0_1, x_1_1)
  prefix(cons(x_0_0, x_0_1), cons(x_1_0, x_1_1)) <= _r_6(x_0_0) /\ _r_6(x_1_0) /\ prefix(x_0_1, x_1_1)
  prefix(nil, cons(x_1_0, x_1_1)) <= True
  prefix(nil, nil) <= True
}

--
Equality automata are defined for: {elt, eltlist, nat}
_|








