Solving ../../benchmarks/smtlib/true/length_append_to_plus.smt2...

Inference procedure has parameters:
Timeout: Some(40.) (sec)
Approximation method: remove functionnality constraint where possible



Learning problem is:

env: {
elist -> {econs, enil}  ;  elt -> {a, b}  ;  nat -> {s, z}
}
definition:
{
(append_elt, F:
{
append_elt(enil, l2, l2) <= True
append_elt(econs(h1, t1), l2, econs(h1, _ata)) <= append_elt(t1, l2, _ata)
}
eq_elist(_dta, _eta) <= append_elt(_bta, _cta, _dta) /\ append_elt(_bta, _cta, _eta)
)
(length_elt, F:
{
length_elt(enil, z) <= True
length_elt(econs(x, ll), s(_fta)) <= length_elt(ll, _fta)
}
eq_nat(_hta, _ita) <= length_elt(_gta, _hta) /\ length_elt(_gta, _ita)
)
(plus, F:
{
plus(n, z, n) <= True
plus(n, s(mm), s(_jta)) <= plus(n, mm, _jta)
}
eq_nat(_mta, _nta) <= plus(_kta, _lta, _mta) /\ plus(_kta, _lta, _nta)
)
}

properties:
{
eq_nat(_ota, _qta) <= append_elt(l1, l2, _pta) /\ length_elt(_pta, _ota) /\ length_elt(l1, _rta) /\ length_elt(l2, _sta) /\ plus(_rta, _sta, _qta)
}


over-approximation: {append_elt, length_elt, plus}
under-approximation: {}

Clause system for inference is:

{
append_elt(enil, l2, l2) <= True
length_elt(enil, z) <= True
plus(n, z, n) <= True
eq_nat(_ota, _qta) <= append_elt(l1, l2, _pta) /\ length_elt(_pta, _ota) /\ length_elt(l1, _rta) /\ length_elt(l2, _sta) /\ plus(_rta, _sta, _qta)
append_elt(econs(h1, t1), l2, econs(h1, _ata)) <= append_elt(t1, l2, _ata)
length_elt(econs(x, ll), s(_fta)) <= length_elt(ll, _fta)
plus(n, s(mm), s(_jta)) <= plus(n, mm, _jta)
}


Solving took 40.970607 seconds.
Maybe:  timeout during learner
Last solver state:

Clauses:
{
append_elt(enil, l2, l2) <= True
length_elt(enil, z) <= True
plus(n, z, n) <= True
eq_nat(_ota, _qta) <= append_elt(l1, l2, _pta) /\ length_elt(_pta, _ota) /\ length_elt(l1, _rta) /\ length_elt(l2, _sta) /\ plus(_rta, _sta, _qta)
append_elt(econs(h1, t1), l2, econs(h1, _ata)) <= append_elt(t1, l2, _ata)
length_elt(econs(x, ll), s(_fta)) <= length_elt(ll, _fta)
plus(n, s(mm), s(_jta)) <= plus(n, mm, _jta)
}

Accumulated learning constraints:
{
append_elt(econs(a, econs(a, enil)), econs(a, enil), econs(a, econs(a, econs(a, enil)))) <= True
append_elt(econs(a, econs(a, enil)), enil, econs(a, econs(a, enil))) <= True
append_elt(econs(a, enil), econs(a, econs(a, enil)), econs(a, econs(a, econs(a, enil)))) <= True
append_elt(econs(a, enil), econs(a, enil), econs(a, econs(a, enil))) <= True
append_elt(econs(a, enil), enil, econs(a, enil)) <= True
append_elt(enil, econs(a, econs(a, enil)), econs(a, econs(a, enil))) <= True
append_elt(enil, econs(a, enil), econs(a, enil)) <= True
append_elt(enil, enil, enil) <= True
length_elt(econs(a, econs(a, enil)), s(s(z))) <= True
length_elt(econs(a, enil), s(z)) <= True
length_elt(enil, z) <= True
plus(s(s(s(z))), z, s(s(s(z)))) <= True
plus(s(s(z)), s(z), s(s(s(z)))) <= True
plus(s(s(z)), z, s(s(z))) <= True
plus(s(z), s(s(z)), s(s(s(z)))) <= True
plus(s(z), s(z), s(s(z))) <= True
plus(s(z), z, s(z)) <= True
plus(z, s(s(s(z))), s(s(s(z)))) <= True
plus(z, s(s(z)), s(s(z))) <= True
plus(z, s(z), s(z)) <= True
plus(z, z, z) <= True
False <= append_elt(econs(a, econs(a, enil)), econs(a, econs(a, econs(a, enil))), econs(a, econs(a, enil))) /\ length_elt(econs(a, econs(a, econs(a, enil))), s(s(s(z)))) /\ plus(s(s(z)), s(s(s(z))), s(z))
False <= append_elt(econs(a, econs(a, enil)), econs(a, econs(a, enil)), econs(a, econs(a, enil))) /\ plus(s(s(z)), s(s(z)), s(s(s(z))))
False <= append_elt(econs(a, econs(a, enil)), econs(a, econs(a, enil)), econs(a, econs(a, enil))) /\ plus(s(s(z)), s(s(z)), s(z))
append_elt(econs(a, econs(a, econs(a, enil))), econs(a, econs(a, enil)), econs(a, econs(a, enil))) <= append_elt(econs(a, econs(a, enil)), econs(a, econs(a, enil)), econs(a, enil))
False <= append_elt(econs(a, econs(a, enil)), econs(a, econs(a, enil)), econs(a, enil)) /\ plus(s(s(z)), s(s(z)), s(s(z)))
False <= append_elt(econs(a, econs(a, enil)), econs(a, enil), econs(a, econs(a, enil))) /\ plus(s(s(z)), s(z), s(z))
False <= append_elt(econs(a, econs(a, enil)), enil, econs(a, enil))
append_elt(econs(a, econs(a, enil)), econs(a, econs(a, enil)), econs(a, econs(a, econs(a, enil)))) <= append_elt(econs(a, enil), econs(a, econs(a, enil)), econs(a, econs(a, enil)))
False <= append_elt(econs(a, enil), econs(a, econs(a, enil)), econs(a, econs(a, enil))) /\ plus(s(z), s(s(z)), s(z))
False <= append_elt(econs(a, enil), econs(a, enil), econs(a, enil))
False <= append_elt(econs(a, enil), enil, econs(a, econs(a, enil)))
append_elt(econs(a, enil), econs(a, econs(a, econs(a, enil))), econs(a, econs(a, econs(a, enil)))) <= append_elt(enil, econs(a, econs(a, econs(a, enil))), econs(a, econs(a, enil)))
False <= append_elt(enil, econs(a, econs(a, enil)), econs(a, enil))
False <= append_elt(enil, econs(a, enil), econs(a, econs(a, enil)))
False <= length_elt(econs(a, econs(a, enil)), s(z))
False <= length_elt(econs(a, enil), s(s(z)))
plus(s(s(z)), s(s(z)), s(s(s(z)))) <= plus(s(s(z)), s(z), s(s(z)))
plus(s(s(z)), s(s(z)), s(s(z))) <= plus(s(s(z)), s(z), s(z))
False <= plus(s(s(z)), z, s(z))
plus(s(z), s(s(s(z))), s(s(s(z)))) <= plus(s(z), s(s(z)), s(s(z)))
False <= plus(s(z), s(z), s(s(s(z))))
False <= plus(s(z), s(z), s(z))
False <= plus(s(z), z, s(s(z)))
False <= plus(z, s(s(z)), s(s(s(z))))
plus(z, s(s(s(z))), s(s(z))) <= plus(z, s(s(z)), s(z))
False <= plus(z, s(z), s(s(s(z))))
False <= plus(z, s(z), s(s(z)))
}

Current best model:
|_

_r_1 ->
{
  _r_1(s(x_0_0), s(x_1_0)) <= _r_1(x_0_0, x_1_0)
  _r_1(z, z) <= True
}
;
_r_2 ->
{
  _r_2(s(x_0_0), s(x_1_0)) <= True
  _r_2(z, s(x_1_0)) <= _r_5(x_1_0)
}
;
_r_3 ->
{
  _r_3(econs(x_0_0, x_0_1), econs(x_1_0, x_1_1)) <= True
  _r_3(enil, enil) <= True
}
;
_r_4 ->
{
  _r_4(econs(x_0_0, x_0_1), econs(x_1_0, x_1_1)) <= True
  _r_4(enil, econs(x_1_0, x_1_1)) <= True
}
;
_r_5 ->
{
  _r_5(z) <= True
}
;
append_elt ->
{
  append_elt(econs(x_0_0, x_0_1), econs(x_1_0, x_1_1), econs(x_2_0, x_2_1)) <= _r_4(x_0_1, x_2_1) /\ _r_4(x_1_1, x_2_1)
  append_elt(econs(x_0_0, x_0_1), enil, econs(x_2_0, x_2_1)) <= _r_3(x_0_1, x_2_1)
  append_elt(enil, econs(x_1_0, x_1_1), econs(x_2_0, x_2_1)) <= _r_3(x_1_1, x_2_1)
  append_elt(enil, enil, enil) <= True
}
;
length_elt ->
{
  length_elt(econs(x_0_0, x_0_1), s(x_1_0)) <= length_elt(x_0_1, x_1_0)
  length_elt(enil, z) <= True
}
;
plus ->
{
  plus(s(x_0_0), s(x_1_0), s(x_2_0)) <= _r_2(x_0_0, x_2_0)
  plus(s(x_0_0), s(x_1_0), s(x_2_0)) <= _r_2(x_1_0, x_2_0)
  plus(s(x_0_0), z, s(x_2_0)) <= _r_1(x_0_0, x_2_0)
  plus(z, s(x_1_0), s(x_2_0)) <= _r_1(x_1_0, x_2_0)
  plus(z, z, z) <= True
}

--
Equality automata are defined for: {elist, elt, nat}
_|






-------------------
STEPS:
-------------------------------------------
Step 0, which took 0.006310 s (model generation: 0.006241,  model checking: 0.000069):

Ground examples at the beginning of this step are:
{

}

Learner proposed model:
Found Model:
|_

append_elt ->
{
  
}
;
length_elt ->
{
  
}
;
plus ->
{
  
}

--
Equality automata are defined for: {elist, elt, nat}
_|


Answer of teacher:


append_elt(enil, l2, l2) <= True -> Yes: {
l2 -> enil
}
length_elt(enil, z) <= True -> Yes: {

}
plus(n, z, n) <= True -> Yes: {
n -> z
}
eq_nat(_ota, _qta) <= append_elt(l1, l2, _pta) /\ length_elt(_pta, _ota) /\ length_elt(l1, _rta) /\ length_elt(l2, _sta) /\ plus(_rta, _sta, _qta) -> No: ()
append_elt(econs(h1, t1), l2, econs(h1, _ata)) <= append_elt(t1, l2, _ata) -> No: ()
length_elt(econs(x, ll), s(_fta)) <= length_elt(ll, _fta) -> No: ()
plus(n, s(mm), s(_jta)) <= plus(n, mm, _jta) -> No: ()



-------------------------------------------
Step 1, which took 0.006970 s (model generation: 0.006878,  model checking: 0.000092):

Ground examples at the beginning of this step are:
{
append_elt(enil, enil, enil) <= True
length_elt(enil, z) <= True
plus(z, z, z) <= True
}

Learner proposed model:
Found Model:
|_

append_elt ->
{
  append_elt(enil, enil, enil) <= True
}
;
length_elt ->
{
  length_elt(enil, z) <= True
}
;
plus ->
{
  plus(z, z, z) <= True
}

--
Equality automata are defined for: {elist, elt, nat}
_|


Answer of teacher:


append_elt(enil, l2, l2) <= True -> Yes: {
l2 -> econs(l2_0, l2_1)
}
length_elt(enil, z) <= True -> No: ()
plus(n, z, n) <= True -> Yes: {
n -> s(n_0)
}
eq_nat(_ota, _qta) <= append_elt(l1, l2, _pta) /\ length_elt(_pta, _ota) /\ length_elt(l1, _rta) /\ length_elt(l2, _sta) /\ plus(_rta, _sta, _qta) -> No: ()
append_elt(econs(h1, t1), l2, econs(h1, _ata)) <= append_elt(t1, l2, _ata) -> Yes: {
_ata -> enil  ;  l2 -> enil  ;  t1 -> enil
}
length_elt(econs(x, ll), s(_fta)) <= length_elt(ll, _fta) -> Yes: {
_fta -> z  ;  ll -> enil
}
plus(n, s(mm), s(_jta)) <= plus(n, mm, _jta) -> Yes: {
_jta -> z  ;  mm -> z  ;  n -> z
}



-------------------------------------------
Step 2, which took 0.009874 s (model generation: 0.009743,  model checking: 0.000131):

Ground examples at the beginning of this step are:
{
append_elt(econs(a, enil), enil, econs(a, enil)) <= True
append_elt(enil, econs(a, enil), econs(a, enil)) <= True
append_elt(enil, enil, enil) <= True
length_elt(econs(a, enil), s(z)) <= True
length_elt(enil, z) <= True
plus(s(z), z, s(z)) <= True
plus(z, s(z), s(z)) <= True
plus(z, z, z) <= True
}

Learner proposed model:
Found Model:
|_

append_elt ->
{
  append_elt(econs(x_0_0, x_0_1), enil, econs(x_2_0, x_2_1)) <= True
  append_elt(enil, econs(x_1_0, x_1_1), econs(x_2_0, x_2_1)) <= True
  append_elt(enil, enil, enil) <= True
}
;
length_elt ->
{
  length_elt(econs(x_0_0, x_0_1), s(x_1_0)) <= True
  length_elt(enil, z) <= True
}
;
plus ->
{
  plus(s(x_0_0), z, s(x_2_0)) <= True
  plus(z, s(x_1_0), s(x_2_0)) <= True
  plus(z, z, z) <= True
}

--
Equality automata are defined for: {elist, elt, nat}
_|


Answer of teacher:


append_elt(enil, l2, l2) <= True -> No: ()
length_elt(enil, z) <= True -> No: ()
plus(n, z, n) <= True -> No: ()
eq_nat(_ota, _qta) <= append_elt(l1, l2, _pta) /\ length_elt(_pta, _ota) /\ length_elt(l1, _rta) /\ length_elt(l2, _sta) /\ plus(_rta, _sta, _qta) -> Yes: {
_ota -> s(z)  ;  _pta -> econs(_pta_0, _pta_1)  ;  _qta -> s(s(v1_0))  ;  _rta -> z  ;  _sta -> s(_sta_0)  ;  l1 -> enil  ;  l2 -> econs(l2_0, l2_1)
}
append_elt(econs(h1, t1), l2, econs(h1, _ata)) <= append_elt(t1, l2, _ata) -> Yes: {
_ata -> econs(_ata_0, _ata_1)  ;  l2 -> econs(l2_0, l2_1)  ;  t1 -> enil
}
length_elt(econs(x, ll), s(_fta)) <= length_elt(ll, _fta) -> No: ()
plus(n, s(mm), s(_jta)) <= plus(n, mm, _jta) -> Yes: {
_jta -> s(_jta_0)  ;  mm -> z  ;  n -> s(n_0)
}



-------------------------------------------
Step 3, which took 0.020470 s (model generation: 0.020272,  model checking: 0.000198):

Ground examples at the beginning of this step are:
{
append_elt(econs(a, enil), econs(a, enil), econs(a, econs(a, enil))) <= True
append_elt(econs(a, enil), enil, econs(a, enil)) <= True
append_elt(enil, econs(a, enil), econs(a, enil)) <= True
append_elt(enil, enil, enil) <= True
length_elt(econs(a, enil), s(z)) <= True
length_elt(enil, z) <= True
plus(s(z), s(z), s(s(z))) <= True
plus(s(z), z, s(z)) <= True
plus(z, s(z), s(z)) <= True
plus(z, z, z) <= True
False <= plus(z, s(z), s(s(z)))
}

Learner proposed model:
Found Model:
|_

_r_1 ->
{
  _r_1(z) <= True
}
;
append_elt ->
{
  append_elt(econs(x_0_0, x_0_1), econs(x_1_0, x_1_1), econs(x_2_0, x_2_1)) <= True
  append_elt(econs(x_0_0, x_0_1), enil, econs(x_2_0, x_2_1)) <= True
  append_elt(enil, econs(x_1_0, x_1_1), econs(x_2_0, x_2_1)) <= True
  append_elt(enil, enil, enil) <= True
}
;
length_elt ->
{
  length_elt(econs(x_0_0, x_0_1), s(x_1_0)) <= True
  length_elt(enil, z) <= True
}
;
plus ->
{
  plus(s(x_0_0), s(x_1_0), s(x_2_0)) <= True
  plus(s(x_0_0), z, s(x_2_0)) <= True
  plus(z, s(x_1_0), s(x_2_0)) <= _r_1(x_2_0)
  plus(z, z, z) <= True
}

--
Equality automata are defined for: {elist, elt, nat}
_|


Answer of teacher:


append_elt(enil, l2, l2) <= True -> No: ()
length_elt(enil, z) <= True -> No: ()
plus(n, z, n) <= True -> No: ()
eq_nat(_ota, _qta) <= append_elt(l1, l2, _pta) /\ length_elt(_pta, _ota) /\ length_elt(l1, _rta) /\ length_elt(l2, _sta) /\ plus(_rta, _sta, _qta) -> Yes: {
_ota -> s(z)  ;  _pta -> econs(_pta_0, _pta_1)  ;  _qta -> s(s(v1_0))  ;  _rta -> s(_rta_0)  ;  _sta -> z  ;  l1 -> econs(l1_0, l1_1)  ;  l2 -> enil
}
append_elt(econs(h1, t1), l2, econs(h1, _ata)) <= append_elt(t1, l2, _ata) -> No: ()
length_elt(econs(x, ll), s(_fta)) <= length_elt(ll, _fta) -> No: ()
plus(n, s(mm), s(_jta)) <= plus(n, mm, _jta) -> Yes: {
_jta -> s(z)  ;  mm -> s(mm_0)  ;  n -> z
}



-------------------------------------------
Step 4, which took 0.020995 s (model generation: 0.020651,  model checking: 0.000344):

Ground examples at the beginning of this step are:
{
append_elt(econs(a, enil), econs(a, enil), econs(a, econs(a, enil))) <= True
append_elt(econs(a, enil), enil, econs(a, enil)) <= True
append_elt(enil, econs(a, enil), econs(a, enil)) <= True
append_elt(enil, enil, enil) <= True
length_elt(econs(a, enil), s(z)) <= True
length_elt(enil, z) <= True
plus(s(z), s(z), s(s(z))) <= True
plus(s(z), z, s(z)) <= True
plus(z, s(s(z)), s(s(z))) <= True
plus(z, s(z), s(z)) <= True
plus(z, z, z) <= True
False <= plus(s(z), z, s(s(z)))
False <= plus(z, s(z), s(s(z)))
}

Learner proposed model:
Found Model:
|_

_r_1 ->
{
  _r_1(s(x_0_0), s(x_1_0)) <= True
  _r_1(z, z) <= True
}
;
append_elt ->
{
  append_elt(econs(x_0_0, x_0_1), econs(x_1_0, x_1_1), econs(x_2_0, x_2_1)) <= True
  append_elt(econs(x_0_0, x_0_1), enil, econs(x_2_0, x_2_1)) <= True
  append_elt(enil, econs(x_1_0, x_1_1), econs(x_2_0, x_2_1)) <= True
  append_elt(enil, enil, enil) <= True
}
;
length_elt ->
{
  length_elt(econs(x_0_0, x_0_1), s(x_1_0)) <= True
  length_elt(enil, z) <= True
}
;
plus ->
{
  plus(s(x_0_0), s(x_1_0), s(x_2_0)) <= True
  plus(s(x_0_0), z, s(x_2_0)) <= _r_1(x_0_0, x_2_0)
  plus(z, s(x_1_0), s(x_2_0)) <= _r_1(x_1_0, x_2_0)
  plus(z, z, z) <= True
}

--
Equality automata are defined for: {elist, elt, nat}
_|


Answer of teacher:


append_elt(enil, l2, l2) <= True -> No: ()
length_elt(enil, z) <= True -> No: ()
plus(n, z, n) <= True -> No: ()
eq_nat(_ota, _qta) <= append_elt(l1, l2, _pta) /\ length_elt(_pta, _ota) /\ length_elt(l1, _rta) /\ length_elt(l2, _sta) /\ plus(_rta, _sta, _qta) -> Yes: {
_ota -> s(z)  ;  _pta -> econs(_pta_0, _pta_1)  ;  _qta -> s(s(v1_0))  ;  _rta -> s(_rta_0)  ;  _sta -> s(_sta_0)  ;  l1 -> econs(l1_0, l1_1)  ;  l2 -> econs(l2_0, l2_1)
}
append_elt(econs(h1, t1), l2, econs(h1, _ata)) <= append_elt(t1, l2, _ata) -> No: ()
length_elt(econs(x, ll), s(_fta)) <= length_elt(ll, _fta) -> No: ()
plus(n, s(mm), s(_jta)) <= plus(n, mm, _jta) -> No: ()



-------------------------------------------
Step 5, which took 0.039974 s (model generation: 0.039639,  model checking: 0.000335):

Ground examples at the beginning of this step are:
{
append_elt(econs(a, enil), econs(a, enil), econs(a, econs(a, enil))) <= True
append_elt(econs(a, enil), enil, econs(a, enil)) <= True
append_elt(enil, econs(a, enil), econs(a, enil)) <= True
append_elt(enil, enil, enil) <= True
length_elt(econs(a, enil), s(z)) <= True
length_elt(enil, z) <= True
plus(s(z), s(z), s(s(z))) <= True
plus(s(z), z, s(z)) <= True
plus(z, s(s(z)), s(s(z))) <= True
plus(z, s(z), s(z)) <= True
plus(z, z, z) <= True
False <= append_elt(econs(a, enil), econs(a, enil), econs(a, enil))
False <= plus(s(z), z, s(s(z)))
False <= plus(z, s(z), s(s(z)))
}

Learner proposed model:
Found Model:
|_

_r_1 ->
{
  _r_1(s(x_0_0), s(x_1_0)) <= True
  _r_1(z, z) <= True
}
;
_r_2 ->
{
  _r_2(econs(x_0_0, x_0_1)) <= True
}
;
append_elt ->
{
  append_elt(econs(x_0_0, x_0_1), econs(x_1_0, x_1_1), econs(x_2_0, x_2_1)) <= _r_2(x_2_1)
  append_elt(econs(x_0_0, x_0_1), enil, econs(x_2_0, x_2_1)) <= True
  append_elt(enil, econs(x_1_0, x_1_1), econs(x_2_0, x_2_1)) <= True
  append_elt(enil, enil, enil) <= True
}
;
length_elt ->
{
  length_elt(econs(x_0_0, x_0_1), s(x_1_0)) <= True
  length_elt(enil, z) <= True
}
;
plus ->
{
  plus(s(x_0_0), s(x_1_0), s(x_2_0)) <= True
  plus(s(x_0_0), z, s(x_2_0)) <= _r_1(x_0_0, x_2_0)
  plus(z, s(x_1_0), s(x_2_0)) <= _r_1(x_1_0, x_2_0)
  plus(z, z, z) <= True
}

--
Equality automata are defined for: {elist, elt, nat}
_|


Answer of teacher:


append_elt(enil, l2, l2) <= True -> No: ()
length_elt(enil, z) <= True -> No: ()
plus(n, z, n) <= True -> No: ()
eq_nat(_ota, _qta) <= append_elt(l1, l2, _pta) /\ length_elt(_pta, _ota) /\ length_elt(l1, _rta) /\ length_elt(l2, _sta) /\ plus(_rta, _sta, _qta) -> Yes: {
_ota -> s(z)  ;  _pta -> econs(_pta_0, econs(v0_0, v0_1))  ;  _qta -> s(s(v1_0))  ;  _rta -> s(_rta_0)  ;  _sta -> s(_sta_0)  ;  l1 -> econs(l1_0, l1_1)  ;  l2 -> econs(l2_0, l2_1)
}
append_elt(econs(h1, t1), l2, econs(h1, _ata)) <= append_elt(t1, l2, _ata) -> No: ()
length_elt(econs(x, ll), s(_fta)) <= length_elt(ll, _fta) -> No: ()
plus(n, s(mm), s(_jta)) <= plus(n, mm, _jta) -> No: ()



-------------------------------------------
Step 6, which took 0.037624 s (model generation: 0.037188,  model checking: 0.000436):

Ground examples at the beginning of this step are:
{
append_elt(econs(a, enil), econs(a, enil), econs(a, econs(a, enil))) <= True
append_elt(econs(a, enil), enil, econs(a, enil)) <= True
append_elt(enil, econs(a, enil), econs(a, enil)) <= True
append_elt(enil, enil, enil) <= True
length_elt(econs(a, enil), s(z)) <= True
length_elt(enil, z) <= True
plus(s(z), s(z), s(s(z))) <= True
plus(s(z), z, s(z)) <= True
plus(z, s(s(z)), s(s(z))) <= True
plus(z, s(z), s(z)) <= True
plus(z, z, z) <= True
False <= append_elt(econs(a, enil), econs(a, enil), econs(a, enil))
False <= length_elt(econs(a, econs(a, enil)), s(z))
False <= plus(s(z), z, s(s(z)))
False <= plus(z, s(z), s(s(z)))
}

Learner proposed model:
Found Model:
|_

_r_1 ->
{
  _r_1(s(x_0_0), s(x_1_0)) <= True
  _r_1(z, z) <= True
}
;
_r_2 ->
{
  _r_2(econs(x_0_0, x_0_1)) <= True
}
;
append_elt ->
{
  append_elt(econs(x_0_0, x_0_1), econs(x_1_0, x_1_1), econs(x_2_0, x_2_1)) <= _r_2(x_2_1)
  append_elt(econs(x_0_0, x_0_1), enil, econs(x_2_0, x_2_1)) <= True
  append_elt(enil, econs(x_1_0, x_1_1), econs(x_2_0, x_2_1)) <= True
  append_elt(enil, enil, enil) <= True
}
;
length_elt ->
{
  length_elt(econs(x_0_0, x_0_1), s(x_1_0)) <= length_elt(x_0_1, x_1_0)
  length_elt(enil, z) <= True
}
;
plus ->
{
  plus(s(x_0_0), s(x_1_0), s(x_2_0)) <= True
  plus(s(x_0_0), z, s(x_2_0)) <= _r_1(x_0_0, x_2_0)
  plus(z, s(x_1_0), s(x_2_0)) <= _r_1(x_1_0, x_2_0)
  plus(z, z, z) <= True
}

--
Equality automata are defined for: {elist, elt, nat}
_|


Answer of teacher:


append_elt(enil, l2, l2) <= True -> No: ()
length_elt(enil, z) <= True -> No: ()
plus(n, z, n) <= True -> No: ()
eq_nat(_ota, _qta) <= append_elt(l1, l2, _pta) /\ length_elt(_pta, _ota) /\ length_elt(l1, _rta) /\ length_elt(l2, _sta) /\ plus(_rta, _sta, _qta) -> Yes: {
_ota -> s(s(z))  ;  _pta -> econs(_pta_0, econs(v2_0, enil))  ;  _qta -> s(z)  ;  _rta -> s(s(z))  ;  _sta -> s(s(z))  ;  l1 -> econs(l1_0, econs(v2_0, enil))  ;  l2 -> econs(l2_0, econs(v2_0, enil))
}
append_elt(econs(h1, t1), l2, econs(h1, _ata)) <= append_elt(t1, l2, _ata) -> No: ()
length_elt(econs(x, ll), s(_fta)) <= length_elt(ll, _fta) -> No: ()
plus(n, s(mm), s(_jta)) <= plus(n, mm, _jta) -> No: ()



-------------------------------------------
Step 7, which took 0.042410 s (model generation: 0.041938,  model checking: 0.000472):

Ground examples at the beginning of this step are:
{
append_elt(econs(a, enil), econs(a, enil), econs(a, econs(a, enil))) <= True
append_elt(econs(a, enil), enil, econs(a, enil)) <= True
append_elt(enil, econs(a, enil), econs(a, enil)) <= True
append_elt(enil, enil, enil) <= True
length_elt(econs(a, enil), s(z)) <= True
length_elt(enil, z) <= True
plus(s(z), s(z), s(s(z))) <= True
plus(s(z), z, s(z)) <= True
plus(z, s(s(z)), s(s(z))) <= True
plus(z, s(z), s(z)) <= True
plus(z, z, z) <= True
False <= append_elt(econs(a, econs(a, enil)), econs(a, econs(a, enil)), econs(a, econs(a, enil))) /\ length_elt(econs(a, econs(a, enil)), s(s(z))) /\ plus(s(s(z)), s(s(z)), s(z))
False <= append_elt(econs(a, enil), econs(a, enil), econs(a, enil))
False <= length_elt(econs(a, econs(a, enil)), s(z))
False <= plus(s(z), z, s(s(z)))
False <= plus(z, s(z), s(s(z)))
}

Learner proposed model:
Found Model:
|_

_r_1 ->
{
  _r_1(s(x_0_0), s(x_1_0)) <= True
  _r_1(z, z) <= True
}
;
_r_2 ->
{
  _r_2(enil, econs(x_1_0, x_1_1)) <= True
}
;
append_elt ->
{
  append_elt(econs(x_0_0, x_0_1), econs(x_1_0, x_1_1), econs(x_2_0, x_2_1)) <= _r_2(x_1_1, x_2_1)
  append_elt(econs(x_0_0, x_0_1), enil, econs(x_2_0, x_2_1)) <= True
  append_elt(enil, econs(x_1_0, x_1_1), econs(x_2_0, x_2_1)) <= True
  append_elt(enil, enil, enil) <= True
}
;
length_elt ->
{
  length_elt(econs(x_0_0, x_0_1), s(x_1_0)) <= length_elt(x_0_1, x_1_0)
  length_elt(enil, z) <= True
}
;
plus ->
{
  plus(s(x_0_0), s(x_1_0), s(x_2_0)) <= True
  plus(s(x_0_0), z, s(x_2_0)) <= _r_1(x_0_0, x_2_0)
  plus(z, s(x_1_0), s(x_2_0)) <= _r_1(x_1_0, x_2_0)
  plus(z, z, z) <= True
}

--
Equality automata are defined for: {elist, elt, nat}
_|


Answer of teacher:


append_elt(enil, l2, l2) <= True -> No: ()
length_elt(enil, z) <= True -> No: ()
plus(n, z, n) <= True -> No: ()
eq_nat(_ota, _qta) <= append_elt(l1, l2, _pta) /\ length_elt(_pta, _ota) /\ length_elt(l1, _rta) /\ length_elt(l2, _sta) /\ plus(_rta, _sta, _qta) -> Yes: {
_ota -> s(z)  ;  _pta -> econs(_pta_0, enil)  ;  _qta -> s(s(v1_0))  ;  _rta -> z  ;  _sta -> s(s(z))  ;  l1 -> enil  ;  l2 -> econs(l2_0, econs(v4_0, enil))
}
append_elt(econs(h1, t1), l2, econs(h1, _ata)) <= append_elt(t1, l2, _ata) -> Yes: {
_ata -> econs(_ata_0, _ata_1)  ;  l2 -> econs(l2_0, econs(v0_0, v0_1))  ;  t1 -> enil
}
length_elt(econs(x, ll), s(_fta)) <= length_elt(ll, _fta) -> No: ()
plus(n, s(mm), s(_jta)) <= plus(n, mm, _jta) -> No: ()



-------------------------------------------
Step 8, which took 0.123759 s (model generation: 0.123257,  model checking: 0.000502):

Ground examples at the beginning of this step are:
{
append_elt(econs(a, enil), econs(a, enil), econs(a, econs(a, enil))) <= True
append_elt(econs(a, enil), enil, econs(a, enil)) <= True
append_elt(enil, econs(a, enil), econs(a, enil)) <= True
append_elt(enil, enil, enil) <= True
length_elt(econs(a, enil), s(z)) <= True
length_elt(enil, z) <= True
plus(s(z), s(z), s(s(z))) <= True
plus(s(z), z, s(z)) <= True
plus(z, s(s(z)), s(s(z))) <= True
plus(z, s(z), s(z)) <= True
plus(z, z, z) <= True
False <= append_elt(econs(a, econs(a, enil)), econs(a, econs(a, enil)), econs(a, econs(a, enil))) /\ length_elt(econs(a, econs(a, enil)), s(s(z))) /\ plus(s(s(z)), s(s(z)), s(z))
False <= append_elt(econs(a, enil), econs(a, enil), econs(a, enil))
append_elt(econs(a, enil), econs(a, econs(a, enil)), econs(a, econs(a, enil))) <= append_elt(enil, econs(a, econs(a, enil)), econs(a, enil))
False <= append_elt(enil, econs(a, econs(a, enil)), econs(a, enil)) /\ length_elt(econs(a, econs(a, enil)), s(s(z)))
False <= length_elt(econs(a, econs(a, enil)), s(z))
False <= plus(s(z), z, s(s(z)))
False <= plus(z, s(z), s(s(z)))
}

Learner proposed model:
Found Model:
|_

_r_1 ->
{
  _r_1(s(x_0_0), s(x_1_0)) <= True
  _r_1(z, z) <= True
}
;
_r_2 ->
{
  _r_2(enil) <= True
}
;
_r_3 ->
{
  _r_3(econs(x_0_0, x_0_1)) <= True
}
;
append_elt ->
{
  append_elt(econs(x_0_0, x_0_1), econs(x_1_0, x_1_1), econs(x_2_0, x_2_1)) <= _r_3(x_2_1)
  append_elt(econs(x_0_0, x_0_1), enil, econs(x_2_0, x_2_1)) <= True
  append_elt(enil, econs(x_1_0, x_1_1), econs(x_2_0, x_2_1)) <= True
  append_elt(enil, enil, enil) <= True
}
;
length_elt ->
{
  length_elt(econs(x_0_0, x_0_1), s(x_1_0)) <= _r_2(x_0_1)
  length_elt(enil, z) <= True
}
;
plus ->
{
  plus(s(x_0_0), s(x_1_0), s(x_2_0)) <= True
  plus(s(x_0_0), z, s(x_2_0)) <= _r_1(x_0_0, x_2_0)
  plus(z, s(x_1_0), s(x_2_0)) <= _r_1(x_1_0, x_2_0)
  plus(z, z, z) <= True
}

--
Equality automata are defined for: {elist, elt, nat}
_|


Answer of teacher:


append_elt(enil, l2, l2) <= True -> No: ()
length_elt(enil, z) <= True -> No: ()
plus(n, z, n) <= True -> No: ()
eq_nat(_ota, _qta) <= append_elt(l1, l2, _pta) /\ length_elt(_pta, _ota) /\ length_elt(l1, _rta) /\ length_elt(l2, _sta) /\ plus(_rta, _sta, _qta) -> Yes: {
_ota -> s(z)  ;  _pta -> econs(_pta_0, enil)  ;  _qta -> s(s(v1_0))  ;  _rta -> z  ;  _sta -> s(s(v2_0))  ;  l1 -> enil  ;  l2 -> econs(l2_0, enil)
}
append_elt(econs(h1, t1), l2, econs(h1, _ata)) <= append_elt(t1, l2, _ata) -> No: ()
length_elt(econs(x, ll), s(_fta)) <= length_elt(ll, _fta) -> Yes: {
_fta -> s(v1_0)  ;  ll -> econs(v0_0, enil)
}
plus(n, s(mm), s(_jta)) <= plus(n, mm, _jta) -> No: ()



-------------------------------------------
Step 9, which took 0.078744 s (model generation: 0.078079,  model checking: 0.000665):

Ground examples at the beginning of this step are:
{
append_elt(econs(a, enil), econs(a, enil), econs(a, econs(a, enil))) <= True
append_elt(econs(a, enil), enil, econs(a, enil)) <= True
append_elt(enil, econs(a, enil), econs(a, enil)) <= True
append_elt(enil, enil, enil) <= True
length_elt(econs(a, econs(a, enil)), s(s(z))) <= True
length_elt(econs(a, enil), s(z)) <= True
length_elt(enil, z) <= True
plus(s(z), s(z), s(s(z))) <= True
plus(s(z), z, s(z)) <= True
plus(z, s(s(z)), s(s(z))) <= True
plus(z, s(z), s(z)) <= True
plus(z, z, z) <= True
False <= append_elt(econs(a, econs(a, enil)), econs(a, econs(a, enil)), econs(a, econs(a, enil))) /\ plus(s(s(z)), s(s(z)), s(z))
False <= append_elt(econs(a, enil), econs(a, enil), econs(a, enil))
False <= append_elt(enil, econs(a, econs(a, enil)), econs(a, enil))
False <= length_elt(econs(a, econs(a, enil)), s(z))
False <= length_elt(econs(a, enil), s(s(z)))
False <= plus(s(z), z, s(s(z)))
False <= plus(z, s(z), s(s(z)))
}

Learner proposed model:
Found Model:
|_

_r_1 ->
{
  _r_1(s(x_0_0), s(x_1_0)) <= True
  _r_1(z, z) <= True
}
;
_r_2 ->
{
  _r_2(enil, econs(x_1_0, x_1_1)) <= True
}
;
_r_3 ->
{
  _r_3(enil, enil) <= True
}
;
append_elt ->
{
  append_elt(econs(x_0_0, x_0_1), econs(x_1_0, x_1_1), econs(x_2_0, x_2_1)) <= _r_2(x_1_1, x_2_1)
  append_elt(econs(x_0_0, x_0_1), enil, econs(x_2_0, x_2_1)) <= True
  append_elt(enil, econs(x_1_0, x_1_1), econs(x_2_0, x_2_1)) <= _r_3(x_1_1, x_2_1)
  append_elt(enil, enil, enil) <= True
}
;
length_elt ->
{
  length_elt(econs(x_0_0, x_0_1), s(x_1_0)) <= length_elt(x_0_1, x_1_0)
  length_elt(enil, z) <= True
}
;
plus ->
{
  plus(s(x_0_0), s(x_1_0), s(x_2_0)) <= True
  plus(s(x_0_0), z, s(x_2_0)) <= _r_1(x_0_0, x_2_0)
  plus(z, s(x_1_0), s(x_2_0)) <= _r_1(x_1_0, x_2_0)
  plus(z, z, z) <= True
}

--
Equality automata are defined for: {elist, elt, nat}
_|


Answer of teacher:


append_elt(enil, l2, l2) <= True -> Yes: {
l2 -> econs(l2_0, econs(v0_0, v0_1))
}
length_elt(enil, z) <= True -> No: ()
plus(n, z, n) <= True -> No: ()
eq_nat(_ota, _qta) <= append_elt(l1, l2, _pta) /\ length_elt(_pta, _ota) /\ length_elt(l1, _rta) /\ length_elt(l2, _sta) /\ plus(_rta, _sta, _qta) -> Yes: {
_ota -> s(z)  ;  _pta -> econs(_pta_0, enil)  ;  _qta -> s(s(v1_0))  ;  _rta -> s(s(z))  ;  _sta -> z  ;  l1 -> econs(l1_0, econs(v4_0, enil))  ;  l2 -> enil
}
append_elt(econs(h1, t1), l2, econs(h1, _ata)) <= append_elt(t1, l2, _ata) -> No: ()
length_elt(econs(x, ll), s(_fta)) <= length_elt(ll, _fta) -> No: ()
plus(n, s(mm), s(_jta)) <= plus(n, mm, _jta) -> No: ()



-------------------------------------------
Step 10, which took 0.101964 s (model generation: 0.101357,  model checking: 0.000607):

Ground examples at the beginning of this step are:
{
append_elt(econs(a, enil), econs(a, enil), econs(a, econs(a, enil))) <= True
append_elt(econs(a, enil), enil, econs(a, enil)) <= True
append_elt(enil, econs(a, econs(a, enil)), econs(a, econs(a, enil))) <= True
append_elt(enil, econs(a, enil), econs(a, enil)) <= True
append_elt(enil, enil, enil) <= True
length_elt(econs(a, econs(a, enil)), s(s(z))) <= True
length_elt(econs(a, enil), s(z)) <= True
length_elt(enil, z) <= True
plus(s(z), s(z), s(s(z))) <= True
plus(s(z), z, s(z)) <= True
plus(z, s(s(z)), s(s(z))) <= True
plus(z, s(z), s(z)) <= True
plus(z, z, z) <= True
False <= append_elt(econs(a, econs(a, enil)), econs(a, econs(a, enil)), econs(a, econs(a, enil))) /\ plus(s(s(z)), s(s(z)), s(z))
False <= append_elt(econs(a, econs(a, enil)), enil, econs(a, enil)) /\ plus(s(s(z)), z, s(s(z)))
False <= append_elt(econs(a, enil), econs(a, enil), econs(a, enil))
False <= append_elt(enil, econs(a, econs(a, enil)), econs(a, enil))
False <= length_elt(econs(a, econs(a, enil)), s(z))
False <= length_elt(econs(a, enil), s(s(z)))
False <= plus(s(z), z, s(s(z)))
False <= plus(z, s(z), s(s(z)))
}

Learner proposed model:
Found Model:
|_

_r_1 ->
{
  _r_1(s(x_0_0), s(x_1_0)) <= True
  _r_1(z, z) <= True
}
;
_r_2 ->
{
  _r_2(econs(x_0_0, x_0_1), econs(x_1_0, x_1_1)) <= True
  _r_2(enil, enil) <= True
}
;
_r_3 ->
{
  _r_3(enil, econs(x_1_0, x_1_1)) <= True
}
;
append_elt ->
{
  append_elt(econs(x_0_0, x_0_1), econs(x_1_0, x_1_1), econs(x_2_0, x_2_1)) <= _r_3(x_1_1, x_2_1)
  append_elt(econs(x_0_0, x_0_1), enil, econs(x_2_0, x_2_1)) <= _r_2(x_0_1, x_2_1)
  append_elt(enil, econs(x_1_0, x_1_1), econs(x_2_0, x_2_1)) <= _r_2(x_1_1, x_2_1)
  append_elt(enil, enil, enil) <= True
}
;
length_elt ->
{
  length_elt(econs(x_0_0, x_0_1), s(x_1_0)) <= length_elt(x_0_1, x_1_0)
  length_elt(enil, z) <= True
}
;
plus ->
{
  plus(s(x_0_0), s(x_1_0), s(x_2_0)) <= True
  plus(s(x_0_0), z, s(x_2_0)) <= _r_1(x_0_0, x_2_0)
  plus(z, s(x_1_0), s(x_2_0)) <= _r_1(x_1_0, x_2_0)
  plus(z, z, z) <= True
}

--
Equality automata are defined for: {elist, elt, nat}
_|


Answer of teacher:


append_elt(enil, l2, l2) <= True -> No: ()
length_elt(enil, z) <= True -> No: ()
plus(n, z, n) <= True -> No: ()
eq_nat(_ota, _qta) <= append_elt(l1, l2, _pta) /\ length_elt(_pta, _ota) /\ length_elt(l1, _rta) /\ length_elt(l2, _sta) /\ plus(_rta, _sta, _qta) -> Yes: {
_ota -> s(s(z))  ;  _pta -> econs(_pta_0, econs(v3_0, enil))  ;  _qta -> s(z)  ;  _rta -> s(s(z))  ;  _sta -> s(z)  ;  l1 -> econs(l1_0, econs(v3_0, enil))  ;  l2 -> econs(l2_0, enil)
}
append_elt(econs(h1, t1), l2, econs(h1, _ata)) <= append_elt(t1, l2, _ata) -> Yes: {
_ata -> econs(_ata_0, econs(v1_0, v1_1))  ;  l2 -> econs(l2_0, econs(v0_0, v0_1))  ;  t1 -> enil
}
length_elt(econs(x, ll), s(_fta)) <= length_elt(ll, _fta) -> No: ()
plus(n, s(mm), s(_jta)) <= plus(n, mm, _jta) -> No: ()



-------------------------------------------
Step 11, which took 0.170889 s (model generation: 0.170337,  model checking: 0.000552):

Ground examples at the beginning of this step are:
{
append_elt(econs(a, enil), econs(a, econs(a, enil)), econs(a, econs(a, econs(a, enil)))) <= True
append_elt(econs(a, enil), econs(a, enil), econs(a, econs(a, enil))) <= True
append_elt(econs(a, enil), enil, econs(a, enil)) <= True
append_elt(enil, econs(a, econs(a, enil)), econs(a, econs(a, enil))) <= True
append_elt(enil, econs(a, enil), econs(a, enil)) <= True
append_elt(enil, enil, enil) <= True
length_elt(econs(a, econs(a, enil)), s(s(z))) <= True
length_elt(econs(a, enil), s(z)) <= True
length_elt(enil, z) <= True
plus(s(z), s(z), s(s(z))) <= True
plus(s(z), z, s(z)) <= True
plus(z, s(s(z)), s(s(z))) <= True
plus(z, s(z), s(z)) <= True
plus(z, z, z) <= True
False <= append_elt(econs(a, econs(a, enil)), econs(a, econs(a, enil)), econs(a, econs(a, enil))) /\ plus(s(s(z)), s(s(z)), s(z))
False <= append_elt(econs(a, econs(a, enil)), econs(a, enil), econs(a, econs(a, enil))) /\ plus(s(s(z)), s(z), s(z))
False <= append_elt(econs(a, econs(a, enil)), enil, econs(a, enil)) /\ plus(s(s(z)), z, s(s(z)))
False <= append_elt(econs(a, enil), econs(a, enil), econs(a, enil))
False <= append_elt(enil, econs(a, econs(a, enil)), econs(a, enil))
False <= length_elt(econs(a, econs(a, enil)), s(z))
False <= length_elt(econs(a, enil), s(s(z)))
False <= plus(s(z), z, s(s(z)))
False <= plus(z, s(z), s(s(z)))
}

Learner proposed model:
Found Model:
|_

_r_1 ->
{
  _r_1(s(x_0_0), s(x_1_0)) <= True
  _r_1(z, z) <= True
}
;
_r_2 ->
{
  _r_2(enil, econs(x_1_0, x_1_1)) <= True
}
;
_r_3 ->
{
  _r_3(econs(x_0_0, x_0_1), econs(x_1_0, x_1_1)) <= True
  _r_3(enil, enil) <= True
}
;
append_elt ->
{
  append_elt(econs(x_0_0, x_0_1), econs(x_1_0, x_1_1), econs(x_2_0, x_2_1)) <= _r_2(x_0_1, x_2_1)
  append_elt(econs(x_0_0, x_0_1), enil, econs(x_2_0, x_2_1)) <= _r_3(x_0_1, x_2_1)
  append_elt(enil, econs(x_1_0, x_1_1), econs(x_2_0, x_2_1)) <= _r_3(x_1_1, x_2_1)
  append_elt(enil, enil, enil) <= True
}
;
length_elt ->
{
  length_elt(econs(x_0_0, x_0_1), s(x_1_0)) <= length_elt(x_0_1, x_1_0)
  length_elt(enil, z) <= True
}
;
plus ->
{
  plus(s(x_0_0), s(x_1_0), s(x_2_0)) <= True
  plus(s(x_0_0), z, s(x_2_0)) <= _r_1(x_0_0, x_2_0)
  plus(z, s(x_1_0), s(x_2_0)) <= _r_1(x_1_0, x_2_0)
  plus(z, z, z) <= True
}

--
Equality automata are defined for: {elist, elt, nat}
_|


Answer of teacher:


append_elt(enil, l2, l2) <= True -> No: ()
length_elt(enil, z) <= True -> No: ()
plus(n, z, n) <= True -> No: ()
eq_nat(_ota, _qta) <= append_elt(l1, l2, _pta) /\ length_elt(_pta, _ota) /\ length_elt(l1, _rta) /\ length_elt(l2, _sta) /\ plus(_rta, _sta, _qta) -> Yes: {
_ota -> s(s(z))  ;  _pta -> econs(_pta_0, econs(v3_0, enil))  ;  _qta -> s(z)  ;  _rta -> s(z)  ;  _sta -> s(s(z))  ;  l1 -> econs(l1_0, enil)  ;  l2 -> econs(l2_0, econs(v3_0, enil))
}
append_elt(econs(h1, t1), l2, econs(h1, _ata)) <= append_elt(t1, l2, _ata) -> Yes: {
_ata -> econs(_ata_0, econs(v1_0, v1_1))  ;  l2 -> econs(l2_0, l2_1)  ;  t1 -> econs(t1_0, enil)
}
length_elt(econs(x, ll), s(_fta)) <= length_elt(ll, _fta) -> No: ()
plus(n, s(mm), s(_jta)) <= plus(n, mm, _jta) -> No: ()



-------------------------------------------
Step 12, which took 0.232731 s (model generation: 0.231906,  model checking: 0.000825):

Ground examples at the beginning of this step are:
{
append_elt(econs(a, econs(a, enil)), econs(a, enil), econs(a, econs(a, econs(a, enil)))) <= True
append_elt(econs(a, enil), econs(a, econs(a, enil)), econs(a, econs(a, econs(a, enil)))) <= True
append_elt(econs(a, enil), econs(a, enil), econs(a, econs(a, enil))) <= True
append_elt(econs(a, enil), enil, econs(a, enil)) <= True
append_elt(enil, econs(a, econs(a, enil)), econs(a, econs(a, enil))) <= True
append_elt(enil, econs(a, enil), econs(a, enil)) <= True
append_elt(enil, enil, enil) <= True
length_elt(econs(a, econs(a, enil)), s(s(z))) <= True
length_elt(econs(a, enil), s(z)) <= True
length_elt(enil, z) <= True
plus(s(z), s(z), s(s(z))) <= True
plus(s(z), z, s(z)) <= True
plus(z, s(s(z)), s(s(z))) <= True
plus(z, s(z), s(z)) <= True
plus(z, z, z) <= True
False <= append_elt(econs(a, econs(a, enil)), econs(a, econs(a, enil)), econs(a, econs(a, enil))) /\ plus(s(s(z)), s(s(z)), s(z))
False <= append_elt(econs(a, econs(a, enil)), econs(a, enil), econs(a, econs(a, enil))) /\ plus(s(s(z)), s(z), s(z))
False <= append_elt(econs(a, econs(a, enil)), enil, econs(a, enil)) /\ plus(s(s(z)), z, s(s(z)))
False <= append_elt(econs(a, enil), econs(a, econs(a, enil)), econs(a, econs(a, enil))) /\ plus(s(z), s(s(z)), s(z))
False <= append_elt(econs(a, enil), econs(a, enil), econs(a, enil))
False <= append_elt(enil, econs(a, econs(a, enil)), econs(a, enil))
False <= length_elt(econs(a, econs(a, enil)), s(z))
False <= length_elt(econs(a, enil), s(s(z)))
False <= plus(s(z), z, s(s(z)))
False <= plus(z, s(z), s(s(z)))
}

Learner proposed model:
Found Model:
|_

_r_1 ->
{
  _r_1(s(x_0_0), s(x_1_0)) <= True
  _r_1(z, z) <= True
}
;
_r_2 ->
{
  _r_2(enil, econs(x_1_0, x_1_1)) <= True
}
;
_r_3 ->
{
  _r_3(econs(x_0_0, x_0_1), econs(x_1_0, x_1_1)) <= True
  _r_3(enil, enil) <= True
}
;
append_elt ->
{
  append_elt(econs(x_0_0, x_0_1), econs(x_1_0, x_1_1), econs(x_2_0, x_2_1)) <= _r_2(x_0_1, x_2_1)
  append_elt(econs(x_0_0, x_0_1), econs(x_1_0, x_1_1), econs(x_2_0, x_2_1)) <= _r_2(x_1_1, x_2_1)
  append_elt(econs(x_0_0, x_0_1), enil, econs(x_2_0, x_2_1)) <= _r_3(x_0_1, x_2_1)
  append_elt(enil, econs(x_1_0, x_1_1), econs(x_2_0, x_2_1)) <= _r_3(x_1_1, x_2_1)
  append_elt(enil, enil, enil) <= True
}
;
length_elt ->
{
  length_elt(econs(x_0_0, x_0_1), s(x_1_0)) <= length_elt(x_0_1, x_1_0)
  length_elt(enil, z) <= True
}
;
plus ->
{
  plus(s(x_0_0), s(x_1_0), s(x_2_0)) <= _r_1(x_0_0, x_1_0)
  plus(s(x_0_0), z, s(x_2_0)) <= _r_1(x_0_0, x_2_0)
  plus(z, s(x_1_0), s(x_2_0)) <= _r_1(x_1_0, x_2_0)
  plus(z, z, z) <= True
}

--
Equality automata are defined for: {elist, elt, nat}
_|


Answer of teacher:


append_elt(enil, l2, l2) <= True -> No: ()
length_elt(enil, z) <= True -> No: ()
plus(n, z, n) <= True -> No: ()
eq_nat(_ota, _qta) <= append_elt(l1, l2, _pta) /\ length_elt(_pta, _ota) /\ length_elt(l1, _rta) /\ length_elt(l2, _sta) /\ plus(_rta, _sta, _qta) -> Yes: {
_ota -> s(s(z))  ;  _pta -> econs(_pta_0, econs(v4_0, enil))  ;  _qta -> s(s(s(v1_0)))  ;  _rta -> z  ;  _sta -> s(s(z))  ;  l1 -> enil  ;  l2 -> econs(l2_0, econs(v3_0, enil))
}
append_elt(econs(h1, t1), l2, econs(h1, _ata)) <= append_elt(t1, l2, _ata) -> Yes: {
_ata -> econs(v1, econs(v2_0, v2_1))  ;  l2 -> econs(l2_0, econs(v0_0, v0_1))  ;  t1 -> econs(t1_0, enil)
}
length_elt(econs(x, ll), s(_fta)) <= length_elt(ll, _fta) -> No: ()
plus(n, s(mm), s(_jta)) <= plus(n, mm, _jta) -> Yes: {
_jta -> s(s(v1_0))  ;  mm -> z  ;  n -> s(s(v0_0))
}



-------------------------------------------
Step 13, which took 0.308401 s (model generation: 0.307628,  model checking: 0.000773):

Ground examples at the beginning of this step are:
{
append_elt(econs(a, econs(a, enil)), econs(a, enil), econs(a, econs(a, econs(a, enil)))) <= True
append_elt(econs(a, enil), econs(a, econs(a, enil)), econs(a, econs(a, econs(a, enil)))) <= True
append_elt(econs(a, enil), econs(a, enil), econs(a, econs(a, enil))) <= True
append_elt(econs(a, enil), enil, econs(a, enil)) <= True
append_elt(enil, econs(a, econs(a, enil)), econs(a, econs(a, enil))) <= True
append_elt(enil, econs(a, enil), econs(a, enil)) <= True
append_elt(enil, enil, enil) <= True
length_elt(econs(a, econs(a, enil)), s(s(z))) <= True
length_elt(econs(a, enil), s(z)) <= True
length_elt(enil, z) <= True
plus(s(z), s(z), s(s(z))) <= True
plus(s(z), z, s(z)) <= True
plus(z, s(s(z)), s(s(z))) <= True
plus(z, s(z), s(z)) <= True
plus(z, z, z) <= True
False <= append_elt(econs(a, econs(a, enil)), econs(a, econs(a, enil)), econs(a, econs(a, enil))) /\ plus(s(s(z)), s(s(z)), s(z))
False <= append_elt(econs(a, econs(a, enil)), econs(a, enil), econs(a, econs(a, enil))) /\ plus(s(s(z)), s(z), s(z))
False <= append_elt(econs(a, econs(a, enil)), enil, econs(a, enil)) /\ plus(s(s(z)), z, s(s(z)))
append_elt(econs(a, econs(a, enil)), econs(a, econs(a, enil)), econs(a, econs(a, econs(a, enil)))) <= append_elt(econs(a, enil), econs(a, econs(a, enil)), econs(a, econs(a, enil)))
False <= append_elt(econs(a, enil), econs(a, econs(a, enil)), econs(a, econs(a, enil))) /\ plus(s(z), s(s(z)), s(z))
False <= append_elt(econs(a, enil), econs(a, enil), econs(a, enil))
False <= append_elt(enil, econs(a, econs(a, enil)), econs(a, enil))
False <= length_elt(econs(a, econs(a, enil)), s(z))
False <= length_elt(econs(a, enil), s(s(z)))
plus(s(s(z)), s(z), s(s(s(z)))) <= plus(s(s(z)), z, s(s(z)))
False <= plus(s(z), z, s(s(z)))
False <= plus(z, s(s(z)), s(s(s(z))))
False <= plus(z, s(z), s(s(z)))
}

Learner proposed model:
Found Model:
|_

_r_1 ->
{
  _r_1(s(x_0_0), s(x_1_0)) <= _r_1(x_0_0, x_1_0)
  _r_1(z, z) <= True
}
;
_r_2 ->
{
  _r_2(econs(x_0_0, x_0_1), econs(x_1_0, x_1_1)) <= True
  _r_2(enil, enil) <= True
}
;
_r_3 ->
{
  _r_3(econs(x_0_0, x_0_1), econs(x_1_0, x_1_1)) <= _r_3(x_0_1, x_1_1)
  _r_3(enil, econs(x_1_0, x_1_1)) <= True
}
;
append_elt ->
{
  append_elt(econs(x_0_0, x_0_1), econs(x_1_0, x_1_1), econs(x_2_0, x_2_1)) <= _r_3(x_0_1, x_2_1) /\ _r_3(x_1_1, x_2_1)
  append_elt(econs(x_0_0, x_0_1), enil, econs(x_2_0, x_2_1)) <= _r_2(x_0_1, x_2_1)
  append_elt(enil, econs(x_1_0, x_1_1), econs(x_2_0, x_2_1)) <= _r_2(x_1_1, x_2_1)
  append_elt(enil, enil, enil) <= True
}
;
length_elt ->
{
  length_elt(econs(x_0_0, x_0_1), s(x_1_0)) <= length_elt(x_0_1, x_1_0)
  length_elt(enil, z) <= True
}
;
plus ->
{
  plus(s(x_0_0), s(x_1_0), s(x_2_0)) <= True
  plus(s(x_0_0), z, s(x_2_0)) <= _r_1(x_0_0, x_2_0)
  plus(z, s(x_1_0), s(x_2_0)) <= _r_1(x_1_0, x_2_0)
  plus(z, z, z) <= True
}

--
Equality automata are defined for: {elist, elt, nat}
_|


Answer of teacher:


append_elt(enil, l2, l2) <= True -> No: ()
length_elt(enil, z) <= True -> No: ()
plus(n, z, n) <= True -> No: ()
eq_nat(_ota, _qta) <= append_elt(l1, l2, _pta) /\ length_elt(_pta, _ota) /\ length_elt(l1, _rta) /\ length_elt(l2, _sta) /\ plus(_rta, _sta, _qta) -> Yes: {
_ota -> s(s(z))  ;  _pta -> econs(_pta_0, econs(v3_0, enil))  ;  _qta -> s(z)  ;  _rta -> s(z)  ;  _sta -> s(z)  ;  l1 -> econs(l1_0, enil)  ;  l2 -> econs(l2_0, enil)
}
append_elt(econs(h1, t1), l2, econs(h1, _ata)) <= append_elt(t1, l2, _ata) -> Yes: {
_ata -> econs(_ata_0, econs(v1_0, enil))  ;  l2 -> econs(l2_0, econs(v0_0, econs(v0_0, enil)))  ;  t1 -> enil
}
length_elt(econs(x, ll), s(_fta)) <= length_elt(ll, _fta) -> No: ()
plus(n, s(mm), s(_jta)) <= plus(n, mm, _jta) -> No: ()



-------------------------------------------
Step 14, which took 1.141777 s (model generation: 1.141041,  model checking: 0.000736):

Ground examples at the beginning of this step are:
{
append_elt(econs(a, econs(a, enil)), econs(a, enil), econs(a, econs(a, econs(a, enil)))) <= True
append_elt(econs(a, enil), econs(a, econs(a, enil)), econs(a, econs(a, econs(a, enil)))) <= True
append_elt(econs(a, enil), econs(a, enil), econs(a, econs(a, enil))) <= True
append_elt(econs(a, enil), enil, econs(a, enil)) <= True
append_elt(enil, econs(a, econs(a, enil)), econs(a, econs(a, enil))) <= True
append_elt(enil, econs(a, enil), econs(a, enil)) <= True
append_elt(enil, enil, enil) <= True
length_elt(econs(a, econs(a, enil)), s(s(z))) <= True
length_elt(econs(a, enil), s(z)) <= True
length_elt(enil, z) <= True
plus(s(z), s(z), s(s(z))) <= True
plus(s(z), z, s(z)) <= True
plus(z, s(s(z)), s(s(z))) <= True
plus(z, s(z), s(z)) <= True
plus(z, z, z) <= True
False <= append_elt(econs(a, econs(a, enil)), econs(a, econs(a, enil)), econs(a, econs(a, enil))) /\ plus(s(s(z)), s(s(z)), s(z))
False <= append_elt(econs(a, econs(a, enil)), econs(a, enil), econs(a, econs(a, enil))) /\ plus(s(s(z)), s(z), s(z))
False <= append_elt(econs(a, econs(a, enil)), enil, econs(a, enil)) /\ plus(s(s(z)), z, s(s(z)))
append_elt(econs(a, econs(a, enil)), econs(a, econs(a, enil)), econs(a, econs(a, econs(a, enil)))) <= append_elt(econs(a, enil), econs(a, econs(a, enil)), econs(a, econs(a, enil)))
False <= append_elt(econs(a, enil), econs(a, econs(a, enil)), econs(a, econs(a, enil))) /\ plus(s(z), s(s(z)), s(z))
False <= append_elt(econs(a, enil), econs(a, enil), econs(a, enil))
append_elt(econs(a, enil), econs(a, econs(a, econs(a, enil))), econs(a, econs(a, econs(a, enil)))) <= append_elt(enil, econs(a, econs(a, econs(a, enil))), econs(a, econs(a, enil)))
False <= append_elt(enil, econs(a, econs(a, enil)), econs(a, enil))
False <= length_elt(econs(a, econs(a, enil)), s(z))
False <= length_elt(econs(a, enil), s(s(z)))
plus(s(s(z)), s(z), s(s(s(z)))) <= plus(s(s(z)), z, s(s(z)))
False <= plus(s(z), s(z), s(z))
False <= plus(s(z), z, s(s(z)))
False <= plus(z, s(s(z)), s(s(s(z))))
False <= plus(z, s(z), s(s(z)))
}

Learner proposed model:
Found Model:
|_

_r_1 ->
{
  _r_1(econs(x_0_0, x_0_1), econs(x_1_0, x_1_1)) <= True
  _r_1(enil, econs(x_1_0, x_1_1)) <= True
}
;
_r_2 ->
{
  _r_2(enil, enil) <= True
}
;
_r_3 ->
{
  _r_3(z) <= True
}
;
_r_4 ->
{
  _r_4(s(x_0_0)) <= _r_3(x_0_0)
}
;
append_elt ->
{
  append_elt(econs(x_0_0, x_0_1), econs(x_1_0, x_1_1), econs(x_2_0, x_2_1)) <= _r_1(x_1_1, x_2_1)
  append_elt(econs(x_0_0, x_0_1), enil, econs(x_2_0, x_2_1)) <= True
  append_elt(enil, econs(x_1_0, x_1_1), econs(x_2_0, x_2_1)) <= _r_1(x_1_1, x_2_1)
  append_elt(enil, econs(x_1_0, x_1_1), econs(x_2_0, x_2_1)) <= _r_2(x_1_1, x_2_1)
  append_elt(enil, enil, enil) <= True
}
;
length_elt ->
{
  length_elt(econs(x_0_0, x_0_1), s(x_1_0)) <= length_elt(x_0_1, x_1_0)
  length_elt(enil, z) <= True
}
;
plus ->
{
  plus(s(x_0_0), s(x_1_0), s(x_2_0)) <= _r_4(x_2_0)
  plus(s(x_0_0), z, s(x_2_0)) <= _r_3(x_2_0)
  plus(z, s(x_1_0), s(x_2_0)) <= _r_3(x_2_0)
  plus(z, s(x_1_0), s(x_2_0)) <= _r_4(x_1_0) /\ _r_4(x_2_0)
  plus(z, z, z) <= True
}

--
Equality automata are defined for: {elist, elt, nat}
_|


Answer of teacher:


append_elt(enil, l2, l2) <= True -> No: ()
length_elt(enil, z) <= True -> No: ()
plus(n, z, n) <= True -> Yes: {
n -> s(s(v0_0))
}
eq_nat(_ota, _qta) <= append_elt(l1, l2, _pta) /\ length_elt(_pta, _ota) /\ length_elt(l1, _rta) /\ length_elt(l2, _sta) /\ plus(_rta, _sta, _qta) -> Yes: {
_ota -> s(s(z))  ;  _pta -> econs(_pta_0, econs(v2_0, enil))  ;  _qta -> s(z)  ;  _rta -> s(s(z))  ;  _sta -> z  ;  l1 -> econs(l1_0, econs(v2_0, enil))  ;  l2 -> enil
}
append_elt(econs(h1, t1), l2, econs(h1, _ata)) <= append_elt(t1, l2, _ata) -> No: ()
length_elt(econs(x, ll), s(_fta)) <= length_elt(ll, _fta) -> No: ()
plus(n, s(mm), s(_jta)) <= plus(n, mm, _jta) -> Yes: {
_jta -> s(z)  ;  mm -> s(s(v0_0))  ;  n -> z
}



-------------------------------------------
Step 15, which took 2.261400 s (model generation: 2.260634,  model checking: 0.000766):

Ground examples at the beginning of this step are:
{
append_elt(econs(a, econs(a, enil)), econs(a, enil), econs(a, econs(a, econs(a, enil)))) <= True
append_elt(econs(a, enil), econs(a, econs(a, enil)), econs(a, econs(a, econs(a, enil)))) <= True
append_elt(econs(a, enil), econs(a, enil), econs(a, econs(a, enil))) <= True
append_elt(econs(a, enil), enil, econs(a, enil)) <= True
append_elt(enil, econs(a, econs(a, enil)), econs(a, econs(a, enil))) <= True
append_elt(enil, econs(a, enil), econs(a, enil)) <= True
append_elt(enil, enil, enil) <= True
length_elt(econs(a, econs(a, enil)), s(s(z))) <= True
length_elt(econs(a, enil), s(z)) <= True
length_elt(enil, z) <= True
plus(s(s(z)), s(z), s(s(s(z)))) <= True
plus(s(s(z)), z, s(s(z))) <= True
plus(s(z), s(z), s(s(z))) <= True
plus(s(z), z, s(z)) <= True
plus(z, s(s(z)), s(s(z))) <= True
plus(z, s(z), s(z)) <= True
plus(z, z, z) <= True
False <= append_elt(econs(a, econs(a, enil)), econs(a, econs(a, enil)), econs(a, econs(a, enil))) /\ plus(s(s(z)), s(s(z)), s(z))
False <= append_elt(econs(a, econs(a, enil)), econs(a, enil), econs(a, econs(a, enil))) /\ plus(s(s(z)), s(z), s(z))
False <= append_elt(econs(a, econs(a, enil)), enil, econs(a, econs(a, enil))) /\ plus(s(s(z)), z, s(z))
False <= append_elt(econs(a, econs(a, enil)), enil, econs(a, enil))
append_elt(econs(a, econs(a, enil)), econs(a, econs(a, enil)), econs(a, econs(a, econs(a, enil)))) <= append_elt(econs(a, enil), econs(a, econs(a, enil)), econs(a, econs(a, enil)))
False <= append_elt(econs(a, enil), econs(a, econs(a, enil)), econs(a, econs(a, enil))) /\ plus(s(z), s(s(z)), s(z))
False <= append_elt(econs(a, enil), econs(a, enil), econs(a, enil))
append_elt(econs(a, enil), econs(a, econs(a, econs(a, enil))), econs(a, econs(a, econs(a, enil)))) <= append_elt(enil, econs(a, econs(a, econs(a, enil))), econs(a, econs(a, enil)))
False <= append_elt(enil, econs(a, econs(a, enil)), econs(a, enil))
False <= length_elt(econs(a, econs(a, enil)), s(z))
False <= length_elt(econs(a, enil), s(s(z)))
False <= plus(s(z), s(z), s(z))
False <= plus(s(z), z, s(s(z)))
False <= plus(z, s(s(z)), s(s(s(z))))
plus(z, s(s(s(z))), s(s(z))) <= plus(z, s(s(z)), s(z))
False <= plus(z, s(z), s(s(z)))
}

Learner proposed model:
Found Model:
|_

_r_1 ->
{
  _r_1(s(x_0_0), s(x_1_0)) <= _r_1(x_0_0, x_1_0)
  _r_1(s(x_0_0), z) <= True
  _r_1(z, z) <= True
}
;
_r_2 ->
{
  _r_2(z, s(x_1_0)) <= True
}
;
_r_3 ->
{
  _r_3(enil, enil) <= True
}
;
_r_4 ->
{
  _r_4(econs(x_0_0, x_0_1), econs(x_1_0, x_1_1)) <= True
  _r_4(enil, econs(x_1_0, x_1_1)) <= True
}
;
append_elt ->
{
  append_elt(econs(x_0_0, x_0_1), econs(x_1_0, x_1_1), econs(x_2_0, x_2_1)) <= _r_4(x_1_1, x_2_1)
  append_elt(econs(x_0_0, x_0_1), enil, econs(x_2_0, x_2_1)) <= _r_3(x_0_1, x_2_1)
  append_elt(enil, econs(x_1_0, x_1_1), econs(x_2_0, x_2_1)) <= _r_3(x_1_1, x_2_1)
  append_elt(enil, econs(x_1_0, x_1_1), econs(x_2_0, x_2_1)) <= _r_4(x_1_1, x_2_1)
  append_elt(enil, enil, enil) <= True
}
;
length_elt ->
{
  length_elt(econs(x_0_0, x_0_1), s(x_1_0)) <= length_elt(x_0_1, x_1_0)
  length_elt(enil, z) <= True
}
;
plus ->
{
  plus(s(x_0_0), s(x_1_0), s(x_2_0)) <= _r_2(x_1_0, x_2_0)
  plus(s(x_0_0), z, s(x_2_0)) <= _r_1(x_0_0, x_2_0)
  plus(z, s(x_1_0), s(x_2_0)) <= _r_1(x_1_0, x_2_0)
  plus(z, z, z) <= True
}

--
Equality automata are defined for: {elist, elt, nat}
_|


Answer of teacher:


append_elt(enil, l2, l2) <= True -> No: ()
length_elt(enil, z) <= True -> No: ()
plus(n, z, n) <= True -> No: ()
eq_nat(_ota, _qta) <= append_elt(l1, l2, _pta) /\ length_elt(_pta, _ota) /\ length_elt(l1, _rta) /\ length_elt(l2, _sta) /\ plus(_rta, _sta, _qta) -> Yes: {
_ota -> s(s(z))  ;  _pta -> econs(_pta_0, econs(v4_0, enil))  ;  _qta -> s(z)  ;  _rta -> z  ;  _sta -> s(z)  ;  l1 -> enil  ;  l2 -> econs(l2_0, enil)
}
append_elt(econs(h1, t1), l2, econs(h1, _ata)) <= append_elt(t1, l2, _ata) -> Yes: {
_ata -> econs(_ata_0, enil)  ;  l2 -> enil  ;  t1 -> econs(t1_0, enil)
}
length_elt(econs(x, ll), s(_fta)) <= length_elt(ll, _fta) -> No: ()
plus(n, s(mm), s(_jta)) <= plus(n, mm, _jta) -> Yes: {
_jta -> s(s(v1_0))  ;  mm -> s(z)  ;  n -> s(n_0)
}



-------------------------------------------
Step 16, which took 6.404719 s (model generation: 6.403816,  model checking: 0.000903):

Ground examples at the beginning of this step are:
{
append_elt(econs(a, econs(a, enil)), econs(a, enil), econs(a, econs(a, econs(a, enil)))) <= True
append_elt(econs(a, econs(a, enil)), enil, econs(a, econs(a, enil))) <= True
append_elt(econs(a, enil), econs(a, econs(a, enil)), econs(a, econs(a, econs(a, enil)))) <= True
append_elt(econs(a, enil), econs(a, enil), econs(a, econs(a, enil))) <= True
append_elt(econs(a, enil), enil, econs(a, enil)) <= True
append_elt(enil, econs(a, econs(a, enil)), econs(a, econs(a, enil))) <= True
append_elt(enil, econs(a, enil), econs(a, enil)) <= True
append_elt(enil, enil, enil) <= True
length_elt(econs(a, econs(a, enil)), s(s(z))) <= True
length_elt(econs(a, enil), s(z)) <= True
length_elt(enil, z) <= True
plus(s(s(z)), s(z), s(s(s(z)))) <= True
plus(s(s(z)), z, s(s(z))) <= True
plus(s(z), s(s(z)), s(s(s(z)))) <= True
plus(s(z), s(z), s(s(z))) <= True
plus(s(z), z, s(z)) <= True
plus(z, s(s(z)), s(s(z))) <= True
plus(z, s(z), s(z)) <= True
plus(z, z, z) <= True
False <= append_elt(econs(a, econs(a, enil)), econs(a, econs(a, enil)), econs(a, econs(a, enil))) /\ plus(s(s(z)), s(s(z)), s(z))
False <= append_elt(econs(a, econs(a, enil)), econs(a, enil), econs(a, econs(a, enil))) /\ plus(s(s(z)), s(z), s(z))
False <= append_elt(econs(a, econs(a, enil)), enil, econs(a, enil))
append_elt(econs(a, econs(a, enil)), econs(a, econs(a, enil)), econs(a, econs(a, econs(a, enil)))) <= append_elt(econs(a, enil), econs(a, econs(a, enil)), econs(a, econs(a, enil)))
False <= append_elt(econs(a, enil), econs(a, econs(a, enil)), econs(a, econs(a, enil))) /\ plus(s(z), s(s(z)), s(z))
False <= append_elt(econs(a, enil), econs(a, enil), econs(a, enil))
append_elt(econs(a, enil), econs(a, econs(a, econs(a, enil))), econs(a, econs(a, econs(a, enil)))) <= append_elt(enil, econs(a, econs(a, econs(a, enil))), econs(a, econs(a, enil)))
False <= append_elt(enil, econs(a, econs(a, enil)), econs(a, enil))
False <= append_elt(enil, econs(a, enil), econs(a, econs(a, enil)))
False <= length_elt(econs(a, econs(a, enil)), s(z))
False <= length_elt(econs(a, enil), s(s(z)))
False <= plus(s(s(z)), z, s(z))
False <= plus(s(z), s(z), s(z))
False <= plus(s(z), z, s(s(z)))
False <= plus(z, s(s(z)), s(s(s(z))))
plus(z, s(s(s(z))), s(s(z))) <= plus(z, s(s(z)), s(z))
False <= plus(z, s(z), s(s(z)))
}

Learner proposed model:
Found Model:
|_

_r_1 ->
{
  _r_1(z, s(x_1_0)) <= True
}
;
_r_2 ->
{
  _r_2(s(x_0_0), s(x_1_0)) <= _r_2(x_0_0, x_1_0)
  _r_2(z, z) <= True
}
;
_r_3 ->
{
  _r_3(econs(x_0_0, x_0_1), econs(x_1_0, x_1_1)) <= True
  _r_3(enil, enil) <= True
}
;
_r_4 ->
{
  _r_4(econs(x_0_0, x_0_1), econs(x_1_0, x_1_1)) <= True
  _r_4(enil, econs(x_1_0, x_1_1)) <= True
}
;
append_elt ->
{
  append_elt(econs(x_0_0, x_0_1), econs(x_1_0, x_1_1), econs(x_2_0, x_2_1)) <= _r_4(x_0_1, x_2_1) /\ _r_4(x_1_1, x_2_1)
  append_elt(econs(x_0_0, x_0_1), enil, econs(x_2_0, x_2_1)) <= _r_3(x_0_1, x_2_1)
  append_elt(enil, econs(x_1_0, x_1_1), econs(x_2_0, x_2_1)) <= _r_3(x_1_1, x_2_1)
  append_elt(enil, enil, enil) <= True
}
;
length_elt ->
{
  length_elt(econs(x_0_0, x_0_1), s(x_1_0)) <= length_elt(x_0_1, x_1_0)
  length_elt(enil, z) <= True
}
;
plus ->
{
  plus(s(x_0_0), s(x_1_0), s(x_2_0)) <= _r_1(x_0_0, x_2_0)
  plus(s(x_0_0), s(x_1_0), s(x_2_0)) <= _r_1(x_1_0, x_2_0)
  plus(s(x_0_0), z, s(x_2_0)) <= _r_2(x_0_0, x_2_0)
  plus(z, s(x_1_0), s(x_2_0)) <= _r_2(x_1_0, x_2_0)
  plus(z, z, z) <= True
}

--
Equality automata are defined for: {elist, elt, nat}
_|


Answer of teacher:


append_elt(enil, l2, l2) <= True -> No: ()
length_elt(enil, z) <= True -> No: ()
plus(n, z, n) <= True -> No: ()
eq_nat(_ota, _qta) <= append_elt(l1, l2, _pta) /\ length_elt(_pta, _ota) /\ length_elt(l1, _rta) /\ length_elt(l2, _sta) /\ plus(_rta, _sta, _qta) -> Yes: {
_ota -> s(s(z))  ;  _pta -> econs(_pta_0, econs(v4_0, enil))  ;  _qta -> s(s(s(v1_0)))  ;  _rta -> s(z)  ;  _sta -> s(z)  ;  l1 -> econs(l1_0, enil)  ;  l2 -> econs(l2_0, enil)
}
append_elt(econs(h1, t1), l2, econs(h1, _ata)) <= append_elt(t1, l2, _ata) -> No: ()
length_elt(econs(x, ll), s(_fta)) <= length_elt(ll, _fta) -> No: ()
plus(n, s(mm), s(_jta)) <= plus(n, mm, _jta) -> Yes: {
_jta -> s(s(v1_0))  ;  mm -> s(z)  ;  n -> s(s(v2_0))
}



-------------------------------------------
Step 17, which took 0.979433 s (model generation: 0.975644,  model checking: 0.003789):

Ground examples at the beginning of this step are:
{
append_elt(econs(a, econs(a, enil)), econs(a, enil), econs(a, econs(a, econs(a, enil)))) <= True
append_elt(econs(a, econs(a, enil)), enil, econs(a, econs(a, enil))) <= True
append_elt(econs(a, enil), econs(a, econs(a, enil)), econs(a, econs(a, econs(a, enil)))) <= True
append_elt(econs(a, enil), econs(a, enil), econs(a, econs(a, enil))) <= True
append_elt(econs(a, enil), enil, econs(a, enil)) <= True
append_elt(enil, econs(a, econs(a, enil)), econs(a, econs(a, enil))) <= True
append_elt(enil, econs(a, enil), econs(a, enil)) <= True
append_elt(enil, enil, enil) <= True
length_elt(econs(a, econs(a, enil)), s(s(z))) <= True
length_elt(econs(a, enil), s(z)) <= True
length_elt(enil, z) <= True
plus(s(s(z)), s(z), s(s(s(z)))) <= True
plus(s(s(z)), z, s(s(z))) <= True
plus(s(z), s(s(z)), s(s(s(z)))) <= True
plus(s(z), s(z), s(s(z))) <= True
plus(s(z), z, s(z)) <= True
plus(z, s(s(z)), s(s(z))) <= True
plus(z, s(z), s(z)) <= True
plus(z, z, z) <= True
False <= append_elt(econs(a, econs(a, enil)), econs(a, econs(a, enil)), econs(a, econs(a, enil))) /\ plus(s(s(z)), s(s(z)), s(z))
False <= append_elt(econs(a, econs(a, enil)), econs(a, enil), econs(a, econs(a, enil))) /\ plus(s(s(z)), s(z), s(z))
False <= append_elt(econs(a, econs(a, enil)), enil, econs(a, enil))
append_elt(econs(a, econs(a, enil)), econs(a, econs(a, enil)), econs(a, econs(a, econs(a, enil)))) <= append_elt(econs(a, enil), econs(a, econs(a, enil)), econs(a, econs(a, enil)))
False <= append_elt(econs(a, enil), econs(a, econs(a, enil)), econs(a, econs(a, enil))) /\ plus(s(z), s(s(z)), s(z))
False <= append_elt(econs(a, enil), econs(a, enil), econs(a, enil))
append_elt(econs(a, enil), econs(a, econs(a, econs(a, enil))), econs(a, econs(a, econs(a, enil)))) <= append_elt(enil, econs(a, econs(a, econs(a, enil))), econs(a, econs(a, enil)))
False <= append_elt(enil, econs(a, econs(a, enil)), econs(a, enil))
False <= append_elt(enil, econs(a, enil), econs(a, econs(a, enil)))
False <= length_elt(econs(a, econs(a, enil)), s(z))
False <= length_elt(econs(a, enil), s(s(z)))
plus(s(s(z)), s(s(z)), s(s(s(z)))) <= plus(s(s(z)), s(z), s(s(z)))
False <= plus(s(s(z)), z, s(z))
False <= plus(s(z), s(z), s(s(s(z))))
False <= plus(s(z), s(z), s(z))
False <= plus(s(z), z, s(s(z)))
False <= plus(z, s(s(z)), s(s(s(z))))
plus(z, s(s(s(z))), s(s(z))) <= plus(z, s(s(z)), s(z))
False <= plus(z, s(z), s(s(z)))
}

Learner proposed model:
Found Model:
|_

_r_1 ->
{
  _r_1(econs(x_0_0, x_0_1), econs(x_1_0, x_1_1)) <= _r_4(x_1_1)
  _r_1(enil, econs(x_1_0, x_1_1)) <= _r_4(x_1_1)
  _r_1(enil, enil) <= True
}
;
_r_2 ->
{
  _r_2(s(x_0_0)) <= _r_3(x_0_0)
}
;
_r_3 ->
{
  _r_3(z) <= True
}
;
_r_4 ->
{
  _r_4(econs(x_0_0, x_0_1)) <= True
}
;
append_elt ->
{
  append_elt(econs(x_0_0, x_0_1), econs(x_1_0, x_1_1), econs(x_2_0, x_2_1)) <= _r_1(x_0_1, x_1_1) /\ _r_4(x_2_1)
  append_elt(econs(x_0_0, x_0_1), econs(x_1_0, x_1_1), econs(x_2_0, x_2_1)) <= _r_1(x_1_1, x_2_1) /\ _r_4(x_2_1)
  append_elt(econs(x_0_0, x_0_1), enil, econs(x_2_0, x_2_1)) <= _r_1(x_0_1, x_2_1)
  append_elt(econs(x_0_0, x_0_1), enil, econs(x_2_0, x_2_1)) <= _r_4(x_2_1)
  append_elt(enil, econs(x_1_0, x_1_1), econs(x_2_0, x_2_1)) <= _r_1(x_1_1, x_2_1)
  append_elt(enil, econs(x_1_0, x_1_1), econs(x_2_0, x_2_1)) <= _r_4(x_1_1) /\ _r_4(x_2_1)
  append_elt(enil, enil, enil) <= True
}
;
length_elt ->
{
  length_elt(econs(x_0_0, x_0_1), s(x_1_0)) <= length_elt(x_0_1, x_1_0)
  length_elt(enil, z) <= True
}
;
plus ->
{
  plus(s(x_0_0), s(x_1_0), s(x_2_0)) <= _r_2(x_0_0)
  plus(s(x_0_0), s(x_1_0), s(x_2_0)) <= _r_2(x_1_0)
  plus(s(x_0_0), s(x_1_0), s(x_2_0)) <= _r_2(x_2_0)
  plus(s(x_0_0), z, s(x_2_0)) <= _r_2(x_0_0) /\ _r_2(x_2_0)
  plus(s(x_0_0), z, s(x_2_0)) <= _r_3(x_0_0) /\ _r_3(x_2_0)
  plus(z, s(x_1_0), s(x_2_0)) <= _r_2(x_1_0) /\ _r_2(x_2_0)
  plus(z, s(x_1_0), s(x_2_0)) <= _r_3(x_1_0) /\ _r_3(x_2_0)
  plus(z, z, z) <= True
}

--
Equality automata are defined for: {elist, elt, nat}
_|


Answer of teacher:


append_elt(enil, l2, l2) <= True -> No: ()
length_elt(enil, z) <= True -> No: ()
plus(n, z, n) <= True -> Yes: {
n -> s(s(s(v0_0)))
}
eq_nat(_ota, _qta) <= append_elt(l1, l2, _pta) /\ length_elt(_pta, _ota) /\ length_elt(l1, _rta) /\ length_elt(l2, _sta) /\ plus(_rta, _sta, _qta) -> Yes: {
_ota -> s(s(z))  ;  _pta -> econs(_pta_0, econs(v2_0, enil))  ;  _qta -> s(z)  ;  _rta -> s(z)  ;  _sta -> z  ;  l1 -> econs(l1_0, enil)  ;  l2 -> enil
}
append_elt(econs(h1, t1), l2, econs(h1, _ata)) <= append_elt(t1, l2, _ata) -> No: ()
length_elt(econs(x, ll), s(_fta)) <= length_elt(ll, _fta) -> No: ()
plus(n, s(mm), s(_jta)) <= plus(n, mm, _jta) -> Yes: {
_jta -> s(s(z))  ;  mm -> s(s(z))  ;  n -> z
}



-------------------------------------------
Step 18, which took 1.388031 s (model generation: 1.382315,  model checking: 0.005716):

Ground examples at the beginning of this step are:
{
append_elt(econs(a, econs(a, enil)), econs(a, enil), econs(a, econs(a, econs(a, enil)))) <= True
append_elt(econs(a, econs(a, enil)), enil, econs(a, econs(a, enil))) <= True
append_elt(econs(a, enil), econs(a, econs(a, enil)), econs(a, econs(a, econs(a, enil)))) <= True
append_elt(econs(a, enil), econs(a, enil), econs(a, econs(a, enil))) <= True
append_elt(econs(a, enil), enil, econs(a, enil)) <= True
append_elt(enil, econs(a, econs(a, enil)), econs(a, econs(a, enil))) <= True
append_elt(enil, econs(a, enil), econs(a, enil)) <= True
append_elt(enil, enil, enil) <= True
length_elt(econs(a, econs(a, enil)), s(s(z))) <= True
length_elt(econs(a, enil), s(z)) <= True
length_elt(enil, z) <= True
plus(s(s(s(z))), z, s(s(s(z)))) <= True
plus(s(s(z)), s(z), s(s(s(z)))) <= True
plus(s(s(z)), z, s(s(z))) <= True
plus(s(z), s(s(z)), s(s(s(z)))) <= True
plus(s(z), s(z), s(s(z))) <= True
plus(s(z), z, s(z)) <= True
plus(z, s(s(s(z))), s(s(s(z)))) <= True
plus(z, s(s(z)), s(s(z))) <= True
plus(z, s(z), s(z)) <= True
plus(z, z, z) <= True
False <= append_elt(econs(a, econs(a, enil)), econs(a, econs(a, enil)), econs(a, econs(a, enil))) /\ plus(s(s(z)), s(s(z)), s(z))
False <= append_elt(econs(a, econs(a, enil)), econs(a, enil), econs(a, econs(a, enil))) /\ plus(s(s(z)), s(z), s(z))
False <= append_elt(econs(a, econs(a, enil)), enil, econs(a, enil))
append_elt(econs(a, econs(a, enil)), econs(a, econs(a, enil)), econs(a, econs(a, econs(a, enil)))) <= append_elt(econs(a, enil), econs(a, econs(a, enil)), econs(a, econs(a, enil)))
False <= append_elt(econs(a, enil), econs(a, econs(a, enil)), econs(a, econs(a, enil))) /\ plus(s(z), s(s(z)), s(z))
False <= append_elt(econs(a, enil), econs(a, enil), econs(a, enil))
False <= append_elt(econs(a, enil), enil, econs(a, econs(a, enil)))
append_elt(econs(a, enil), econs(a, econs(a, econs(a, enil))), econs(a, econs(a, econs(a, enil)))) <= append_elt(enil, econs(a, econs(a, econs(a, enil))), econs(a, econs(a, enil)))
False <= append_elt(enil, econs(a, econs(a, enil)), econs(a, enil))
False <= append_elt(enil, econs(a, enil), econs(a, econs(a, enil)))
False <= length_elt(econs(a, econs(a, enil)), s(z))
False <= length_elt(econs(a, enil), s(s(z)))
plus(s(s(z)), s(s(z)), s(s(s(z)))) <= plus(s(s(z)), s(z), s(s(z)))
False <= plus(s(s(z)), z, s(z))
False <= plus(s(z), s(z), s(s(s(z))))
False <= plus(s(z), s(z), s(z))
False <= plus(s(z), z, s(s(z)))
False <= plus(z, s(s(z)), s(s(s(z))))
plus(z, s(s(s(z))), s(s(z))) <= plus(z, s(s(z)), s(z))
False <= plus(z, s(z), s(s(z)))
}

Learner proposed model:
Found Model:
|_

_r_1 ->
{
  _r_1(econs(x_0_0, x_0_1), econs(x_1_0, x_1_1)) <= True
  _r_1(enil, econs(x_1_0, x_1_1)) <= _r_4(x_1_1)
  _r_1(enil, enil) <= True
}
;
_r_2 ->
{
  _r_2(s(x_0_0)) <= _r_3(x_0_0)
}
;
_r_3 ->
{
  _r_3(s(x_0_0)) <= _r_2(x_0_0)
  _r_3(z) <= True
}
;
_r_4 ->
{
  _r_4(econs(x_0_0, x_0_1)) <= True
}
;
append_elt ->
{
  append_elt(econs(x_0_0, x_0_1), econs(x_1_0, x_1_1), econs(x_2_0, x_2_1)) <= _r_1(x_0_1, x_1_1) /\ _r_4(x_2_1)
  append_elt(econs(x_0_0, x_0_1), econs(x_1_0, x_1_1), econs(x_2_0, x_2_1)) <= _r_1(x_0_1, x_2_1) /\ _r_1(x_1_1, x_2_1) /\ _r_4(x_2_1)
  append_elt(econs(x_0_0, x_0_1), enil, econs(x_2_0, x_2_1)) <= _r_1(x_0_1, x_2_1)
  append_elt(enil, econs(x_1_0, x_1_1), econs(x_2_0, x_2_1)) <= _r_1(x_1_1, x_2_1)
  append_elt(enil, enil, enil) <= True
}
;
length_elt ->
{
  length_elt(econs(x_0_0, x_0_1), s(x_1_0)) <= length_elt(x_0_1, x_1_0)
  length_elt(enil, z) <= True
}
;
plus ->
{
  plus(s(x_0_0), s(x_1_0), s(x_2_0)) <= _r_2(x_0_0) /\ _r_3(x_1_0) /\ _r_3(x_2_0)
  plus(s(x_0_0), s(x_1_0), s(x_2_0)) <= _r_2(x_1_0) /\ _r_3(x_0_0)
  plus(s(x_0_0), s(x_1_0), s(x_2_0)) <= _r_2(x_2_0) /\ _r_3(x_0_0)
  plus(s(x_0_0), z, s(x_2_0)) <= _r_2(x_0_0) /\ _r_2(x_2_0)
  plus(s(x_0_0), z, s(x_2_0)) <= _r_3(x_0_0) /\ _r_3(x_2_0)
  plus(z, s(x_1_0), s(x_2_0)) <= _r_2(x_1_0) /\ _r_2(x_2_0)
  plus(z, s(x_1_0), s(x_2_0)) <= _r_3(x_1_0) /\ _r_3(x_2_0)
  plus(z, z, z) <= True
}

--
Equality automata are defined for: {elist, elt, nat}
_|


Answer of teacher:


append_elt(enil, l2, l2) <= True -> No: ()
length_elt(enil, z) <= True -> No: ()
plus(n, z, n) <= True -> No: ()
eq_nat(_ota, _qta) <= append_elt(l1, l2, _pta) /\ length_elt(_pta, _ota) /\ length_elt(l1, _rta) /\ length_elt(l2, _sta) /\ plus(_rta, _sta, _qta) -> Yes: {
_ota -> s(s(z))  ;  _pta -> econs(_pta_0, econs(v2_0, enil))  ;  _qta -> s(z)  ;  _rta -> s(s(z))  ;  _sta -> s(s(s(z)))  ;  l1 -> econs(l1_0, econs(v0_0, enil))  ;  l2 -> econs(l2_0, econs(v1_0, econs(v1_0, enil)))
}
append_elt(econs(h1, t1), l2, econs(h1, _ata)) <= append_elt(t1, l2, _ata) -> No: ()
length_elt(econs(x, ll), s(_fta)) <= length_elt(ll, _fta) -> No: ()
plus(n, s(mm), s(_jta)) <= plus(n, mm, _jta) -> Yes: {
_jta -> s(z)  ;  mm -> s(z)  ;  n -> s(s(z))
}



-------------------------------------------
Step 19, which took 2.075659 s (model generation: 2.068938,  model checking: 0.006721):

Ground examples at the beginning of this step are:
{
append_elt(econs(a, econs(a, enil)), econs(a, enil), econs(a, econs(a, econs(a, enil)))) <= True
append_elt(econs(a, econs(a, enil)), enil, econs(a, econs(a, enil))) <= True
append_elt(econs(a, enil), econs(a, econs(a, enil)), econs(a, econs(a, econs(a, enil)))) <= True
append_elt(econs(a, enil), econs(a, enil), econs(a, econs(a, enil))) <= True
append_elt(econs(a, enil), enil, econs(a, enil)) <= True
append_elt(enil, econs(a, econs(a, enil)), econs(a, econs(a, enil))) <= True
append_elt(enil, econs(a, enil), econs(a, enil)) <= True
append_elt(enil, enil, enil) <= True
length_elt(econs(a, econs(a, enil)), s(s(z))) <= True
length_elt(econs(a, enil), s(z)) <= True
length_elt(enil, z) <= True
plus(s(s(s(z))), z, s(s(s(z)))) <= True
plus(s(s(z)), s(z), s(s(s(z)))) <= True
plus(s(s(z)), z, s(s(z))) <= True
plus(s(z), s(s(z)), s(s(s(z)))) <= True
plus(s(z), s(z), s(s(z))) <= True
plus(s(z), z, s(z)) <= True
plus(z, s(s(s(z))), s(s(s(z)))) <= True
plus(z, s(s(z)), s(s(z))) <= True
plus(z, s(z), s(z)) <= True
plus(z, z, z) <= True
False <= append_elt(econs(a, econs(a, enil)), econs(a, econs(a, econs(a, enil))), econs(a, econs(a, enil))) /\ length_elt(econs(a, econs(a, econs(a, enil))), s(s(s(z)))) /\ plus(s(s(z)), s(s(s(z))), s(z))
False <= append_elt(econs(a, econs(a, enil)), econs(a, econs(a, enil)), econs(a, econs(a, enil))) /\ plus(s(s(z)), s(s(z)), s(z))
False <= append_elt(econs(a, econs(a, enil)), econs(a, enil), econs(a, econs(a, enil))) /\ plus(s(s(z)), s(z), s(z))
False <= append_elt(econs(a, econs(a, enil)), enil, econs(a, enil))
append_elt(econs(a, econs(a, enil)), econs(a, econs(a, enil)), econs(a, econs(a, econs(a, enil)))) <= append_elt(econs(a, enil), econs(a, econs(a, enil)), econs(a, econs(a, enil)))
False <= append_elt(econs(a, enil), econs(a, econs(a, enil)), econs(a, econs(a, enil))) /\ plus(s(z), s(s(z)), s(z))
False <= append_elt(econs(a, enil), econs(a, enil), econs(a, enil))
False <= append_elt(econs(a, enil), enil, econs(a, econs(a, enil)))
append_elt(econs(a, enil), econs(a, econs(a, econs(a, enil))), econs(a, econs(a, econs(a, enil)))) <= append_elt(enil, econs(a, econs(a, econs(a, enil))), econs(a, econs(a, enil)))
False <= append_elt(enil, econs(a, econs(a, enil)), econs(a, enil))
False <= append_elt(enil, econs(a, enil), econs(a, econs(a, enil)))
False <= length_elt(econs(a, econs(a, enil)), s(z))
False <= length_elt(econs(a, enil), s(s(z)))
plus(s(s(z)), s(s(z)), s(s(s(z)))) <= plus(s(s(z)), s(z), s(s(z)))
plus(s(s(z)), s(s(z)), s(s(z))) <= plus(s(s(z)), s(z), s(z))
False <= plus(s(s(z)), z, s(z))
False <= plus(s(z), s(z), s(s(s(z))))
False <= plus(s(z), s(z), s(z))
False <= plus(s(z), z, s(s(z)))
False <= plus(z, s(s(z)), s(s(s(z))))
plus(z, s(s(s(z))), s(s(z))) <= plus(z, s(s(z)), s(z))
False <= plus(z, s(z), s(s(z)))
}

Learner proposed model:
Found Model:
|_

_r_1 ->
{
  _r_1(s(x_0_0)) <= _r_2(x_0_0)
}
;
_r_2 ->
{
  _r_2(s(x_0_0)) <= _r_1(x_0_0)
  _r_2(z) <= True
}
;
_r_3 ->
{
  _r_3(econs(x_0_0, x_0_1)) <= True
}
;
_r_4 ->
{
  _r_4(econs(x_0_0, x_0_1)) <= _r_3(x_0_1)
  _r_4(enil) <= True
}
;
append_elt ->
{
  append_elt(econs(x_0_0, x_0_1), econs(x_1_0, x_1_1), econs(x_2_0, x_2_1)) <= _r_3(x_0_1) /\ _r_4(x_2_1)
  append_elt(econs(x_0_0, x_0_1), econs(x_1_0, x_1_1), econs(x_2_0, x_2_1)) <= _r_3(x_1_1) /\ _r_4(x_2_1)
  append_elt(econs(x_0_0, x_0_1), econs(x_1_0, x_1_1), econs(x_2_0, x_2_1)) <= _r_3(x_2_1) /\ _r_4(x_0_1) /\ _r_4(x_1_1)
  append_elt(econs(x_0_0, x_0_1), enil, econs(x_2_0, x_2_1)) <= _r_3(x_0_1) /\ _r_3(x_2_1)
  append_elt(econs(x_0_0, x_0_1), enil, econs(x_2_0, x_2_1)) <= _r_4(x_0_1) /\ _r_4(x_2_1)
  append_elt(enil, econs(x_1_0, x_1_1), econs(x_2_0, x_2_1)) <= _r_3(x_1_1) /\ _r_3(x_2_1)
  append_elt(enil, econs(x_1_0, x_1_1), econs(x_2_0, x_2_1)) <= _r_4(x_1_1) /\ _r_4(x_2_1)
  append_elt(enil, enil, enil) <= True
}
;
length_elt ->
{
  length_elt(econs(x_0_0, x_0_1), s(x_1_0)) <= length_elt(x_0_1, x_1_0)
  length_elt(enil, z) <= True
}
;
plus ->
{
  plus(s(x_0_0), s(x_1_0), s(x_2_0)) <= _r_1(x_0_0)
  plus(s(x_0_0), s(x_1_0), s(x_2_0)) <= _r_1(x_1_0)
  plus(s(x_0_0), s(x_1_0), s(x_2_0)) <= _r_1(x_2_0)
  plus(s(x_0_0), z, s(x_2_0)) <= _r_1(x_0_0) /\ _r_1(x_2_0)
  plus(s(x_0_0), z, s(x_2_0)) <= _r_2(x_0_0) /\ _r_2(x_2_0)
  plus(z, s(x_1_0), s(x_2_0)) <= _r_1(x_1_0) /\ _r_1(x_2_0)
  plus(z, s(x_1_0), s(x_2_0)) <= _r_2(x_1_0) /\ _r_2(x_2_0)
  plus(z, z, z) <= True
}

--
Equality automata are defined for: {elist, elt, nat}
_|


Answer of teacher:


append_elt(enil, l2, l2) <= True -> No: ()
length_elt(enil, z) <= True -> No: ()
plus(n, z, n) <= True -> No: ()
eq_nat(_ota, _qta) <= append_elt(l1, l2, _pta) /\ length_elt(_pta, _ota) /\ length_elt(l1, _rta) /\ length_elt(l2, _sta) /\ plus(_rta, _sta, _qta) -> Yes: {
_ota -> s(z)  ;  _pta -> econs(_pta_0, enil)  ;  _qta -> s(s(v1_0))  ;  _rta -> s(s(z))  ;  _sta -> s(s(z))  ;  l1 -> econs(l1_0, econs(v0_0, enil))  ;  l2 -> econs(l2_0, econs(v1_0, enil))
}
append_elt(econs(h1, t1), l2, econs(h1, _ata)) <= append_elt(t1, l2, _ata) -> Yes: {
_ata -> econs(_ata_0, enil)  ;  l2 -> econs(l2_0, econs(v0_0, enil))  ;  t1 -> econs(t1_0, econs(v0_0, v0_1))
}
length_elt(econs(x, ll), s(_fta)) <= length_elt(ll, _fta) -> No: ()
plus(n, s(mm), s(_jta)) <= plus(n, mm, _jta) -> Yes: {
_jta -> s(s(z))  ;  mm -> s(s(z))  ;  n -> s(z)
}



-------------------------------------------
Step 20, which took 2.362279 s (model generation: 2.359638,  model checking: 0.002641):

Ground examples at the beginning of this step are:
{
append_elt(econs(a, econs(a, enil)), econs(a, enil), econs(a, econs(a, econs(a, enil)))) <= True
append_elt(econs(a, econs(a, enil)), enil, econs(a, econs(a, enil))) <= True
append_elt(econs(a, enil), econs(a, econs(a, enil)), econs(a, econs(a, econs(a, enil)))) <= True
append_elt(econs(a, enil), econs(a, enil), econs(a, econs(a, enil))) <= True
append_elt(econs(a, enil), enil, econs(a, enil)) <= True
append_elt(enil, econs(a, econs(a, enil)), econs(a, econs(a, enil))) <= True
append_elt(enil, econs(a, enil), econs(a, enil)) <= True
append_elt(enil, enil, enil) <= True
length_elt(econs(a, econs(a, enil)), s(s(z))) <= True
length_elt(econs(a, enil), s(z)) <= True
length_elt(enil, z) <= True
plus(s(s(s(z))), z, s(s(s(z)))) <= True
plus(s(s(z)), s(z), s(s(s(z)))) <= True
plus(s(s(z)), z, s(s(z))) <= True
plus(s(z), s(s(z)), s(s(s(z)))) <= True
plus(s(z), s(z), s(s(z))) <= True
plus(s(z), z, s(z)) <= True
plus(z, s(s(s(z))), s(s(s(z)))) <= True
plus(z, s(s(z)), s(s(z))) <= True
plus(z, s(z), s(z)) <= True
plus(z, z, z) <= True
False <= append_elt(econs(a, econs(a, enil)), econs(a, econs(a, econs(a, enil))), econs(a, econs(a, enil))) /\ length_elt(econs(a, econs(a, econs(a, enil))), s(s(s(z)))) /\ plus(s(s(z)), s(s(s(z))), s(z))
False <= append_elt(econs(a, econs(a, enil)), econs(a, econs(a, enil)), econs(a, econs(a, enil))) /\ plus(s(s(z)), s(s(z)), s(z))
append_elt(econs(a, econs(a, econs(a, enil))), econs(a, econs(a, enil)), econs(a, econs(a, enil))) <= append_elt(econs(a, econs(a, enil)), econs(a, econs(a, enil)), econs(a, enil))
False <= append_elt(econs(a, econs(a, enil)), econs(a, econs(a, enil)), econs(a, enil)) /\ plus(s(s(z)), s(s(z)), s(s(z)))
False <= append_elt(econs(a, econs(a, enil)), econs(a, enil), econs(a, econs(a, enil))) /\ plus(s(s(z)), s(z), s(z))
False <= append_elt(econs(a, econs(a, enil)), enil, econs(a, enil))
append_elt(econs(a, econs(a, enil)), econs(a, econs(a, enil)), econs(a, econs(a, econs(a, enil)))) <= append_elt(econs(a, enil), econs(a, econs(a, enil)), econs(a, econs(a, enil)))
False <= append_elt(econs(a, enil), econs(a, econs(a, enil)), econs(a, econs(a, enil))) /\ plus(s(z), s(s(z)), s(z))
False <= append_elt(econs(a, enil), econs(a, enil), econs(a, enil))
False <= append_elt(econs(a, enil), enil, econs(a, econs(a, enil)))
append_elt(econs(a, enil), econs(a, econs(a, econs(a, enil))), econs(a, econs(a, econs(a, enil)))) <= append_elt(enil, econs(a, econs(a, econs(a, enil))), econs(a, econs(a, enil)))
False <= append_elt(enil, econs(a, econs(a, enil)), econs(a, enil))
False <= append_elt(enil, econs(a, enil), econs(a, econs(a, enil)))
False <= length_elt(econs(a, econs(a, enil)), s(z))
False <= length_elt(econs(a, enil), s(s(z)))
plus(s(s(z)), s(s(z)), s(s(s(z)))) <= plus(s(s(z)), s(z), s(s(z)))
plus(s(s(z)), s(s(z)), s(s(z))) <= plus(s(s(z)), s(z), s(z))
False <= plus(s(s(z)), z, s(z))
plus(s(z), s(s(s(z))), s(s(s(z)))) <= plus(s(z), s(s(z)), s(s(z)))
False <= plus(s(z), s(z), s(s(s(z))))
False <= plus(s(z), s(z), s(z))
False <= plus(s(z), z, s(s(z)))
False <= plus(z, s(s(z)), s(s(s(z))))
plus(z, s(s(s(z))), s(s(z))) <= plus(z, s(s(z)), s(z))
False <= plus(z, s(z), s(s(z)))
}

Learner proposed model:
Found Model:
|_

_r_1 ->
{
  _r_1(econs(x_0_0, x_0_1), econs(x_1_0, x_1_1)) <= _r_1(x_0_1, x_1_1)
  _r_1(enil, enil) <= True
}
;
_r_2 ->
{
  _r_2(econs(x_0_0, x_0_1), econs(x_1_0, x_1_1)) <= _r_2(x_0_1, x_1_1)
  _r_2(enil, econs(x_1_0, x_1_1)) <= True
}
;
_r_3 ->
{
  _r_3(s(x_0_0)) <= _r_4(x_0_0)
}
;
_r_4 ->
{
  _r_4(s(x_0_0)) <= _r_3(x_0_0)
  _r_4(z) <= True
}
;
append_elt ->
{
  append_elt(econs(x_0_0, x_0_1), econs(x_1_0, x_1_1), econs(x_2_0, x_2_1)) <= _r_2(x_0_1, x_2_1) /\ _r_2(x_1_1, x_2_1)
  append_elt(econs(x_0_0, x_0_1), enil, econs(x_2_0, x_2_1)) <= _r_1(x_0_1, x_2_1)
  append_elt(enil, econs(x_1_0, x_1_1), econs(x_2_0, x_2_1)) <= _r_1(x_1_1, x_2_1)
  append_elt(enil, enil, enil) <= True
}
;
length_elt ->
{
  length_elt(econs(x_0_0, x_0_1), s(x_1_0)) <= length_elt(x_0_1, x_1_0)
  length_elt(enil, z) <= True
}
;
plus ->
{
  plus(s(x_0_0), s(x_1_0), s(x_2_0)) <= _r_3(x_0_0)
  plus(s(x_0_0), s(x_1_0), s(x_2_0)) <= _r_3(x_1_0) /\ _r_4(x_2_0)
  plus(s(x_0_0), s(x_1_0), s(x_2_0)) <= _r_3(x_2_0) /\ _r_4(x_1_0)
  plus(s(x_0_0), z, s(x_2_0)) <= _r_3(x_0_0) /\ _r_3(x_2_0)
  plus(s(x_0_0), z, s(x_2_0)) <= _r_4(x_0_0) /\ _r_4(x_2_0)
  plus(z, s(x_1_0), s(x_2_0)) <= _r_3(x_1_0) /\ _r_3(x_2_0)
  plus(z, s(x_1_0), s(x_2_0)) <= _r_4(x_1_0) /\ _r_4(x_2_0)
  plus(z, z, z) <= True
}

--
Equality automata are defined for: {elist, elt, nat}
_|


Answer of teacher:


append_elt(enil, l2, l2) <= True -> No: ()
length_elt(enil, z) <= True -> No: ()
plus(n, z, n) <= True -> No: ()
eq_nat(_ota, _qta) <= append_elt(l1, l2, _pta) /\ length_elt(_pta, _ota) /\ length_elt(l1, _rta) /\ length_elt(l2, _sta) /\ plus(_rta, _sta, _qta) -> Yes: {
_ota -> s(z)  ;  _pta -> econs(_pta_0, enil)  ;  _qta -> s(s(s(z)))  ;  _rta -> z  ;  _sta -> s(z)  ;  l1 -> enil  ;  l2 -> econs(l2_0, enil)
}
append_elt(econs(h1, t1), l2, econs(h1, _ata)) <= append_elt(t1, l2, _ata) -> No: ()
length_elt(econs(x, ll), s(_fta)) <= length_elt(ll, _fta) -> No: ()
plus(n, s(mm), s(_jta)) <= plus(n, mm, _jta) -> No: ()



-------------------------------------------
Step 21, which took 22.134855 s (model generation: 22.133438,  model checking: 0.001417):

Ground examples at the beginning of this step are:
{
append_elt(econs(a, econs(a, enil)), econs(a, enil), econs(a, econs(a, econs(a, enil)))) <= True
append_elt(econs(a, econs(a, enil)), enil, econs(a, econs(a, enil))) <= True
append_elt(econs(a, enil), econs(a, econs(a, enil)), econs(a, econs(a, econs(a, enil)))) <= True
append_elt(econs(a, enil), econs(a, enil), econs(a, econs(a, enil))) <= True
append_elt(econs(a, enil), enil, econs(a, enil)) <= True
append_elt(enil, econs(a, econs(a, enil)), econs(a, econs(a, enil))) <= True
append_elt(enil, econs(a, enil), econs(a, enil)) <= True
append_elt(enil, enil, enil) <= True
length_elt(econs(a, econs(a, enil)), s(s(z))) <= True
length_elt(econs(a, enil), s(z)) <= True
length_elt(enil, z) <= True
plus(s(s(s(z))), z, s(s(s(z)))) <= True
plus(s(s(z)), s(z), s(s(s(z)))) <= True
plus(s(s(z)), z, s(s(z))) <= True
plus(s(z), s(s(z)), s(s(s(z)))) <= True
plus(s(z), s(z), s(s(z))) <= True
plus(s(z), z, s(z)) <= True
plus(z, s(s(s(z))), s(s(s(z)))) <= True
plus(z, s(s(z)), s(s(z))) <= True
plus(z, s(z), s(z)) <= True
plus(z, z, z) <= True
False <= append_elt(econs(a, econs(a, enil)), econs(a, econs(a, econs(a, enil))), econs(a, econs(a, enil))) /\ length_elt(econs(a, econs(a, econs(a, enil))), s(s(s(z)))) /\ plus(s(s(z)), s(s(s(z))), s(z))
False <= append_elt(econs(a, econs(a, enil)), econs(a, econs(a, enil)), econs(a, econs(a, enil))) /\ plus(s(s(z)), s(s(z)), s(z))
append_elt(econs(a, econs(a, econs(a, enil))), econs(a, econs(a, enil)), econs(a, econs(a, enil))) <= append_elt(econs(a, econs(a, enil)), econs(a, econs(a, enil)), econs(a, enil))
False <= append_elt(econs(a, econs(a, enil)), econs(a, econs(a, enil)), econs(a, enil)) /\ plus(s(s(z)), s(s(z)), s(s(z)))
False <= append_elt(econs(a, econs(a, enil)), econs(a, enil), econs(a, econs(a, enil))) /\ plus(s(s(z)), s(z), s(z))
False <= append_elt(econs(a, econs(a, enil)), enil, econs(a, enil))
append_elt(econs(a, econs(a, enil)), econs(a, econs(a, enil)), econs(a, econs(a, econs(a, enil)))) <= append_elt(econs(a, enil), econs(a, econs(a, enil)), econs(a, econs(a, enil)))
False <= append_elt(econs(a, enil), econs(a, econs(a, enil)), econs(a, econs(a, enil))) /\ plus(s(z), s(s(z)), s(z))
False <= append_elt(econs(a, enil), econs(a, enil), econs(a, enil))
False <= append_elt(econs(a, enil), enil, econs(a, econs(a, enil)))
append_elt(econs(a, enil), econs(a, econs(a, econs(a, enil))), econs(a, econs(a, econs(a, enil)))) <= append_elt(enil, econs(a, econs(a, econs(a, enil))), econs(a, econs(a, enil)))
False <= append_elt(enil, econs(a, econs(a, enil)), econs(a, enil))
False <= append_elt(enil, econs(a, enil), econs(a, econs(a, enil)))
False <= length_elt(econs(a, econs(a, enil)), s(z))
False <= length_elt(econs(a, enil), s(s(z)))
plus(s(s(z)), s(s(z)), s(s(s(z)))) <= plus(s(s(z)), s(z), s(s(z)))
plus(s(s(z)), s(s(z)), s(s(z))) <= plus(s(s(z)), s(z), s(z))
False <= plus(s(s(z)), z, s(z))
plus(s(z), s(s(s(z))), s(s(s(z)))) <= plus(s(z), s(s(z)), s(s(z)))
False <= plus(s(z), s(z), s(s(s(z))))
False <= plus(s(z), s(z), s(z))
False <= plus(s(z), z, s(s(z)))
False <= plus(z, s(s(z)), s(s(s(z))))
plus(z, s(s(s(z))), s(s(z))) <= plus(z, s(s(z)), s(z))
False <= plus(z, s(z), s(s(s(z))))
False <= plus(z, s(z), s(s(z)))
}

Learner proposed model:
Found Model:
|_

_r_1 ->
{
  _r_1(s(x_0_0), s(x_1_0)) <= _r_1(x_0_0, x_1_0)
  _r_1(z, z) <= True
}
;
_r_2 ->
{
  _r_2(s(x_0_0), s(x_1_0)) <= True
  _r_2(z, s(x_1_0)) <= _r_5(x_1_0)
}
;
_r_3 ->
{
  _r_3(econs(x_0_0, x_0_1), econs(x_1_0, x_1_1)) <= True
  _r_3(enil, enil) <= True
}
;
_r_4 ->
{
  _r_4(econs(x_0_0, x_0_1), econs(x_1_0, x_1_1)) <= True
  _r_4(enil, econs(x_1_0, x_1_1)) <= True
}
;
_r_5 ->
{
  _r_5(z) <= True
}
;
append_elt ->
{
  append_elt(econs(x_0_0, x_0_1), econs(x_1_0, x_1_1), econs(x_2_0, x_2_1)) <= _r_4(x_0_1, x_2_1) /\ _r_4(x_1_1, x_2_1)
  append_elt(econs(x_0_0, x_0_1), enil, econs(x_2_0, x_2_1)) <= _r_3(x_0_1, x_2_1)
  append_elt(enil, econs(x_1_0, x_1_1), econs(x_2_0, x_2_1)) <= _r_3(x_1_1, x_2_1)
  append_elt(enil, enil, enil) <= True
}
;
length_elt ->
{
  length_elt(econs(x_0_0, x_0_1), s(x_1_0)) <= length_elt(x_0_1, x_1_0)
  length_elt(enil, z) <= True
}
;
plus ->
{
  plus(s(x_0_0), s(x_1_0), s(x_2_0)) <= _r_2(x_0_0, x_2_0)
  plus(s(x_0_0), s(x_1_0), s(x_2_0)) <= _r_2(x_1_0, x_2_0)
  plus(s(x_0_0), z, s(x_2_0)) <= _r_1(x_0_0, x_2_0)
  plus(z, s(x_1_0), s(x_2_0)) <= _r_1(x_1_0, x_2_0)
  plus(z, z, z) <= True
}

--
Equality automata are defined for: {elist, elt, nat}
_|


Answer of teacher:


append_elt(enil, l2, l2) <= True -> No: ()
length_elt(enil, z) <= True -> No: ()
plus(n, z, n) <= True -> No: ()
eq_nat(_ota, _qta) <= append_elt(l1, l2, _pta) /\ length_elt(_pta, _ota) /\ length_elt(l1, _rta) /\ length_elt(l2, _sta) /\ plus(_rta, _sta, _qta) -> Yes: {
_ota -> s(s(z))  ;  _pta -> econs(_pta_0, econs(v4_0, enil))  ;  _qta -> s(s(s(v1_0)))  ;  _rta -> s(s(z))  ;  _sta -> s(s(z))  ;  l1 -> econs(l1_0, econs(v3_0, enil))  ;  l2 -> econs(l2_0, econs(v3_0, enil))
}
length_elt(econs(x, ll), s(_fta)) <= length_elt(ll, _fta) -> No: ()



Ground examples:
{
append_elt(econs(a, econs(a, enil)), econs(a, enil), econs(a, econs(a, econs(a, enil)))) <= True
append_elt(econs(a, econs(a, enil)), enil, econs(a, econs(a, enil))) <= True
append_elt(econs(a, enil), econs(a, econs(a, enil)), econs(a, econs(a, econs(a, enil)))) <= True
append_elt(econs(a, enil), econs(a, enil), econs(a, econs(a, enil))) <= True
append_elt(econs(a, enil), enil, econs(a, enil)) <= True
append_elt(enil, econs(a, econs(a, enil)), econs(a, econs(a, enil))) <= True
append_elt(enil, econs(a, enil), econs(a, enil)) <= True
append_elt(enil, enil, enil) <= True
length_elt(econs(a, econs(a, enil)), s(s(z))) <= True
length_elt(econs(a, enil), s(z)) <= True
length_elt(enil, z) <= True
plus(s(s(s(z))), z, s(s(s(z)))) <= True
plus(s(s(z)), s(z), s(s(s(z)))) <= True
plus(s(s(z)), z, s(s(z))) <= True
plus(s(z), s(s(z)), s(s(s(z)))) <= True
plus(s(z), s(z), s(s(z))) <= True
plus(s(z), z, s(z)) <= True
plus(z, s(s(s(z))), s(s(s(z)))) <= True
plus(z, s(s(z)), s(s(z))) <= True
plus(z, s(z), s(z)) <= True
plus(z, z, z) <= True
False <= append_elt(econs(a, econs(a, enil)), econs(a, econs(a, econs(a, enil))), econs(a, econs(a, enil))) /\ length_elt(econs(a, econs(a, econs(a, enil))), s(s(s(z)))) /\ plus(s(s(z)), s(s(s(z))), s(z))
False <= append_elt(econs(a, econs(a, enil)), econs(a, econs(a, enil)), econs(a, econs(a, enil))) /\ plus(s(s(z)), s(s(z)), s(s(s(z))))
False <= append_elt(econs(a, econs(a, enil)), econs(a, econs(a, enil)), econs(a, econs(a, enil))) /\ plus(s(s(z)), s(s(z)), s(z))
append_elt(econs(a, econs(a, econs(a, enil))), econs(a, econs(a, enil)), econs(a, econs(a, enil))) <= append_elt(econs(a, econs(a, enil)), econs(a, econs(a, enil)), econs(a, enil))
False <= append_elt(econs(a, econs(a, enil)), econs(a, econs(a, enil)), econs(a, enil)) /\ plus(s(s(z)), s(s(z)), s(s(z)))
False <= append_elt(econs(a, econs(a, enil)), econs(a, enil), econs(a, econs(a, enil))) /\ plus(s(s(z)), s(z), s(z))
False <= append_elt(econs(a, econs(a, enil)), enil, econs(a, enil))
append_elt(econs(a, econs(a, enil)), econs(a, econs(a, enil)), econs(a, econs(a, econs(a, enil)))) <= append_elt(econs(a, enil), econs(a, econs(a, enil)), econs(a, econs(a, enil)))
False <= append_elt(econs(a, enil), econs(a, econs(a, enil)), econs(a, econs(a, enil))) /\ plus(s(z), s(s(z)), s(z))
False <= append_elt(econs(a, enil), econs(a, enil), econs(a, enil))
False <= append_elt(econs(a, enil), enil, econs(a, econs(a, enil)))
append_elt(econs(a, enil), econs(a, econs(a, econs(a, enil))), econs(a, econs(a, econs(a, enil)))) <= append_elt(enil, econs(a, econs(a, econs(a, enil))), econs(a, econs(a, enil)))
False <= append_elt(enil, econs(a, econs(a, enil)), econs(a, enil))
False <= append_elt(enil, econs(a, enil), econs(a, econs(a, enil)))
False <= length_elt(econs(a, econs(a, enil)), s(z))
False <= length_elt(econs(a, enil), s(s(z)))
plus(s(s(z)), s(s(z)), s(s(s(z)))) <= plus(s(s(z)), s(z), s(s(z)))
plus(s(s(z)), s(s(z)), s(s(z))) <= plus(s(s(z)), s(z), s(z))
False <= plus(s(s(z)), z, s(z))
plus(s(z), s(s(s(z))), s(s(s(z)))) <= plus(s(z), s(s(z)), s(s(z)))
False <= plus(s(z), s(z), s(s(s(z))))
False <= plus(s(z), s(z), s(z))
False <= plus(s(z), z, s(s(z)))
False <= plus(z, s(s(z)), s(s(s(z))))
plus(z, s(s(s(z))), s(s(z))) <= plus(z, s(s(z)), s(z))
False <= plus(z, s(z), s(s(s(z))))
False <= plus(z, s(z), s(s(z)))
}

Learner output:
Maybe

Last ice step stopped before teacher could answer
Total time: 40.970607
Learner time: 39.920578
Teacher time: 0.028690
Reasons for stopping: Maybe:  timeout during learner
Last solver state:

Clauses:
{
append_elt(enil, l2, l2) <= True
length_elt(enil, z) <= True
plus(n, z, n) <= True
eq_nat(_ota, _qta) <= append_elt(l1, l2, _pta) /\ length_elt(_pta, _ota) /\ length_elt(l1, _rta) /\ length_elt(l2, _sta) /\ plus(_rta, _sta, _qta)
append_elt(econs(h1, t1), l2, econs(h1, _ata)) <= append_elt(t1, l2, _ata)
length_elt(econs(x, ll), s(_fta)) <= length_elt(ll, _fta)
plus(n, s(mm), s(_jta)) <= plus(n, mm, _jta)
}

Accumulated learning constraints:
{
append_elt(econs(a, econs(a, enil)), econs(a, enil), econs(a, econs(a, econs(a, enil)))) <= True
append_elt(econs(a, econs(a, enil)), enil, econs(a, econs(a, enil))) <= True
append_elt(econs(a, enil), econs(a, econs(a, enil)), econs(a, econs(a, econs(a, enil)))) <= True
append_elt(econs(a, enil), econs(a, enil), econs(a, econs(a, enil))) <= True
append_elt(econs(a, enil), enil, econs(a, enil)) <= True
append_elt(enil, econs(a, econs(a, enil)), econs(a, econs(a, enil))) <= True
append_elt(enil, econs(a, enil), econs(a, enil)) <= True
append_elt(enil, enil, enil) <= True
length_elt(econs(a, econs(a, enil)), s(s(z))) <= True
length_elt(econs(a, enil), s(z)) <= True
length_elt(enil, z) <= True
plus(s(s(s(z))), z, s(s(s(z)))) <= True
plus(s(s(z)), s(z), s(s(s(z)))) <= True
plus(s(s(z)), z, s(s(z))) <= True
plus(s(z), s(s(z)), s(s(s(z)))) <= True
plus(s(z), s(z), s(s(z))) <= True
plus(s(z), z, s(z)) <= True
plus(z, s(s(s(z))), s(s(s(z)))) <= True
plus(z, s(s(z)), s(s(z))) <= True
plus(z, s(z), s(z)) <= True
plus(z, z, z) <= True
False <= append_elt(econs(a, econs(a, enil)), econs(a, econs(a, econs(a, enil))), econs(a, econs(a, enil))) /\ length_elt(econs(a, econs(a, econs(a, enil))), s(s(s(z)))) /\ plus(s(s(z)), s(s(s(z))), s(z))
False <= append_elt(econs(a, econs(a, enil)), econs(a, econs(a, enil)), econs(a, econs(a, enil))) /\ plus(s(s(z)), s(s(z)), s(s(s(z))))
False <= append_elt(econs(a, econs(a, enil)), econs(a, econs(a, enil)), econs(a, econs(a, enil))) /\ plus(s(s(z)), s(s(z)), s(z))
append_elt(econs(a, econs(a, econs(a, enil))), econs(a, econs(a, enil)), econs(a, econs(a, enil))) <= append_elt(econs(a, econs(a, enil)), econs(a, econs(a, enil)), econs(a, enil))
False <= append_elt(econs(a, econs(a, enil)), econs(a, econs(a, enil)), econs(a, enil)) /\ plus(s(s(z)), s(s(z)), s(s(z)))
False <= append_elt(econs(a, econs(a, enil)), econs(a, enil), econs(a, econs(a, enil))) /\ plus(s(s(z)), s(z), s(z))
False <= append_elt(econs(a, econs(a, enil)), enil, econs(a, enil))
append_elt(econs(a, econs(a, enil)), econs(a, econs(a, enil)), econs(a, econs(a, econs(a, enil)))) <= append_elt(econs(a, enil), econs(a, econs(a, enil)), econs(a, econs(a, enil)))
False <= append_elt(econs(a, enil), econs(a, econs(a, enil)), econs(a, econs(a, enil))) /\ plus(s(z), s(s(z)), s(z))
False <= append_elt(econs(a, enil), econs(a, enil), econs(a, enil))
False <= append_elt(econs(a, enil), enil, econs(a, econs(a, enil)))
append_elt(econs(a, enil), econs(a, econs(a, econs(a, enil))), econs(a, econs(a, econs(a, enil)))) <= append_elt(enil, econs(a, econs(a, econs(a, enil))), econs(a, econs(a, enil)))
False <= append_elt(enil, econs(a, econs(a, enil)), econs(a, enil))
False <= append_elt(enil, econs(a, enil), econs(a, econs(a, enil)))
False <= length_elt(econs(a, econs(a, enil)), s(z))
False <= length_elt(econs(a, enil), s(s(z)))
plus(s(s(z)), s(s(z)), s(s(s(z)))) <= plus(s(s(z)), s(z), s(s(z)))
plus(s(s(z)), s(s(z)), s(s(z))) <= plus(s(s(z)), s(z), s(z))
False <= plus(s(s(z)), z, s(z))
plus(s(z), s(s(s(z))), s(s(s(z)))) <= plus(s(z), s(s(z)), s(s(z)))
False <= plus(s(z), s(z), s(s(s(z))))
False <= plus(s(z), s(z), s(z))
False <= plus(s(z), z, s(s(z)))
False <= plus(z, s(s(z)), s(s(s(z))))
plus(z, s(s(s(z))), s(s(z))) <= plus(z, s(s(z)), s(z))
False <= plus(z, s(z), s(s(s(z))))
False <= plus(z, s(z), s(s(z)))
}

Current best model:
|_

_r_1 ->
{
  _r_1(s(x_0_0), s(x_1_0)) <= _r_1(x_0_0, x_1_0)
  _r_1(z, z) <= True
}
;
_r_2 ->
{
  _r_2(s(x_0_0), s(x_1_0)) <= True
  _r_2(z, s(x_1_0)) <= _r_5(x_1_0)
}
;
_r_3 ->
{
  _r_3(econs(x_0_0, x_0_1), econs(x_1_0, x_1_1)) <= True
  _r_3(enil, enil) <= True
}
;
_r_4 ->
{
  _r_4(econs(x_0_0, x_0_1), econs(x_1_0, x_1_1)) <= True
  _r_4(enil, econs(x_1_0, x_1_1)) <= True
}
;
_r_5 ->
{
  _r_5(z) <= True
}
;
append_elt ->
{
  append_elt(econs(x_0_0, x_0_1), econs(x_1_0, x_1_1), econs(x_2_0, x_2_1)) <= _r_4(x_0_1, x_2_1) /\ _r_4(x_1_1, x_2_1)
  append_elt(econs(x_0_0, x_0_1), enil, econs(x_2_0, x_2_1)) <= _r_3(x_0_1, x_2_1)
  append_elt(enil, econs(x_1_0, x_1_1), econs(x_2_0, x_2_1)) <= _r_3(x_1_1, x_2_1)
  append_elt(enil, enil, enil) <= True
}
;
length_elt ->
{
  length_elt(econs(x_0_0, x_0_1), s(x_1_0)) <= length_elt(x_0_1, x_1_0)
  length_elt(enil, z) <= True
}
;
plus ->
{
  plus(s(x_0_0), s(x_1_0), s(x_2_0)) <= _r_2(x_0_0, x_2_0)
  plus(s(x_0_0), s(x_1_0), s(x_2_0)) <= _r_2(x_1_0, x_2_0)
  plus(s(x_0_0), z, s(x_2_0)) <= _r_1(x_0_0, x_2_0)
  plus(z, s(x_1_0), s(x_2_0)) <= _r_1(x_1_0, x_2_0)
  plus(z, z, z) <= True
}

--
Equality automata are defined for: {elist, elt, nat}
_|








