Solving ../../benchmarks/smtlib/true/isaplanner_prop20.smt2...

Inference procedure has parameters:
Timeout: Some(40.) (sec)
Approximation method: remove functionnality constraint where possible



Learning problem is:

env: {
nat -> {s, z}  ;  natlist -> {ncons, nnil}
}
definition:
{
(leq_nat, P:
{
leq_nat(z, n2) <= True
leq_nat(s(nn1), s(nn2)) <= leq_nat(nn1, nn2)
leq_nat(nn1, nn2) <= leq_nat(s(nn1), s(nn2))
False <= leq_nat(s(nn1), z)
}
)
(insert_nat, F:
{
insert_nat(x, nnil, ncons(x, nnil)) <= True
insert_nat(x, ncons(y, z), ncons(y, _vwa)) \/ leq_nat(x, y) <= insert_nat(x, z, _vwa)
insert_nat(x, ncons(y, z), ncons(x, ncons(y, z))) <= leq_nat(x, y)
}
eq_natlist(_ywa, _zwa) <= insert_nat(_wwa, _xwa, _ywa) /\ insert_nat(_wwa, _xwa, _zwa)
)
(sort_nat, F:
{
sort_nat(nnil, nnil) <= True
sort_nat(ncons(y, z), _axa) <= insert_nat(y, _bxa, _axa) /\ sort_nat(z, _bxa)
}
eq_natlist(_dxa, _exa) <= sort_nat(_cxa, _dxa) /\ sort_nat(_cxa, _exa)
)
(length_nat, F:
{
length_nat(nnil, z) <= True
length_nat(ncons(x, ll), s(_fxa)) <= length_nat(ll, _fxa)
}
eq_nat(_hxa, _ixa) <= length_nat(_gxa, _hxa) /\ length_nat(_gxa, _ixa)
)
}

properties:
{
eq_nat(_jxa, _kxa) <= length_nat(_lxa, _kxa) /\ length_nat(l, _jxa) /\ sort_nat(l, _lxa)
}


over-approximation: {insert_nat, length_nat, sort_nat}
under-approximation: {}

Clause system for inference is:

{
insert_nat(x, nnil, ncons(x, nnil)) <= True
length_nat(nnil, z) <= True
leq_nat(z, n2) <= True
sort_nat(nnil, nnil) <= True
insert_nat(x, ncons(y, z), ncons(y, _vwa)) \/ leq_nat(x, y) <= insert_nat(x, z, _vwa)
sort_nat(ncons(y, z), _axa) <= insert_nat(y, _bxa, _axa) /\ sort_nat(z, _bxa)
eq_nat(_jxa, _kxa) <= length_nat(_lxa, _kxa) /\ length_nat(l, _jxa) /\ sort_nat(l, _lxa)
length_nat(ncons(x, ll), s(_fxa)) <= length_nat(ll, _fxa)
leq_nat(s(nn1), s(nn2)) <= leq_nat(nn1, nn2)
insert_nat(x, ncons(y, z), ncons(x, ncons(y, z))) <= leq_nat(x, y)
leq_nat(nn1, nn2) <= leq_nat(s(nn1), s(nn2))
False <= leq_nat(s(nn1), z)
}


Solving took 0.689506 seconds.
Yes: |_

_r_1 ->
{
  _r_1(ncons(x_0_0, x_0_1), ncons(x_1_0, x_1_1)) <= _r_1(x_0_1, x_1_1)
  _r_1(nnil, ncons(x_1_0, x_1_1)) <= _r_2(x_1_1)
}
;
_r_2 ->
{
  _r_2(nnil) <= True
}
;
insert_nat ->
{
  insert_nat(s(x_0_0), ncons(x_1_0, x_1_1), ncons(x_2_0, x_2_1)) <= _r_1(x_1_1, x_2_1)
  insert_nat(s(x_0_0), nnil, ncons(x_2_0, x_2_1)) <= _r_2(x_2_1)
  insert_nat(z, ncons(x_1_0, x_1_1), ncons(x_2_0, x_2_1)) <= _r_1(x_1_1, x_2_1)
  insert_nat(z, nnil, ncons(x_2_0, x_2_1)) <= _r_2(x_2_1)
}
;
length_nat ->
{
  length_nat(ncons(x_0_0, x_0_1), s(x_1_0)) <= length_nat(x_0_1, x_1_0)
  length_nat(nnil, z) <= True
}
;
leq_nat ->
{
  leq_nat(s(x_0_0), s(x_1_0)) <= leq_nat(x_0_0, x_1_0)
  leq_nat(z, s(x_1_0)) <= True
  leq_nat(z, z) <= True
}
;
sort_nat ->
{
  sort_nat(ncons(x_0_0, x_0_1), ncons(x_1_0, x_1_1)) <= sort_nat(x_0_1, x_1_1)
  sort_nat(nnil, nnil) <= True
}

--
Equality automata are defined for: {nat, natlist}
_|
-------------------
STEPS:
-------------------------------------------
Step 0, which took 0.007196 s (model generation: 0.007029,  model checking: 0.000167):

Ground examples at the beginning of this step are:
{

}

Learner proposed model:
Found Model:
|_

insert_nat ->
{
  
}
;
length_nat ->
{
  
}
;
leq_nat ->
{
  
}
;
sort_nat ->
{
  
}

--
Equality automata are defined for: {nat, natlist}
_|


Answer of teacher:


insert_nat(x, nnil, ncons(x, nnil)) <= True -> Yes: {
x -> z
}
length_nat(nnil, z) <= True -> Yes: {

}
leq_nat(z, n2) <= True -> Yes: {
n2 -> z
}
sort_nat(nnil, nnil) <= True -> Yes: {

}
insert_nat(x, ncons(y, z), ncons(y, _vwa)) \/ leq_nat(x, y) <= insert_nat(x, z, _vwa) -> No: ()
sort_nat(ncons(y, z), _axa) <= insert_nat(y, _bxa, _axa) /\ sort_nat(z, _bxa) -> No: ()
eq_nat(_jxa, _kxa) <= length_nat(_lxa, _kxa) /\ length_nat(l, _jxa) /\ sort_nat(l, _lxa) -> No: ()
length_nat(ncons(x, ll), s(_fxa)) <= length_nat(ll, _fxa) -> No: ()
leq_nat(s(nn1), s(nn2)) <= leq_nat(nn1, nn2) -> No: ()
insert_nat(x, ncons(y, z), ncons(x, ncons(y, z))) <= leq_nat(x, y) -> No: ()
leq_nat(nn1, nn2) <= leq_nat(s(nn1), s(nn2)) -> No: ()
False <= leq_nat(s(nn1), z) -> No: ()



-------------------------------------------
Step 1, which took 0.007152 s (model generation: 0.007048,  model checking: 0.000104):

Ground examples at the beginning of this step are:
{
insert_nat(z, nnil, ncons(z, nnil)) <= True
length_nat(nnil, z) <= True
leq_nat(z, z) <= True
sort_nat(nnil, nnil) <= True
}

Learner proposed model:
Found Model:
|_

insert_nat ->
{
  insert_nat(z, nnil, ncons(x_2_0, x_2_1)) <= True
}
;
length_nat ->
{
  length_nat(nnil, z) <= True
}
;
leq_nat ->
{
  leq_nat(z, z) <= True
}
;
sort_nat ->
{
  sort_nat(nnil, nnil) <= True
}

--
Equality automata are defined for: {nat, natlist}
_|


Answer of teacher:


insert_nat(x, nnil, ncons(x, nnil)) <= True -> Yes: {
x -> s(x_0)
}
length_nat(nnil, z) <= True -> No: ()
leq_nat(z, n2) <= True -> Yes: {
n2 -> s(n2_0)
}
sort_nat(nnil, nnil) <= True -> No: ()
insert_nat(x, ncons(y, z), ncons(y, _vwa)) \/ leq_nat(x, y) <= insert_nat(x, z, _vwa) -> Yes: {
_vwa -> ncons(_vwa_0, _vwa_1)  ;  x -> z  ;  y -> s(y_0)  ;  z -> nnil
}
sort_nat(ncons(y, z), _axa) <= insert_nat(y, _bxa, _axa) /\ sort_nat(z, _bxa) -> Yes: {
_axa -> ncons(_axa_0, _axa_1)  ;  _bxa -> nnil  ;  y -> z  ;  z -> nnil
}
eq_nat(_jxa, _kxa) <= length_nat(_lxa, _kxa) /\ length_nat(l, _jxa) /\ sort_nat(l, _lxa) -> No: ()
length_nat(ncons(x, ll), s(_fxa)) <= length_nat(ll, _fxa) -> Yes: {
_fxa -> z  ;  ll -> nnil
}
leq_nat(s(nn1), s(nn2)) <= leq_nat(nn1, nn2) -> Yes: {
nn1 -> z  ;  nn2 -> z
}
insert_nat(x, ncons(y, z), ncons(x, ncons(y, z))) <= leq_nat(x, y) -> Yes: {
x -> z  ;  y -> z
}
leq_nat(nn1, nn2) <= leq_nat(s(nn1), s(nn2)) -> No: ()
False <= leq_nat(s(nn1), z) -> No: ()



-------------------------------------------
Step 2, which took 0.010005 s (model generation: 0.009898,  model checking: 0.000107):

Ground examples at the beginning of this step are:
{
insert_nat(s(z), nnil, ncons(s(z), nnil)) <= True
insert_nat(z, ncons(z, nnil), ncons(z, ncons(z, nnil))) <= True
insert_nat(z, nnil, ncons(z, nnil)) <= True
length_nat(ncons(z, nnil), s(z)) <= True
length_nat(nnil, z) <= True
leq_nat(s(z), s(z)) <= True
leq_nat(z, s(z)) <= True
leq_nat(z, z) <= True
sort_nat(ncons(z, nnil), ncons(z, nnil)) <= True
sort_nat(nnil, nnil) <= True
}

Learner proposed model:
Found Model:
|_

insert_nat ->
{
  insert_nat(s(x_0_0), nnil, ncons(x_2_0, x_2_1)) <= True
  insert_nat(z, ncons(x_1_0, x_1_1), ncons(x_2_0, x_2_1)) <= True
  insert_nat(z, nnil, ncons(x_2_0, x_2_1)) <= True
}
;
length_nat ->
{
  length_nat(ncons(x_0_0, x_0_1), s(x_1_0)) <= True
  length_nat(nnil, z) <= True
}
;
leq_nat ->
{
  leq_nat(s(x_0_0), s(x_1_0)) <= True
  leq_nat(z, s(x_1_0)) <= True
  leq_nat(z, z) <= True
}
;
sort_nat ->
{
  sort_nat(ncons(x_0_0, x_0_1), ncons(x_1_0, x_1_1)) <= True
  sort_nat(nnil, nnil) <= True
}

--
Equality automata are defined for: {nat, natlist}
_|


Answer of teacher:


insert_nat(x, nnil, ncons(x, nnil)) <= True -> No: ()
length_nat(nnil, z) <= True -> No: ()
leq_nat(z, n2) <= True -> No: ()
sort_nat(nnil, nnil) <= True -> No: ()
insert_nat(x, ncons(y, z), ncons(y, _vwa)) \/ leq_nat(x, y) <= insert_nat(x, z, _vwa) -> Yes: {
_vwa -> ncons(_vwa_0, _vwa_1)  ;  x -> s(x_0)  ;  y -> z  ;  z -> nnil
}
sort_nat(ncons(y, z), _axa) <= insert_nat(y, _bxa, _axa) /\ sort_nat(z, _bxa) -> No: ()
eq_nat(_jxa, _kxa) <= length_nat(_lxa, _kxa) /\ length_nat(l, _jxa) /\ sort_nat(l, _lxa) -> Yes: {
_jxa -> s(z)  ;  _kxa -> s(s(v1_0))  ;  _lxa -> ncons(_lxa_0, _lxa_1)  ;  l -> ncons(l_0, l_1)
}
length_nat(ncons(x, ll), s(_fxa)) <= length_nat(ll, _fxa) -> No: ()
leq_nat(s(nn1), s(nn2)) <= leq_nat(nn1, nn2) -> No: ()
insert_nat(x, ncons(y, z), ncons(x, ncons(y, z))) <= leq_nat(x, y) -> Yes: {
x -> s(x_0)  ;  y -> s(y_0)
}
leq_nat(nn1, nn2) <= leq_nat(s(nn1), s(nn2)) -> Yes: {
nn1 -> s(v0_0)  ;  nn2 -> z
}
False <= leq_nat(s(nn1), z) -> No: ()



-------------------------------------------
Step 3, which took 0.012967 s (model generation: 0.012799,  model checking: 0.000168):

Ground examples at the beginning of this step are:
{
insert_nat(s(z), ncons(s(z), nnil), ncons(s(z), ncons(s(z), nnil))) <= True
insert_nat(s(z), nnil, ncons(s(z), nnil)) <= True
insert_nat(z, ncons(z, nnil), ncons(z, ncons(z, nnil))) <= True
insert_nat(z, nnil, ncons(z, nnil)) <= True
length_nat(ncons(z, nnil), s(z)) <= True
length_nat(nnil, z) <= True
leq_nat(s(z), s(z)) <= True
leq_nat(z, s(z)) <= True
leq_nat(z, z) <= True
sort_nat(ncons(z, nnil), ncons(z, nnil)) <= True
sort_nat(nnil, nnil) <= True
insert_nat(s(z), ncons(z, nnil), ncons(z, ncons(z, nnil))) \/ leq_nat(s(z), z) <= insert_nat(s(z), nnil, ncons(z, nnil))
False <= length_nat(ncons(z, nnil), s(s(z)))
leq_nat(s(z), z) <= leq_nat(s(s(z)), s(z))
}

Learner proposed model:
Found Model:
|_

insert_nat ->
{
  insert_nat(s(x_0_0), ncons(x_1_0, x_1_1), ncons(x_2_0, x_2_1)) <= True
  insert_nat(s(x_0_0), nnil, ncons(x_2_0, x_2_1)) <= True
  insert_nat(z, ncons(x_1_0, x_1_1), ncons(x_2_0, x_2_1)) <= True
  insert_nat(z, nnil, ncons(x_2_0, x_2_1)) <= True
}
;
length_nat ->
{
  length_nat(ncons(x_0_0, x_0_1), s(x_1_0)) <= length_nat(x_0_1, x_1_0)
  length_nat(nnil, z) <= True
}
;
leq_nat ->
{
  leq_nat(s(x_0_0), s(x_1_0)) <= True
  leq_nat(s(x_0_0), z) <= True
  leq_nat(z, s(x_1_0)) <= True
  leq_nat(z, z) <= True
}
;
sort_nat ->
{
  sort_nat(ncons(x_0_0, x_0_1), ncons(x_1_0, x_1_1)) <= True
  sort_nat(nnil, nnil) <= True
}

--
Equality automata are defined for: {nat, natlist}
_|


Answer of teacher:


insert_nat(x, nnil, ncons(x, nnil)) <= True -> No: ()
length_nat(nnil, z) <= True -> No: ()
leq_nat(z, n2) <= True -> No: ()
sort_nat(nnil, nnil) <= True -> No: ()
insert_nat(x, ncons(y, z), ncons(y, _vwa)) \/ leq_nat(x, y) <= insert_nat(x, z, _vwa) -> No: ()
sort_nat(ncons(y, z), _axa) <= insert_nat(y, _bxa, _axa) /\ sort_nat(z, _bxa) -> No: ()
eq_nat(_jxa, _kxa) <= length_nat(_lxa, _kxa) /\ length_nat(l, _jxa) /\ sort_nat(l, _lxa) -> Yes: {
_jxa -> s(z)  ;  _kxa -> s(s(z))  ;  _lxa -> ncons(_lxa_0, ncons(v2_0, nnil))  ;  l -> ncons(l_0, nnil)
}
length_nat(ncons(x, ll), s(_fxa)) <= length_nat(ll, _fxa) -> No: ()
leq_nat(s(nn1), s(nn2)) <= leq_nat(nn1, nn2) -> No: ()
insert_nat(x, ncons(y, z), ncons(x, ncons(y, z))) <= leq_nat(x, y) -> No: ()
leq_nat(nn1, nn2) <= leq_nat(s(nn1), s(nn2)) -> No: ()
False <= leq_nat(s(nn1), z) -> Yes: {

}



-------------------------------------------
Step 4, which took 0.013911 s (model generation: 0.013699,  model checking: 0.000212):

Ground examples at the beginning of this step are:
{
insert_nat(s(z), ncons(s(z), nnil), ncons(s(z), ncons(s(z), nnil))) <= True
insert_nat(s(z), nnil, ncons(s(z), nnil)) <= True
insert_nat(z, ncons(z, nnil), ncons(z, ncons(z, nnil))) <= True
insert_nat(z, nnil, ncons(z, nnil)) <= True
length_nat(ncons(z, nnil), s(z)) <= True
length_nat(nnil, z) <= True
leq_nat(s(z), s(z)) <= True
leq_nat(z, s(z)) <= True
leq_nat(z, z) <= True
sort_nat(ncons(z, nnil), ncons(z, nnil)) <= True
sort_nat(nnil, nnil) <= True
insert_nat(s(z), ncons(z, nnil), ncons(z, ncons(z, nnil))) <= insert_nat(s(z), nnil, ncons(z, nnil))
False <= length_nat(ncons(z, ncons(z, nnil)), s(s(z))) /\ sort_nat(ncons(z, nnil), ncons(z, ncons(z, nnil)))
False <= length_nat(ncons(z, nnil), s(s(z)))
False <= leq_nat(s(s(z)), s(z))
False <= leq_nat(s(z), z)
}

Learner proposed model:
Found Model:
|_

insert_nat ->
{
  insert_nat(s(x_0_0), ncons(x_1_0, x_1_1), ncons(x_2_0, x_2_1)) <= True
  insert_nat(s(x_0_0), nnil, ncons(x_2_0, x_2_1)) <= True
  insert_nat(z, ncons(x_1_0, x_1_1), ncons(x_2_0, x_2_1)) <= True
  insert_nat(z, nnil, ncons(x_2_0, x_2_1)) <= True
}
;
length_nat ->
{
  length_nat(ncons(x_0_0, x_0_1), s(x_1_0)) <= length_nat(x_0_1, x_1_0)
  length_nat(nnil, z) <= True
}
;
leq_nat ->
{
  leq_nat(s(x_0_0), s(x_1_0)) <= leq_nat(x_0_0, x_1_0)
  leq_nat(z, s(x_1_0)) <= True
  leq_nat(z, z) <= True
}
;
sort_nat ->
{
  sort_nat(ncons(x_0_0, x_0_1), ncons(x_1_0, x_1_1)) <= sort_nat(x_0_1, x_1_1)
  sort_nat(nnil, nnil) <= True
}

--
Equality automata are defined for: {nat, natlist}
_|


Answer of teacher:


insert_nat(x, nnil, ncons(x, nnil)) <= True -> No: ()
length_nat(nnil, z) <= True -> No: ()
leq_nat(z, n2) <= True -> No: ()
sort_nat(nnil, nnil) <= True -> No: ()
insert_nat(x, ncons(y, z), ncons(y, _vwa)) \/ leq_nat(x, y) <= insert_nat(x, z, _vwa) -> No: ()
sort_nat(ncons(y, z), _axa) <= insert_nat(y, _bxa, _axa) /\ sort_nat(z, _bxa) -> Yes: {
_axa -> ncons(_axa_0, ncons(v0_0, v0_1))  ;  _bxa -> nnil  ;  y -> z  ;  z -> nnil
}
eq_nat(_jxa, _kxa) <= length_nat(_lxa, _kxa) /\ length_nat(l, _jxa) /\ sort_nat(l, _lxa) -> No: ()
length_nat(ncons(x, ll), s(_fxa)) <= length_nat(ll, _fxa) -> No: ()
leq_nat(s(nn1), s(nn2)) <= leq_nat(nn1, nn2) -> No: ()
insert_nat(x, ncons(y, z), ncons(x, ncons(y, z))) <= leq_nat(x, y) -> No: ()
leq_nat(nn1, nn2) <= leq_nat(s(nn1), s(nn2)) -> No: ()
False <= leq_nat(s(nn1), z) -> No: ()



-------------------------------------------
Step 5, which took 0.024522 s (model generation: 0.024263,  model checking: 0.000259):

Ground examples at the beginning of this step are:
{
insert_nat(s(z), ncons(s(z), nnil), ncons(s(z), ncons(s(z), nnil))) <= True
insert_nat(s(z), nnil, ncons(s(z), nnil)) <= True
insert_nat(z, ncons(z, nnil), ncons(z, ncons(z, nnil))) <= True
insert_nat(z, nnil, ncons(z, nnil)) <= True
length_nat(ncons(z, nnil), s(z)) <= True
length_nat(nnil, z) <= True
leq_nat(s(z), s(z)) <= True
leq_nat(z, s(z)) <= True
leq_nat(z, z) <= True
sort_nat(ncons(z, nnil), ncons(z, nnil)) <= True
sort_nat(nnil, nnil) <= True
insert_nat(s(z), ncons(z, nnil), ncons(z, ncons(z, nnil))) <= insert_nat(s(z), nnil, ncons(z, nnil))
sort_nat(ncons(z, nnil), ncons(z, ncons(z, nnil))) <= insert_nat(z, nnil, ncons(z, ncons(z, nnil)))
False <= length_nat(ncons(z, ncons(z, nnil)), s(s(z))) /\ sort_nat(ncons(z, nnil), ncons(z, ncons(z, nnil)))
False <= length_nat(ncons(z, nnil), s(s(z)))
False <= leq_nat(s(s(z)), s(z))
False <= leq_nat(s(z), z)
}

Learner proposed model:
Found Model:
|_

_r_1 ->
{
  _r_1(z, z) <= True
}
;
insert_nat ->
{
  insert_nat(s(x_0_0), ncons(x_1_0, x_1_1), ncons(x_2_0, x_2_1)) <= True
  insert_nat(s(x_0_0), nnil, ncons(x_2_0, x_2_1)) <= True
  insert_nat(z, ncons(x_1_0, x_1_1), ncons(x_2_0, x_2_1)) <= True
  insert_nat(z, nnil, ncons(x_2_0, x_2_1)) <= True
}
;
length_nat ->
{
  length_nat(ncons(x_0_0, x_0_1), s(x_1_0)) <= _r_1(x_0_0, x_1_0)
  length_nat(nnil, z) <= True
}
;
leq_nat ->
{
  leq_nat(s(x_0_0), s(x_1_0)) <= _r_1(x_0_0, x_1_0)
  leq_nat(z, s(x_1_0)) <= True
  leq_nat(z, z) <= True
}
;
sort_nat ->
{
  sort_nat(ncons(x_0_0, x_0_1), ncons(x_1_0, x_1_1)) <= True
  sort_nat(nnil, nnil) <= True
}

--
Equality automata are defined for: {nat, natlist}
_|


Answer of teacher:


insert_nat(x, nnil, ncons(x, nnil)) <= True -> No: ()
length_nat(nnil, z) <= True -> No: ()
leq_nat(z, n2) <= True -> No: ()
sort_nat(nnil, nnil) <= True -> No: ()
insert_nat(x, ncons(y, z), ncons(y, _vwa)) \/ leq_nat(x, y) <= insert_nat(x, z, _vwa) -> No: ()
sort_nat(ncons(y, z), _axa) <= insert_nat(y, _bxa, _axa) /\ sort_nat(z, _bxa) -> No: ()
eq_nat(_jxa, _kxa) <= length_nat(_lxa, _kxa) /\ length_nat(l, _jxa) /\ sort_nat(l, _lxa) -> No: ()
length_nat(ncons(x, ll), s(_fxa)) <= length_nat(ll, _fxa) -> Yes: {
_fxa -> z  ;  ll -> nnil  ;  x -> s(v0_0)
}
leq_nat(s(nn1), s(nn2)) <= leq_nat(nn1, nn2) -> Yes: {
nn1 -> z  ;  nn2 -> s(v1_0)
}
insert_nat(x, ncons(y, z), ncons(x, ncons(y, z))) <= leq_nat(x, y) -> No: ()
leq_nat(nn1, nn2) <= leq_nat(s(nn1), s(nn2)) -> No: ()
False <= leq_nat(s(nn1), z) -> No: ()



-------------------------------------------
Step 6, which took 0.026601 s (model generation: 0.026354,  model checking: 0.000247):

Ground examples at the beginning of this step are:
{
insert_nat(s(z), ncons(s(z), nnil), ncons(s(z), ncons(s(z), nnil))) <= True
insert_nat(s(z), nnil, ncons(s(z), nnil)) <= True
insert_nat(z, ncons(z, nnil), ncons(z, ncons(z, nnil))) <= True
insert_nat(z, nnil, ncons(z, nnil)) <= True
length_nat(ncons(s(z), nnil), s(z)) <= True
length_nat(ncons(z, nnil), s(z)) <= True
length_nat(nnil, z) <= True
leq_nat(s(z), s(s(z))) <= True
leq_nat(s(z), s(z)) <= True
leq_nat(z, s(z)) <= True
leq_nat(z, z) <= True
sort_nat(ncons(z, nnil), ncons(z, nnil)) <= True
sort_nat(nnil, nnil) <= True
insert_nat(s(z), ncons(z, nnil), ncons(z, ncons(z, nnil))) <= insert_nat(s(z), nnil, ncons(z, nnil))
sort_nat(ncons(z, nnil), ncons(z, ncons(z, nnil))) <= insert_nat(z, nnil, ncons(z, ncons(z, nnil)))
False <= length_nat(ncons(z, ncons(z, nnil)), s(s(z))) /\ sort_nat(ncons(z, nnil), ncons(z, ncons(z, nnil)))
False <= length_nat(ncons(z, nnil), s(s(z)))
False <= leq_nat(s(s(z)), s(z))
False <= leq_nat(s(z), z)
}

Learner proposed model:
Found Model:
|_

_r_1 ->
{
  _r_1(s(x_0_0), z) <= True
  _r_1(z, z) <= True
}
;
insert_nat ->
{
  insert_nat(s(x_0_0), ncons(x_1_0, x_1_1), ncons(x_2_0, x_2_1)) <= True
  insert_nat(s(x_0_0), nnil, ncons(x_2_0, x_2_1)) <= True
  insert_nat(z, ncons(x_1_0, x_1_1), ncons(x_2_0, x_2_1)) <= True
  insert_nat(z, nnil, ncons(x_2_0, x_2_1)) <= True
}
;
length_nat ->
{
  length_nat(ncons(x_0_0, x_0_1), s(x_1_0)) <= _r_1(x_0_0, x_1_0)
  length_nat(nnil, z) <= True
}
;
leq_nat ->
{
  leq_nat(s(x_0_0), s(x_1_0)) <= leq_nat(x_0_0, x_1_0)
  leq_nat(z, s(x_1_0)) <= True
  leq_nat(z, z) <= True
}
;
sort_nat ->
{
  sort_nat(ncons(x_0_0, x_0_1), ncons(x_1_0, x_1_1)) <= True
  sort_nat(nnil, nnil) <= True
}

--
Equality automata are defined for: {nat, natlist}
_|


Answer of teacher:


insert_nat(x, nnil, ncons(x, nnil)) <= True -> No: ()
length_nat(nnil, z) <= True -> No: ()
leq_nat(z, n2) <= True -> No: ()
sort_nat(nnil, nnil) <= True -> No: ()
insert_nat(x, ncons(y, z), ncons(y, _vwa)) \/ leq_nat(x, y) <= insert_nat(x, z, _vwa) -> No: ()
sort_nat(ncons(y, z), _axa) <= insert_nat(y, _bxa, _axa) /\ sort_nat(z, _bxa) -> No: ()
eq_nat(_jxa, _kxa) <= length_nat(_lxa, _kxa) /\ length_nat(l, _jxa) /\ sort_nat(l, _lxa) -> No: ()
length_nat(ncons(x, ll), s(_fxa)) <= length_nat(ll, _fxa) -> Yes: {
_fxa -> s(z)  ;  ll -> ncons(z, v2_1)  ;  x -> z
}
leq_nat(s(nn1), s(nn2)) <= leq_nat(nn1, nn2) -> No: ()
insert_nat(x, ncons(y, z), ncons(x, ncons(y, z))) <= leq_nat(x, y) -> No: ()
leq_nat(nn1, nn2) <= leq_nat(s(nn1), s(nn2)) -> No: ()
False <= leq_nat(s(nn1), z) -> No: ()



-------------------------------------------
Step 7, which took 0.025755 s (model generation: 0.025449,  model checking: 0.000306):

Ground examples at the beginning of this step are:
{
insert_nat(s(z), ncons(s(z), nnil), ncons(s(z), ncons(s(z), nnil))) <= True
insert_nat(s(z), nnil, ncons(s(z), nnil)) <= True
insert_nat(z, ncons(z, nnil), ncons(z, ncons(z, nnil))) <= True
insert_nat(z, nnil, ncons(z, nnil)) <= True
length_nat(ncons(s(z), nnil), s(z)) <= True
length_nat(ncons(z, ncons(z, nnil)), s(s(z))) <= True
length_nat(ncons(z, nnil), s(z)) <= True
length_nat(nnil, z) <= True
leq_nat(s(z), s(s(z))) <= True
leq_nat(s(z), s(z)) <= True
leq_nat(z, s(z)) <= True
leq_nat(z, z) <= True
sort_nat(ncons(z, nnil), ncons(z, nnil)) <= True
sort_nat(nnil, nnil) <= True
insert_nat(s(z), ncons(z, nnil), ncons(z, ncons(z, nnil))) <= insert_nat(s(z), nnil, ncons(z, nnil))
False <= insert_nat(z, nnil, ncons(z, ncons(z, nnil)))
False <= length_nat(ncons(z, nnil), s(s(z)))
False <= leq_nat(s(s(z)), s(z))
False <= leq_nat(s(z), z)
False <= sort_nat(ncons(z, nnil), ncons(z, ncons(z, nnil)))
}

Learner proposed model:
Found Model:
|_

_r_1 ->
{
  _r_1(nnil) <= True
}
;
insert_nat ->
{
  insert_nat(s(x_0_0), ncons(x_1_0, x_1_1), ncons(x_2_0, x_2_1)) <= True
  insert_nat(s(x_0_0), nnil, ncons(x_2_0, x_2_1)) <= True
  insert_nat(z, ncons(x_1_0, x_1_1), ncons(x_2_0, x_2_1)) <= True
  insert_nat(z, nnil, ncons(x_2_0, x_2_1)) <= _r_1(x_2_1)
}
;
length_nat ->
{
  length_nat(ncons(x_0_0, x_0_1), s(x_1_0)) <= length_nat(x_0_1, x_1_0)
  length_nat(nnil, z) <= True
}
;
leq_nat ->
{
  leq_nat(s(x_0_0), s(x_1_0)) <= leq_nat(x_0_0, x_1_0)
  leq_nat(z, s(x_1_0)) <= True
  leq_nat(z, z) <= True
}
;
sort_nat ->
{
  sort_nat(ncons(x_0_0, x_0_1), ncons(x_1_0, x_1_1)) <= _r_1(x_1_1)
  sort_nat(nnil, nnil) <= True
}

--
Equality automata are defined for: {nat, natlist}
_|


Answer of teacher:


insert_nat(x, nnil, ncons(x, nnil)) <= True -> No: ()
length_nat(nnil, z) <= True -> No: ()
leq_nat(z, n2) <= True -> No: ()
sort_nat(nnil, nnil) <= True -> No: ()
insert_nat(x, ncons(y, z), ncons(y, _vwa)) \/ leq_nat(x, y) <= insert_nat(x, z, _vwa) -> No: ()
sort_nat(ncons(y, z), _axa) <= insert_nat(y, _bxa, _axa) /\ sort_nat(z, _bxa) -> Yes: {
_axa -> ncons(_axa_0, ncons(v0_0, v0_1))  ;  _bxa -> nnil  ;  y -> s(y_0)  ;  z -> nnil
}
eq_nat(_jxa, _kxa) <= length_nat(_lxa, _kxa) /\ length_nat(l, _jxa) /\ sort_nat(l, _lxa) -> Yes: {
_jxa -> s(s(z))  ;  _kxa -> s(z)  ;  _lxa -> ncons(_lxa_0, nnil)  ;  l -> ncons(l_0, ncons(v3_0, nnil))
}
length_nat(ncons(x, ll), s(_fxa)) <= length_nat(ll, _fxa) -> No: ()
leq_nat(s(nn1), s(nn2)) <= leq_nat(nn1, nn2) -> No: ()
insert_nat(x, ncons(y, z), ncons(x, ncons(y, z))) <= leq_nat(x, y) -> No: ()
leq_nat(nn1, nn2) <= leq_nat(s(nn1), s(nn2)) -> No: ()
False <= leq_nat(s(nn1), z) -> No: ()



-------------------------------------------
Step 8, which took 0.028169 s (model generation: 0.027854,  model checking: 0.000315):

Ground examples at the beginning of this step are:
{
insert_nat(s(z), ncons(s(z), nnil), ncons(s(z), ncons(s(z), nnil))) <= True
insert_nat(s(z), nnil, ncons(s(z), nnil)) <= True
insert_nat(z, ncons(z, nnil), ncons(z, ncons(z, nnil))) <= True
insert_nat(z, nnil, ncons(z, nnil)) <= True
length_nat(ncons(s(z), nnil), s(z)) <= True
length_nat(ncons(z, ncons(z, nnil)), s(s(z))) <= True
length_nat(ncons(z, nnil), s(z)) <= True
length_nat(nnil, z) <= True
leq_nat(s(z), s(s(z))) <= True
leq_nat(s(z), s(z)) <= True
leq_nat(z, s(z)) <= True
leq_nat(z, z) <= True
sort_nat(ncons(z, nnil), ncons(z, nnil)) <= True
sort_nat(nnil, nnil) <= True
sort_nat(ncons(s(z), nnil), ncons(z, ncons(z, nnil))) <= insert_nat(s(z), nnil, ncons(z, ncons(z, nnil)))
insert_nat(s(z), ncons(z, nnil), ncons(z, ncons(z, nnil))) <= insert_nat(s(z), nnil, ncons(z, nnil))
False <= insert_nat(z, nnil, ncons(z, ncons(z, nnil)))
False <= length_nat(ncons(z, nnil), s(s(z)))
False <= leq_nat(s(s(z)), s(z))
False <= leq_nat(s(z), z)
False <= sort_nat(ncons(z, ncons(z, nnil)), ncons(z, nnil))
False <= sort_nat(ncons(z, nnil), ncons(z, ncons(z, nnil)))
}

Learner proposed model:
Found Model:
|_

_r_1 ->
{
  _r_1(nnil) <= True
}
;
insert_nat ->
{
  insert_nat(s(x_0_0), ncons(x_1_0, x_1_1), ncons(x_2_0, x_2_1)) <= True
  insert_nat(s(x_0_0), nnil, ncons(x_2_0, x_2_1)) <= _r_1(x_2_1)
  insert_nat(z, ncons(x_1_0, x_1_1), ncons(x_2_0, x_2_1)) <= True
  insert_nat(z, nnil, ncons(x_2_0, x_2_1)) <= _r_1(x_2_1)
}
;
length_nat ->
{
  length_nat(ncons(x_0_0, x_0_1), s(x_1_0)) <= length_nat(x_0_1, x_1_0)
  length_nat(nnil, z) <= True
}
;
leq_nat ->
{
  leq_nat(s(x_0_0), s(x_1_0)) <= leq_nat(x_0_0, x_1_0)
  leq_nat(z, s(x_1_0)) <= True
  leq_nat(z, z) <= True
}
;
sort_nat ->
{
  sort_nat(ncons(x_0_0, x_0_1), ncons(x_1_0, x_1_1)) <= sort_nat(x_0_1, x_1_1)
  sort_nat(nnil, nnil) <= True
}

--
Equality automata are defined for: {nat, natlist}
_|


Answer of teacher:


insert_nat(x, nnil, ncons(x, nnil)) <= True -> No: ()
length_nat(nnil, z) <= True -> No: ()
leq_nat(z, n2) <= True -> No: ()
sort_nat(nnil, nnil) <= True -> No: ()
insert_nat(x, ncons(y, z), ncons(y, _vwa)) \/ leq_nat(x, y) <= insert_nat(x, z, _vwa) -> No: ()
sort_nat(ncons(y, z), _axa) <= insert_nat(y, _bxa, _axa) /\ sort_nat(z, _bxa) -> Yes: {
_axa -> ncons(_axa_0, nnil)  ;  _bxa -> ncons(_bxa_0, nnil)  ;  y -> z  ;  z -> ncons(z_0, nnil)
}
eq_nat(_jxa, _kxa) <= length_nat(_lxa, _kxa) /\ length_nat(l, _jxa) /\ sort_nat(l, _lxa) -> No: ()
length_nat(ncons(x, ll), s(_fxa)) <= length_nat(ll, _fxa) -> No: ()
leq_nat(s(nn1), s(nn2)) <= leq_nat(nn1, nn2) -> No: ()
insert_nat(x, ncons(y, z), ncons(x, ncons(y, z))) <= leq_nat(x, y) -> No: ()
leq_nat(nn1, nn2) <= leq_nat(s(nn1), s(nn2)) -> No: ()
False <= leq_nat(s(nn1), z) -> No: ()



-------------------------------------------
Step 9, which took 0.054591 s (model generation: 0.054271,  model checking: 0.000320):

Ground examples at the beginning of this step are:
{
insert_nat(s(z), ncons(s(z), nnil), ncons(s(z), ncons(s(z), nnil))) <= True
insert_nat(s(z), nnil, ncons(s(z), nnil)) <= True
insert_nat(z, ncons(z, nnil), ncons(z, ncons(z, nnil))) <= True
insert_nat(z, nnil, ncons(z, nnil)) <= True
length_nat(ncons(s(z), nnil), s(z)) <= True
length_nat(ncons(z, ncons(z, nnil)), s(s(z))) <= True
length_nat(ncons(z, nnil), s(z)) <= True
length_nat(nnil, z) <= True
leq_nat(s(z), s(s(z))) <= True
leq_nat(s(z), s(z)) <= True
leq_nat(z, s(z)) <= True
leq_nat(z, z) <= True
sort_nat(ncons(z, nnil), ncons(z, nnil)) <= True
sort_nat(nnil, nnil) <= True
sort_nat(ncons(s(z), nnil), ncons(z, ncons(z, nnil))) <= insert_nat(s(z), nnil, ncons(z, ncons(z, nnil)))
insert_nat(s(z), ncons(z, nnil), ncons(z, ncons(z, nnil))) <= insert_nat(s(z), nnil, ncons(z, nnil))
False <= insert_nat(z, ncons(z, nnil), ncons(z, nnil))
False <= insert_nat(z, nnil, ncons(z, ncons(z, nnil)))
False <= length_nat(ncons(z, nnil), s(s(z)))
False <= leq_nat(s(s(z)), s(z))
False <= leq_nat(s(z), z)
False <= sort_nat(ncons(z, ncons(z, nnil)), ncons(z, nnil))
False <= sort_nat(ncons(z, nnil), ncons(z, ncons(z, nnil)))
}

Learner proposed model:
Found Model:
|_

_r_1 ->
{
  _r_1(nnil) <= True
}
;
_r_2 ->
{
  _r_2(ncons(x_0_0, x_0_1)) <= True
}
;
insert_nat ->
{
  insert_nat(s(x_0_0), ncons(x_1_0, x_1_1), ncons(x_2_0, x_2_1)) <= True
  insert_nat(s(x_0_0), nnil, ncons(x_2_0, x_2_1)) <= _r_1(x_2_1)
  insert_nat(z, ncons(x_1_0, x_1_1), ncons(x_2_0, x_2_1)) <= _r_2(x_2_1)
  insert_nat(z, nnil, ncons(x_2_0, x_2_1)) <= _r_1(x_2_1)
}
;
length_nat ->
{
  length_nat(ncons(x_0_0, x_0_1), s(x_1_0)) <= length_nat(x_0_1, x_1_0)
  length_nat(nnil, z) <= True
}
;
leq_nat ->
{
  leq_nat(s(x_0_0), s(x_1_0)) <= leq_nat(x_0_0, x_1_0)
  leq_nat(z, s(x_1_0)) <= True
  leq_nat(z, z) <= True
}
;
sort_nat ->
{
  sort_nat(ncons(x_0_0, x_0_1), ncons(x_1_0, x_1_1)) <= sort_nat(x_0_1, x_1_1)
  sort_nat(nnil, nnil) <= True
}

--
Equality automata are defined for: {nat, natlist}
_|


Answer of teacher:


insert_nat(x, nnil, ncons(x, nnil)) <= True -> No: ()
length_nat(nnil, z) <= True -> No: ()
leq_nat(z, n2) <= True -> No: ()
sort_nat(nnil, nnil) <= True -> No: ()
insert_nat(x, ncons(y, z), ncons(y, _vwa)) \/ leq_nat(x, y) <= insert_nat(x, z, _vwa) -> No: ()
sort_nat(ncons(y, z), _axa) <= insert_nat(y, _bxa, _axa) /\ sort_nat(z, _bxa) -> Yes: {
_axa -> ncons(_axa_0, nnil)  ;  _bxa -> ncons(_bxa_0, nnil)  ;  y -> s(y_0)  ;  z -> ncons(z_0, nnil)
}
eq_nat(_jxa, _kxa) <= length_nat(_lxa, _kxa) /\ length_nat(l, _jxa) /\ sort_nat(l, _lxa) -> No: ()
length_nat(ncons(x, ll), s(_fxa)) <= length_nat(ll, _fxa) -> No: ()
leq_nat(s(nn1), s(nn2)) <= leq_nat(nn1, nn2) -> No: ()
insert_nat(x, ncons(y, z), ncons(x, ncons(y, z))) <= leq_nat(x, y) -> No: ()
leq_nat(nn1, nn2) <= leq_nat(s(nn1), s(nn2)) -> No: ()
False <= leq_nat(s(nn1), z) -> No: ()



-------------------------------------------
Step 10, which took 0.061395 s (model generation: 0.060835,  model checking: 0.000560):

Ground examples at the beginning of this step are:
{
insert_nat(s(z), ncons(s(z), nnil), ncons(s(z), ncons(s(z), nnil))) <= True
insert_nat(s(z), nnil, ncons(s(z), nnil)) <= True
insert_nat(z, ncons(z, nnil), ncons(z, ncons(z, nnil))) <= True
insert_nat(z, nnil, ncons(z, nnil)) <= True
length_nat(ncons(s(z), nnil), s(z)) <= True
length_nat(ncons(z, ncons(z, nnil)), s(s(z))) <= True
length_nat(ncons(z, nnil), s(z)) <= True
length_nat(nnil, z) <= True
leq_nat(s(z), s(s(z))) <= True
leq_nat(s(z), s(z)) <= True
leq_nat(z, s(z)) <= True
leq_nat(z, z) <= True
sort_nat(ncons(z, nnil), ncons(z, nnil)) <= True
sort_nat(nnil, nnil) <= True
sort_nat(ncons(s(z), ncons(z, nnil)), ncons(z, nnil)) <= insert_nat(s(z), ncons(z, nnil), ncons(z, nnil))
sort_nat(ncons(s(z), nnil), ncons(z, ncons(z, nnil))) <= insert_nat(s(z), nnil, ncons(z, ncons(z, nnil)))
insert_nat(s(z), ncons(z, nnil), ncons(z, ncons(z, nnil))) <= insert_nat(s(z), nnil, ncons(z, nnil))
False <= insert_nat(z, ncons(z, nnil), ncons(z, nnil))
False <= insert_nat(z, nnil, ncons(z, ncons(z, nnil)))
False <= length_nat(ncons(z, nnil), s(s(z)))
False <= leq_nat(s(s(z)), s(z))
False <= leq_nat(s(z), z)
False <= sort_nat(ncons(z, ncons(z, nnil)), ncons(z, nnil))
False <= sort_nat(ncons(z, nnil), ncons(z, ncons(z, nnil)))
}

Learner proposed model:
Found Model:
|_

_r_1 ->
{
  _r_1(ncons(x_0_0, x_0_1)) <= True
}
;
_r_2 ->
{
  _r_2(nnil) <= True
}
;
insert_nat ->
{
  insert_nat(s(x_0_0), ncons(x_1_0, x_1_1), ncons(x_2_0, x_2_1)) <= _r_1(x_2_1)
  insert_nat(s(x_0_0), nnil, ncons(x_2_0, x_2_1)) <= _r_2(x_2_1)
  insert_nat(z, ncons(x_1_0, x_1_1), ncons(x_2_0, x_2_1)) <= _r_1(x_2_1)
  insert_nat(z, nnil, ncons(x_2_0, x_2_1)) <= _r_2(x_2_1)
}
;
length_nat ->
{
  length_nat(ncons(x_0_0, x_0_1), s(x_1_0)) <= length_nat(x_0_1, x_1_0)
  length_nat(nnil, z) <= True
}
;
leq_nat ->
{
  leq_nat(s(x_0_0), s(x_1_0)) <= leq_nat(x_0_0, x_1_0)
  leq_nat(z, s(x_1_0)) <= True
  leq_nat(z, z) <= True
}
;
sort_nat ->
{
  sort_nat(ncons(x_0_0, x_0_1), ncons(x_1_0, x_1_1)) <= sort_nat(x_0_1, x_1_1)
  sort_nat(nnil, nnil) <= True
}

--
Equality automata are defined for: {nat, natlist}
_|


Answer of teacher:


insert_nat(x, nnil, ncons(x, nnil)) <= True -> No: ()
length_nat(nnil, z) <= True -> No: ()
leq_nat(z, n2) <= True -> No: ()
sort_nat(nnil, nnil) <= True -> No: ()
insert_nat(x, ncons(y, z), ncons(y, _vwa)) \/ leq_nat(x, y) <= insert_nat(x, z, _vwa) -> No: ()
sort_nat(ncons(y, z), _axa) <= insert_nat(y, _bxa, _axa) /\ sort_nat(z, _bxa) -> Yes: {
_axa -> ncons(_axa_0, ncons(v0_0, ncons(v0_0, v0_1)))  ;  _bxa -> ncons(_bxa_0, nnil)  ;  y -> z  ;  z -> ncons(z_0, nnil)
}
eq_nat(_jxa, _kxa) <= length_nat(_lxa, _kxa) /\ length_nat(l, _jxa) /\ sort_nat(l, _lxa) -> No: ()
length_nat(ncons(x, ll), s(_fxa)) <= length_nat(ll, _fxa) -> No: ()
leq_nat(s(nn1), s(nn2)) <= leq_nat(nn1, nn2) -> No: ()
insert_nat(x, ncons(y, z), ncons(x, ncons(y, z))) <= leq_nat(x, y) -> No: ()
leq_nat(nn1, nn2) <= leq_nat(s(nn1), s(nn2)) -> No: ()
False <= leq_nat(s(nn1), z) -> No: ()



-------------------------------------------
Step 11, which took 0.073257 s (model generation: 0.072672,  model checking: 0.000585):

Ground examples at the beginning of this step are:
{
insert_nat(s(z), ncons(s(z), nnil), ncons(s(z), ncons(s(z), nnil))) <= True
insert_nat(s(z), nnil, ncons(s(z), nnil)) <= True
insert_nat(z, ncons(z, nnil), ncons(z, ncons(z, nnil))) <= True
insert_nat(z, nnil, ncons(z, nnil)) <= True
length_nat(ncons(s(z), nnil), s(z)) <= True
length_nat(ncons(z, ncons(z, nnil)), s(s(z))) <= True
length_nat(ncons(z, nnil), s(z)) <= True
length_nat(nnil, z) <= True
leq_nat(s(z), s(s(z))) <= True
leq_nat(s(z), s(z)) <= True
leq_nat(z, s(z)) <= True
leq_nat(z, z) <= True
sort_nat(ncons(z, nnil), ncons(z, nnil)) <= True
sort_nat(nnil, nnil) <= True
sort_nat(ncons(s(z), ncons(z, nnil)), ncons(z, nnil)) <= insert_nat(s(z), ncons(z, nnil), ncons(z, nnil))
sort_nat(ncons(s(z), nnil), ncons(z, ncons(z, nnil))) <= insert_nat(s(z), nnil, ncons(z, ncons(z, nnil)))
insert_nat(s(z), ncons(z, nnil), ncons(z, ncons(z, nnil))) <= insert_nat(s(z), nnil, ncons(z, nnil))
sort_nat(ncons(z, ncons(z, nnil)), ncons(z, ncons(z, ncons(z, nnil)))) <= insert_nat(z, ncons(z, nnil), ncons(z, ncons(z, ncons(z, nnil))))
False <= insert_nat(z, ncons(z, nnil), ncons(z, nnil))
False <= insert_nat(z, nnil, ncons(z, ncons(z, nnil)))
False <= length_nat(ncons(z, nnil), s(s(z)))
False <= leq_nat(s(s(z)), s(z))
False <= leq_nat(s(z), z)
False <= sort_nat(ncons(z, ncons(z, nnil)), ncons(z, nnil))
False <= sort_nat(ncons(z, nnil), ncons(z, ncons(z, nnil)))
}

Learner proposed model:
Found Model:
|_

_r_1 ->
{
  _r_1(nnil) <= True
}
;
_r_2 ->
{
  _r_2(ncons(x_0_0, x_0_1)) <= _r_1(x_0_1)
}
;
insert_nat ->
{
  insert_nat(s(x_0_0), ncons(x_1_0, x_1_1), ncons(x_2_0, x_2_1)) <= _r_2(x_2_1)
  insert_nat(s(x_0_0), nnil, ncons(x_2_0, x_2_1)) <= _r_1(x_2_1)
  insert_nat(z, ncons(x_1_0, x_1_1), ncons(x_2_0, x_2_1)) <= _r_2(x_2_1)
  insert_nat(z, nnil, ncons(x_2_0, x_2_1)) <= _r_1(x_2_1)
}
;
length_nat ->
{
  length_nat(ncons(x_0_0, x_0_1), s(x_1_0)) <= length_nat(x_0_1, x_1_0)
  length_nat(nnil, z) <= True
}
;
leq_nat ->
{
  leq_nat(s(x_0_0), s(x_1_0)) <= leq_nat(x_0_0, x_1_0)
  leq_nat(z, s(x_1_0)) <= True
  leq_nat(z, z) <= True
}
;
sort_nat ->
{
  sort_nat(ncons(x_0_0, x_0_1), ncons(x_1_0, x_1_1)) <= sort_nat(x_0_1, x_1_1)
  sort_nat(nnil, nnil) <= True
}

--
Equality automata are defined for: {nat, natlist}
_|


Answer of teacher:


insert_nat(x, nnil, ncons(x, nnil)) <= True -> No: ()
length_nat(nnil, z) <= True -> No: ()
leq_nat(z, n2) <= True -> No: ()
sort_nat(nnil, nnil) <= True -> No: ()
insert_nat(x, ncons(y, z), ncons(y, _vwa)) \/ leq_nat(x, y) <= insert_nat(x, z, _vwa) -> Yes: {
_vwa -> ncons(_vwa_0, ncons(v0_0, nnil))  ;  x -> s(x_0)  ;  y -> z  ;  z -> ncons(z_0, z_1)
}
sort_nat(ncons(y, z), _axa) <= insert_nat(y, _bxa, _axa) /\ sort_nat(z, _bxa) -> Yes: {
_axa -> ncons(_axa_0, ncons(v0_0, nnil))  ;  _bxa -> ncons(_bxa_0, ncons(v2_0, nnil))  ;  y -> z  ;  z -> ncons(z_0, ncons(v1_0, nnil))
}
eq_nat(_jxa, _kxa) <= length_nat(_lxa, _kxa) /\ length_nat(l, _jxa) /\ sort_nat(l, _lxa) -> No: ()
length_nat(ncons(x, ll), s(_fxa)) <= length_nat(ll, _fxa) -> No: ()
leq_nat(s(nn1), s(nn2)) <= leq_nat(nn1, nn2) -> No: ()
insert_nat(x, ncons(y, z), ncons(x, ncons(y, z))) <= leq_nat(x, y) -> Yes: {
x -> z  ;  y -> z  ;  z -> ncons(v0_0, v0_1)
}
leq_nat(nn1, nn2) <= leq_nat(s(nn1), s(nn2)) -> No: ()
False <= leq_nat(s(nn1), z) -> No: ()



-------------------------------------------
Step 12, which took 0.124209 s (model generation: 0.123009,  model checking: 0.001200):

Ground examples at the beginning of this step are:
{
insert_nat(s(z), ncons(s(z), nnil), ncons(s(z), ncons(s(z), nnil))) <= True
insert_nat(s(z), nnil, ncons(s(z), nnil)) <= True
insert_nat(z, ncons(z, ncons(z, nnil)), ncons(z, ncons(z, ncons(z, nnil)))) <= True
insert_nat(z, ncons(z, nnil), ncons(z, ncons(z, nnil))) <= True
insert_nat(z, nnil, ncons(z, nnil)) <= True
length_nat(ncons(s(z), nnil), s(z)) <= True
length_nat(ncons(z, ncons(z, nnil)), s(s(z))) <= True
length_nat(ncons(z, nnil), s(z)) <= True
length_nat(nnil, z) <= True
leq_nat(s(z), s(s(z))) <= True
leq_nat(s(z), s(z)) <= True
leq_nat(z, s(z)) <= True
leq_nat(z, z) <= True
sort_nat(ncons(z, nnil), ncons(z, nnil)) <= True
sort_nat(nnil, nnil) <= True
insert_nat(s(z), ncons(z, ncons(z, nnil)), ncons(z, ncons(z, ncons(z, nnil)))) <= insert_nat(s(z), ncons(z, nnil), ncons(z, ncons(z, nnil)))
sort_nat(ncons(s(z), ncons(z, nnil)), ncons(z, nnil)) <= insert_nat(s(z), ncons(z, nnil), ncons(z, nnil))
sort_nat(ncons(s(z), nnil), ncons(z, ncons(z, nnil))) <= insert_nat(s(z), nnil, ncons(z, ncons(z, nnil)))
insert_nat(s(z), ncons(z, nnil), ncons(z, ncons(z, nnil))) <= insert_nat(s(z), nnil, ncons(z, nnil))
sort_nat(ncons(z, ncons(z, ncons(z, nnil))), ncons(z, ncons(z, nnil))) <= insert_nat(z, ncons(z, ncons(z, nnil)), ncons(z, ncons(z, nnil))) /\ sort_nat(ncons(z, ncons(z, nnil)), ncons(z, ncons(z, nnil)))
sort_nat(ncons(z, ncons(z, nnil)), ncons(z, ncons(z, ncons(z, nnil)))) <= insert_nat(z, ncons(z, nnil), ncons(z, ncons(z, ncons(z, nnil))))
False <= insert_nat(z, ncons(z, nnil), ncons(z, nnil))
False <= insert_nat(z, nnil, ncons(z, ncons(z, nnil)))
False <= length_nat(ncons(z, nnil), s(s(z)))
False <= leq_nat(s(s(z)), s(z))
False <= leq_nat(s(z), z)
False <= sort_nat(ncons(z, ncons(z, nnil)), ncons(z, nnil))
False <= sort_nat(ncons(z, nnil), ncons(z, ncons(z, nnil)))
}

Learner proposed model:
Found Model:
|_

_r_1 ->
{
  _r_1(ncons(x_0_0, x_0_1)) <= True
}
;
_r_2 ->
{
  _r_2(nnil) <= True
}
;
insert_nat ->
{
  insert_nat(s(x_0_0), ncons(x_1_0, x_1_1), ncons(x_2_0, x_2_1)) <= _r_1(x_2_1)
  insert_nat(s(x_0_0), nnil, ncons(x_2_0, x_2_1)) <= _r_2(x_2_1)
  insert_nat(z, ncons(x_1_0, x_1_1), ncons(x_2_0, x_2_1)) <= _r_1(x_2_1)
  insert_nat(z, nnil, ncons(x_2_0, x_2_1)) <= _r_2(x_2_1)
}
;
length_nat ->
{
  length_nat(ncons(x_0_0, x_0_1), s(x_1_0)) <= length_nat(x_0_1, x_1_0)
  length_nat(nnil, z) <= True
}
;
leq_nat ->
{
  leq_nat(s(x_0_0), s(x_1_0)) <= leq_nat(x_0_0, x_1_0)
  leq_nat(z, s(x_1_0)) <= True
  leq_nat(z, z) <= True
}
;
sort_nat ->
{
  sort_nat(ncons(x_0_0, x_0_1), ncons(x_1_0, x_1_1)) <= _r_1(x_0_1) /\ _r_1(x_1_1)
  sort_nat(ncons(x_0_0, x_0_1), ncons(x_1_0, x_1_1)) <= _r_2(x_0_1) /\ _r_2(x_1_1)
  sort_nat(nnil, nnil) <= True
}

--
Equality automata are defined for: {nat, natlist}
_|


Answer of teacher:


insert_nat(x, nnil, ncons(x, nnil)) <= True -> No: ()
length_nat(nnil, z) <= True -> No: ()
leq_nat(z, n2) <= True -> No: ()
sort_nat(nnil, nnil) <= True -> No: ()
insert_nat(x, ncons(y, z), ncons(y, _vwa)) \/ leq_nat(x, y) <= insert_nat(x, z, _vwa) -> No: ()
sort_nat(ncons(y, z), _axa) <= insert_nat(y, _bxa, _axa) /\ sort_nat(z, _bxa) -> No: ()
eq_nat(_jxa, _kxa) <= length_nat(_lxa, _kxa) /\ length_nat(l, _jxa) /\ sort_nat(l, _lxa) -> Yes: {
_jxa -> s(s(z))  ;  _kxa -> s(s(s(z)))  ;  _lxa -> ncons(_lxa_0, ncons(v2_0, ncons(v2_0, nnil)))  ;  l -> ncons(l_0, ncons(v3_0, nnil))
}
length_nat(ncons(x, ll), s(_fxa)) <= length_nat(ll, _fxa) -> No: ()
leq_nat(s(nn1), s(nn2)) <= leq_nat(nn1, nn2) -> No: ()
insert_nat(x, ncons(y, z), ncons(x, ncons(y, z))) <= leq_nat(x, y) -> No: ()
leq_nat(nn1, nn2) <= leq_nat(s(nn1), s(nn2)) -> No: ()
False <= leq_nat(s(nn1), z) -> No: ()



-------------------------------------------
Step 13, which took 0.105761 s (model generation: 0.105035,  model checking: 0.000726):

Ground examples at the beginning of this step are:
{
insert_nat(s(z), ncons(s(z), nnil), ncons(s(z), ncons(s(z), nnil))) <= True
insert_nat(s(z), nnil, ncons(s(z), nnil)) <= True
insert_nat(z, ncons(z, ncons(z, nnil)), ncons(z, ncons(z, ncons(z, nnil)))) <= True
insert_nat(z, ncons(z, nnil), ncons(z, ncons(z, nnil))) <= True
insert_nat(z, nnil, ncons(z, nnil)) <= True
length_nat(ncons(s(z), nnil), s(z)) <= True
length_nat(ncons(z, ncons(z, nnil)), s(s(z))) <= True
length_nat(ncons(z, nnil), s(z)) <= True
length_nat(nnil, z) <= True
leq_nat(s(z), s(s(z))) <= True
leq_nat(s(z), s(z)) <= True
leq_nat(z, s(z)) <= True
leq_nat(z, z) <= True
sort_nat(ncons(z, nnil), ncons(z, nnil)) <= True
sort_nat(nnil, nnil) <= True
insert_nat(s(z), ncons(z, ncons(z, nnil)), ncons(z, ncons(z, ncons(z, nnil)))) <= insert_nat(s(z), ncons(z, nnil), ncons(z, ncons(z, nnil)))
sort_nat(ncons(s(z), ncons(z, nnil)), ncons(z, nnil)) <= insert_nat(s(z), ncons(z, nnil), ncons(z, nnil))
sort_nat(ncons(s(z), nnil), ncons(z, ncons(z, nnil))) <= insert_nat(s(z), nnil, ncons(z, ncons(z, nnil)))
insert_nat(s(z), ncons(z, nnil), ncons(z, ncons(z, nnil))) <= insert_nat(s(z), nnil, ncons(z, nnil))
sort_nat(ncons(z, ncons(z, ncons(z, nnil))), ncons(z, ncons(z, nnil))) <= insert_nat(z, ncons(z, ncons(z, nnil)), ncons(z, ncons(z, nnil))) /\ sort_nat(ncons(z, ncons(z, nnil)), ncons(z, ncons(z, nnil)))
sort_nat(ncons(z, ncons(z, nnil)), ncons(z, ncons(z, ncons(z, nnil)))) <= insert_nat(z, ncons(z, nnil), ncons(z, ncons(z, ncons(z, nnil))))
False <= insert_nat(z, ncons(z, nnil), ncons(z, nnil))
False <= insert_nat(z, nnil, ncons(z, ncons(z, nnil)))
False <= length_nat(ncons(z, ncons(z, ncons(z, nnil))), s(s(s(z)))) /\ sort_nat(ncons(z, ncons(z, nnil)), ncons(z, ncons(z, ncons(z, nnil))))
False <= length_nat(ncons(z, nnil), s(s(z)))
False <= leq_nat(s(s(z)), s(z))
False <= leq_nat(s(z), z)
False <= sort_nat(ncons(z, ncons(z, nnil)), ncons(z, nnil))
False <= sort_nat(ncons(z, nnil), ncons(z, ncons(z, nnil)))
}

Learner proposed model:
Found Model:
|_

_r_1 ->
{
  _r_1(ncons(x_0_0, x_0_1), ncons(x_1_0, x_1_1)) <= True
  _r_1(nnil, ncons(x_1_0, x_1_1)) <= _r_2(x_1_1)
}
;
_r_2 ->
{
  _r_2(nnil) <= True
}
;
insert_nat ->
{
  insert_nat(s(x_0_0), ncons(x_1_0, x_1_1), ncons(x_2_0, x_2_1)) <= _r_1(x_1_1, x_2_1)
  insert_nat(s(x_0_0), nnil, ncons(x_2_0, x_2_1)) <= _r_2(x_2_1)
  insert_nat(z, ncons(x_1_0, x_1_1), ncons(x_2_0, x_2_1)) <= _r_1(x_1_1, x_2_1)
  insert_nat(z, nnil, ncons(x_2_0, x_2_1)) <= _r_2(x_2_1)
}
;
length_nat ->
{
  length_nat(ncons(x_0_0, x_0_1), s(x_1_0)) <= length_nat(x_0_1, x_1_0)
  length_nat(nnil, z) <= True
}
;
leq_nat ->
{
  leq_nat(s(x_0_0), s(x_1_0)) <= leq_nat(x_0_0, x_1_0)
  leq_nat(z, s(x_1_0)) <= True
  leq_nat(z, z) <= True
}
;
sort_nat ->
{
  sort_nat(ncons(x_0_0, x_0_1), ncons(x_1_0, x_1_1)) <= _r_2(x_0_1) /\ _r_2(x_1_1)
  sort_nat(nnil, nnil) <= True
}

--
Equality automata are defined for: {nat, natlist}
_|


Answer of teacher:


insert_nat(x, nnil, ncons(x, nnil)) <= True -> No: ()
length_nat(nnil, z) <= True -> No: ()
leq_nat(z, n2) <= True -> No: ()
sort_nat(nnil, nnil) <= True -> No: ()
insert_nat(x, ncons(y, z), ncons(y, _vwa)) \/ leq_nat(x, y) <= insert_nat(x, z, _vwa) -> No: ()
sort_nat(ncons(y, z), _axa) <= insert_nat(y, _bxa, _axa) /\ sort_nat(z, _bxa) -> Yes: {
_axa -> ncons(_axa_0, ncons(v1_0, nnil))  ;  _bxa -> ncons(_bxa_0, nnil)  ;  y -> z  ;  z -> ncons(z_0, nnil)
}
eq_nat(_jxa, _kxa) <= length_nat(_lxa, _kxa) /\ length_nat(l, _jxa) /\ sort_nat(l, _lxa) -> No: ()
length_nat(ncons(x, ll), s(_fxa)) <= length_nat(ll, _fxa) -> No: ()
leq_nat(s(nn1), s(nn2)) <= leq_nat(nn1, nn2) -> No: ()
insert_nat(x, ncons(y, z), ncons(x, ncons(y, z))) <= leq_nat(x, y) -> No: ()
leq_nat(nn1, nn2) <= leq_nat(s(nn1), s(nn2)) -> No: ()
False <= leq_nat(s(nn1), z) -> No: ()



-------------------------------------------
Step 14, which took 0.113197 s (model generation: 0.112517,  model checking: 0.000680):

Ground examples at the beginning of this step are:
{
insert_nat(s(z), ncons(s(z), nnil), ncons(s(z), ncons(s(z), nnil))) <= True
insert_nat(s(z), nnil, ncons(s(z), nnil)) <= True
insert_nat(z, ncons(z, ncons(z, nnil)), ncons(z, ncons(z, ncons(z, nnil)))) <= True
insert_nat(z, ncons(z, nnil), ncons(z, ncons(z, nnil))) <= True
insert_nat(z, nnil, ncons(z, nnil)) <= True
length_nat(ncons(s(z), nnil), s(z)) <= True
length_nat(ncons(z, ncons(z, nnil)), s(s(z))) <= True
length_nat(ncons(z, nnil), s(z)) <= True
length_nat(nnil, z) <= True
leq_nat(s(z), s(s(z))) <= True
leq_nat(s(z), s(z)) <= True
leq_nat(z, s(z)) <= True
leq_nat(z, z) <= True
sort_nat(ncons(z, ncons(z, nnil)), ncons(z, ncons(z, nnil))) <= True
sort_nat(ncons(z, nnil), ncons(z, nnil)) <= True
sort_nat(nnil, nnil) <= True
insert_nat(s(z), ncons(z, ncons(z, nnil)), ncons(z, ncons(z, ncons(z, nnil)))) <= insert_nat(s(z), ncons(z, nnil), ncons(z, ncons(z, nnil)))
sort_nat(ncons(s(z), ncons(z, nnil)), ncons(z, nnil)) <= insert_nat(s(z), ncons(z, nnil), ncons(z, nnil))
sort_nat(ncons(s(z), nnil), ncons(z, ncons(z, nnil))) <= insert_nat(s(z), nnil, ncons(z, ncons(z, nnil)))
insert_nat(s(z), ncons(z, nnil), ncons(z, ncons(z, nnil))) <= insert_nat(s(z), nnil, ncons(z, nnil))
sort_nat(ncons(z, ncons(z, ncons(z, nnil))), ncons(z, ncons(z, nnil))) <= insert_nat(z, ncons(z, ncons(z, nnil)), ncons(z, ncons(z, nnil)))
sort_nat(ncons(z, ncons(z, nnil)), ncons(z, ncons(z, ncons(z, nnil)))) <= insert_nat(z, ncons(z, nnil), ncons(z, ncons(z, ncons(z, nnil))))
False <= insert_nat(z, ncons(z, nnil), ncons(z, nnil))
False <= insert_nat(z, nnil, ncons(z, ncons(z, nnil)))
False <= length_nat(ncons(z, ncons(z, ncons(z, nnil))), s(s(s(z)))) /\ sort_nat(ncons(z, ncons(z, nnil)), ncons(z, ncons(z, ncons(z, nnil))))
False <= length_nat(ncons(z, nnil), s(s(z)))
False <= leq_nat(s(s(z)), s(z))
False <= leq_nat(s(z), z)
False <= sort_nat(ncons(z, ncons(z, nnil)), ncons(z, nnil))
False <= sort_nat(ncons(z, nnil), ncons(z, ncons(z, nnil)))
}

Learner proposed model:
Found Model:
|_

_r_1 ->
{
  _r_1(ncons(x_0_0, x_0_1), ncons(x_1_0, x_1_1)) <= _r_1(x_0_1, x_1_1)
  _r_1(nnil, ncons(x_1_0, x_1_1)) <= _r_2(x_1_1)
}
;
_r_2 ->
{
  _r_2(nnil) <= True
}
;
insert_nat ->
{
  insert_nat(s(x_0_0), ncons(x_1_0, x_1_1), ncons(x_2_0, x_2_1)) <= _r_1(x_1_1, x_2_1)
  insert_nat(s(x_0_0), nnil, ncons(x_2_0, x_2_1)) <= _r_2(x_2_1)
  insert_nat(z, ncons(x_1_0, x_1_1), ncons(x_2_0, x_2_1)) <= _r_1(x_1_1, x_2_1)
  insert_nat(z, nnil, ncons(x_2_0, x_2_1)) <= _r_2(x_2_1)
}
;
length_nat ->
{
  length_nat(ncons(x_0_0, x_0_1), s(x_1_0)) <= length_nat(x_0_1, x_1_0)
  length_nat(nnil, z) <= True
}
;
leq_nat ->
{
  leq_nat(s(x_0_0), s(x_1_0)) <= leq_nat(x_0_0, x_1_0)
  leq_nat(z, s(x_1_0)) <= True
  leq_nat(z, z) <= True
}
;
sort_nat ->
{
  sort_nat(ncons(x_0_0, x_0_1), ncons(x_1_0, x_1_1)) <= sort_nat(x_0_1, x_1_1)
  sort_nat(nnil, nnil) <= True
}

--
Equality automata are defined for: {nat, natlist}
_|


Answer of teacher:


insert_nat(x, nnil, ncons(x, nnil)) <= True -> No: ()
length_nat(nnil, z) <= True -> No: ()
leq_nat(z, n2) <= True -> No: ()
sort_nat(nnil, nnil) <= True -> No: ()
insert_nat(x, ncons(y, z), ncons(y, _vwa)) \/ leq_nat(x, y) <= insert_nat(x, z, _vwa) -> No: ()
sort_nat(ncons(y, z), _axa) <= insert_nat(y, _bxa, _axa) /\ sort_nat(z, _bxa) -> No: ()
eq_nat(_jxa, _kxa) <= length_nat(_lxa, _kxa) /\ length_nat(l, _jxa) /\ sort_nat(l, _lxa) -> No: ()
length_nat(ncons(x, ll), s(_fxa)) <= length_nat(ll, _fxa) -> No: ()
leq_nat(s(nn1), s(nn2)) <= leq_nat(nn1, nn2) -> No: ()
insert_nat(x, ncons(y, z), ncons(x, ncons(y, z))) <= leq_nat(x, y) -> No: ()
leq_nat(nn1, nn2) <= leq_nat(s(nn1), s(nn2)) -> No: ()
False <= leq_nat(s(nn1), z) -> No: ()




Total time: 0.689506
Learner time: 0.682732
Teacher time: 0.005956
Reasons for stopping: Yes: |_

_r_1 ->
{
  _r_1(ncons(x_0_0, x_0_1), ncons(x_1_0, x_1_1)) <= _r_1(x_0_1, x_1_1)
  _r_1(nnil, ncons(x_1_0, x_1_1)) <= _r_2(x_1_1)
}
;
_r_2 ->
{
  _r_2(nnil) <= True
}
;
insert_nat ->
{
  insert_nat(s(x_0_0), ncons(x_1_0, x_1_1), ncons(x_2_0, x_2_1)) <= _r_1(x_1_1, x_2_1)
  insert_nat(s(x_0_0), nnil, ncons(x_2_0, x_2_1)) <= _r_2(x_2_1)
  insert_nat(z, ncons(x_1_0, x_1_1), ncons(x_2_0, x_2_1)) <= _r_1(x_1_1, x_2_1)
  insert_nat(z, nnil, ncons(x_2_0, x_2_1)) <= _r_2(x_2_1)
}
;
length_nat ->
{
  length_nat(ncons(x_0_0, x_0_1), s(x_1_0)) <= length_nat(x_0_1, x_1_0)
  length_nat(nnil, z) <= True
}
;
leq_nat ->
{
  leq_nat(s(x_0_0), s(x_1_0)) <= leq_nat(x_0_0, x_1_0)
  leq_nat(z, s(x_1_0)) <= True
  leq_nat(z, z) <= True
}
;
sort_nat ->
{
  sort_nat(ncons(x_0_0, x_0_1), ncons(x_1_0, x_1_1)) <= sort_nat(x_0_1, x_1_1)
  sort_nat(nnil, nnil) <= True
}

--
Equality automata are defined for: {nat, natlist}
_|


