Solving ../../benchmarks/smtlib/true/merge_length_leq.smt2...

Inference procedure has parameters:
Timeout: Some(40.) (sec)
Approximation method: remove functionnality constraint where possible



Learning problem is:

env: {
elt -> {a, b}  ;  eltlist -> {cons, nil}  ;  nat -> {s, z}
}
definition:
{
(leq, P:
{
leq(a, n2) <= True
leq(b, b) <= True
False <= leq(b, a)
}
)
(leqnat, P:
{
leqnat(z, n2) <= True
leqnat(s(nn1), s(nn2)) <= leqnat(nn1, nn2)
leqnat(nn1, nn2) <= leqnat(s(nn1), s(nn2))
False <= leqnat(s(nn1), z)
}
)
(merge, F:
{
merge(cons(z, xs), nil, cons(z, xs)) <= True
merge(nil, y, y) <= True
merge(cons(z, xs), cons(y2, ys), cons(z, _iia)) <= leq(z, y2) /\ merge(xs, cons(y2, ys), _iia)
leq(z, y2) \/ merge(cons(z, xs), cons(y2, ys), cons(y2, _hia)) <= merge(cons(z, xs), ys, _hia)
}
eq_eltlist(_lia, _mia) <= merge(_jia, _kia, _lia) /\ merge(_jia, _kia, _mia)
)
(append, F:
{
append(nil, l2, l2) <= True
append(cons(h1, t1), l2, cons(h1, _nia)) <= append(t1, l2, _nia)
}
eq_eltlist(_qia, _ria) <= append(_oia, _pia, _qia) /\ append(_oia, _pia, _ria)
)
(plus, F:
{
plus(n, z, n) <= True
plus(n, s(mm), s(_sia)) <= plus(n, mm, _sia)
}
eq_nat(_via, _wia) <= plus(_tia, _uia, _via) /\ plus(_tia, _uia, _wia)
)
(length, F:
{
length(nil, z) <= True
length(cons(x, ll), s(_xia)) <= length(ll, _xia)
}
eq_nat(_zia, _aja) <= length(_yia, _aja) /\ length(_yia, _zia)
)
}

properties:
{
leqnat(_bja, _cja) <= length(_dja, _cja) /\ length(l1, _bja) /\ merge(l1, l2, _dja)
leqnat(_eja, _fja) <= length(_gja, _fja) /\ length(l2, _eja) /\ merge(l1, l2, _gja)
}


over-approximation: {append, length, merge, plus}
under-approximation: {append, leqnat, plus}

Clause system for inference is:

{
append(nil, l2, l2) <= True
length(nil, z) <= True
leq(a, n2) <= True
leq(b, b) <= True
leqnat(z, n2) <= True
merge(cons(z, xs), nil, cons(z, xs)) <= True
merge(nil, y, y) <= True
plus(n, z, n) <= True
append(cons(h1, t1), l2, cons(h1, _nia)) <= append(t1, l2, _nia)
leqnat(_bja, _cja) <= length(_dja, _cja) /\ length(l1, _bja) /\ merge(l1, l2, _dja)
leqnat(_eja, _fja) <= length(_gja, _fja) /\ length(l2, _eja) /\ merge(l1, l2, _gja)
length(cons(x, ll), s(_xia)) <= length(ll, _xia)
merge(cons(z, xs), cons(y2, ys), cons(z, _iia)) <= leq(z, y2) /\ merge(xs, cons(y2, ys), _iia)
False <= leq(b, a)
leqnat(s(nn1), s(nn2)) <= leqnat(nn1, nn2)
leqnat(nn1, nn2) <= leqnat(s(nn1), s(nn2))
False <= leqnat(s(nn1), z)
leq(z, y2) \/ merge(cons(z, xs), cons(y2, ys), cons(y2, _hia)) <= merge(cons(z, xs), ys, _hia)
plus(n, s(mm), s(_sia)) <= plus(n, mm, _sia)
}


Solving took 0.347560 seconds.
Yes: |_

_r_1 ->
{
  _r_1(cons(x_0_0, x_0_1), cons(x_1_0, x_1_1)) <= _r_1(x_0_1, x_1_1)
  _r_1(nil, cons(x_1_0, x_1_1)) <= True
  _r_1(nil, nil) <= True
}
;
append ->
{
  append(cons(x_0_0, x_0_1), cons(x_1_0, x_1_1), cons(x_2_0, x_2_1)) <= True
  append(cons(x_0_0, x_0_1), nil, cons(x_2_0, x_2_1)) <= True
  append(nil, cons(x_1_0, x_1_1), cons(x_2_0, x_2_1)) <= True
  append(nil, nil, nil) <= True
}
;
length ->
{
  length(cons(x_0_0, x_0_1), s(x_1_0)) <= length(x_0_1, x_1_0)
  length(nil, z) <= True
}
;
leq ->
{
  leq(a, a) <= True
  leq(a, b) <= True
  leq(b, b) <= True
}
;
leqnat ->
{
  leqnat(s(x_0_0), s(x_1_0)) <= leqnat(x_0_0, x_1_0)
  leqnat(z, s(x_1_0)) <= True
  leqnat(z, z) <= True
}
;
merge ->
{
  merge(cons(x_0_0, x_0_1), cons(x_1_0, x_1_1), cons(x_2_0, x_2_1)) <= _r_1(x_0_1, x_2_1) /\ _r_1(x_1_1, x_2_1)
  merge(cons(x_0_0, x_0_1), nil, cons(x_2_0, x_2_1)) <= _r_1(x_0_1, x_2_1)
  merge(nil, cons(x_1_0, x_1_1), cons(x_2_0, x_2_1)) <= _r_1(x_1_1, x_2_1)
  merge(nil, nil, nil) <= True
}
;
plus ->
{
  plus(s(x_0_0), s(x_1_0), s(x_2_0)) <= True
  plus(s(x_0_0), z, s(x_2_0)) <= True
  plus(z, s(x_1_0), s(x_2_0)) <= True
  plus(z, z, z) <= True
}

--
Equality automata are defined for: {elt, eltlist, nat}
_|
-------------------
STEPS:
-------------------------------------------
Step 0, which took 0.007212 s (model generation: 0.006979,  model checking: 0.000233):

Ground examples at the beginning of this step are:
{

}

Learner proposed model:
Found Model:
|_

append ->
{
  
}
;
length ->
{
  
}
;
leq ->
{
  
}
;
leqnat ->
{
  
}
;
merge ->
{
  
}
;
plus ->
{
  
}

--
Equality automata are defined for: {elt, eltlist, nat}
_|


Answer of teacher:


append(nil, l2, l2) <= True -> Yes: {
l2 -> nil
}
length(nil, z) <= True -> Yes: {

}
leq(a, n2) <= True -> Yes: {
n2 -> b
}
leq(b, b) <= True -> Yes: {

}
leqnat(z, n2) <= True -> Yes: {
n2 -> z
}
merge(cons(z, xs), nil, cons(z, xs)) <= True -> Yes: {

}
merge(nil, y, y) <= True -> Yes: {
y -> nil
}
plus(n, z, n) <= True -> Yes: {
n -> z
}
append(cons(h1, t1), l2, cons(h1, _nia)) <= append(t1, l2, _nia) -> No: ()
leqnat(_bja, _cja) <= length(_dja, _cja) /\ length(l1, _bja) /\ merge(l1, l2, _dja) -> No: ()
leqnat(_eja, _fja) <= length(_gja, _fja) /\ length(l2, _eja) /\ merge(l1, l2, _gja) -> No: ()
length(cons(x, ll), s(_xia)) <= length(ll, _xia) -> No: ()
merge(cons(z, xs), cons(y2, ys), cons(z, _iia)) <= leq(z, y2) /\ merge(xs, cons(y2, ys), _iia) -> No: ()
False <= leq(b, a) -> No: ()
leqnat(s(nn1), s(nn2)) <= leqnat(nn1, nn2) -> No: ()
leqnat(nn1, nn2) <= leqnat(s(nn1), s(nn2)) -> No: ()
False <= leqnat(s(nn1), z) -> No: ()
leq(z, y2) \/ merge(cons(z, xs), cons(y2, ys), cons(y2, _hia)) <= merge(cons(z, xs), ys, _hia) -> No: ()
plus(n, s(mm), s(_sia)) <= plus(n, mm, _sia) -> No: ()



-------------------------------------------
Step 1, which took 0.008788 s (model generation: 0.008541,  model checking: 0.000247):

Ground examples at the beginning of this step are:
{
append(nil, nil, nil) <= True
length(nil, z) <= True
leq(a, b) <= True
leq(b, b) <= True
leqnat(z, z) <= True
merge(cons(a, nil), nil, cons(a, nil)) <= True
merge(nil, nil, nil) <= True
plus(z, z, z) <= True
}

Learner proposed model:
Found Model:
|_

append ->
{
  append(nil, nil, nil) <= True
}
;
length ->
{
  length(nil, z) <= True
}
;
leq ->
{
  leq(a, b) <= True
  leq(b, b) <= True
}
;
leqnat ->
{
  leqnat(z, z) <= True
}
;
merge ->
{
  merge(cons(x_0_0, x_0_1), nil, cons(x_2_0, x_2_1)) <= True
  merge(nil, nil, nil) <= True
}
;
plus ->
{
  plus(z, z, z) <= True
}

--
Equality automata are defined for: {elt, eltlist, nat}
_|


Answer of teacher:


append(nil, l2, l2) <= True -> Yes: {
l2 -> cons(l2_0, l2_1)
}
length(nil, z) <= True -> No: ()
leq(a, n2) <= True -> Yes: {
n2 -> a
}
leq(b, b) <= True -> No: ()
leqnat(z, n2) <= True -> Yes: {
n2 -> s(n2_0)
}
merge(cons(z, xs), nil, cons(z, xs)) <= True -> No: ()
merge(nil, y, y) <= True -> Yes: {
y -> cons(y_0, y_1)
}
plus(n, z, n) <= True -> Yes: {
n -> s(n_0)
}
append(cons(h1, t1), l2, cons(h1, _nia)) <= append(t1, l2, _nia) -> Yes: {
_nia -> nil  ;  l2 -> nil  ;  t1 -> nil
}
leqnat(_bja, _cja) <= length(_dja, _cja) /\ length(l1, _bja) /\ merge(l1, l2, _dja) -> No: ()
leqnat(_eja, _fja) <= length(_gja, _fja) /\ length(l2, _eja) /\ merge(l1, l2, _gja) -> No: ()
length(cons(x, ll), s(_xia)) <= length(ll, _xia) -> Yes: {
_xia -> z  ;  ll -> nil
}
merge(cons(z, xs), cons(y2, ys), cons(z, _iia)) <= leq(z, y2) /\ merge(xs, cons(y2, ys), _iia) -> No: ()
False <= leq(b, a) -> No: ()
leqnat(s(nn1), s(nn2)) <= leqnat(nn1, nn2) -> Yes: {
nn1 -> z  ;  nn2 -> z
}
leqnat(nn1, nn2) <= leqnat(s(nn1), s(nn2)) -> No: ()
False <= leqnat(s(nn1), z) -> No: ()
leq(z, y2) \/ merge(cons(z, xs), cons(y2, ys), cons(y2, _hia)) <= merge(cons(z, xs), ys, _hia) -> Yes: {
_hia -> cons(v4_0, v4_1)  ;  xs -> xs  ;  y2 -> a  ;  ys -> nil  ;  z -> b
}
plus(n, s(mm), s(_sia)) <= plus(n, mm, _sia) -> Yes: {
_sia -> z  ;  mm -> z  ;  n -> z
}



-------------------------------------------
Step 2, which took 0.014425 s (model generation: 0.014258,  model checking: 0.000167):

Ground examples at the beginning of this step are:
{
append(cons(a, nil), nil, cons(a, nil)) <= True
append(nil, cons(a, nil), cons(a, nil)) <= True
append(nil, nil, nil) <= True
length(cons(a, nil), s(z)) <= True
length(nil, z) <= True
leq(a, a) <= True
leq(a, b) <= True
leq(b, b) <= True
leqnat(s(z), s(z)) <= True
leqnat(z, s(z)) <= True
leqnat(z, z) <= True
merge(cons(a, nil), nil, cons(a, nil)) <= True
merge(nil, cons(a, nil), cons(a, nil)) <= True
merge(nil, nil, nil) <= True
plus(s(z), z, s(z)) <= True
plus(z, s(z), s(z)) <= True
plus(z, z, z) <= True
leq(b, a) \/ merge(cons(b, nil), cons(a, nil), cons(a, cons(a, nil))) <= merge(cons(b, nil), nil, cons(a, nil))
}

Learner proposed model:
Found Model:
|_

append ->
{
  append(cons(x_0_0, x_0_1), nil, cons(x_2_0, x_2_1)) <= True
  append(nil, cons(x_1_0, x_1_1), cons(x_2_0, x_2_1)) <= True
  append(nil, nil, nil) <= True
}
;
length ->
{
  length(cons(x_0_0, x_0_1), s(x_1_0)) <= True
  length(nil, z) <= True
}
;
leq ->
{
  leq(a, a) <= True
  leq(a, b) <= True
  leq(b, a) <= True
  leq(b, b) <= True
}
;
leqnat ->
{
  leqnat(s(x_0_0), s(x_1_0)) <= True
  leqnat(z, s(x_1_0)) <= True
  leqnat(z, z) <= True
}
;
merge ->
{
  merge(cons(x_0_0, x_0_1), cons(x_1_0, x_1_1), cons(x_2_0, x_2_1)) <= True
  merge(cons(x_0_0, x_0_1), nil, cons(x_2_0, x_2_1)) <= True
  merge(nil, cons(x_1_0, x_1_1), cons(x_2_0, x_2_1)) <= True
  merge(nil, nil, nil) <= True
}
;
plus ->
{
  plus(s(x_0_0), z, s(x_2_0)) <= True
  plus(z, s(x_1_0), s(x_2_0)) <= True
  plus(z, z, z) <= True
}

--
Equality automata are defined for: {elt, eltlist, nat}
_|


Answer of teacher:


append(nil, l2, l2) <= True -> No: ()
length(nil, z) <= True -> No: ()
leq(a, n2) <= True -> No: ()
leq(b, b) <= True -> No: ()
leqnat(z, n2) <= True -> No: ()
merge(cons(z, xs), nil, cons(z, xs)) <= True -> No: ()
merge(nil, y, y) <= True -> No: ()
plus(n, z, n) <= True -> No: ()
append(cons(h1, t1), l2, cons(h1, _nia)) <= append(t1, l2, _nia) -> Yes: {
_nia -> cons(_nia_0, _nia_1)  ;  l2 -> cons(l2_0, l2_1)  ;  t1 -> nil
}
leqnat(_bja, _cja) <= length(_dja, _cja) /\ length(l1, _bja) /\ merge(l1, l2, _dja) -> No: ()
leqnat(_eja, _fja) <= length(_gja, _fja) /\ length(l2, _eja) /\ merge(l1, l2, _gja) -> No: ()
length(cons(x, ll), s(_xia)) <= length(ll, _xia) -> No: ()
merge(cons(z, xs), cons(y2, ys), cons(z, _iia)) <= leq(z, y2) /\ merge(xs, cons(y2, ys), _iia) -> No: ()
False <= leq(b, a) -> Yes: {

}
leqnat(s(nn1), s(nn2)) <= leqnat(nn1, nn2) -> No: ()
leqnat(nn1, nn2) <= leqnat(s(nn1), s(nn2)) -> Yes: {
nn1 -> s(v0_0)  ;  nn2 -> z
}
False <= leqnat(s(nn1), z) -> No: ()
leq(z, y2) \/ merge(cons(z, xs), cons(y2, ys), cons(y2, _hia)) <= merge(cons(z, xs), ys, _hia) -> No: ()
plus(n, s(mm), s(_sia)) <= plus(n, mm, _sia) -> Yes: {
_sia -> s(_sia_0)  ;  mm -> z  ;  n -> s(n_0)
}



-------------------------------------------
Step 3, which took 0.016480 s (model generation: 0.016353,  model checking: 0.000127):

Ground examples at the beginning of this step are:
{
append(cons(a, nil), cons(a, nil), cons(a, cons(a, nil))) <= True
append(cons(a, nil), nil, cons(a, nil)) <= True
append(nil, cons(a, nil), cons(a, nil)) <= True
append(nil, nil, nil) <= True
length(cons(a, nil), s(z)) <= True
length(nil, z) <= True
leq(a, a) <= True
leq(a, b) <= True
leq(b, b) <= True
leqnat(s(z), s(z)) <= True
leqnat(z, s(z)) <= True
leqnat(z, z) <= True
merge(cons(a, nil), nil, cons(a, nil)) <= True
merge(nil, cons(a, nil), cons(a, nil)) <= True
merge(nil, nil, nil) <= True
plus(s(z), s(z), s(s(z))) <= True
plus(s(z), z, s(z)) <= True
plus(z, s(z), s(z)) <= True
plus(z, z, z) <= True
False <= leq(b, a)
leqnat(s(z), z) <= leqnat(s(s(z)), s(z))
merge(cons(b, nil), cons(a, nil), cons(a, cons(a, nil))) <= merge(cons(b, nil), nil, cons(a, nil))
}

Learner proposed model:
Found Model:
|_

append ->
{
  append(cons(x_0_0, x_0_1), cons(x_1_0, x_1_1), cons(x_2_0, x_2_1)) <= True
  append(cons(x_0_0, x_0_1), nil, cons(x_2_0, x_2_1)) <= True
  append(nil, cons(x_1_0, x_1_1), cons(x_2_0, x_2_1)) <= True
  append(nil, nil, nil) <= True
}
;
length ->
{
  length(cons(x_0_0, x_0_1), s(x_1_0)) <= True
  length(nil, z) <= True
}
;
leq ->
{
  leq(a, a) <= True
  leq(a, b) <= True
  leq(b, b) <= True
}
;
leqnat ->
{
  leqnat(s(x_0_0), s(x_1_0)) <= True
  leqnat(s(x_0_0), z) <= True
  leqnat(z, s(x_1_0)) <= True
  leqnat(z, z) <= True
}
;
merge ->
{
  merge(cons(x_0_0, x_0_1), cons(x_1_0, x_1_1), cons(x_2_0, x_2_1)) <= True
  merge(cons(x_0_0, x_0_1), nil, cons(x_2_0, x_2_1)) <= True
  merge(nil, cons(x_1_0, x_1_1), cons(x_2_0, x_2_1)) <= True
  merge(nil, nil, nil) <= True
}
;
plus ->
{
  plus(s(x_0_0), s(x_1_0), s(x_2_0)) <= True
  plus(s(x_0_0), z, s(x_2_0)) <= True
  plus(z, s(x_1_0), s(x_2_0)) <= True
  plus(z, z, z) <= True
}

--
Equality automata are defined for: {elt, eltlist, nat}
_|


Answer of teacher:


append(nil, l2, l2) <= True -> No: ()
length(nil, z) <= True -> No: ()
leq(a, n2) <= True -> No: ()
leq(b, b) <= True -> No: ()
leqnat(z, n2) <= True -> No: ()
merge(cons(z, xs), nil, cons(z, xs)) <= True -> No: ()
merge(nil, y, y) <= True -> No: ()
plus(n, z, n) <= True -> No: ()
append(cons(h1, t1), l2, cons(h1, _nia)) <= append(t1, l2, _nia) -> No: ()
leqnat(_bja, _cja) <= length(_dja, _cja) /\ length(l1, _bja) /\ merge(l1, l2, _dja) -> No: ()
leqnat(_eja, _fja) <= length(_gja, _fja) /\ length(l2, _eja) /\ merge(l1, l2, _gja) -> No: ()
length(cons(x, ll), s(_xia)) <= length(ll, _xia) -> No: ()
merge(cons(z, xs), cons(y2, ys), cons(z, _iia)) <= leq(z, y2) /\ merge(xs, cons(y2, ys), _iia) -> No: ()
False <= leq(b, a) -> No: ()
leqnat(s(nn1), s(nn2)) <= leqnat(nn1, nn2) -> No: ()
leqnat(nn1, nn2) <= leqnat(s(nn1), s(nn2)) -> No: ()
False <= leqnat(s(nn1), z) -> Yes: {

}
leq(z, y2) \/ merge(cons(z, xs), cons(y2, ys), cons(y2, _hia)) <= merge(cons(z, xs), ys, _hia) -> No: ()
plus(n, s(mm), s(_sia)) <= plus(n, mm, _sia) -> No: ()



-------------------------------------------
Step 4, which took 0.016459 s (model generation: 0.016266,  model checking: 0.000193):

Ground examples at the beginning of this step are:
{
append(cons(a, nil), cons(a, nil), cons(a, cons(a, nil))) <= True
append(cons(a, nil), nil, cons(a, nil)) <= True
append(nil, cons(a, nil), cons(a, nil)) <= True
append(nil, nil, nil) <= True
length(cons(a, nil), s(z)) <= True
length(nil, z) <= True
leq(a, a) <= True
leq(a, b) <= True
leq(b, b) <= True
leqnat(s(z), s(z)) <= True
leqnat(z, s(z)) <= True
leqnat(z, z) <= True
merge(cons(a, nil), nil, cons(a, nil)) <= True
merge(nil, cons(a, nil), cons(a, nil)) <= True
merge(nil, nil, nil) <= True
plus(s(z), s(z), s(s(z))) <= True
plus(s(z), z, s(z)) <= True
plus(z, s(z), s(z)) <= True
plus(z, z, z) <= True
False <= leq(b, a)
False <= leqnat(s(s(z)), s(z))
False <= leqnat(s(z), z)
merge(cons(b, nil), cons(a, nil), cons(a, cons(a, nil))) <= merge(cons(b, nil), nil, cons(a, nil))
}

Learner proposed model:
Found Model:
|_

append ->
{
  append(cons(x_0_0, x_0_1), cons(x_1_0, x_1_1), cons(x_2_0, x_2_1)) <= True
  append(cons(x_0_0, x_0_1), nil, cons(x_2_0, x_2_1)) <= True
  append(nil, cons(x_1_0, x_1_1), cons(x_2_0, x_2_1)) <= True
  append(nil, nil, nil) <= True
}
;
length ->
{
  length(cons(x_0_0, x_0_1), s(x_1_0)) <= True
  length(nil, z) <= True
}
;
leq ->
{
  leq(a, a) <= True
  leq(a, b) <= True
  leq(b, b) <= True
}
;
leqnat ->
{
  leqnat(s(x_0_0), s(x_1_0)) <= leqnat(x_0_0, x_1_0)
  leqnat(z, s(x_1_0)) <= True
  leqnat(z, z) <= True
}
;
merge ->
{
  merge(cons(x_0_0, x_0_1), cons(x_1_0, x_1_1), cons(x_2_0, x_2_1)) <= True
  merge(cons(x_0_0, x_0_1), nil, cons(x_2_0, x_2_1)) <= True
  merge(nil, cons(x_1_0, x_1_1), cons(x_2_0, x_2_1)) <= True
  merge(nil, nil, nil) <= True
}
;
plus ->
{
  plus(s(x_0_0), s(x_1_0), s(x_2_0)) <= True
  plus(s(x_0_0), z, s(x_2_0)) <= True
  plus(z, s(x_1_0), s(x_2_0)) <= True
  plus(z, z, z) <= True
}

--
Equality automata are defined for: {elt, eltlist, nat}
_|


Answer of teacher:


append(nil, l2, l2) <= True -> No: ()
length(nil, z) <= True -> No: ()
leq(a, n2) <= True -> No: ()
leq(b, b) <= True -> No: ()
leqnat(z, n2) <= True -> No: ()
merge(cons(z, xs), nil, cons(z, xs)) <= True -> No: ()
merge(nil, y, y) <= True -> No: ()
plus(n, z, n) <= True -> No: ()
append(cons(h1, t1), l2, cons(h1, _nia)) <= append(t1, l2, _nia) -> No: ()
leqnat(_bja, _cja) <= length(_dja, _cja) /\ length(l1, _bja) /\ merge(l1, l2, _dja) -> Yes: {
_bja -> s(s(v0_0))  ;  _cja -> s(z)  ;  _dja -> cons(_dja_0, _dja_1)  ;  l1 -> cons(l1_0, l1_1)  ;  l2 -> nil
}
leqnat(_eja, _fja) <= length(_gja, _fja) /\ length(l2, _eja) /\ merge(l1, l2, _gja) -> Yes: {
_eja -> s(s(v0_0))  ;  _fja -> s(z)  ;  _gja -> cons(_gja_0, _gja_1)  ;  l1 -> nil  ;  l2 -> cons(l2_0, l2_1)
}
length(cons(x, ll), s(_xia)) <= length(ll, _xia) -> No: ()
merge(cons(z, xs), cons(y2, ys), cons(z, _iia)) <= leq(z, y2) /\ merge(xs, cons(y2, ys), _iia) -> No: ()
False <= leq(b, a) -> No: ()
leqnat(s(nn1), s(nn2)) <= leqnat(nn1, nn2) -> No: ()
leqnat(nn1, nn2) <= leqnat(s(nn1), s(nn2)) -> No: ()
False <= leqnat(s(nn1), z) -> No: ()
leq(z, y2) \/ merge(cons(z, xs), cons(y2, ys), cons(y2, _hia)) <= merge(cons(z, xs), ys, _hia) -> No: ()
plus(n, s(mm), s(_sia)) <= plus(n, mm, _sia) -> No: ()



-------------------------------------------
Step 5, which took 0.017031 s (model generation: 0.016616,  model checking: 0.000415):

Ground examples at the beginning of this step are:
{
append(cons(a, nil), cons(a, nil), cons(a, cons(a, nil))) <= True
append(cons(a, nil), nil, cons(a, nil)) <= True
append(nil, cons(a, nil), cons(a, nil)) <= True
append(nil, nil, nil) <= True
length(cons(a, nil), s(z)) <= True
length(nil, z) <= True
leq(a, a) <= True
leq(a, b) <= True
leq(b, b) <= True
leqnat(s(z), s(z)) <= True
leqnat(z, s(z)) <= True
leqnat(z, z) <= True
merge(cons(a, nil), nil, cons(a, nil)) <= True
merge(nil, cons(a, nil), cons(a, nil)) <= True
merge(nil, nil, nil) <= True
plus(s(z), s(z), s(s(z))) <= True
plus(s(z), z, s(z)) <= True
plus(z, s(z), s(z)) <= True
plus(z, z, z) <= True
False <= length(cons(a, nil), s(s(z)))
False <= leq(b, a)
False <= leqnat(s(s(z)), s(z))
False <= leqnat(s(z), z)
merge(cons(b, nil), cons(a, nil), cons(a, cons(a, nil))) <= merge(cons(b, nil), nil, cons(a, nil))
}

Learner proposed model:
Found Model:
|_

append ->
{
  append(cons(x_0_0, x_0_1), cons(x_1_0, x_1_1), cons(x_2_0, x_2_1)) <= True
  append(cons(x_0_0, x_0_1), nil, cons(x_2_0, x_2_1)) <= True
  append(nil, cons(x_1_0, x_1_1), cons(x_2_0, x_2_1)) <= True
  append(nil, nil, nil) <= True
}
;
length ->
{
  length(cons(x_0_0, x_0_1), s(x_1_0)) <= length(x_0_1, x_1_0)
  length(nil, z) <= True
}
;
leq ->
{
  leq(a, a) <= True
  leq(a, b) <= True
  leq(b, b) <= True
}
;
leqnat ->
{
  leqnat(s(x_0_0), s(x_1_0)) <= leqnat(x_0_0, x_1_0)
  leqnat(z, s(x_1_0)) <= True
  leqnat(z, z) <= True
}
;
merge ->
{
  merge(cons(x_0_0, x_0_1), cons(x_1_0, x_1_1), cons(x_2_0, x_2_1)) <= True
  merge(cons(x_0_0, x_0_1), nil, cons(x_2_0, x_2_1)) <= True
  merge(nil, cons(x_1_0, x_1_1), cons(x_2_0, x_2_1)) <= True
  merge(nil, nil, nil) <= True
}
;
plus ->
{
  plus(s(x_0_0), s(x_1_0), s(x_2_0)) <= True
  plus(s(x_0_0), z, s(x_2_0)) <= True
  plus(z, s(x_1_0), s(x_2_0)) <= True
  plus(z, z, z) <= True
}

--
Equality automata are defined for: {elt, eltlist, nat}
_|


Answer of teacher:


append(nil, l2, l2) <= True -> No: ()
length(nil, z) <= True -> No: ()
leq(a, n2) <= True -> No: ()
leq(b, b) <= True -> No: ()
leqnat(z, n2) <= True -> No: ()
merge(cons(z, xs), nil, cons(z, xs)) <= True -> No: ()
merge(nil, y, y) <= True -> No: ()
plus(n, z, n) <= True -> No: ()
append(cons(h1, t1), l2, cons(h1, _nia)) <= append(t1, l2, _nia) -> No: ()
leqnat(_bja, _cja) <= length(_dja, _cja) /\ length(l1, _bja) /\ merge(l1, l2, _dja) -> Yes: {
_bja -> s(s(z))  ;  _cja -> s(z)  ;  _dja -> cons(_dja_0, nil)  ;  l1 -> cons(l1_0, cons(v2_0, nil))  ;  l2 -> nil
}
leqnat(_eja, _fja) <= length(_gja, _fja) /\ length(l2, _eja) /\ merge(l1, l2, _gja) -> Yes: {
_eja -> s(s(z))  ;  _fja -> s(z)  ;  _gja -> cons(_gja_0, nil)  ;  l1 -> nil  ;  l2 -> cons(l2_0, cons(v2_0, nil))
}
length(cons(x, ll), s(_xia)) <= length(ll, _xia) -> No: ()
merge(cons(z, xs), cons(y2, ys), cons(z, _iia)) <= leq(z, y2) /\ merge(xs, cons(y2, ys), _iia) -> No: ()
False <= leq(b, a) -> No: ()
leqnat(s(nn1), s(nn2)) <= leqnat(nn1, nn2) -> No: ()
leqnat(nn1, nn2) <= leqnat(s(nn1), s(nn2)) -> No: ()
False <= leqnat(s(nn1), z) -> No: ()
leq(z, y2) \/ merge(cons(z, xs), cons(y2, ys), cons(y2, _hia)) <= merge(cons(z, xs), ys, _hia) -> No: ()
plus(n, s(mm), s(_sia)) <= plus(n, mm, _sia) -> No: ()



-------------------------------------------
Step 6, which took 0.029475 s (model generation: 0.028980,  model checking: 0.000495):

Ground examples at the beginning of this step are:
{
append(cons(a, nil), cons(a, nil), cons(a, cons(a, nil))) <= True
append(cons(a, nil), nil, cons(a, nil)) <= True
append(nil, cons(a, nil), cons(a, nil)) <= True
append(nil, nil, nil) <= True
length(cons(a, nil), s(z)) <= True
length(nil, z) <= True
leq(a, a) <= True
leq(a, b) <= True
leq(b, b) <= True
leqnat(s(z), s(z)) <= True
leqnat(z, s(z)) <= True
leqnat(z, z) <= True
merge(cons(a, nil), nil, cons(a, nil)) <= True
merge(nil, cons(a, nil), cons(a, nil)) <= True
merge(nil, nil, nil) <= True
plus(s(z), s(z), s(s(z))) <= True
plus(s(z), z, s(z)) <= True
plus(z, s(z), s(z)) <= True
plus(z, z, z) <= True
False <= length(cons(a, cons(a, nil)), s(s(z))) /\ merge(cons(a, cons(a, nil)), nil, cons(a, nil))
False <= length(cons(a, cons(a, nil)), s(s(z))) /\ merge(nil, cons(a, cons(a, nil)), cons(a, nil))
False <= length(cons(a, nil), s(s(z)))
False <= leq(b, a)
False <= leqnat(s(s(z)), s(z))
False <= leqnat(s(z), z)
merge(cons(b, nil), cons(a, nil), cons(a, cons(a, nil))) <= merge(cons(b, nil), nil, cons(a, nil))
}

Learner proposed model:
Found Model:
|_

_r_1 ->
{
  _r_1(a, z) <= True
}
;
append ->
{
  append(cons(x_0_0, x_0_1), cons(x_1_0, x_1_1), cons(x_2_0, x_2_1)) <= True
  append(cons(x_0_0, x_0_1), nil, cons(x_2_0, x_2_1)) <= True
  append(nil, cons(x_1_0, x_1_1), cons(x_2_0, x_2_1)) <= True
  append(nil, nil, nil) <= True
}
;
length ->
{
  length(cons(x_0_0, x_0_1), s(x_1_0)) <= _r_1(x_0_0, x_1_0)
  length(nil, z) <= True
}
;
leq ->
{
  leq(a, a) <= True
  leq(a, b) <= True
  leq(b, b) <= True
}
;
leqnat ->
{
  leqnat(s(x_0_0), s(x_1_0)) <= leqnat(x_0_0, x_1_0)
  leqnat(z, s(x_1_0)) <= True
  leqnat(z, z) <= True
}
;
merge ->
{
  merge(cons(x_0_0, x_0_1), cons(x_1_0, x_1_1), cons(x_2_0, x_2_1)) <= True
  merge(cons(x_0_0, x_0_1), nil, cons(x_2_0, x_2_1)) <= True
  merge(nil, cons(x_1_0, x_1_1), cons(x_2_0, x_2_1)) <= True
  merge(nil, nil, nil) <= True
}
;
plus ->
{
  plus(s(x_0_0), s(x_1_0), s(x_2_0)) <= True
  plus(s(x_0_0), z, s(x_2_0)) <= True
  plus(z, s(x_1_0), s(x_2_0)) <= True
  plus(z, z, z) <= True
}

--
Equality automata are defined for: {elt, eltlist, nat}
_|


Answer of teacher:


append(nil, l2, l2) <= True -> No: ()
length(nil, z) <= True -> No: ()
leq(a, n2) <= True -> No: ()
leq(b, b) <= True -> No: ()
leqnat(z, n2) <= True -> No: ()
merge(cons(z, xs), nil, cons(z, xs)) <= True -> No: ()
merge(nil, y, y) <= True -> No: ()
plus(n, z, n) <= True -> No: ()
append(cons(h1, t1), l2, cons(h1, _nia)) <= append(t1, l2, _nia) -> No: ()
leqnat(_bja, _cja) <= length(_dja, _cja) /\ length(l1, _bja) /\ merge(l1, l2, _dja) -> No: ()
leqnat(_eja, _fja) <= length(_gja, _fja) /\ length(l2, _eja) /\ merge(l1, l2, _gja) -> No: ()
length(cons(x, ll), s(_xia)) <= length(ll, _xia) -> Yes: {
_xia -> z  ;  ll -> nil  ;  x -> b
}
merge(cons(z, xs), cons(y2, ys), cons(z, _iia)) <= leq(z, y2) /\ merge(xs, cons(y2, ys), _iia) -> No: ()
False <= leq(b, a) -> No: ()
leqnat(s(nn1), s(nn2)) <= leqnat(nn1, nn2) -> No: ()
leqnat(nn1, nn2) <= leqnat(s(nn1), s(nn2)) -> No: ()
False <= leqnat(s(nn1), z) -> No: ()
leq(z, y2) \/ merge(cons(z, xs), cons(y2, ys), cons(y2, _hia)) <= merge(cons(z, xs), ys, _hia) -> No: ()
plus(n, s(mm), s(_sia)) <= plus(n, mm, _sia) -> No: ()



-------------------------------------------
Step 7, which took 0.030206 s (model generation: 0.029882,  model checking: 0.000324):

Ground examples at the beginning of this step are:
{
append(cons(a, nil), cons(a, nil), cons(a, cons(a, nil))) <= True
append(cons(a, nil), nil, cons(a, nil)) <= True
append(nil, cons(a, nil), cons(a, nil)) <= True
append(nil, nil, nil) <= True
length(cons(a, nil), s(z)) <= True
length(cons(b, nil), s(z)) <= True
length(nil, z) <= True
leq(a, a) <= True
leq(a, b) <= True
leq(b, b) <= True
leqnat(s(z), s(z)) <= True
leqnat(z, s(z)) <= True
leqnat(z, z) <= True
merge(cons(a, nil), nil, cons(a, nil)) <= True
merge(nil, cons(a, nil), cons(a, nil)) <= True
merge(nil, nil, nil) <= True
plus(s(z), s(z), s(s(z))) <= True
plus(s(z), z, s(z)) <= True
plus(z, s(z), s(z)) <= True
plus(z, z, z) <= True
False <= length(cons(a, cons(a, nil)), s(s(z))) /\ merge(cons(a, cons(a, nil)), nil, cons(a, nil))
False <= length(cons(a, cons(a, nil)), s(s(z))) /\ merge(nil, cons(a, cons(a, nil)), cons(a, nil))
False <= length(cons(a, nil), s(s(z)))
False <= leq(b, a)
False <= leqnat(s(s(z)), s(z))
False <= leqnat(s(z), z)
merge(cons(b, nil), cons(a, nil), cons(a, cons(a, nil))) <= merge(cons(b, nil), nil, cons(a, nil))
}

Learner proposed model:
Found Model:
|_

_r_1 ->
{
  _r_1(a, z) <= True
  _r_1(b, z) <= True
}
;
append ->
{
  append(cons(x_0_0, x_0_1), cons(x_1_0, x_1_1), cons(x_2_0, x_2_1)) <= True
  append(cons(x_0_0, x_0_1), nil, cons(x_2_0, x_2_1)) <= True
  append(nil, cons(x_1_0, x_1_1), cons(x_2_0, x_2_1)) <= True
  append(nil, nil, nil) <= True
}
;
length ->
{
  length(cons(x_0_0, x_0_1), s(x_1_0)) <= _r_1(x_0_0, x_1_0)
  length(nil, z) <= True
}
;
leq ->
{
  leq(a, a) <= True
  leq(a, b) <= True
  leq(b, b) <= True
}
;
leqnat ->
{
  leqnat(s(x_0_0), s(x_1_0)) <= leqnat(x_0_0, x_1_0)
  leqnat(z, s(x_1_0)) <= True
  leqnat(z, z) <= True
}
;
merge ->
{
  merge(cons(x_0_0, x_0_1), cons(x_1_0, x_1_1), cons(x_2_0, x_2_1)) <= True
  merge(cons(x_0_0, x_0_1), nil, cons(x_2_0, x_2_1)) <= True
  merge(nil, cons(x_1_0, x_1_1), cons(x_2_0, x_2_1)) <= True
  merge(nil, nil, nil) <= True
}
;
plus ->
{
  plus(s(x_0_0), s(x_1_0), s(x_2_0)) <= True
  plus(s(x_0_0), z, s(x_2_0)) <= True
  plus(z, s(x_1_0), s(x_2_0)) <= True
  plus(z, z, z) <= True
}

--
Equality automata are defined for: {elt, eltlist, nat}
_|


Answer of teacher:


append(nil, l2, l2) <= True -> No: ()
length(nil, z) <= True -> No: ()
leq(a, n2) <= True -> No: ()
leq(b, b) <= True -> No: ()
leqnat(z, n2) <= True -> No: ()
merge(cons(z, xs), nil, cons(z, xs)) <= True -> No: ()
merge(nil, y, y) <= True -> No: ()
plus(n, z, n) <= True -> No: ()
append(cons(h1, t1), l2, cons(h1, _nia)) <= append(t1, l2, _nia) -> No: ()
leqnat(_bja, _cja) <= length(_dja, _cja) /\ length(l1, _bja) /\ merge(l1, l2, _dja) -> No: ()
leqnat(_eja, _fja) <= length(_gja, _fja) /\ length(l2, _eja) /\ merge(l1, l2, _gja) -> No: ()
length(cons(x, ll), s(_xia)) <= length(ll, _xia) -> Yes: {
_xia -> s(z)  ;  ll -> cons(b, v2_1)  ;  x -> b
}
merge(cons(z, xs), cons(y2, ys), cons(z, _iia)) <= leq(z, y2) /\ merge(xs, cons(y2, ys), _iia) -> No: ()
False <= leq(b, a) -> No: ()
leqnat(s(nn1), s(nn2)) <= leqnat(nn1, nn2) -> No: ()
leqnat(nn1, nn2) <= leqnat(s(nn1), s(nn2)) -> No: ()
False <= leqnat(s(nn1), z) -> No: ()
leq(z, y2) \/ merge(cons(z, xs), cons(y2, ys), cons(y2, _hia)) <= merge(cons(z, xs), ys, _hia) -> No: ()
plus(n, s(mm), s(_sia)) <= plus(n, mm, _sia) -> No: ()



-------------------------------------------
Step 8, which took 0.032071 s (model generation: 0.031677,  model checking: 0.000394):

Ground examples at the beginning of this step are:
{
append(cons(a, nil), cons(a, nil), cons(a, cons(a, nil))) <= True
append(cons(a, nil), nil, cons(a, nil)) <= True
append(nil, cons(a, nil), cons(a, nil)) <= True
append(nil, nil, nil) <= True
length(cons(a, nil), s(z)) <= True
length(cons(b, cons(b, nil)), s(s(z))) <= True
length(cons(b, nil), s(z)) <= True
length(nil, z) <= True
leq(a, a) <= True
leq(a, b) <= True
leq(b, b) <= True
leqnat(s(z), s(z)) <= True
leqnat(z, s(z)) <= True
leqnat(z, z) <= True
merge(cons(a, nil), nil, cons(a, nil)) <= True
merge(nil, cons(a, nil), cons(a, nil)) <= True
merge(nil, nil, nil) <= True
plus(s(z), s(z), s(s(z))) <= True
plus(s(z), z, s(z)) <= True
plus(z, s(z), s(z)) <= True
plus(z, z, z) <= True
False <= length(cons(a, cons(a, nil)), s(s(z))) /\ merge(cons(a, cons(a, nil)), nil, cons(a, nil))
False <= length(cons(a, cons(a, nil)), s(s(z))) /\ merge(nil, cons(a, cons(a, nil)), cons(a, nil))
False <= length(cons(a, nil), s(s(z)))
False <= leq(b, a)
False <= leqnat(s(s(z)), s(z))
False <= leqnat(s(z), z)
merge(cons(b, nil), cons(a, nil), cons(a, cons(a, nil))) <= merge(cons(b, nil), nil, cons(a, nil))
}

Learner proposed model:
Found Model:
|_

_r_1 ->
{
  _r_1(a, z) <= True
  _r_1(b, s(x_1_0)) <= True
  _r_1(b, z) <= True
}
;
append ->
{
  append(cons(x_0_0, x_0_1), cons(x_1_0, x_1_1), cons(x_2_0, x_2_1)) <= True
  append(cons(x_0_0, x_0_1), nil, cons(x_2_0, x_2_1)) <= True
  append(nil, cons(x_1_0, x_1_1), cons(x_2_0, x_2_1)) <= True
  append(nil, nil, nil) <= True
}
;
length ->
{
  length(cons(x_0_0, x_0_1), s(x_1_0)) <= _r_1(x_0_0, x_1_0)
  length(nil, z) <= True
}
;
leq ->
{
  leq(a, a) <= True
  leq(a, b) <= True
  leq(b, b) <= True
}
;
leqnat ->
{
  leqnat(s(x_0_0), s(x_1_0)) <= leqnat(x_0_0, x_1_0)
  leqnat(z, s(x_1_0)) <= True
  leqnat(z, z) <= True
}
;
merge ->
{
  merge(cons(x_0_0, x_0_1), cons(x_1_0, x_1_1), cons(x_2_0, x_2_1)) <= True
  merge(cons(x_0_0, x_0_1), nil, cons(x_2_0, x_2_1)) <= True
  merge(nil, cons(x_1_0, x_1_1), cons(x_2_0, x_2_1)) <= True
  merge(nil, nil, nil) <= True
}
;
plus ->
{
  plus(s(x_0_0), s(x_1_0), s(x_2_0)) <= True
  plus(s(x_0_0), z, s(x_2_0)) <= True
  plus(z, s(x_1_0), s(x_2_0)) <= True
  plus(z, z, z) <= True
}

--
Equality automata are defined for: {elt, eltlist, nat}
_|


Answer of teacher:


append(nil, l2, l2) <= True -> No: ()
length(nil, z) <= True -> No: ()
leq(a, n2) <= True -> No: ()
leq(b, b) <= True -> No: ()
leqnat(z, n2) <= True -> No: ()
merge(cons(z, xs), nil, cons(z, xs)) <= True -> No: ()
merge(nil, y, y) <= True -> No: ()
plus(n, z, n) <= True -> No: ()
append(cons(h1, t1), l2, cons(h1, _nia)) <= append(t1, l2, _nia) -> No: ()
leqnat(_bja, _cja) <= length(_dja, _cja) /\ length(l1, _bja) /\ merge(l1, l2, _dja) -> Yes: {
_bja -> s(s(v3_0))  ;  _cja -> s(z)  ;  _dja -> cons(b, _dja_1)  ;  l1 -> cons(b, l1_1)  ;  l2 -> nil
}
leqnat(_eja, _fja) <= length(_gja, _fja) /\ length(l2, _eja) /\ merge(l1, l2, _gja) -> Yes: {
_eja -> s(s(v3_0))  ;  _fja -> s(z)  ;  _gja -> cons(b, _gja_1)  ;  l1 -> nil  ;  l2 -> cons(b, l2_1)
}
length(cons(x, ll), s(_xia)) <= length(ll, _xia) -> Yes: {
_xia -> s(z)  ;  ll -> cons(b, v2_1)  ;  x -> a
}
merge(cons(z, xs), cons(y2, ys), cons(z, _iia)) <= leq(z, y2) /\ merge(xs, cons(y2, ys), _iia) -> No: ()
False <= leq(b, a) -> No: ()
leqnat(s(nn1), s(nn2)) <= leqnat(nn1, nn2) -> No: ()
leqnat(nn1, nn2) <= leqnat(s(nn1), s(nn2)) -> No: ()
False <= leqnat(s(nn1), z) -> No: ()
leq(z, y2) \/ merge(cons(z, xs), cons(y2, ys), cons(y2, _hia)) <= merge(cons(z, xs), ys, _hia) -> No: ()
plus(n, s(mm), s(_sia)) <= plus(n, mm, _sia) -> No: ()



-------------------------------------------
Step 9, which took 0.033456 s (model generation: 0.032993,  model checking: 0.000463):

Ground examples at the beginning of this step are:
{
append(cons(a, nil), cons(a, nil), cons(a, cons(a, nil))) <= True
append(cons(a, nil), nil, cons(a, nil)) <= True
append(nil, cons(a, nil), cons(a, nil)) <= True
append(nil, nil, nil) <= True
length(cons(a, cons(b, nil)), s(s(z))) <= True
length(cons(a, nil), s(z)) <= True
length(cons(b, cons(b, nil)), s(s(z))) <= True
length(cons(b, nil), s(z)) <= True
length(nil, z) <= True
leq(a, a) <= True
leq(a, b) <= True
leq(b, b) <= True
leqnat(s(z), s(z)) <= True
leqnat(z, s(z)) <= True
leqnat(z, z) <= True
merge(cons(a, nil), nil, cons(a, nil)) <= True
merge(nil, cons(a, nil), cons(a, nil)) <= True
merge(nil, nil, nil) <= True
plus(s(z), s(z), s(s(z))) <= True
plus(s(z), z, s(z)) <= True
plus(z, s(z), s(z)) <= True
plus(z, z, z) <= True
False <= length(cons(a, cons(a, nil)), s(s(z))) /\ merge(cons(a, cons(a, nil)), nil, cons(a, nil))
False <= length(cons(a, cons(a, nil)), s(s(z))) /\ merge(nil, cons(a, cons(a, nil)), cons(a, nil))
False <= length(cons(a, nil), s(s(z)))
False <= length(cons(b, nil), s(s(z))) /\ merge(cons(b, nil), nil, cons(b, nil))
False <= length(cons(b, nil), s(s(z))) /\ merge(nil, cons(b, nil), cons(b, nil))
False <= leq(b, a)
False <= leqnat(s(s(z)), s(z))
False <= leqnat(s(z), z)
merge(cons(b, nil), cons(a, nil), cons(a, cons(a, nil))) <= merge(cons(b, nil), nil, cons(a, nil))
}

Learner proposed model:
Found Model:
|_

_r_1 ->
{
  _r_1(nil) <= True
}
;
append ->
{
  append(cons(x_0_0, x_0_1), cons(x_1_0, x_1_1), cons(x_2_0, x_2_1)) <= True
  append(cons(x_0_0, x_0_1), nil, cons(x_2_0, x_2_1)) <= True
  append(nil, cons(x_1_0, x_1_1), cons(x_2_0, x_2_1)) <= True
  append(nil, nil, nil) <= True
}
;
length ->
{
  length(cons(x_0_0, x_0_1), s(x_1_0)) <= length(x_0_1, x_1_0)
  length(nil, z) <= True
}
;
leq ->
{
  leq(a, a) <= True
  leq(a, b) <= True
  leq(b, b) <= True
}
;
leqnat ->
{
  leqnat(s(x_0_0), s(x_1_0)) <= leqnat(x_0_0, x_1_0)
  leqnat(z, s(x_1_0)) <= True
  leqnat(z, z) <= True
}
;
merge ->
{
  merge(cons(x_0_0, x_0_1), cons(x_1_0, x_1_1), cons(x_2_0, x_2_1)) <= True
  merge(cons(x_0_0, x_0_1), nil, cons(x_2_0, x_2_1)) <= _r_1(x_0_1)
  merge(nil, cons(x_1_0, x_1_1), cons(x_2_0, x_2_1)) <= _r_1(x_1_1)
  merge(nil, nil, nil) <= True
}
;
plus ->
{
  plus(s(x_0_0), s(x_1_0), s(x_2_0)) <= True
  plus(s(x_0_0), z, s(x_2_0)) <= True
  plus(z, s(x_1_0), s(x_2_0)) <= True
  plus(z, z, z) <= True
}

--
Equality automata are defined for: {elt, eltlist, nat}
_|


Answer of teacher:


append(nil, l2, l2) <= True -> No: ()
length(nil, z) <= True -> No: ()
leq(a, n2) <= True -> No: ()
leq(b, b) <= True -> No: ()
leqnat(z, n2) <= True -> No: ()
merge(cons(z, xs), nil, cons(z, xs)) <= True -> Yes: {
xs -> cons(v0_0, v0_1)
}
merge(nil, y, y) <= True -> Yes: {
y -> cons(y_0, cons(v0_0, v0_1))
}
plus(n, z, n) <= True -> No: ()
append(cons(h1, t1), l2, cons(h1, _nia)) <= append(t1, l2, _nia) -> No: ()
leqnat(_bja, _cja) <= length(_dja, _cja) /\ length(l1, _bja) /\ merge(l1, l2, _dja) -> Yes: {
_bja -> s(s(z))  ;  _cja -> s(z)  ;  _dja -> cons(_dja_0, nil)  ;  l1 -> cons(l1_0, cons(v2_0, nil))  ;  l2 -> cons(l2_0, l2_1)
}
leqnat(_eja, _fja) <= length(_gja, _fja) /\ length(l2, _eja) /\ merge(l1, l2, _gja) -> Yes: {
_eja -> s(s(z))  ;  _fja -> s(z)  ;  _gja -> cons(_gja_0, nil)  ;  l1 -> cons(l1_0, l1_1)  ;  l2 -> cons(l2_0, cons(v2_0, nil))
}
length(cons(x, ll), s(_xia)) <= length(ll, _xia) -> No: ()
merge(cons(z, xs), cons(y2, ys), cons(z, _iia)) <= leq(z, y2) /\ merge(xs, cons(y2, ys), _iia) -> No: ()
False <= leq(b, a) -> No: ()
leqnat(s(nn1), s(nn2)) <= leqnat(nn1, nn2) -> No: ()
leqnat(nn1, nn2) <= leqnat(s(nn1), s(nn2)) -> No: ()
False <= leqnat(s(nn1), z) -> No: ()
leq(z, y2) \/ merge(cons(z, xs), cons(y2, ys), cons(y2, _hia)) <= merge(cons(z, xs), ys, _hia) -> No: ()
plus(n, s(mm), s(_sia)) <= plus(n, mm, _sia) -> No: ()



-------------------------------------------
Step 10, which took 0.039133 s (model generation: 0.038452,  model checking: 0.000681):

Ground examples at the beginning of this step are:
{
append(cons(a, nil), cons(a, nil), cons(a, cons(a, nil))) <= True
append(cons(a, nil), nil, cons(a, nil)) <= True
append(nil, cons(a, nil), cons(a, nil)) <= True
append(nil, nil, nil) <= True
length(cons(a, cons(b, nil)), s(s(z))) <= True
length(cons(a, nil), s(z)) <= True
length(cons(b, cons(b, nil)), s(s(z))) <= True
length(cons(b, nil), s(z)) <= True
length(nil, z) <= True
leq(a, a) <= True
leq(a, b) <= True
leq(b, b) <= True
leqnat(s(z), s(z)) <= True
leqnat(z, s(z)) <= True
leqnat(z, z) <= True
merge(cons(a, cons(a, nil)), nil, cons(a, cons(a, nil))) <= True
merge(cons(a, nil), nil, cons(a, nil)) <= True
merge(nil, cons(a, cons(a, nil)), cons(a, cons(a, nil))) <= True
merge(nil, cons(a, nil), cons(a, nil)) <= True
merge(nil, nil, nil) <= True
plus(s(z), s(z), s(s(z))) <= True
plus(s(z), z, s(z)) <= True
plus(z, s(z), s(z)) <= True
plus(z, z, z) <= True
False <= length(cons(a, cons(a, nil)), s(s(z))) /\ merge(cons(a, cons(a, nil)), cons(a, nil), cons(a, nil))
False <= length(cons(a, cons(a, nil)), s(s(z))) /\ merge(cons(a, cons(a, nil)), nil, cons(a, nil))
False <= length(cons(a, cons(a, nil)), s(s(z))) /\ merge(cons(a, nil), cons(a, cons(a, nil)), cons(a, nil))
False <= length(cons(a, cons(a, nil)), s(s(z))) /\ merge(nil, cons(a, cons(a, nil)), cons(a, nil))
False <= length(cons(a, nil), s(s(z)))
False <= length(cons(b, nil), s(s(z))) /\ merge(cons(b, nil), nil, cons(b, nil))
False <= length(cons(b, nil), s(s(z))) /\ merge(nil, cons(b, nil), cons(b, nil))
False <= leq(b, a)
False <= leqnat(s(s(z)), s(z))
False <= leqnat(s(z), z)
merge(cons(b, nil), cons(a, nil), cons(a, cons(a, nil))) <= merge(cons(b, nil), nil, cons(a, nil))
}

Learner proposed model:
Found Model:
|_

_r_1 ->
{
  _r_1(cons(x_0_0, x_0_1), cons(x_1_0, x_1_1)) <= True
  _r_1(nil, cons(x_1_0, x_1_1)) <= True
  _r_1(nil, nil) <= True
}
;
append ->
{
  append(cons(x_0_0, x_0_1), cons(x_1_0, x_1_1), cons(x_2_0, x_2_1)) <= True
  append(cons(x_0_0, x_0_1), nil, cons(x_2_0, x_2_1)) <= True
  append(nil, cons(x_1_0, x_1_1), cons(x_2_0, x_2_1)) <= True
  append(nil, nil, nil) <= True
}
;
length ->
{
  length(cons(x_0_0, x_0_1), s(x_1_0)) <= length(x_0_1, x_1_0)
  length(nil, z) <= True
}
;
leq ->
{
  leq(a, a) <= True
  leq(a, b) <= True
  leq(b, b) <= True
}
;
leqnat ->
{
  leqnat(s(x_0_0), s(x_1_0)) <= leqnat(x_0_0, x_1_0)
  leqnat(z, s(x_1_0)) <= True
  leqnat(z, z) <= True
}
;
merge ->
{
  merge(cons(x_0_0, x_0_1), cons(x_1_0, x_1_1), cons(x_2_0, x_2_1)) <= _r_1(x_0_1, x_2_1) /\ _r_1(x_1_1, x_2_1)
  merge(cons(x_0_0, x_0_1), nil, cons(x_2_0, x_2_1)) <= _r_1(x_0_1, x_2_1)
  merge(nil, cons(x_1_0, x_1_1), cons(x_2_0, x_2_1)) <= _r_1(x_1_1, x_2_1)
  merge(nil, nil, nil) <= True
}
;
plus ->
{
  plus(s(x_0_0), s(x_1_0), s(x_2_0)) <= True
  plus(s(x_0_0), z, s(x_2_0)) <= True
  plus(z, s(x_1_0), s(x_2_0)) <= True
  plus(z, z, z) <= True
}

--
Equality automata are defined for: {elt, eltlist, nat}
_|


Answer of teacher:


append(nil, l2, l2) <= True -> No: ()
length(nil, z) <= True -> No: ()
leq(a, n2) <= True -> No: ()
leq(b, b) <= True -> No: ()
leqnat(z, n2) <= True -> No: ()
merge(cons(z, xs), nil, cons(z, xs)) <= True -> No: ()
merge(nil, y, y) <= True -> No: ()
plus(n, z, n) <= True -> No: ()
append(cons(h1, t1), l2, cons(h1, _nia)) <= append(t1, l2, _nia) -> No: ()
leqnat(_bja, _cja) <= length(_dja, _cja) /\ length(l1, _bja) /\ merge(l1, l2, _dja) -> Yes: {
_bja -> s(s(s(z)))  ;  _cja -> s(s(z))  ;  _dja -> cons(_dja_0, cons(v1_0, nil))  ;  l1 -> cons(l1_0, cons(v0_0, cons(v0_0, nil)))  ;  l2 -> nil
}
leqnat(_eja, _fja) <= length(_gja, _fja) /\ length(l2, _eja) /\ merge(l1, l2, _gja) -> Yes: {
_eja -> s(s(s(z)))  ;  _fja -> s(s(z))  ;  _gja -> cons(_gja_0, cons(v1_0, nil))  ;  l1 -> nil  ;  l2 -> cons(l2_0, cons(v0_0, cons(v0_0, nil)))
}
length(cons(x, ll), s(_xia)) <= length(ll, _xia) -> No: ()
merge(cons(z, xs), cons(y2, ys), cons(z, _iia)) <= leq(z, y2) /\ merge(xs, cons(y2, ys), _iia) -> No: ()
False <= leq(b, a) -> No: ()
leqnat(s(nn1), s(nn2)) <= leqnat(nn1, nn2) -> No: ()
leqnat(nn1, nn2) <= leqnat(s(nn1), s(nn2)) -> No: ()
False <= leqnat(s(nn1), z) -> No: ()
leq(z, y2) \/ merge(cons(z, xs), cons(y2, ys), cons(y2, _hia)) <= merge(cons(z, xs), ys, _hia) -> No: ()
plus(n, s(mm), s(_sia)) <= plus(n, mm, _sia) -> No: ()



-------------------------------------------
Step 11, which took 0.043071 s (model generation: 0.042168,  model checking: 0.000903):

Ground examples at the beginning of this step are:
{
append(cons(a, nil), cons(a, nil), cons(a, cons(a, nil))) <= True
append(cons(a, nil), nil, cons(a, nil)) <= True
append(nil, cons(a, nil), cons(a, nil)) <= True
append(nil, nil, nil) <= True
length(cons(a, cons(b, nil)), s(s(z))) <= True
length(cons(a, nil), s(z)) <= True
length(cons(b, cons(b, nil)), s(s(z))) <= True
length(cons(b, nil), s(z)) <= True
length(nil, z) <= True
leq(a, a) <= True
leq(a, b) <= True
leq(b, b) <= True
leqnat(s(z), s(z)) <= True
leqnat(z, s(z)) <= True
leqnat(z, z) <= True
merge(cons(a, cons(a, nil)), nil, cons(a, cons(a, nil))) <= True
merge(cons(a, nil), nil, cons(a, nil)) <= True
merge(nil, cons(a, cons(a, nil)), cons(a, cons(a, nil))) <= True
merge(nil, cons(a, nil), cons(a, nil)) <= True
merge(nil, nil, nil) <= True
plus(s(z), s(z), s(s(z))) <= True
plus(s(z), z, s(z)) <= True
plus(z, s(z), s(z)) <= True
plus(z, z, z) <= True
leqnat(s(s(s(z))), s(s(z))) <= length(cons(a, cons(a, cons(a, nil))), s(s(s(z)))) /\ length(cons(a, cons(a, nil)), s(s(z))) /\ merge(cons(a, cons(a, cons(a, nil))), nil, cons(a, cons(a, nil)))
leqnat(s(s(s(z))), s(s(z))) <= length(cons(a, cons(a, cons(a, nil))), s(s(s(z)))) /\ length(cons(a, cons(a, nil)), s(s(z))) /\ merge(nil, cons(a, cons(a, cons(a, nil))), cons(a, cons(a, nil)))
False <= length(cons(a, cons(a, nil)), s(s(z))) /\ merge(cons(a, cons(a, nil)), cons(a, nil), cons(a, nil))
False <= length(cons(a, cons(a, nil)), s(s(z))) /\ merge(cons(a, cons(a, nil)), nil, cons(a, nil))
False <= length(cons(a, cons(a, nil)), s(s(z))) /\ merge(cons(a, nil), cons(a, cons(a, nil)), cons(a, nil))
False <= length(cons(a, cons(a, nil)), s(s(z))) /\ merge(nil, cons(a, cons(a, nil)), cons(a, nil))
False <= length(cons(a, nil), s(s(z)))
False <= length(cons(b, nil), s(s(z))) /\ merge(cons(b, nil), nil, cons(b, nil))
False <= length(cons(b, nil), s(s(z))) /\ merge(nil, cons(b, nil), cons(b, nil))
False <= leq(b, a)
False <= leqnat(s(s(z)), s(z))
False <= leqnat(s(z), z)
merge(cons(b, nil), cons(a, nil), cons(a, cons(a, nil))) <= merge(cons(b, nil), nil, cons(a, nil))
}

Learner proposed model:
Found Model:
|_

_r_1 ->
{
  _r_1(cons(x_0_0, x_0_1), cons(x_1_0, x_1_1)) <= _r_1(x_0_1, x_1_1)
  _r_1(nil, nil) <= True
}
;
append ->
{
  append(cons(x_0_0, x_0_1), cons(x_1_0, x_1_1), cons(x_2_0, x_2_1)) <= True
  append(cons(x_0_0, x_0_1), nil, cons(x_2_0, x_2_1)) <= True
  append(nil, cons(x_1_0, x_1_1), cons(x_2_0, x_2_1)) <= True
  append(nil, nil, nil) <= True
}
;
length ->
{
  length(cons(x_0_0, x_0_1), s(x_1_0)) <= length(x_0_1, x_1_0)
  length(nil, z) <= True
}
;
leq ->
{
  leq(a, a) <= True
  leq(a, b) <= True
  leq(b, b) <= True
}
;
leqnat ->
{
  leqnat(s(x_0_0), s(x_1_0)) <= leqnat(x_0_0, x_1_0)
  leqnat(z, s(x_1_0)) <= True
  leqnat(z, z) <= True
}
;
merge ->
{
  merge(cons(x_0_0, x_0_1), cons(x_1_0, x_1_1), cons(x_2_0, x_2_1)) <= _r_1(x_0_1, x_1_1)
  merge(cons(x_0_0, x_0_1), nil, cons(x_2_0, x_2_1)) <= _r_1(x_0_1, x_2_1)
  merge(nil, cons(x_1_0, x_1_1), cons(x_2_0, x_2_1)) <= _r_1(x_1_1, x_2_1)
  merge(nil, nil, nil) <= True
}
;
plus ->
{
  plus(s(x_0_0), s(x_1_0), s(x_2_0)) <= True
  plus(s(x_0_0), z, s(x_2_0)) <= True
  plus(z, s(x_1_0), s(x_2_0)) <= True
  plus(z, z, z) <= True
}

--
Equality automata are defined for: {elt, eltlist, nat}
_|


Answer of teacher:


append(nil, l2, l2) <= True -> No: ()
length(nil, z) <= True -> No: ()
leq(a, n2) <= True -> No: ()
leq(b, b) <= True -> No: ()
leqnat(z, n2) <= True -> No: ()
merge(cons(z, xs), nil, cons(z, xs)) <= True -> No: ()
merge(nil, y, y) <= True -> No: ()
plus(n, z, n) <= True -> No: ()
append(cons(h1, t1), l2, cons(h1, _nia)) <= append(t1, l2, _nia) -> No: ()
leqnat(_bja, _cja) <= length(_dja, _cja) /\ length(l1, _bja) /\ merge(l1, l2, _dja) -> Yes: {
_bja -> s(s(z))  ;  _cja -> s(z)  ;  _dja -> cons(_dja_0, nil)  ;  l1 -> cons(l1_0, cons(v0_0, nil))  ;  l2 -> cons(l2_0, cons(v1_0, nil))
}
leqnat(_eja, _fja) <= length(_gja, _fja) /\ length(l2, _eja) /\ merge(l1, l2, _gja) -> Yes: {
_eja -> s(s(z))  ;  _fja -> s(z)  ;  _gja -> cons(_gja_0, nil)  ;  l1 -> cons(l1_0, cons(v0_0, nil))  ;  l2 -> cons(l2_0, cons(v1_0, nil))
}
length(cons(x, ll), s(_xia)) <= length(ll, _xia) -> No: ()
merge(cons(z, xs), cons(y2, ys), cons(z, _iia)) <= leq(z, y2) /\ merge(xs, cons(y2, ys), _iia) -> Yes: {
_iia -> cons(v4_0, v4_1)  ;  xs -> cons(v0_0, nil)  ;  y2 -> b  ;  ys -> nil  ;  z -> b
}
False <= leq(b, a) -> No: ()
leqnat(s(nn1), s(nn2)) <= leqnat(nn1, nn2) -> No: ()
leqnat(nn1, nn2) <= leqnat(s(nn1), s(nn2)) -> No: ()
False <= leqnat(s(nn1), z) -> No: ()
leq(z, y2) \/ merge(cons(z, xs), cons(y2, ys), cons(y2, _hia)) <= merge(cons(z, xs), ys, _hia) -> Yes: {
_hia -> cons(v4_0, v4_1)  ;  xs -> nil  ;  y2 -> a  ;  ys -> cons(v1_0, nil)  ;  z -> b
}
plus(n, s(mm), s(_sia)) <= plus(n, mm, _sia) -> No: ()



-------------------------------------------
Step 12, which took 0.059037 s (model generation: 0.058213,  model checking: 0.000824):

Ground examples at the beginning of this step are:
{
append(cons(a, nil), cons(a, nil), cons(a, cons(a, nil))) <= True
append(cons(a, nil), nil, cons(a, nil)) <= True
append(nil, cons(a, nil), cons(a, nil)) <= True
append(nil, nil, nil) <= True
length(cons(a, cons(b, nil)), s(s(z))) <= True
length(cons(a, nil), s(z)) <= True
length(cons(b, cons(b, nil)), s(s(z))) <= True
length(cons(b, nil), s(z)) <= True
length(nil, z) <= True
leq(a, a) <= True
leq(a, b) <= True
leq(b, b) <= True
leqnat(s(z), s(z)) <= True
leqnat(z, s(z)) <= True
leqnat(z, z) <= True
merge(cons(a, cons(a, nil)), nil, cons(a, cons(a, nil))) <= True
merge(cons(a, nil), nil, cons(a, nil)) <= True
merge(nil, cons(a, cons(a, nil)), cons(a, cons(a, nil))) <= True
merge(nil, cons(a, nil), cons(a, nil)) <= True
merge(nil, nil, nil) <= True
plus(s(z), s(z), s(s(z))) <= True
plus(s(z), z, s(z)) <= True
plus(z, s(z), s(z)) <= True
plus(z, z, z) <= True
leqnat(s(s(s(z))), s(s(z))) <= length(cons(a, cons(a, cons(a, nil))), s(s(s(z)))) /\ length(cons(a, cons(a, nil)), s(s(z))) /\ merge(cons(a, cons(a, cons(a, nil))), nil, cons(a, cons(a, nil)))
leqnat(s(s(s(z))), s(s(z))) <= length(cons(a, cons(a, cons(a, nil))), s(s(s(z)))) /\ length(cons(a, cons(a, nil)), s(s(z))) /\ merge(nil, cons(a, cons(a, cons(a, nil))), cons(a, cons(a, nil)))
False <= length(cons(a, cons(a, nil)), s(s(z))) /\ merge(cons(a, cons(a, nil)), cons(a, cons(a, nil)), cons(a, nil))
False <= length(cons(a, cons(a, nil)), s(s(z))) /\ merge(cons(a, cons(a, nil)), cons(a, nil), cons(a, nil))
False <= length(cons(a, cons(a, nil)), s(s(z))) /\ merge(cons(a, cons(a, nil)), nil, cons(a, nil))
False <= length(cons(a, cons(a, nil)), s(s(z))) /\ merge(cons(a, nil), cons(a, cons(a, nil)), cons(a, nil))
False <= length(cons(a, cons(a, nil)), s(s(z))) /\ merge(nil, cons(a, cons(a, nil)), cons(a, nil))
False <= length(cons(a, nil), s(s(z)))
False <= length(cons(b, nil), s(s(z))) /\ merge(cons(b, nil), nil, cons(b, nil))
False <= length(cons(b, nil), s(s(z))) /\ merge(nil, cons(b, nil), cons(b, nil))
False <= leq(b, a)
False <= leqnat(s(s(z)), s(z))
False <= leqnat(s(z), z)
merge(cons(b, cons(a, nil)), cons(b, nil), cons(b, cons(a, nil))) <= merge(cons(a, nil), cons(b, nil), cons(a, nil))
merge(cons(b, nil), cons(a, cons(a, nil)), cons(a, cons(a, nil))) <= merge(cons(b, nil), cons(a, nil), cons(a, nil))
merge(cons(b, nil), cons(a, nil), cons(a, cons(a, nil))) <= merge(cons(b, nil), nil, cons(a, nil))
}

Learner proposed model:
Found Model:
|_

_r_1 ->
{
  _r_1(cons(x_0_0, x_0_1), cons(x_1_0, x_1_1)) <= _r_1(x_0_1, x_1_1)
  _r_1(nil, cons(x_1_0, x_1_1)) <= True
  _r_1(nil, nil) <= True
}
;
append ->
{
  append(cons(x_0_0, x_0_1), cons(x_1_0, x_1_1), cons(x_2_0, x_2_1)) <= True
  append(cons(x_0_0, x_0_1), nil, cons(x_2_0, x_2_1)) <= True
  append(nil, cons(x_1_0, x_1_1), cons(x_2_0, x_2_1)) <= True
  append(nil, nil, nil) <= True
}
;
length ->
{
  length(cons(x_0_0, x_0_1), s(x_1_0)) <= length(x_0_1, x_1_0)
  length(nil, z) <= True
}
;
leq ->
{
  leq(a, a) <= True
  leq(a, b) <= True
  leq(b, b) <= True
}
;
leqnat ->
{
  leqnat(s(x_0_0), s(x_1_0)) <= leqnat(x_0_0, x_1_0)
  leqnat(z, s(x_1_0)) <= True
  leqnat(z, z) <= True
}
;
merge ->
{
  merge(cons(x_0_0, x_0_1), cons(x_1_0, x_1_1), cons(x_2_0, x_2_1)) <= _r_1(x_0_1, x_2_1) /\ _r_1(x_1_1, x_2_1)
  merge(cons(x_0_0, x_0_1), nil, cons(x_2_0, x_2_1)) <= _r_1(x_0_1, x_2_1)
  merge(nil, cons(x_1_0, x_1_1), cons(x_2_0, x_2_1)) <= _r_1(x_1_1, x_2_1)
  merge(nil, nil, nil) <= True
}
;
plus ->
{
  plus(s(x_0_0), s(x_1_0), s(x_2_0)) <= True
  plus(s(x_0_0), z, s(x_2_0)) <= True
  plus(z, s(x_1_0), s(x_2_0)) <= True
  plus(z, z, z) <= True
}

--
Equality automata are defined for: {elt, eltlist, nat}
_|


Answer of teacher:


append(nil, l2, l2) <= True -> No: ()
length(nil, z) <= True -> No: ()
leq(a, n2) <= True -> No: ()
leq(b, b) <= True -> No: ()
leqnat(z, n2) <= True -> No: ()
merge(cons(z, xs), nil, cons(z, xs)) <= True -> No: ()
merge(nil, y, y) <= True -> No: ()
plus(n, z, n) <= True -> No: ()
append(cons(h1, t1), l2, cons(h1, _nia)) <= append(t1, l2, _nia) -> No: ()
leqnat(_bja, _cja) <= length(_dja, _cja) /\ length(l1, _bja) /\ merge(l1, l2, _dja) -> No: ()
leqnat(_eja, _fja) <= length(_gja, _fja) /\ length(l2, _eja) /\ merge(l1, l2, _gja) -> No: ()
length(cons(x, ll), s(_xia)) <= length(ll, _xia) -> No: ()
merge(cons(z, xs), cons(y2, ys), cons(z, _iia)) <= leq(z, y2) /\ merge(xs, cons(y2, ys), _iia) -> No: ()
False <= leq(b, a) -> No: ()
leqnat(s(nn1), s(nn2)) <= leqnat(nn1, nn2) -> No: ()
leqnat(nn1, nn2) <= leqnat(s(nn1), s(nn2)) -> No: ()
False <= leqnat(s(nn1), z) -> No: ()
leq(z, y2) \/ merge(cons(z, xs), cons(y2, ys), cons(y2, _hia)) <= merge(cons(z, xs), ys, _hia) -> No: ()
plus(n, s(mm), s(_sia)) <= plus(n, mm, _sia) -> No: ()




Total time: 0.347560
Learner time: 0.341378
Teacher time: 0.005466
Reasons for stopping: Yes: |_

_r_1 ->
{
  _r_1(cons(x_0_0, x_0_1), cons(x_1_0, x_1_1)) <= _r_1(x_0_1, x_1_1)
  _r_1(nil, cons(x_1_0, x_1_1)) <= True
  _r_1(nil, nil) <= True
}
;
append ->
{
  append(cons(x_0_0, x_0_1), cons(x_1_0, x_1_1), cons(x_2_0, x_2_1)) <= True
  append(cons(x_0_0, x_0_1), nil, cons(x_2_0, x_2_1)) <= True
  append(nil, cons(x_1_0, x_1_1), cons(x_2_0, x_2_1)) <= True
  append(nil, nil, nil) <= True
}
;
length ->
{
  length(cons(x_0_0, x_0_1), s(x_1_0)) <= length(x_0_1, x_1_0)
  length(nil, z) <= True
}
;
leq ->
{
  leq(a, a) <= True
  leq(a, b) <= True
  leq(b, b) <= True
}
;
leqnat ->
{
  leqnat(s(x_0_0), s(x_1_0)) <= leqnat(x_0_0, x_1_0)
  leqnat(z, s(x_1_0)) <= True
  leqnat(z, z) <= True
}
;
merge ->
{
  merge(cons(x_0_0, x_0_1), cons(x_1_0, x_1_1), cons(x_2_0, x_2_1)) <= _r_1(x_0_1, x_2_1) /\ _r_1(x_1_1, x_2_1)
  merge(cons(x_0_0, x_0_1), nil, cons(x_2_0, x_2_1)) <= _r_1(x_0_1, x_2_1)
  merge(nil, cons(x_1_0, x_1_1), cons(x_2_0, x_2_1)) <= _r_1(x_1_1, x_2_1)
  merge(nil, nil, nil) <= True
}
;
plus ->
{
  plus(s(x_0_0), s(x_1_0), s(x_2_0)) <= True
  plus(s(x_0_0), z, s(x_2_0)) <= True
  plus(z, s(x_1_0), s(x_2_0)) <= True
  plus(z, z, z) <= True
}

--
Equality automata are defined for: {elt, eltlist, nat}
_|


