Solving ../../../../benchmarks/smtlib/true/sort_cons.smt2...

Inference procedure has parameters:
Ice fuel: 200
Timeout: 40s
Convolution: left


Learning problem is:

env: {
elt -> {a, b}  ;  eltlist -> {cons, nil}
}
definition:
{
(leq, P:
{() -> leq([a, y])
() -> leq([b, b])
(leq([b, a])) -> BOT}
)
(insert, F:
{() -> insert([x, nil, cons(x, nil)])
(insert([x, z, _dna]) /\ not leq([x, y])) -> insert([x, cons(y, z), cons(y, _dna)])
(leq([x, y])) -> insert([x, cons(y, z), cons(x, cons(y, z))])}
(insert([_ena, _fna, _gna]) /\ insert([_ena, _fna, _hna])) -> eq_eltlist([_gna, _hna])
)
(sort, F:
{() -> sort([nil, nil])
(insert([y, _ina, _jna]) /\ sort([z, _ina])) -> sort([cons(y, z), _jna])}
(sort([_kna, _lna]) /\ sort([_kna, _mna])) -> eq_eltlist([_lna, _mna])
)
}

properties:
{(sort([l, _ona]) /\ sort([cons(a, l), _nna])) -> eq_eltlist([_nna, cons(a, _ona)])}


over-approximation: {insert, sort}
under-approximation: {leq}

Clause system for inference is:

{
() -> insert([x, nil, cons(x, nil)]) -> 0  ;  () -> leq([a, y]) -> 0  ;  () -> leq([b, b]) -> 0  ;  () -> sort([nil, nil]) -> 0  ;  (insert([x, z, _dna]) /\ not leq([x, y])) -> insert([x, cons(y, z), cons(y, _dna)]) -> 0  ;  (insert([y, _ina, _jna]) /\ sort([z, _ina])) -> sort([cons(y, z), _jna]) -> 0  ;  (leq([x, y])) -> insert([x, cons(y, z), cons(x, cons(y, z))]) -> 0  ;  (leq([b, a])) -> BOT -> 0  ;  (sort([l, _ona]) /\ sort([cons(a, l), _nna])) -> eq_eltlist([_nna, cons(a, _ona)]) -> 0
}


Solving took 40.000113 seconds.
DontKnow. Stopped because: timeout
Working model:
|_
{
insert -> 
{{{
Q={q_gen_9866, q_gen_9867, q_gen_9868, q_gen_9869, q_gen_9870, q_gen_9871, q_gen_9875, q_gen_9876, q_gen_9878, q_gen_9879, q_gen_9880, q_gen_9881, q_gen_9882, q_gen_9885, q_gen_9886, q_gen_9887, q_gen_9888, q_gen_9889, q_gen_9890, q_gen_9891, q_gen_9892, q_gen_9895, q_gen_9897, q_gen_9898, q_gen_9899, q_gen_9900, q_gen_9904, q_gen_9907, q_gen_9908, q_gen_9909, q_gen_9910},
Q_f={},
Delta=
{
<nil>() -> q_gen_9867
<b>() -> q_gen_9868
<a>() -> q_gen_9879
<nil, cons>(q_gen_9868, q_gen_9867) -> q_gen_9870
<b, b>() -> q_gen_9871
<a, a>() -> q_gen_9876
<b, a>() -> q_gen_9881
<nil, cons>(q_gen_9879, q_gen_9867) -> q_gen_9886
<cons, cons>(q_gen_9876, q_gen_9886) -> q_gen_9888
<cons, cons>(q_gen_9891, q_gen_9886) -> q_gen_9890
<a, b>() -> q_gen_9891
<cons, cons>(q_gen_9871, q_gen_9870) -> q_gen_9898
<cons, cons>(q_gen_9881, q_gen_9870) -> q_gen_9908
<cons, cons>(q_gen_9871, q_gen_9886) -> q_gen_9910
<b, nil, cons>(q_gen_9868, q_gen_9867) -> q_gen_9866
<b, cons, cons>(q_gen_9871, q_gen_9870) -> q_gen_9869
<b, cons, cons>(q_gen_9876, q_gen_9870) -> q_gen_9875
<a, nil, cons>(q_gen_9879, q_gen_9867) -> q_gen_9878
<a, cons, cons>(q_gen_9881, q_gen_9870) -> q_gen_9880
<b, nil, cons>(q_gen_9879, q_gen_9867) -> q_gen_9882
<b, cons, cons>(q_gen_9876, q_gen_9886) -> q_gen_9885
<b, cons, cons>(q_gen_9876, q_gen_9888) -> q_gen_9887
<b, cons, cons>(q_gen_9871, q_gen_9890) -> q_gen_9889
<a, nil, cons>(q_gen_9868, q_gen_9867) -> q_gen_9892
<a, cons, cons>(q_gen_9871, q_gen_9870) -> q_gen_9895
<b, cons, cons>(q_gen_9876, q_gen_9898) -> q_gen_9897
<a, cons, cons>(q_gen_9891, q_gen_9870) -> q_gen_9899
<a, cons, cons>(q_gen_9876, q_gen_9886) -> q_gen_9900
<b, cons, cons>(q_gen_9881, q_gen_9870) -> q_gen_9904
<a, cons, cons>(q_gen_9876, q_gen_9908) -> q_gen_9907
<a, cons, cons>(q_gen_9876, q_gen_9910) -> q_gen_9909
}

Datatype: <elt, eltlist, eltlist>
Convolution form: left
}}}
  ;  leq -> 
{{{
Q={q_gen_9864, q_gen_9865, q_gen_9874, q_gen_9877},
Q_f={},
Delta=
{
<b, b>() -> q_gen_9864
<a, b>() -> q_gen_9865
<b, a>() -> q_gen_9874
<a, a>() -> q_gen_9877
}

Datatype: <elt, elt>
Convolution form: left
}}}
  ;  sort -> 
{{{
Q={q_gen_9863, q_gen_9872, q_gen_9873, q_gen_9883, q_gen_9884, q_gen_9893, q_gen_9894, q_gen_9896, q_gen_9901, q_gen_9902, q_gen_9903, q_gen_9905, q_gen_9906, q_gen_9911, q_gen_9912, q_gen_9913},
Q_f={},
Delta=
{
<nil, nil>() -> q_gen_9863
<cons, cons>(q_gen_9873, q_gen_9863) -> q_gen_9872
<b, b>() -> q_gen_9873
<cons, cons>(q_gen_9884, q_gen_9863) -> q_gen_9883
<b, a>() -> q_gen_9884
<cons, cons>(q_gen_9894, q_gen_9863) -> q_gen_9893
<a, b>() -> q_gen_9894
<cons, cons>(q_gen_9894, q_gen_9872) -> q_gen_9896
<cons, cons>(q_gen_9902, q_gen_9863) -> q_gen_9901
<a, a>() -> q_gen_9902
<cons, cons>(q_gen_9902, q_gen_9872) -> q_gen_9903
<cons, cons>(q_gen_9884, q_gen_9872) -> q_gen_9905
<cons, cons>(q_gen_9894, q_gen_9901) -> q_gen_9906
<cons, cons>(q_gen_9902, q_gen_9912) -> q_gen_9911
<cons, cons>(q_gen_9894, q_gen_9883) -> q_gen_9912
<cons, cons>(q_gen_9902, q_gen_9893) -> q_gen_9913
}

Datatype: <eltlist, eltlist>
Convolution form: left
}}}

}
--
Equality automata are defined for: {eq_elt, eq_eltlist}
_|

-------------------
STEPS:
-------------------------------------------
Step 0, which took 0.003869 s (model generation: 0.003607,  model checking: 0.000262):

Model:
|_
{
insert -> 
{{{
Q={},
Q_f={},
Delta=
{

}

Datatype: <elt, eltlist, eltlist>
Convolution form: left
}}}
  ;  leq -> 
{{{
Q={},
Q_f={},
Delta=
{

}

Datatype: <elt, elt>
Convolution form: left
}}}
  ;  sort -> 
{{{
Q={},
Q_f={},
Delta=
{

}

Datatype: <eltlist, eltlist>
Convolution form: left
}}}

}
--
Equality automata are defined for: {eq_elt, eq_eltlist}
_|

Teacher's answer:
New clause system:
{
() -> insert([x, nil, cons(x, nil)]) -> 0  ;  () -> leq([a, y]) -> 0  ;  () -> leq([b, b]) -> 0  ;  () -> sort([nil, nil]) -> 3  ;  (insert([x, z, _dna]) /\ not leq([x, y])) -> insert([x, cons(y, z), cons(y, _dna)]) -> 1  ;  (insert([y, _ina, _jna]) /\ sort([z, _ina])) -> sort([cons(y, z), _jna]) -> 1  ;  (leq([x, y])) -> insert([x, cons(y, z), cons(x, cons(y, z))]) -> 1  ;  (leq([b, a])) -> BOT -> 1  ;  (sort([l, _ona]) /\ sort([cons(a, l), _nna])) -> eq_eltlist([_nna, cons(a, _ona)]) -> 1
}
Sat witness: Yes: (() -> sort([nil, nil]), {

})

-------------------------------------------
Step 1, which took 0.003072 s (model generation: 0.003052,  model checking: 0.000020):

Model:
|_
{
insert -> 
{{{
Q={},
Q_f={},
Delta=
{

}

Datatype: <elt, eltlist, eltlist>
Convolution form: left
}}}
  ;  leq -> 
{{{
Q={},
Q_f={},
Delta=
{

}

Datatype: <elt, elt>
Convolution form: left
}}}
  ;  sort -> 
{{{
Q={q_gen_9863},
Q_f={q_gen_9863},
Delta=
{
<nil, nil>() -> q_gen_9863
}

Datatype: <eltlist, eltlist>
Convolution form: left
}}}

}
--
Equality automata are defined for: {eq_elt, eq_eltlist}
_|

Teacher's answer:
New clause system:
{
() -> insert([x, nil, cons(x, nil)]) -> 0  ;  () -> leq([a, y]) -> 0  ;  () -> leq([b, b]) -> 3  ;  () -> sort([nil, nil]) -> 3  ;  (insert([x, z, _dna]) /\ not leq([x, y])) -> insert([x, cons(y, z), cons(y, _dna)]) -> 1  ;  (insert([y, _ina, _jna]) /\ sort([z, _ina])) -> sort([cons(y, z), _jna]) -> 1  ;  (leq([x, y])) -> insert([x, cons(y, z), cons(x, cons(y, z))]) -> 1  ;  (leq([b, a])) -> BOT -> 1  ;  (sort([l, _ona]) /\ sort([cons(a, l), _nna])) -> eq_eltlist([_nna, cons(a, _ona)]) -> 1
}
Sat witness: Yes: (() -> leq([b, b]), {

})

-------------------------------------------
Step 2, which took 0.003180 s (model generation: 0.003133,  model checking: 0.000047):

Model:
|_
{
insert -> 
{{{
Q={},
Q_f={},
Delta=
{

}

Datatype: <elt, eltlist, eltlist>
Convolution form: left
}}}
  ;  leq -> 
{{{
Q={q_gen_9864},
Q_f={q_gen_9864},
Delta=
{
<b, b>() -> q_gen_9864
}

Datatype: <elt, elt>
Convolution form: left
}}}
  ;  sort -> 
{{{
Q={q_gen_9863},
Q_f={q_gen_9863},
Delta=
{
<nil, nil>() -> q_gen_9863
}

Datatype: <eltlist, eltlist>
Convolution form: left
}}}

}
--
Equality automata are defined for: {eq_elt, eq_eltlist}
_|

Teacher's answer:
New clause system:
{
() -> insert([x, nil, cons(x, nil)]) -> 0  ;  () -> leq([a, y]) -> 3  ;  () -> leq([b, b]) -> 3  ;  () -> sort([nil, nil]) -> 3  ;  (insert([x, z, _dna]) /\ not leq([x, y])) -> insert([x, cons(y, z), cons(y, _dna)]) -> 1  ;  (insert([y, _ina, _jna]) /\ sort([z, _ina])) -> sort([cons(y, z), _jna]) -> 1  ;  (leq([x, y])) -> insert([x, cons(y, z), cons(x, cons(y, z))]) -> 1  ;  (leq([b, a])) -> BOT -> 1  ;  (sort([l, _ona]) /\ sort([cons(a, l), _nna])) -> eq_eltlist([_nna, cons(a, _ona)]) -> 1
}
Sat witness: Yes: (() -> leq([a, y]), {
y -> b
})

-------------------------------------------
Step 3, which took 0.003940 s (model generation: 0.003843,  model checking: 0.000097):

Model:
|_
{
insert -> 
{{{
Q={},
Q_f={},
Delta=
{

}

Datatype: <elt, eltlist, eltlist>
Convolution form: left
}}}
  ;  leq -> 
{{{
Q={q_gen_9864},
Q_f={q_gen_9864},
Delta=
{
<a, b>() -> q_gen_9864
<b, b>() -> q_gen_9864
}

Datatype: <elt, elt>
Convolution form: left
}}}
  ;  sort -> 
{{{
Q={q_gen_9863},
Q_f={q_gen_9863},
Delta=
{
<nil, nil>() -> q_gen_9863
}

Datatype: <eltlist, eltlist>
Convolution form: left
}}}

}
--
Equality automata are defined for: {eq_elt, eq_eltlist}
_|

Teacher's answer:
New clause system:
{
() -> insert([x, nil, cons(x, nil)]) -> 3  ;  () -> leq([a, y]) -> 3  ;  () -> leq([b, b]) -> 3  ;  () -> sort([nil, nil]) -> 3  ;  (insert([x, z, _dna]) /\ not leq([x, y])) -> insert([x, cons(y, z), cons(y, _dna)]) -> 1  ;  (insert([y, _ina, _jna]) /\ sort([z, _ina])) -> sort([cons(y, z), _jna]) -> 1  ;  (leq([x, y])) -> insert([x, cons(y, z), cons(x, cons(y, z))]) -> 1  ;  (leq([b, a])) -> BOT -> 1  ;  (sort([l, _ona]) /\ sort([cons(a, l), _nna])) -> eq_eltlist([_nna, cons(a, _ona)]) -> 1
}
Sat witness: Yes: (() -> insert([x, nil, cons(x, nil)]), {
x -> b
})

-------------------------------------------
Step 4, which took 0.003708 s (model generation: 0.003310,  model checking: 0.000398):

Model:
|_
{
insert -> 
{{{
Q={q_gen_9866, q_gen_9867, q_gen_9868},
Q_f={q_gen_9866},
Delta=
{
<nil>() -> q_gen_9867
<b>() -> q_gen_9868
<b, nil, cons>(q_gen_9868, q_gen_9867) -> q_gen_9866
}

Datatype: <elt, eltlist, eltlist>
Convolution form: left
}}}
  ;  leq -> 
{{{
Q={q_gen_9864},
Q_f={q_gen_9864},
Delta=
{
<a, b>() -> q_gen_9864
<b, b>() -> q_gen_9864
}

Datatype: <elt, elt>
Convolution form: left
}}}
  ;  sort -> 
{{{
Q={q_gen_9863},
Q_f={q_gen_9863},
Delta=
{
<nil, nil>() -> q_gen_9863
}

Datatype: <eltlist, eltlist>
Convolution form: left
}}}

}
--
Equality automata are defined for: {eq_elt, eq_eltlist}
_|

Teacher's answer:
New clause system:
{
() -> insert([x, nil, cons(x, nil)]) -> 3  ;  () -> leq([a, y]) -> 3  ;  () -> leq([b, b]) -> 3  ;  () -> sort([nil, nil]) -> 3  ;  (insert([x, z, _dna]) /\ not leq([x, y])) -> insert([x, cons(y, z), cons(y, _dna)]) -> 1  ;  (insert([y, _ina, _jna]) /\ sort([z, _ina])) -> sort([cons(y, z), _jna]) -> 1  ;  (leq([x, y])) -> insert([x, cons(y, z), cons(x, cons(y, z))]) -> 4  ;  (leq([b, a])) -> BOT -> 2  ;  (sort([l, _ona]) /\ sort([cons(a, l), _nna])) -> eq_eltlist([_nna, cons(a, _ona)]) -> 2
}
Sat witness: Yes: ((leq([x, y])) -> insert([x, cons(y, z), cons(x, cons(y, z))]), {
x -> b  ;  y -> b  ;  z -> nil
})

-------------------------------------------
Step 5, which took 0.003279 s (model generation: 0.003195,  model checking: 0.000084):

Model:
|_
{
insert -> 
{{{
Q={q_gen_9866, q_gen_9867, q_gen_9868, q_gen_9870, q_gen_9871},
Q_f={q_gen_9866},
Delta=
{
<nil>() -> q_gen_9867
<b>() -> q_gen_9868
<nil, cons>(q_gen_9868, q_gen_9867) -> q_gen_9870
<b, b>() -> q_gen_9871
<b, cons, cons>(q_gen_9871, q_gen_9870) -> q_gen_9866
<b, nil, cons>(q_gen_9868, q_gen_9867) -> q_gen_9866
}

Datatype: <elt, eltlist, eltlist>
Convolution form: left
}}}
  ;  leq -> 
{{{
Q={q_gen_9864},
Q_f={q_gen_9864},
Delta=
{
<a, b>() -> q_gen_9864
<b, b>() -> q_gen_9864
}

Datatype: <elt, elt>
Convolution form: left
}}}
  ;  sort -> 
{{{
Q={q_gen_9863},
Q_f={q_gen_9863},
Delta=
{
<nil, nil>() -> q_gen_9863
}

Datatype: <eltlist, eltlist>
Convolution form: left
}}}

}
--
Equality automata are defined for: {eq_elt, eq_eltlist}
_|

Teacher's answer:
New clause system:
{
() -> insert([x, nil, cons(x, nil)]) -> 3  ;  () -> leq([a, y]) -> 3  ;  () -> leq([b, b]) -> 3  ;  () -> sort([nil, nil]) -> 3  ;  (insert([x, z, _dna]) /\ not leq([x, y])) -> insert([x, cons(y, z), cons(y, _dna)]) -> 1  ;  (insert([y, _ina, _jna]) /\ sort([z, _ina])) -> sort([cons(y, z), _jna]) -> 4  ;  (leq([x, y])) -> insert([x, cons(y, z), cons(x, cons(y, z))]) -> 4  ;  (leq([b, a])) -> BOT -> 2  ;  (sort([l, _ona]) /\ sort([cons(a, l), _nna])) -> eq_eltlist([_nna, cons(a, _ona)]) -> 2
}
Sat witness: Yes: ((insert([y, _ina, _jna]) /\ sort([z, _ina])) -> sort([cons(y, z), _jna]), {
_ina -> nil  ;  _jna -> cons(b, nil)  ;  y -> b  ;  z -> nil
})

-------------------------------------------
Step 6, which took 0.004783 s (model generation: 0.004430,  model checking: 0.000353):

Model:
|_
{
insert -> 
{{{
Q={q_gen_9866, q_gen_9867, q_gen_9868, q_gen_9870, q_gen_9871},
Q_f={q_gen_9866},
Delta=
{
<nil>() -> q_gen_9867
<b>() -> q_gen_9868
<nil, cons>(q_gen_9868, q_gen_9867) -> q_gen_9870
<b, b>() -> q_gen_9871
<b, cons, cons>(q_gen_9871, q_gen_9870) -> q_gen_9866
<b, nil, cons>(q_gen_9868, q_gen_9867) -> q_gen_9866
}

Datatype: <elt, eltlist, eltlist>
Convolution form: left
}}}
  ;  leq -> 
{{{
Q={q_gen_9864},
Q_f={q_gen_9864},
Delta=
{
<a, b>() -> q_gen_9864
<b, b>() -> q_gen_9864
}

Datatype: <elt, elt>
Convolution form: left
}}}
  ;  sort -> 
{{{
Q={q_gen_9863, q_gen_9873},
Q_f={q_gen_9863},
Delta=
{
<cons, cons>(q_gen_9873, q_gen_9863) -> q_gen_9863
<nil, nil>() -> q_gen_9863
<b, b>() -> q_gen_9873
}

Datatype: <eltlist, eltlist>
Convolution form: left
}}}

}
--
Equality automata are defined for: {eq_elt, eq_eltlist}
_|

Teacher's answer:
New clause system:
{
() -> insert([x, nil, cons(x, nil)]) -> 3  ;  () -> leq([a, y]) -> 3  ;  () -> leq([b, b]) -> 3  ;  () -> sort([nil, nil]) -> 3  ;  (insert([x, z, _dna]) /\ not leq([x, y])) -> insert([x, cons(y, z), cons(y, _dna)]) -> 4  ;  (insert([y, _ina, _jna]) /\ sort([z, _ina])) -> sort([cons(y, z), _jna]) -> 4  ;  (leq([x, y])) -> insert([x, cons(y, z), cons(x, cons(y, z))]) -> 4  ;  (leq([b, a])) -> BOT -> 2  ;  (sort([l, _ona]) /\ sort([cons(a, l), _nna])) -> eq_eltlist([_nna, cons(a, _ona)]) -> 2
}
Sat witness: Yes: ((insert([x, z, _dna]) /\ not leq([x, y])) -> insert([x, cons(y, z), cons(y, _dna)]), {
_dna -> cons(b, nil)  ;  x -> b  ;  y -> a  ;  z -> nil
})

-------------------------------------------
Step 7, which took 0.005776 s (model generation: 0.005520,  model checking: 0.000256):

Model:
|_
{
insert -> 
{{{
Q={q_gen_9866, q_gen_9867, q_gen_9868, q_gen_9870, q_gen_9871},
Q_f={q_gen_9866},
Delta=
{
<nil>() -> q_gen_9867
<b>() -> q_gen_9868
<nil, cons>(q_gen_9868, q_gen_9867) -> q_gen_9870
<a, a>() -> q_gen_9871
<b, b>() -> q_gen_9871
<b, cons, cons>(q_gen_9871, q_gen_9870) -> q_gen_9866
<b, nil, cons>(q_gen_9868, q_gen_9867) -> q_gen_9866
}

Datatype: <elt, eltlist, eltlist>
Convolution form: left
}}}
  ;  leq -> 
{{{
Q={q_gen_9864},
Q_f={q_gen_9864},
Delta=
{
<a, b>() -> q_gen_9864
<b, a>() -> q_gen_9864
<b, b>() -> q_gen_9864
}

Datatype: <elt, elt>
Convolution form: left
}}}
  ;  sort -> 
{{{
Q={q_gen_9863, q_gen_9873},
Q_f={q_gen_9863},
Delta=
{
<cons, cons>(q_gen_9873, q_gen_9863) -> q_gen_9863
<nil, nil>() -> q_gen_9863
<b, b>() -> q_gen_9873
}

Datatype: <eltlist, eltlist>
Convolution form: left
}}}

}
--
Equality automata are defined for: {eq_elt, eq_eltlist}
_|

Teacher's answer:
New clause system:
{
() -> insert([x, nil, cons(x, nil)]) -> 3  ;  () -> leq([a, y]) -> 3  ;  () -> leq([b, b]) -> 3  ;  () -> sort([nil, nil]) -> 3  ;  (insert([x, z, _dna]) /\ not leq([x, y])) -> insert([x, cons(y, z), cons(y, _dna)]) -> 4  ;  (insert([y, _ina, _jna]) /\ sort([z, _ina])) -> sort([cons(y, z), _jna]) -> 4  ;  (leq([x, y])) -> insert([x, cons(y, z), cons(x, cons(y, z))]) -> 4  ;  (leq([b, a])) -> BOT -> 5  ;  (sort([l, _ona]) /\ sort([cons(a, l), _nna])) -> eq_eltlist([_nna, cons(a, _ona)]) -> 3
}
Sat witness: Yes: ((leq([b, a])) -> BOT, {

})

-------------------------------------------
Step 8, which took 0.003768 s (model generation: 0.003563,  model checking: 0.000205):

Model:
|_
{
insert -> 
{{{
Q={q_gen_9866, q_gen_9867, q_gen_9868, q_gen_9870, q_gen_9871},
Q_f={q_gen_9866},
Delta=
{
<nil>() -> q_gen_9867
<b>() -> q_gen_9868
<nil, cons>(q_gen_9868, q_gen_9867) -> q_gen_9870
<a, a>() -> q_gen_9871
<b, b>() -> q_gen_9871
<b, cons, cons>(q_gen_9871, q_gen_9870) -> q_gen_9866
<b, nil, cons>(q_gen_9868, q_gen_9867) -> q_gen_9866
}

Datatype: <elt, eltlist, eltlist>
Convolution form: left
}}}
  ;  leq -> 
{{{
Q={q_gen_9864, q_gen_9874},
Q_f={q_gen_9864},
Delta=
{
<a, b>() -> q_gen_9864
<b, b>() -> q_gen_9864
<b, a>() -> q_gen_9874
}

Datatype: <elt, elt>
Convolution form: left
}}}
  ;  sort -> 
{{{
Q={q_gen_9863, q_gen_9873},
Q_f={q_gen_9863},
Delta=
{
<cons, cons>(q_gen_9873, q_gen_9863) -> q_gen_9863
<nil, nil>() -> q_gen_9863
<b, b>() -> q_gen_9873
}

Datatype: <eltlist, eltlist>
Convolution form: left
}}}

}
--
Equality automata are defined for: {eq_elt, eq_eltlist}
_|

Teacher's answer:
New clause system:
{
() -> insert([x, nil, cons(x, nil)]) -> 3  ;  () -> leq([a, y]) -> 6  ;  () -> leq([b, b]) -> 4  ;  () -> sort([nil, nil]) -> 4  ;  (insert([x, z, _dna]) /\ not leq([x, y])) -> insert([x, cons(y, z), cons(y, _dna)]) -> 4  ;  (insert([y, _ina, _jna]) /\ sort([z, _ina])) -> sort([cons(y, z), _jna]) -> 4  ;  (leq([x, y])) -> insert([x, cons(y, z), cons(x, cons(y, z))]) -> 4  ;  (leq([b, a])) -> BOT -> 5  ;  (sort([l, _ona]) /\ sort([cons(a, l), _nna])) -> eq_eltlist([_nna, cons(a, _ona)]) -> 4
}
Sat witness: Yes: (() -> leq([a, y]), {
y -> a
})

-------------------------------------------
Step 9, which took 0.003812 s (model generation: 0.003574,  model checking: 0.000238):

Model:
|_
{
insert -> 
{{{
Q={q_gen_9866, q_gen_9867, q_gen_9868, q_gen_9870, q_gen_9871},
Q_f={q_gen_9866},
Delta=
{
<nil>() -> q_gen_9867
<b>() -> q_gen_9868
<nil, cons>(q_gen_9868, q_gen_9867) -> q_gen_9870
<a, a>() -> q_gen_9871
<b, b>() -> q_gen_9871
<b, cons, cons>(q_gen_9871, q_gen_9870) -> q_gen_9866
<b, nil, cons>(q_gen_9868, q_gen_9867) -> q_gen_9866
}

Datatype: <elt, eltlist, eltlist>
Convolution form: left
}}}
  ;  leq -> 
{{{
Q={q_gen_9864, q_gen_9874},
Q_f={q_gen_9864},
Delta=
{
<a, a>() -> q_gen_9864
<a, b>() -> q_gen_9864
<b, b>() -> q_gen_9864
<b, a>() -> q_gen_9874
}

Datatype: <elt, elt>
Convolution form: left
}}}
  ;  sort -> 
{{{
Q={q_gen_9863, q_gen_9873},
Q_f={q_gen_9863},
Delta=
{
<cons, cons>(q_gen_9873, q_gen_9863) -> q_gen_9863
<nil, nil>() -> q_gen_9863
<b, b>() -> q_gen_9873
}

Datatype: <eltlist, eltlist>
Convolution form: left
}}}

}
--
Equality automata are defined for: {eq_elt, eq_eltlist}
_|

Teacher's answer:
New clause system:
{
() -> insert([x, nil, cons(x, nil)]) -> 6  ;  () -> leq([a, y]) -> 6  ;  () -> leq([b, b]) -> 4  ;  () -> sort([nil, nil]) -> 4  ;  (insert([x, z, _dna]) /\ not leq([x, y])) -> insert([x, cons(y, z), cons(y, _dna)]) -> 4  ;  (insert([y, _ina, _jna]) /\ sort([z, _ina])) -> sort([cons(y, z), _jna]) -> 4  ;  (leq([x, y])) -> insert([x, cons(y, z), cons(x, cons(y, z))]) -> 4  ;  (leq([b, a])) -> BOT -> 5  ;  (sort([l, _ona]) /\ sort([cons(a, l), _nna])) -> eq_eltlist([_nna, cons(a, _ona)]) -> 4
}
Sat witness: Yes: (() -> insert([x, nil, cons(x, nil)]), {
x -> a
})

-------------------------------------------
Step 10, which took 0.004058 s (model generation: 0.003636,  model checking: 0.000422):

Model:
|_
{
insert -> 
{{{
Q={q_gen_9866, q_gen_9867, q_gen_9868, q_gen_9870, q_gen_9871},
Q_f={q_gen_9866},
Delta=
{
<nil>() -> q_gen_9867
<a>() -> q_gen_9868
<b>() -> q_gen_9868
<nil, cons>(q_gen_9868, q_gen_9867) -> q_gen_9870
<a, a>() -> q_gen_9871
<b, b>() -> q_gen_9871
<a, nil, cons>(q_gen_9868, q_gen_9867) -> q_gen_9866
<b, cons, cons>(q_gen_9871, q_gen_9870) -> q_gen_9866
<b, nil, cons>(q_gen_9868, q_gen_9867) -> q_gen_9866
}

Datatype: <elt, eltlist, eltlist>
Convolution form: left
}}}
  ;  leq -> 
{{{
Q={q_gen_9864, q_gen_9874},
Q_f={q_gen_9864},
Delta=
{
<a, a>() -> q_gen_9864
<a, b>() -> q_gen_9864
<b, b>() -> q_gen_9864
<b, a>() -> q_gen_9874
}

Datatype: <elt, elt>
Convolution form: left
}}}
  ;  sort -> 
{{{
Q={q_gen_9863, q_gen_9873},
Q_f={q_gen_9863},
Delta=
{
<cons, cons>(q_gen_9873, q_gen_9863) -> q_gen_9863
<nil, nil>() -> q_gen_9863
<b, b>() -> q_gen_9873
}

Datatype: <eltlist, eltlist>
Convolution form: left
}}}

}
--
Equality automata are defined for: {eq_elt, eq_eltlist}
_|

Teacher's answer:
New clause system:
{
() -> insert([x, nil, cons(x, nil)]) -> 6  ;  () -> leq([a, y]) -> 6  ;  () -> leq([b, b]) -> 4  ;  () -> sort([nil, nil]) -> 4  ;  (insert([x, z, _dna]) /\ not leq([x, y])) -> insert([x, cons(y, z), cons(y, _dna)]) -> 4  ;  (insert([y, _ina, _jna]) /\ sort([z, _ina])) -> sort([cons(y, z), _jna]) -> 4  ;  (leq([x, y])) -> insert([x, cons(y, z), cons(x, cons(y, z))]) -> 7  ;  (leq([b, a])) -> BOT -> 5  ;  (sort([l, _ona]) /\ sort([cons(a, l), _nna])) -> eq_eltlist([_nna, cons(a, _ona)]) -> 5
}
Sat witness: Yes: ((leq([x, y])) -> insert([x, cons(y, z), cons(x, cons(y, z))]), {
x -> a  ;  y -> b  ;  z -> nil
})

-------------------------------------------
Step 11, which took 0.003963 s (model generation: 0.003742,  model checking: 0.000221):

Model:
|_
{
insert -> 
{{{
Q={q_gen_9866, q_gen_9867, q_gen_9868, q_gen_9870, q_gen_9871},
Q_f={q_gen_9866},
Delta=
{
<nil>() -> q_gen_9867
<a>() -> q_gen_9868
<b>() -> q_gen_9868
<nil, cons>(q_gen_9868, q_gen_9867) -> q_gen_9870
<a, a>() -> q_gen_9871
<b, a>() -> q_gen_9871
<b, b>() -> q_gen_9871
<a, cons, cons>(q_gen_9871, q_gen_9870) -> q_gen_9866
<a, nil, cons>(q_gen_9868, q_gen_9867) -> q_gen_9866
<b, cons, cons>(q_gen_9871, q_gen_9870) -> q_gen_9866
<b, nil, cons>(q_gen_9868, q_gen_9867) -> q_gen_9866
}

Datatype: <elt, eltlist, eltlist>
Convolution form: left
}}}
  ;  leq -> 
{{{
Q={q_gen_9864, q_gen_9874},
Q_f={q_gen_9864},
Delta=
{
<a, a>() -> q_gen_9864
<a, b>() -> q_gen_9864
<b, b>() -> q_gen_9864
<b, a>() -> q_gen_9874
}

Datatype: <elt, elt>
Convolution form: left
}}}
  ;  sort -> 
{{{
Q={q_gen_9863, q_gen_9873},
Q_f={q_gen_9863},
Delta=
{
<cons, cons>(q_gen_9873, q_gen_9863) -> q_gen_9863
<nil, nil>() -> q_gen_9863
<b, b>() -> q_gen_9873
}

Datatype: <eltlist, eltlist>
Convolution form: left
}}}

}
--
Equality automata are defined for: {eq_elt, eq_eltlist}
_|

Teacher's answer:
New clause system:
{
() -> insert([x, nil, cons(x, nil)]) -> 6  ;  () -> leq([a, y]) -> 6  ;  () -> leq([b, b]) -> 4  ;  () -> sort([nil, nil]) -> 4  ;  (insert([x, z, _dna]) /\ not leq([x, y])) -> insert([x, cons(y, z), cons(y, _dna)]) -> 4  ;  (insert([y, _ina, _jna]) /\ sort([z, _ina])) -> sort([cons(y, z), _jna]) -> 7  ;  (leq([x, y])) -> insert([x, cons(y, z), cons(x, cons(y, z))]) -> 7  ;  (leq([b, a])) -> BOT -> 5  ;  (sort([l, _ona]) /\ sort([cons(a, l), _nna])) -> eq_eltlist([_nna, cons(a, _ona)]) -> 5
}
Sat witness: Yes: ((insert([y, _ina, _jna]) /\ sort([z, _ina])) -> sort([cons(y, z), _jna]), {
_ina -> nil  ;  _jna -> cons(a, nil)  ;  y -> b  ;  z -> nil
})

-------------------------------------------
Step 12, which took 0.004596 s (model generation: 0.004231,  model checking: 0.000365):

Model:
|_
{
insert -> 
{{{
Q={q_gen_9866, q_gen_9867, q_gen_9868, q_gen_9870, q_gen_9871},
Q_f={q_gen_9866},
Delta=
{
<nil>() -> q_gen_9867
<a>() -> q_gen_9868
<b>() -> q_gen_9868
<nil, cons>(q_gen_9868, q_gen_9867) -> q_gen_9870
<a, a>() -> q_gen_9871
<b, a>() -> q_gen_9871
<b, b>() -> q_gen_9871
<a, cons, cons>(q_gen_9871, q_gen_9870) -> q_gen_9866
<a, nil, cons>(q_gen_9868, q_gen_9867) -> q_gen_9866
<b, cons, cons>(q_gen_9871, q_gen_9870) -> q_gen_9866
<b, nil, cons>(q_gen_9868, q_gen_9867) -> q_gen_9866
}

Datatype: <elt, eltlist, eltlist>
Convolution form: left
}}}
  ;  leq -> 
{{{
Q={q_gen_9864, q_gen_9874},
Q_f={q_gen_9864},
Delta=
{
<a, a>() -> q_gen_9864
<a, b>() -> q_gen_9864
<b, b>() -> q_gen_9864
<b, a>() -> q_gen_9874
}

Datatype: <elt, elt>
Convolution form: left
}}}
  ;  sort -> 
{{{
Q={q_gen_9863, q_gen_9873},
Q_f={q_gen_9863},
Delta=
{
<cons, cons>(q_gen_9873, q_gen_9863) -> q_gen_9863
<nil, nil>() -> q_gen_9863
<b, a>() -> q_gen_9873
<b, b>() -> q_gen_9873
}

Datatype: <eltlist, eltlist>
Convolution form: left
}}}

}
--
Equality automata are defined for: {eq_elt, eq_eltlist}
_|

Teacher's answer:
New clause system:
{
() -> insert([x, nil, cons(x, nil)]) -> 6  ;  () -> leq([a, y]) -> 6  ;  () -> leq([b, b]) -> 4  ;  () -> sort([nil, nil]) -> 4  ;  (insert([x, z, _dna]) /\ not leq([x, y])) -> insert([x, cons(y, z), cons(y, _dna)]) -> 7  ;  (insert([y, _ina, _jna]) /\ sort([z, _ina])) -> sort([cons(y, z), _jna]) -> 7  ;  (leq([x, y])) -> insert([x, cons(y, z), cons(x, cons(y, z))]) -> 7  ;  (leq([b, a])) -> BOT -> 5  ;  (sort([l, _ona]) /\ sort([cons(a, l), _nna])) -> eq_eltlist([_nna, cons(a, _ona)]) -> 5
}
Sat witness: Yes: ((insert([x, z, _dna]) /\ not leq([x, y])) -> insert([x, cons(y, z), cons(y, _dna)]), {
_dna -> cons(a, cons(a, nil))  ;  x -> b  ;  y -> a  ;  z -> cons(a, nil)
})

-------------------------------------------
Step 13, which took 0.006591 s (model generation: 0.005810,  model checking: 0.000781):

Model:
|_
{
insert -> 
{{{
Q={q_gen_9866, q_gen_9867, q_gen_9868, q_gen_9870, q_gen_9871},
Q_f={q_gen_9866},
Delta=
{
<nil>() -> q_gen_9867
<a>() -> q_gen_9868
<b>() -> q_gen_9868
<cons, cons>(q_gen_9871, q_gen_9870) -> q_gen_9870
<nil, cons>(q_gen_9868, q_gen_9867) -> q_gen_9870
<a, a>() -> q_gen_9871
<b, a>() -> q_gen_9871
<b, b>() -> q_gen_9871
<a, cons, cons>(q_gen_9871, q_gen_9870) -> q_gen_9866
<a, nil, cons>(q_gen_9868, q_gen_9867) -> q_gen_9866
<b, cons, cons>(q_gen_9871, q_gen_9870) -> q_gen_9866
<b, nil, cons>(q_gen_9868, q_gen_9867) -> q_gen_9866
}

Datatype: <elt, eltlist, eltlist>
Convolution form: left
}}}
  ;  leq -> 
{{{
Q={q_gen_9864, q_gen_9874},
Q_f={q_gen_9864},
Delta=
{
<a, a>() -> q_gen_9864
<a, b>() -> q_gen_9864
<b, b>() -> q_gen_9864
<b, a>() -> q_gen_9874
}

Datatype: <elt, elt>
Convolution form: left
}}}
  ;  sort -> 
{{{
Q={q_gen_9863, q_gen_9873},
Q_f={q_gen_9863},
Delta=
{
<cons, cons>(q_gen_9873, q_gen_9863) -> q_gen_9863
<nil, nil>() -> q_gen_9863
<b, a>() -> q_gen_9873
<b, b>() -> q_gen_9873
}

Datatype: <eltlist, eltlist>
Convolution form: left
}}}

}
--
Equality automata are defined for: {eq_elt, eq_eltlist}
_|

Teacher's answer:
New clause system:
{
() -> insert([x, nil, cons(x, nil)]) -> 7  ;  () -> leq([a, y]) -> 7  ;  () -> leq([b, b]) -> 5  ;  () -> sort([nil, nil]) -> 5  ;  (insert([x, z, _dna]) /\ not leq([x, y])) -> insert([x, cons(y, z), cons(y, _dna)]) -> 7  ;  (insert([y, _ina, _jna]) /\ sort([z, _ina])) -> sort([cons(y, z), _jna]) -> 7  ;  (leq([x, y])) -> insert([x, cons(y, z), cons(x, cons(y, z))]) -> 10  ;  (leq([b, a])) -> BOT -> 6  ;  (sort([l, _ona]) /\ sort([cons(a, l), _nna])) -> eq_eltlist([_nna, cons(a, _ona)]) -> 6
}
Sat witness: Yes: ((leq([x, y])) -> insert([x, cons(y, z), cons(x, cons(y, z))]), {
x -> b  ;  y -> b  ;  z -> cons(a, nil)
})

-------------------------------------------
Step 14, which took 0.006116 s (model generation: 0.005704,  model checking: 0.000412):

Model:
|_
{
insert -> 
{{{
Q={q_gen_9866, q_gen_9867, q_gen_9868, q_gen_9870, q_gen_9871},
Q_f={q_gen_9866},
Delta=
{
<nil>() -> q_gen_9867
<a>() -> q_gen_9868
<b>() -> q_gen_9868
<cons, cons>(q_gen_9871, q_gen_9870) -> q_gen_9870
<nil, cons>(q_gen_9868, q_gen_9867) -> q_gen_9870
<a, a>() -> q_gen_9871
<a, b>() -> q_gen_9871
<b, a>() -> q_gen_9871
<b, b>() -> q_gen_9871
<a, cons, cons>(q_gen_9871, q_gen_9870) -> q_gen_9866
<a, nil, cons>(q_gen_9868, q_gen_9867) -> q_gen_9866
<b, cons, cons>(q_gen_9871, q_gen_9870) -> q_gen_9866
<b, nil, cons>(q_gen_9868, q_gen_9867) -> q_gen_9866
}

Datatype: <elt, eltlist, eltlist>
Convolution form: left
}}}
  ;  leq -> 
{{{
Q={q_gen_9864, q_gen_9874},
Q_f={q_gen_9864},
Delta=
{
<a, a>() -> q_gen_9864
<a, b>() -> q_gen_9864
<b, b>() -> q_gen_9864
<b, a>() -> q_gen_9874
}

Datatype: <elt, elt>
Convolution form: left
}}}
  ;  sort -> 
{{{
Q={q_gen_9863, q_gen_9873},
Q_f={q_gen_9863},
Delta=
{
<cons, cons>(q_gen_9873, q_gen_9863) -> q_gen_9863
<nil, nil>() -> q_gen_9863
<b, a>() -> q_gen_9873
<b, b>() -> q_gen_9873
}

Datatype: <eltlist, eltlist>
Convolution form: left
}}}

}
--
Equality automata are defined for: {eq_elt, eq_eltlist}
_|

Teacher's answer:
New clause system:
{
() -> insert([x, nil, cons(x, nil)]) -> 7  ;  () -> leq([a, y]) -> 7  ;  () -> leq([b, b]) -> 6  ;  () -> sort([nil, nil]) -> 6  ;  (insert([x, z, _dna]) /\ not leq([x, y])) -> insert([x, cons(y, z), cons(y, _dna)]) -> 7  ;  (insert([y, _ina, _jna]) /\ sort([z, _ina])) -> sort([cons(y, z), _jna]) -> 10  ;  (leq([x, y])) -> insert([x, cons(y, z), cons(x, cons(y, z))]) -> 10  ;  (leq([b, a])) -> BOT -> 7  ;  (sort([l, _ona]) /\ sort([cons(a, l), _nna])) -> eq_eltlist([_nna, cons(a, _ona)]) -> 7
}
Sat witness: Yes: ((insert([y, _ina, _jna]) /\ sort([z, _ina])) -> sort([cons(y, z), _jna]), {
_ina -> nil  ;  _jna -> cons(b, nil)  ;  y -> a  ;  z -> nil
})

-------------------------------------------
Step 15, which took 0.006010 s (model generation: 0.005808,  model checking: 0.000202):

Model:
|_
{
insert -> 
{{{
Q={q_gen_9866, q_gen_9867, q_gen_9868, q_gen_9870, q_gen_9871},
Q_f={q_gen_9866},
Delta=
{
<nil>() -> q_gen_9867
<a>() -> q_gen_9868
<b>() -> q_gen_9868
<cons, cons>(q_gen_9871, q_gen_9870) -> q_gen_9870
<nil, cons>(q_gen_9868, q_gen_9867) -> q_gen_9870
<a, a>() -> q_gen_9871
<a, b>() -> q_gen_9871
<b, a>() -> q_gen_9871
<b, b>() -> q_gen_9871
<a, cons, cons>(q_gen_9871, q_gen_9870) -> q_gen_9866
<a, nil, cons>(q_gen_9868, q_gen_9867) -> q_gen_9866
<b, cons, cons>(q_gen_9871, q_gen_9870) -> q_gen_9866
<b, nil, cons>(q_gen_9868, q_gen_9867) -> q_gen_9866
}

Datatype: <elt, eltlist, eltlist>
Convolution form: left
}}}
  ;  leq -> 
{{{
Q={q_gen_9864, q_gen_9874},
Q_f={q_gen_9864},
Delta=
{
<a, a>() -> q_gen_9864
<a, b>() -> q_gen_9864
<b, b>() -> q_gen_9864
<b, a>() -> q_gen_9874
}

Datatype: <elt, elt>
Convolution form: left
}}}
  ;  sort -> 
{{{
Q={q_gen_9863, q_gen_9873},
Q_f={q_gen_9863},
Delta=
{
<cons, cons>(q_gen_9873, q_gen_9863) -> q_gen_9863
<nil, nil>() -> q_gen_9863
<a, b>() -> q_gen_9873
<b, a>() -> q_gen_9873
<b, b>() -> q_gen_9873
}

Datatype: <eltlist, eltlist>
Convolution form: left
}}}

}
--
Equality automata are defined for: {eq_elt, eq_eltlist}
_|

Teacher's answer:
New clause system:
{
() -> insert([x, nil, cons(x, nil)]) -> 7  ;  () -> leq([a, y]) -> 7  ;  () -> leq([b, b]) -> 7  ;  () -> sort([nil, nil]) -> 7  ;  (insert([x, z, _dna]) /\ not leq([x, y])) -> insert([x, cons(y, z), cons(y, _dna)]) -> 7  ;  (insert([y, _ina, _jna]) /\ sort([z, _ina])) -> sort([cons(y, z), _jna]) -> 10  ;  (leq([x, y])) -> insert([x, cons(y, z), cons(x, cons(y, z))]) -> 10  ;  (leq([b, a])) -> BOT -> 7  ;  (sort([l, _ona]) /\ sort([cons(a, l), _nna])) -> eq_eltlist([_nna, cons(a, _ona)]) -> 10
}
Sat witness: Yes: ((sort([l, _ona]) /\ sort([cons(a, l), _nna])) -> eq_eltlist([_nna, cons(a, _ona)]), {
_nna -> cons(b, nil)  ;  _ona -> nil  ;  l -> nil
})

-------------------------------------------
Step 16, which took 0.007364 s (model generation: 0.006153,  model checking: 0.001211):

Model:
|_
{
insert -> 
{{{
Q={q_gen_9866, q_gen_9867, q_gen_9868, q_gen_9870, q_gen_9871, q_gen_9879, q_gen_9892},
Q_f={q_gen_9866},
Delta=
{
<nil>() -> q_gen_9867
<b>() -> q_gen_9868
<a>() -> q_gen_9879
<cons, cons>(q_gen_9871, q_gen_9870) -> q_gen_9870
<nil, cons>(q_gen_9868, q_gen_9867) -> q_gen_9870
<nil, cons>(q_gen_9879, q_gen_9867) -> q_gen_9870
<a, a>() -> q_gen_9871
<a, b>() -> q_gen_9871
<b, a>() -> q_gen_9871
<b, b>() -> q_gen_9871
<a, cons, cons>(q_gen_9871, q_gen_9870) -> q_gen_9866
<a, nil, cons>(q_gen_9879, q_gen_9867) -> q_gen_9866
<b, cons, cons>(q_gen_9871, q_gen_9870) -> q_gen_9866
<b, nil, cons>(q_gen_9868, q_gen_9867) -> q_gen_9866
<b, nil, cons>(q_gen_9879, q_gen_9867) -> q_gen_9866
<a, nil, cons>(q_gen_9868, q_gen_9867) -> q_gen_9892
}

Datatype: <elt, eltlist, eltlist>
Convolution form: left
}}}
  ;  leq -> 
{{{
Q={q_gen_9864, q_gen_9874},
Q_f={q_gen_9864},
Delta=
{
<a, a>() -> q_gen_9864
<a, b>() -> q_gen_9864
<b, b>() -> q_gen_9864
<b, a>() -> q_gen_9874
}

Datatype: <elt, elt>
Convolution form: left
}}}
  ;  sort -> 
{{{
Q={q_gen_9863, q_gen_9873, q_gen_9893, q_gen_9894},
Q_f={q_gen_9863},
Delta=
{
<cons, cons>(q_gen_9873, q_gen_9863) -> q_gen_9863
<nil, nil>() -> q_gen_9863
<b, a>() -> q_gen_9873
<b, b>() -> q_gen_9873
<cons, cons>(q_gen_9894, q_gen_9863) -> q_gen_9893
<a, b>() -> q_gen_9894
}

Datatype: <eltlist, eltlist>
Convolution form: left
}}}

}
--
Equality automata are defined for: {eq_elt, eq_eltlist}
_|

Teacher's answer:
New clause system:
{
() -> insert([x, nil, cons(x, nil)]) -> 8  ;  () -> leq([a, y]) -> 8  ;  () -> leq([b, b]) -> 8  ;  () -> sort([nil, nil]) -> 8  ;  (insert([x, z, _dna]) /\ not leq([x, y])) -> insert([x, cons(y, z), cons(y, _dna)]) -> 8  ;  (insert([y, _ina, _jna]) /\ sort([z, _ina])) -> sort([cons(y, z), _jna]) -> 13  ;  (leq([x, y])) -> insert([x, cons(y, z), cons(x, cons(y, z))]) -> 11  ;  (leq([b, a])) -> BOT -> 8  ;  (sort([l, _ona]) /\ sort([cons(a, l), _nna])) -> eq_eltlist([_nna, cons(a, _ona)]) -> 11
}
Sat witness: Yes: ((insert([y, _ina, _jna]) /\ sort([z, _ina])) -> sort([cons(y, z), _jna]), {
_ina -> cons(b, nil)  ;  _jna -> cons(b, cons(b, nil))  ;  y -> a  ;  z -> cons(b, nil)
})

-------------------------------------------
Step 17, which took 0.007282 s (model generation: 0.006073,  model checking: 0.001209):

Model:
|_
{
insert -> 
{{{
Q={q_gen_9866, q_gen_9867, q_gen_9868, q_gen_9870, q_gen_9871, q_gen_9879, q_gen_9892},
Q_f={q_gen_9866},
Delta=
{
<nil>() -> q_gen_9867
<b>() -> q_gen_9868
<a>() -> q_gen_9879
<cons, cons>(q_gen_9871, q_gen_9870) -> q_gen_9870
<nil, cons>(q_gen_9868, q_gen_9867) -> q_gen_9870
<nil, cons>(q_gen_9879, q_gen_9867) -> q_gen_9870
<a, a>() -> q_gen_9871
<a, b>() -> q_gen_9871
<b, a>() -> q_gen_9871
<b, b>() -> q_gen_9871
<a, cons, cons>(q_gen_9871, q_gen_9870) -> q_gen_9866
<a, nil, cons>(q_gen_9879, q_gen_9867) -> q_gen_9866
<b, cons, cons>(q_gen_9871, q_gen_9870) -> q_gen_9866
<b, nil, cons>(q_gen_9868, q_gen_9867) -> q_gen_9866
<b, nil, cons>(q_gen_9879, q_gen_9867) -> q_gen_9866
<a, nil, cons>(q_gen_9868, q_gen_9867) -> q_gen_9892
}

Datatype: <elt, eltlist, eltlist>
Convolution form: left
}}}
  ;  leq -> 
{{{
Q={q_gen_9864, q_gen_9874},
Q_f={q_gen_9864},
Delta=
{
<a, a>() -> q_gen_9864
<a, b>() -> q_gen_9864
<b, b>() -> q_gen_9864
<b, a>() -> q_gen_9874
}

Datatype: <elt, elt>
Convolution form: left
}}}
  ;  sort -> 
{{{
Q={q_gen_9863, q_gen_9872, q_gen_9873, q_gen_9893, q_gen_9894},
Q_f={q_gen_9863, q_gen_9872},
Delta=
{
<nil, nil>() -> q_gen_9863
<cons, cons>(q_gen_9873, q_gen_9863) -> q_gen_9872
<cons, cons>(q_gen_9894, q_gen_9872) -> q_gen_9872
<b, a>() -> q_gen_9873
<b, b>() -> q_gen_9873
<cons, cons>(q_gen_9894, q_gen_9863) -> q_gen_9893
<a, b>() -> q_gen_9894
}

Datatype: <eltlist, eltlist>
Convolution form: left
}}}

}
--
Equality automata are defined for: {eq_elt, eq_eltlist}
_|

Teacher's answer:
New clause system:
{
() -> insert([x, nil, cons(x, nil)]) -> 9  ;  () -> leq([a, y]) -> 9  ;  () -> leq([b, b]) -> 9  ;  () -> sort([nil, nil]) -> 9  ;  (insert([x, z, _dna]) /\ not leq([x, y])) -> insert([x, cons(y, z), cons(y, _dna)]) -> 9  ;  (insert([y, _ina, _jna]) /\ sort([z, _ina])) -> sort([cons(y, z), _jna]) -> 13  ;  (leq([x, y])) -> insert([x, cons(y, z), cons(x, cons(y, z))]) -> 11  ;  (leq([b, a])) -> BOT -> 9  ;  (sort([l, _ona]) /\ sort([cons(a, l), _nna])) -> eq_eltlist([_nna, cons(a, _ona)]) -> 14
}
Sat witness: Yes: ((sort([l, _ona]) /\ sort([cons(a, l), _nna])) -> eq_eltlist([_nna, cons(a, _ona)]), {
_nna -> cons(b, cons(b, nil))  ;  _ona -> cons(a, nil)  ;  l -> cons(b, nil)
})

-------------------------------------------
Step 18, which took 0.007202 s (model generation: 0.006346,  model checking: 0.000856):

Model:
|_
{
insert -> 
{{{
Q={q_gen_9866, q_gen_9867, q_gen_9868, q_gen_9870, q_gen_9871, q_gen_9876, q_gen_9879, q_gen_9892},
Q_f={q_gen_9866},
Delta=
{
<nil>() -> q_gen_9867
<b>() -> q_gen_9868
<a>() -> q_gen_9879
<cons, cons>(q_gen_9876, q_gen_9870) -> q_gen_9870
<nil, cons>(q_gen_9868, q_gen_9867) -> q_gen_9870
<nil, cons>(q_gen_9879, q_gen_9867) -> q_gen_9870
<b, b>() -> q_gen_9871
<a, a>() -> q_gen_9876
<a, b>() -> q_gen_9876
<b, a>() -> q_gen_9876
<a, cons, cons>(q_gen_9876, q_gen_9870) -> q_gen_9866
<a, nil, cons>(q_gen_9879, q_gen_9867) -> q_gen_9866
<b, cons, cons>(q_gen_9871, q_gen_9870) -> q_gen_9866
<b, cons, cons>(q_gen_9876, q_gen_9870) -> q_gen_9866
<b, nil, cons>(q_gen_9868, q_gen_9867) -> q_gen_9866
<b, nil, cons>(q_gen_9879, q_gen_9867) -> q_gen_9866
<a, cons, cons>(q_gen_9871, q_gen_9870) -> q_gen_9892
<a, nil, cons>(q_gen_9868, q_gen_9867) -> q_gen_9892
}

Datatype: <elt, eltlist, eltlist>
Convolution form: left
}}}
  ;  leq -> 
{{{
Q={q_gen_9864, q_gen_9874},
Q_f={q_gen_9864},
Delta=
{
<a, a>() -> q_gen_9864
<a, b>() -> q_gen_9864
<b, b>() -> q_gen_9864
<b, a>() -> q_gen_9874
}

Datatype: <elt, elt>
Convolution form: left
}}}
  ;  sort -> 
{{{
Q={q_gen_9863, q_gen_9873, q_gen_9893, q_gen_9894},
Q_f={q_gen_9863},
Delta=
{
<cons, cons>(q_gen_9873, q_gen_9863) -> q_gen_9863
<nil, nil>() -> q_gen_9863
<b, a>() -> q_gen_9873
<b, b>() -> q_gen_9873
<cons, cons>(q_gen_9894, q_gen_9863) -> q_gen_9893
<a, b>() -> q_gen_9894
}

Datatype: <eltlist, eltlist>
Convolution form: left
}}}

}
--
Equality automata are defined for: {eq_elt, eq_eltlist}
_|

Teacher's answer:
New clause system:
{
() -> insert([x, nil, cons(x, nil)]) -> 9  ;  () -> leq([a, y]) -> 9  ;  () -> leq([b, b]) -> 9  ;  () -> sort([nil, nil]) -> 9  ;  (insert([x, z, _dna]) /\ not leq([x, y])) -> insert([x, cons(y, z), cons(y, _dna)]) -> 12  ;  (insert([y, _ina, _jna]) /\ sort([z, _ina])) -> sort([cons(y, z), _jna]) -> 13  ;  (leq([x, y])) -> insert([x, cons(y, z), cons(x, cons(y, z))]) -> 11  ;  (leq([b, a])) -> BOT -> 10  ;  (sort([l, _ona]) /\ sort([cons(a, l), _nna])) -> eq_eltlist([_nna, cons(a, _ona)]) -> 14
}
Sat witness: Yes: ((insert([x, z, _dna]) /\ not leq([x, y])) -> insert([x, cons(y, z), cons(y, _dna)]), {
_dna -> cons(b, cons(b, nil))  ;  x -> b  ;  y -> a  ;  z -> cons(b, nil)
})

-------------------------------------------
Step 19, which took 0.008453 s (model generation: 0.006888,  model checking: 0.001565):

Model:
|_
{
insert -> 
{{{
Q={q_gen_9866, q_gen_9867, q_gen_9868, q_gen_9870, q_gen_9871, q_gen_9876, q_gen_9879, q_gen_9892},
Q_f={q_gen_9866},
Delta=
{
<nil>() -> q_gen_9867
<b>() -> q_gen_9868
<a>() -> q_gen_9879
<cons, cons>(q_gen_9871, q_gen_9870) -> q_gen_9870
<cons, cons>(q_gen_9876, q_gen_9870) -> q_gen_9870
<nil, cons>(q_gen_9868, q_gen_9867) -> q_gen_9870
<nil, cons>(q_gen_9879, q_gen_9867) -> q_gen_9870
<b, b>() -> q_gen_9871
<a, a>() -> q_gen_9876
<a, b>() -> q_gen_9876
<b, a>() -> q_gen_9876
<a, cons, cons>(q_gen_9876, q_gen_9870) -> q_gen_9866
<a, nil, cons>(q_gen_9879, q_gen_9867) -> q_gen_9866
<b, cons, cons>(q_gen_9871, q_gen_9870) -> q_gen_9866
<b, cons, cons>(q_gen_9876, q_gen_9870) -> q_gen_9866
<b, nil, cons>(q_gen_9868, q_gen_9867) -> q_gen_9866
<b, nil, cons>(q_gen_9879, q_gen_9867) -> q_gen_9866
<a, cons, cons>(q_gen_9871, q_gen_9870) -> q_gen_9892
<a, nil, cons>(q_gen_9868, q_gen_9867) -> q_gen_9892
}

Datatype: <elt, eltlist, eltlist>
Convolution form: left
}}}
  ;  leq -> 
{{{
Q={q_gen_9864, q_gen_9874},
Q_f={q_gen_9864},
Delta=
{
<a, a>() -> q_gen_9864
<a, b>() -> q_gen_9864
<b, b>() -> q_gen_9864
<b, a>() -> q_gen_9874
}

Datatype: <elt, elt>
Convolution form: left
}}}
  ;  sort -> 
{{{
Q={q_gen_9863, q_gen_9873, q_gen_9893, q_gen_9894},
Q_f={q_gen_9863},
Delta=
{
<cons, cons>(q_gen_9873, q_gen_9863) -> q_gen_9863
<nil, nil>() -> q_gen_9863
<b, a>() -> q_gen_9873
<b, b>() -> q_gen_9873
<cons, cons>(q_gen_9894, q_gen_9863) -> q_gen_9893
<a, b>() -> q_gen_9894
}

Datatype: <eltlist, eltlist>
Convolution form: left
}}}

}
--
Equality automata are defined for: {eq_elt, eq_eltlist}
_|

Teacher's answer:
New clause system:
{
() -> insert([x, nil, cons(x, nil)]) -> 10  ;  () -> leq([a, y]) -> 10  ;  () -> leq([b, b]) -> 10  ;  () -> sort([nil, nil]) -> 10  ;  (insert([x, z, _dna]) /\ not leq([x, y])) -> insert([x, cons(y, z), cons(y, _dna)]) -> 13  ;  (insert([y, _ina, _jna]) /\ sort([z, _ina])) -> sort([cons(y, z), _jna]) -> 16  ;  (leq([x, y])) -> insert([x, cons(y, z), cons(x, cons(y, z))]) -> 12  ;  (leq([b, a])) -> BOT -> 11  ;  (sort([l, _ona]) /\ sort([cons(a, l), _nna])) -> eq_eltlist([_nna, cons(a, _ona)]) -> 14
}
Sat witness: Yes: ((insert([y, _ina, _jna]) /\ sort([z, _ina])) -> sort([cons(y, z), _jna]), {
_ina -> cons(a, nil)  ;  _jna -> cons(b, cons(b, nil))  ;  y -> a  ;  z -> cons(b, nil)
})

-------------------------------------------
Step 20, which took 0.007329 s (model generation: 0.006878,  model checking: 0.000451):

Model:
|_
{
insert -> 
{{{
Q={q_gen_9866, q_gen_9867, q_gen_9868, q_gen_9870, q_gen_9871, q_gen_9879, q_gen_9881, q_gen_9892},
Q_f={q_gen_9866},
Delta=
{
<nil>() -> q_gen_9867
<b>() -> q_gen_9868
<a>() -> q_gen_9879
<cons, cons>(q_gen_9871, q_gen_9870) -> q_gen_9870
<nil, cons>(q_gen_9868, q_gen_9867) -> q_gen_9870
<nil, cons>(q_gen_9879, q_gen_9867) -> q_gen_9870
<a, a>() -> q_gen_9871
<a, b>() -> q_gen_9871
<b, b>() -> q_gen_9871
<b, a>() -> q_gen_9881
<a, cons, cons>(q_gen_9881, q_gen_9870) -> q_gen_9866
<a, nil, cons>(q_gen_9879, q_gen_9867) -> q_gen_9866
<b, cons, cons>(q_gen_9871, q_gen_9870) -> q_gen_9866
<b, nil, cons>(q_gen_9868, q_gen_9867) -> q_gen_9866
<b, nil, cons>(q_gen_9879, q_gen_9867) -> q_gen_9866
<a, cons, cons>(q_gen_9871, q_gen_9870) -> q_gen_9892
<a, nil, cons>(q_gen_9868, q_gen_9867) -> q_gen_9892
}

Datatype: <elt, eltlist, eltlist>
Convolution form: left
}}}
  ;  leq -> 
{{{
Q={q_gen_9864, q_gen_9874},
Q_f={q_gen_9864},
Delta=
{
<a, a>() -> q_gen_9864
<a, b>() -> q_gen_9864
<b, b>() -> q_gen_9864
<b, a>() -> q_gen_9874
}

Datatype: <elt, elt>
Convolution form: left
}}}
  ;  sort -> 
{{{
Q={q_gen_9863, q_gen_9873, q_gen_9893, q_gen_9894},
Q_f={q_gen_9863},
Delta=
{
<cons, cons>(q_gen_9873, q_gen_9863) -> q_gen_9863
<nil, nil>() -> q_gen_9863
<b, a>() -> q_gen_9873
<b, b>() -> q_gen_9873
<cons, cons>(q_gen_9894, q_gen_9863) -> q_gen_9893
<a, b>() -> q_gen_9894
}

Datatype: <eltlist, eltlist>
Convolution form: left
}}}

}
--
Equality automata are defined for: {eq_elt, eq_eltlist}
_|

Teacher's answer:
New clause system:
{
() -> insert([x, nil, cons(x, nil)]) -> 11  ;  () -> leq([a, y]) -> 11  ;  () -> leq([b, b]) -> 11  ;  () -> sort([nil, nil]) -> 11  ;  (insert([x, z, _dna]) /\ not leq([x, y])) -> insert([x, cons(y, z), cons(y, _dna)]) -> 13  ;  (insert([y, _ina, _jna]) /\ sort([z, _ina])) -> sort([cons(y, z), _jna]) -> 16  ;  (leq([x, y])) -> insert([x, cons(y, z), cons(x, cons(y, z))]) -> 15  ;  (leq([b, a])) -> BOT -> 12  ;  (sort([l, _ona]) /\ sort([cons(a, l), _nna])) -> eq_eltlist([_nna, cons(a, _ona)]) -> 14
}
Sat witness: Yes: ((leq([x, y])) -> insert([x, cons(y, z), cons(x, cons(y, z))]), {
x -> a  ;  y -> a  ;  z -> nil
})

-------------------------------------------
Step 21, which took 0.009796 s (model generation: 0.007750,  model checking: 0.002046):

Model:
|_
{
insert -> 
{{{
Q={q_gen_9866, q_gen_9867, q_gen_9868, q_gen_9870, q_gen_9871, q_gen_9876, q_gen_9879, q_gen_9892},
Q_f={q_gen_9866},
Delta=
{
<nil>() -> q_gen_9867
<b>() -> q_gen_9868
<a>() -> q_gen_9879
<cons, cons>(q_gen_9871, q_gen_9870) -> q_gen_9870
<cons, cons>(q_gen_9876, q_gen_9870) -> q_gen_9870
<nil, cons>(q_gen_9868, q_gen_9867) -> q_gen_9870
<nil, cons>(q_gen_9879, q_gen_9867) -> q_gen_9870
<a, b>() -> q_gen_9871
<b, b>() -> q_gen_9871
<a, a>() -> q_gen_9876
<b, a>() -> q_gen_9876
<a, cons, cons>(q_gen_9876, q_gen_9870) -> q_gen_9866
<a, nil, cons>(q_gen_9879, q_gen_9867) -> q_gen_9866
<b, cons, cons>(q_gen_9871, q_gen_9870) -> q_gen_9866
<b, cons, cons>(q_gen_9876, q_gen_9870) -> q_gen_9866
<b, nil, cons>(q_gen_9868, q_gen_9867) -> q_gen_9866
<b, nil, cons>(q_gen_9879, q_gen_9867) -> q_gen_9866
<a, cons, cons>(q_gen_9871, q_gen_9870) -> q_gen_9892
<a, nil, cons>(q_gen_9868, q_gen_9867) -> q_gen_9892
}

Datatype: <elt, eltlist, eltlist>
Convolution form: left
}}}
  ;  leq -> 
{{{
Q={q_gen_9864, q_gen_9874},
Q_f={q_gen_9864},
Delta=
{
<a, a>() -> q_gen_9864
<a, b>() -> q_gen_9864
<b, b>() -> q_gen_9864
<b, a>() -> q_gen_9874
}

Datatype: <elt, elt>
Convolution form: left
}}}
  ;  sort -> 
{{{
Q={q_gen_9863, q_gen_9873, q_gen_9893, q_gen_9894},
Q_f={q_gen_9863},
Delta=
{
<cons, cons>(q_gen_9873, q_gen_9863) -> q_gen_9863
<nil, nil>() -> q_gen_9863
<b, a>() -> q_gen_9873
<b, b>() -> q_gen_9873
<cons, cons>(q_gen_9894, q_gen_9863) -> q_gen_9893
<a, b>() -> q_gen_9894
}

Datatype: <eltlist, eltlist>
Convolution form: left
}}}

}
--
Equality automata are defined for: {eq_elt, eq_eltlist}
_|

Teacher's answer:
New clause system:
{
() -> insert([x, nil, cons(x, nil)]) -> 12  ;  () -> leq([a, y]) -> 12  ;  () -> leq([b, b]) -> 12  ;  () -> sort([nil, nil]) -> 12  ;  (insert([x, z, _dna]) /\ not leq([x, y])) -> insert([x, cons(y, z), cons(y, _dna)]) -> 14  ;  (insert([y, _ina, _jna]) /\ sort([z, _ina])) -> sort([cons(y, z), _jna]) -> 19  ;  (leq([x, y])) -> insert([x, cons(y, z), cons(x, cons(y, z))]) -> 16  ;  (leq([b, a])) -> BOT -> 13  ;  (sort([l, _ona]) /\ sort([cons(a, l), _nna])) -> eq_eltlist([_nna, cons(a, _ona)]) -> 15
}
Sat witness: Yes: ((insert([y, _ina, _jna]) /\ sort([z, _ina])) -> sort([cons(y, z), _jna]), {
_ina -> nil  ;  _jna -> cons(a, nil)  ;  y -> a  ;  z -> nil
})

-------------------------------------------
Step 22, which took 0.009058 s (model generation: 0.007706,  model checking: 0.001352):

Model:
|_
{
insert -> 
{{{
Q={q_gen_9866, q_gen_9867, q_gen_9868, q_gen_9870, q_gen_9871, q_gen_9876, q_gen_9879, q_gen_9892},
Q_f={q_gen_9866},
Delta=
{
<nil>() -> q_gen_9867
<b>() -> q_gen_9868
<a>() -> q_gen_9879
<cons, cons>(q_gen_9871, q_gen_9870) -> q_gen_9870
<cons, cons>(q_gen_9876, q_gen_9870) -> q_gen_9870
<nil, cons>(q_gen_9868, q_gen_9867) -> q_gen_9870
<nil, cons>(q_gen_9879, q_gen_9867) -> q_gen_9870
<a, b>() -> q_gen_9871
<b, b>() -> q_gen_9871
<a, a>() -> q_gen_9876
<b, a>() -> q_gen_9876
<a, cons, cons>(q_gen_9876, q_gen_9870) -> q_gen_9866
<a, nil, cons>(q_gen_9879, q_gen_9867) -> q_gen_9866
<b, cons, cons>(q_gen_9871, q_gen_9870) -> q_gen_9866
<b, cons, cons>(q_gen_9876, q_gen_9870) -> q_gen_9866
<b, nil, cons>(q_gen_9868, q_gen_9867) -> q_gen_9866
<b, nil, cons>(q_gen_9879, q_gen_9867) -> q_gen_9866
<a, cons, cons>(q_gen_9871, q_gen_9870) -> q_gen_9892
<a, nil, cons>(q_gen_9868, q_gen_9867) -> q_gen_9892
}

Datatype: <elt, eltlist, eltlist>
Convolution form: left
}}}
  ;  leq -> 
{{{
Q={q_gen_9864, q_gen_9874},
Q_f={q_gen_9864},
Delta=
{
<a, a>() -> q_gen_9864
<a, b>() -> q_gen_9864
<b, b>() -> q_gen_9864
<b, a>() -> q_gen_9874
}

Datatype: <elt, elt>
Convolution form: left
}}}
  ;  sort -> 
{{{
Q={q_gen_9863, q_gen_9873, q_gen_9893, q_gen_9894},
Q_f={q_gen_9863},
Delta=
{
<cons, cons>(q_gen_9873, q_gen_9863) -> q_gen_9863
<nil, nil>() -> q_gen_9863
<a, a>() -> q_gen_9873
<b, a>() -> q_gen_9873
<b, b>() -> q_gen_9873
<cons, cons>(q_gen_9894, q_gen_9863) -> q_gen_9893
<a, b>() -> q_gen_9894
}

Datatype: <eltlist, eltlist>
Convolution form: left
}}}

}
--
Equality automata are defined for: {eq_elt, eq_eltlist}
_|

Teacher's answer:
New clause system:
{
() -> insert([x, nil, cons(x, nil)]) -> 13  ;  () -> leq([a, y]) -> 13  ;  () -> leq([b, b]) -> 13  ;  () -> sort([nil, nil]) -> 13  ;  (insert([x, z, _dna]) /\ not leq([x, y])) -> insert([x, cons(y, z), cons(y, _dna)]) -> 15  ;  (insert([y, _ina, _jna]) /\ sort([z, _ina])) -> sort([cons(y, z), _jna]) -> 19  ;  (leq([x, y])) -> insert([x, cons(y, z), cons(x, cons(y, z))]) -> 16  ;  (leq([b, a])) -> BOT -> 14  ;  (sort([l, _ona]) /\ sort([cons(a, l), _nna])) -> eq_eltlist([_nna, cons(a, _ona)]) -> 18
}
Sat witness: Yes: ((sort([l, _ona]) /\ sort([cons(a, l), _nna])) -> eq_eltlist([_nna, cons(a, _ona)]), {
_nna -> cons(a, cons(b, nil))  ;  _ona -> cons(a, nil)  ;  l -> cons(b, nil)
})

-------------------------------------------
Step 23, which took 0.011519 s (model generation: 0.009419,  model checking: 0.002100):

Model:
|_
{
insert -> 
{{{
Q={q_gen_9866, q_gen_9867, q_gen_9868, q_gen_9870, q_gen_9871, q_gen_9876, q_gen_9879, q_gen_9882},
Q_f={q_gen_9866},
Delta=
{
<nil>() -> q_gen_9867
<b>() -> q_gen_9868
<a>() -> q_gen_9879
<cons, cons>(q_gen_9871, q_gen_9870) -> q_gen_9870
<cons, cons>(q_gen_9876, q_gen_9870) -> q_gen_9870
<nil, cons>(q_gen_9868, q_gen_9867) -> q_gen_9870
<nil, cons>(q_gen_9879, q_gen_9867) -> q_gen_9870
<a, b>() -> q_gen_9871
<b, b>() -> q_gen_9871
<a, a>() -> q_gen_9876
<b, a>() -> q_gen_9876
<a, cons, cons>(q_gen_9876, q_gen_9870) -> q_gen_9866
<a, nil, cons>(q_gen_9879, q_gen_9867) -> q_gen_9866
<b, cons, cons>(q_gen_9871, q_gen_9870) -> q_gen_9866
<b, cons, cons>(q_gen_9876, q_gen_9870) -> q_gen_9866
<b, nil, cons>(q_gen_9868, q_gen_9867) -> q_gen_9866
<a, cons, cons>(q_gen_9871, q_gen_9870) -> q_gen_9882
<a, nil, cons>(q_gen_9868, q_gen_9867) -> q_gen_9882
<b, nil, cons>(q_gen_9879, q_gen_9867) -> q_gen_9882
}

Datatype: <elt, eltlist, eltlist>
Convolution form: left
}}}
  ;  leq -> 
{{{
Q={q_gen_9864, q_gen_9874},
Q_f={q_gen_9864},
Delta=
{
<a, a>() -> q_gen_9864
<a, b>() -> q_gen_9864
<b, b>() -> q_gen_9864
<b, a>() -> q_gen_9874
}

Datatype: <elt, elt>
Convolution form: left
}}}
  ;  sort -> 
{{{
Q={q_gen_9863, q_gen_9873, q_gen_9883, q_gen_9884},
Q_f={q_gen_9863},
Delta=
{
<cons, cons>(q_gen_9873, q_gen_9863) -> q_gen_9863
<nil, nil>() -> q_gen_9863
<a, a>() -> q_gen_9873
<b, b>() -> q_gen_9873
<cons, cons>(q_gen_9884, q_gen_9863) -> q_gen_9883
<a, b>() -> q_gen_9884
<b, a>() -> q_gen_9884
}

Datatype: <eltlist, eltlist>
Convolution form: left
}}}

}
--
Equality automata are defined for: {eq_elt, eq_eltlist}
_|

Teacher's answer:
New clause system:
{
() -> insert([x, nil, cons(x, nil)]) -> 14  ;  () -> leq([a, y]) -> 14  ;  () -> leq([b, b]) -> 14  ;  () -> sort([nil, nil]) -> 14  ;  (insert([x, z, _dna]) /\ not leq([x, y])) -> insert([x, cons(y, z), cons(y, _dna)]) -> 16  ;  (insert([y, _ina, _jna]) /\ sort([z, _ina])) -> sort([cons(y, z), _jna]) -> 22  ;  (leq([x, y])) -> insert([x, cons(y, z), cons(x, cons(y, z))]) -> 17  ;  (leq([b, a])) -> BOT -> 15  ;  (sort([l, _ona]) /\ sort([cons(a, l), _nna])) -> eq_eltlist([_nna, cons(a, _ona)]) -> 19
}
Sat witness: Yes: ((insert([y, _ina, _jna]) /\ sort([z, _ina])) -> sort([cons(y, z), _jna]), {
_ina -> cons(b, nil)  ;  _jna -> cons(a, cons(b, nil))  ;  y -> b  ;  z -> cons(b, nil)
})

-------------------------------------------
Step 24, which took 0.014624 s (model generation: 0.012005,  model checking: 0.002619):

Model:
|_
{
insert -> 
{{{
Q={q_gen_9866, q_gen_9867, q_gen_9868, q_gen_9870, q_gen_9871, q_gen_9879, q_gen_9882},
Q_f={q_gen_9866},
Delta=
{
<nil>() -> q_gen_9867
<b>() -> q_gen_9868
<a>() -> q_gen_9879
<cons, cons>(q_gen_9871, q_gen_9870) -> q_gen_9870
<nil, cons>(q_gen_9868, q_gen_9867) -> q_gen_9870
<nil, cons>(q_gen_9879, q_gen_9867) -> q_gen_9870
<a, a>() -> q_gen_9871
<a, b>() -> q_gen_9871
<b, a>() -> q_gen_9871
<b, b>() -> q_gen_9871
<a, cons, cons>(q_gen_9871, q_gen_9870) -> q_gen_9866
<a, nil, cons>(q_gen_9879, q_gen_9867) -> q_gen_9866
<b, cons, cons>(q_gen_9871, q_gen_9870) -> q_gen_9866
<b, nil, cons>(q_gen_9868, q_gen_9867) -> q_gen_9866
<a, nil, cons>(q_gen_9868, q_gen_9867) -> q_gen_9882
<b, nil, cons>(q_gen_9879, q_gen_9867) -> q_gen_9882
}

Datatype: <elt, eltlist, eltlist>
Convolution form: left
}}}
  ;  leq -> 
{{{
Q={q_gen_9864, q_gen_9874},
Q_f={q_gen_9864},
Delta=
{
<a, a>() -> q_gen_9864
<a, b>() -> q_gen_9864
<b, b>() -> q_gen_9864
<b, a>() -> q_gen_9874
}

Datatype: <elt, elt>
Convolution form: left
}}}
  ;  sort -> 
{{{
Q={q_gen_9863, q_gen_9872, q_gen_9873, q_gen_9883, q_gen_9884},
Q_f={q_gen_9863, q_gen_9872},
Delta=
{
<nil, nil>() -> q_gen_9863
<cons, cons>(q_gen_9873, q_gen_9863) -> q_gen_9872
<cons, cons>(q_gen_9873, q_gen_9872) -> q_gen_9872
<cons, cons>(q_gen_9884, q_gen_9872) -> q_gen_9872
<a, a>() -> q_gen_9873
<b, b>() -> q_gen_9873
<cons, cons>(q_gen_9884, q_gen_9863) -> q_gen_9883
<a, b>() -> q_gen_9884
<b, a>() -> q_gen_9884
}

Datatype: <eltlist, eltlist>
Convolution form: left
}}}

}
--
Equality automata are defined for: {eq_elt, eq_eltlist}
_|

Teacher's answer:
New clause system:
{
() -> insert([x, nil, cons(x, nil)]) -> 15  ;  () -> leq([a, y]) -> 15  ;  () -> leq([b, b]) -> 15  ;  () -> sort([nil, nil]) -> 15  ;  (insert([x, z, _dna]) /\ not leq([x, y])) -> insert([x, cons(y, z), cons(y, _dna)]) -> 17  ;  (insert([y, _ina, _jna]) /\ sort([z, _ina])) -> sort([cons(y, z), _jna]) -> 22  ;  (leq([x, y])) -> insert([x, cons(y, z), cons(x, cons(y, z))]) -> 18  ;  (leq([b, a])) -> BOT -> 16  ;  (sort([l, _ona]) /\ sort([cons(a, l), _nna])) -> eq_eltlist([_nna, cons(a, _ona)]) -> 22
}
Sat witness: Yes: ((sort([l, _ona]) /\ sort([cons(a, l), _nna])) -> eq_eltlist([_nna, cons(a, _ona)]), {
_nna -> cons(b, cons(a, nil))  ;  _ona -> cons(a, nil)  ;  l -> cons(a, nil)
})

-------------------------------------------
Step 25, which took 0.022225 s (model generation: 0.018819,  model checking: 0.003406):

Model:
|_
{
insert -> 
{{{
Q={q_gen_9866, q_gen_9867, q_gen_9868, q_gen_9870, q_gen_9871, q_gen_9879, q_gen_9881, q_gen_9882, q_gen_9886},
Q_f={q_gen_9866},
Delta=
{
<nil>() -> q_gen_9867
<b>() -> q_gen_9868
<a>() -> q_gen_9879
<cons, cons>(q_gen_9871, q_gen_9870) -> q_gen_9870
<cons, cons>(q_gen_9881, q_gen_9886) -> q_gen_9870
<nil, cons>(q_gen_9868, q_gen_9867) -> q_gen_9870
<a, a>() -> q_gen_9871
<b, b>() -> q_gen_9871
<a, b>() -> q_gen_9881
<b, a>() -> q_gen_9881
<cons, cons>(q_gen_9871, q_gen_9886) -> q_gen_9886
<nil, cons>(q_gen_9879, q_gen_9867) -> q_gen_9886
<a, cons, cons>(q_gen_9871, q_gen_9886) -> q_gen_9866
<a, cons, cons>(q_gen_9881, q_gen_9870) -> q_gen_9866
<a, nil, cons>(q_gen_9879, q_gen_9867) -> q_gen_9866
<b, cons, cons>(q_gen_9871, q_gen_9870) -> q_gen_9866
<b, nil, cons>(q_gen_9868, q_gen_9867) -> q_gen_9866
<a, cons, cons>(q_gen_9871, q_gen_9870) -> q_gen_9882
<a, nil, cons>(q_gen_9868, q_gen_9867) -> q_gen_9882
<b, cons, cons>(q_gen_9871, q_gen_9886) -> q_gen_9882
<b, cons, cons>(q_gen_9881, q_gen_9870) -> q_gen_9882
<b, nil, cons>(q_gen_9879, q_gen_9867) -> q_gen_9882
}

Datatype: <elt, eltlist, eltlist>
Convolution form: left
}}}
  ;  leq -> 
{{{
Q={q_gen_9864, q_gen_9874},
Q_f={q_gen_9864},
Delta=
{
<a, a>() -> q_gen_9864
<a, b>() -> q_gen_9864
<b, b>() -> q_gen_9864
<b, a>() -> q_gen_9874
}

Datatype: <elt, elt>
Convolution form: left
}}}
  ;  sort -> 
{{{
Q={q_gen_9863, q_gen_9873, q_gen_9883, q_gen_9884},
Q_f={q_gen_9863},
Delta=
{
<cons, cons>(q_gen_9873, q_gen_9863) -> q_gen_9863
<nil, nil>() -> q_gen_9863
<a, a>() -> q_gen_9873
<b, b>() -> q_gen_9873
<cons, cons>(q_gen_9884, q_gen_9863) -> q_gen_9883
<a, b>() -> q_gen_9884
<b, a>() -> q_gen_9884
}

Datatype: <eltlist, eltlist>
Convolution form: left
}}}

}
--
Equality automata are defined for: {eq_elt, eq_eltlist}
_|

Teacher's answer:
New clause system:
{
() -> insert([x, nil, cons(x, nil)]) -> 16  ;  () -> leq([a, y]) -> 16  ;  () -> leq([b, b]) -> 16  ;  () -> sort([nil, nil]) -> 16  ;  (insert([x, z, _dna]) /\ not leq([x, y])) -> insert([x, cons(y, z), cons(y, _dna)]) -> 18  ;  (insert([y, _ina, _jna]) /\ sort([z, _ina])) -> sort([cons(y, z), _jna]) -> 22  ;  (leq([x, y])) -> insert([x, cons(y, z), cons(x, cons(y, z))]) -> 21  ;  (leq([b, a])) -> BOT -> 17  ;  (sort([l, _ona]) /\ sort([cons(a, l), _nna])) -> eq_eltlist([_nna, cons(a, _ona)]) -> 22
}
Sat witness: Yes: ((leq([x, y])) -> insert([x, cons(y, z), cons(x, cons(y, z))]), {
x -> a  ;  y -> a  ;  z -> cons(b, nil)
})

-------------------------------------------
Step 26, which took 0.020566 s (model generation: 0.011787,  model checking: 0.008779):

Model:
|_
{
insert -> 
{{{
Q={q_gen_9866, q_gen_9867, q_gen_9868, q_gen_9870, q_gen_9871, q_gen_9879, q_gen_9881, q_gen_9882, q_gen_9886},
Q_f={q_gen_9866},
Delta=
{
<nil>() -> q_gen_9867
<b>() -> q_gen_9868
<a>() -> q_gen_9879
<cons, cons>(q_gen_9871, q_gen_9870) -> q_gen_9870
<cons, cons>(q_gen_9881, q_gen_9886) -> q_gen_9870
<nil, cons>(q_gen_9868, q_gen_9867) -> q_gen_9870
<a, a>() -> q_gen_9871
<b, b>() -> q_gen_9871
<a, b>() -> q_gen_9881
<b, a>() -> q_gen_9881
<cons, cons>(q_gen_9871, q_gen_9886) -> q_gen_9886
<cons, cons>(q_gen_9881, q_gen_9870) -> q_gen_9886
<nil, cons>(q_gen_9879, q_gen_9867) -> q_gen_9886
<a, cons, cons>(q_gen_9871, q_gen_9886) -> q_gen_9866
<a, cons, cons>(q_gen_9881, q_gen_9870) -> q_gen_9866
<a, nil, cons>(q_gen_9879, q_gen_9867) -> q_gen_9866
<b, cons, cons>(q_gen_9871, q_gen_9870) -> q_gen_9866
<b, nil, cons>(q_gen_9868, q_gen_9867) -> q_gen_9866
<a, cons, cons>(q_gen_9871, q_gen_9870) -> q_gen_9882
<a, nil, cons>(q_gen_9868, q_gen_9867) -> q_gen_9882
<b, cons, cons>(q_gen_9871, q_gen_9886) -> q_gen_9882
<b, cons, cons>(q_gen_9881, q_gen_9870) -> q_gen_9882
<b, nil, cons>(q_gen_9879, q_gen_9867) -> q_gen_9882
}

Datatype: <elt, eltlist, eltlist>
Convolution form: left
}}}
  ;  leq -> 
{{{
Q={q_gen_9864, q_gen_9874},
Q_f={q_gen_9864},
Delta=
{
<a, a>() -> q_gen_9864
<a, b>() -> q_gen_9864
<b, b>() -> q_gen_9864
<b, a>() -> q_gen_9874
}

Datatype: <elt, elt>
Convolution form: left
}}}
  ;  sort -> 
{{{
Q={q_gen_9863, q_gen_9873, q_gen_9883, q_gen_9884},
Q_f={q_gen_9863},
Delta=
{
<cons, cons>(q_gen_9873, q_gen_9863) -> q_gen_9863
<nil, nil>() -> q_gen_9863
<a, a>() -> q_gen_9873
<b, b>() -> q_gen_9873
<cons, cons>(q_gen_9884, q_gen_9863) -> q_gen_9883
<a, b>() -> q_gen_9884
<b, a>() -> q_gen_9884
}

Datatype: <eltlist, eltlist>
Convolution form: left
}}}

}
--
Equality automata are defined for: {eq_elt, eq_eltlist}
_|

Teacher's answer:
New clause system:
{
() -> insert([x, nil, cons(x, nil)]) -> 17  ;  () -> leq([a, y]) -> 17  ;  () -> leq([b, b]) -> 17  ;  () -> sort([nil, nil]) -> 17  ;  (insert([x, z, _dna]) /\ not leq([x, y])) -> insert([x, cons(y, z), cons(y, _dna)]) -> 19  ;  (insert([y, _ina, _jna]) /\ sort([z, _ina])) -> sort([cons(y, z), _jna]) -> 25  ;  (leq([x, y])) -> insert([x, cons(y, z), cons(x, cons(y, z))]) -> 22  ;  (leq([b, a])) -> BOT -> 18  ;  (sort([l, _ona]) /\ sort([cons(a, l), _nna])) -> eq_eltlist([_nna, cons(a, _ona)]) -> 23
}
Sat witness: Yes: ((insert([y, _ina, _jna]) /\ sort([z, _ina])) -> sort([cons(y, z), _jna]), {
_ina -> cons(a, cons(b, nil))  ;  _jna -> cons(a, cons(b, cons(a, nil)))  ;  y -> a  ;  z -> cons(a, cons(b, nil))
})

-------------------------------------------
Step 27, which took 0.024879 s (model generation: 0.018098,  model checking: 0.006781):

Model:
|_
{
insert -> 
{{{
Q={q_gen_9866, q_gen_9867, q_gen_9868, q_gen_9870, q_gen_9871, q_gen_9879, q_gen_9881, q_gen_9882, q_gen_9886},
Q_f={q_gen_9866},
Delta=
{
<nil>() -> q_gen_9867
<b>() -> q_gen_9868
<a>() -> q_gen_9879
<cons, cons>(q_gen_9871, q_gen_9870) -> q_gen_9870
<cons, cons>(q_gen_9881, q_gen_9886) -> q_gen_9870
<nil, cons>(q_gen_9868, q_gen_9867) -> q_gen_9870
<a, a>() -> q_gen_9871
<b, b>() -> q_gen_9871
<a, b>() -> q_gen_9881
<b, a>() -> q_gen_9881
<cons, cons>(q_gen_9871, q_gen_9886) -> q_gen_9886
<cons, cons>(q_gen_9881, q_gen_9870) -> q_gen_9886
<nil, cons>(q_gen_9879, q_gen_9867) -> q_gen_9886
<a, cons, cons>(q_gen_9871, q_gen_9886) -> q_gen_9866
<a, cons, cons>(q_gen_9881, q_gen_9870) -> q_gen_9866
<a, nil, cons>(q_gen_9879, q_gen_9867) -> q_gen_9866
<b, cons, cons>(q_gen_9871, q_gen_9870) -> q_gen_9866
<b, nil, cons>(q_gen_9868, q_gen_9867) -> q_gen_9866
<a, cons, cons>(q_gen_9871, q_gen_9870) -> q_gen_9882
<a, nil, cons>(q_gen_9868, q_gen_9867) -> q_gen_9882
<b, cons, cons>(q_gen_9871, q_gen_9886) -> q_gen_9882
<b, cons, cons>(q_gen_9881, q_gen_9870) -> q_gen_9882
<b, nil, cons>(q_gen_9879, q_gen_9867) -> q_gen_9882
}

Datatype: <elt, eltlist, eltlist>
Convolution form: left
}}}
  ;  leq -> 
{{{
Q={q_gen_9864, q_gen_9874},
Q_f={q_gen_9864},
Delta=
{
<a, a>() -> q_gen_9864
<a, b>() -> q_gen_9864
<b, b>() -> q_gen_9864
<b, a>() -> q_gen_9874
}

Datatype: <elt, elt>
Convolution form: left
}}}
  ;  sort -> 
{{{
Q={q_gen_9863, q_gen_9873, q_gen_9883, q_gen_9884},
Q_f={q_gen_9863},
Delta=
{
<cons, cons>(q_gen_9873, q_gen_9863) -> q_gen_9863
<cons, cons>(q_gen_9873, q_gen_9883) -> q_gen_9863
<nil, nil>() -> q_gen_9863
<a, a>() -> q_gen_9873
<b, b>() -> q_gen_9873
<cons, cons>(q_gen_9884, q_gen_9863) -> q_gen_9883
<cons, cons>(q_gen_9884, q_gen_9883) -> q_gen_9883
<a, b>() -> q_gen_9884
<b, a>() -> q_gen_9884
}

Datatype: <eltlist, eltlist>
Convolution form: left
}}}

}
--
Equality automata are defined for: {eq_elt, eq_eltlist}
_|

Teacher's answer:
New clause system:
{
() -> insert([x, nil, cons(x, nil)]) -> 18  ;  () -> leq([a, y]) -> 18  ;  () -> leq([b, b]) -> 18  ;  () -> sort([nil, nil]) -> 18  ;  (insert([x, z, _dna]) /\ not leq([x, y])) -> insert([x, cons(y, z), cons(y, _dna)]) -> 20  ;  (insert([y, _ina, _jna]) /\ sort([z, _ina])) -> sort([cons(y, z), _jna]) -> 25  ;  (leq([x, y])) -> insert([x, cons(y, z), cons(x, cons(y, z))]) -> 23  ;  (leq([b, a])) -> BOT -> 19  ;  (sort([l, _ona]) /\ sort([cons(a, l), _nna])) -> eq_eltlist([_nna, cons(a, _ona)]) -> 26
}
Sat witness: Yes: ((sort([l, _ona]) /\ sort([cons(a, l), _nna])) -> eq_eltlist([_nna, cons(a, _ona)]), {
_nna -> cons(a, cons(b, nil))  ;  _ona -> cons(a, nil)  ;  l -> cons(a, nil)
})

Total time: 40.000113
Reason for stopping: DontKnow. Stopped because: timeout

