Solving ../../../../benchmarks/smtlib/true/length_append_le_z.smt2...

Inference procedure has parameters:
Ice fuel: 200
Timeout: 40s
Convolution: left


Learning problem is:

env: {
elt -> {a, b}  ;  eltlist -> {cons, nil}  ;  nat -> {s, z}
}
definition:
{
(le, P:
{() -> le([z, s(nn2)])
(le([nn1, nn2])) -> le([s(nn1), s(nn2)])
(le([s(nn1), s(nn2)])) -> le([nn1, nn2])
(le([s(nn1), z])) -> BOT
(le([z, z])) -> BOT}
)
(length, F:
{() -> length([nil, z])
(length([ll, _yba])) -> length([cons(x, ll), s(_yba)])}
(length([_zba, _aca]) /\ length([_zba, _bca])) -> eq_nat([_aca, _bca])
)
(append, F:
{() -> append([nil, l2, l2])
(append([t1, l2, _cca])) -> append([cons(h1, t1), l2, cons(h1, _cca)])}
(append([_dca, _eca, _fca]) /\ append([_dca, _eca, _gca])) -> eq_eltlist([_fca, _gca])
)
}

properties:
{(append([l1, l2, _ica]) /\ le([z, _hca]) /\ length([_ica, _jca]) /\ length([l1, _hca])) -> le([z, _jca])}


over-approximation: {append, length}
under-approximation: {}

Clause system for inference is:

{
() -> append([nil, l2, l2]) -> 0  ;  () -> le([z, s(nn2)]) -> 0  ;  () -> length([nil, z]) -> 0  ;  (append([l1, l2, _ica]) /\ le([z, _hca]) /\ length([_ica, _jca]) /\ length([l1, _hca])) -> le([z, _jca]) -> 0  ;  (append([t1, l2, _cca])) -> append([cons(h1, t1), l2, cons(h1, _cca)]) -> 0  ;  (le([nn1, nn2])) -> le([s(nn1), s(nn2)]) -> 0  ;  (le([s(nn1), s(nn2)])) -> le([nn1, nn2]) -> 0  ;  (le([s(nn1), z])) -> BOT -> 0  ;  (le([z, z])) -> BOT -> 0  ;  (length([ll, _yba])) -> length([cons(x, ll), s(_yba)]) -> 0
}


Solving took 0.186403 seconds.
Proved
Model:
|_
{
append -> 
{{{
Q={q_gen_5224, q_gen_5230, q_gen_5231, q_gen_5249, q_gen_5250, q_gen_5251},
Q_f={q_gen_5224},
Delta=
{
<cons>(q_gen_5250, q_gen_5249) -> q_gen_5249
<nil>() -> q_gen_5249
<a>() -> q_gen_5250
<b>() -> q_gen_5250
<cons, cons>(q_gen_5231, q_gen_5230) -> q_gen_5230
<nil, cons>(q_gen_5250, q_gen_5249) -> q_gen_5230
<nil, nil>() -> q_gen_5230
<a, a>() -> q_gen_5231
<a, b>() -> q_gen_5231
<b, a>() -> q_gen_5231
<b, b>() -> q_gen_5231
<cons, cons, cons>(q_gen_5251, q_gen_5224) -> q_gen_5224
<cons, nil, cons>(q_gen_5231, q_gen_5230) -> q_gen_5224
<nil, cons, cons>(q_gen_5231, q_gen_5230) -> q_gen_5224
<nil, nil, cons>(q_gen_5250, q_gen_5249) -> q_gen_5224
<nil, nil, nil>() -> q_gen_5224
<a, a, a>() -> q_gen_5251
<a, b, a>() -> q_gen_5251
<b, a, b>() -> q_gen_5251
<b, b, b>() -> q_gen_5251
}

Datatype: <eltlist, eltlist, eltlist>
Convolution form: left
}}}
  ;  le -> 
{{{
Q={q_gen_5222, q_gen_5223},
Q_f={q_gen_5222},
Delta=
{
<s>(q_gen_5223) -> q_gen_5223
<z>() -> q_gen_5223
<s, s>(q_gen_5222) -> q_gen_5222
<z, s>(q_gen_5223) -> q_gen_5222
}

Datatype: <nat, nat>
Convolution form: left
}}}
  ;  length -> 
{{{
Q={q_gen_5221, q_gen_5226, q_gen_5227, q_gen_5243, q_gen_5245},
Q_f={q_gen_5221},
Delta=
{
<cons>(q_gen_5243, q_gen_5226) -> q_gen_5226
<nil>() -> q_gen_5226
<a>() -> q_gen_5243
<b>() -> q_gen_5243
<s>(q_gen_5245) -> q_gen_5245
<z>() -> q_gen_5245
<cons, s>(q_gen_5227, q_gen_5226) -> q_gen_5221
<nil, z>() -> q_gen_5221
<a, s>(q_gen_5245) -> q_gen_5227
<a, z>() -> q_gen_5227
<b, s>(q_gen_5245) -> q_gen_5227
<b, z>() -> q_gen_5227
}

Datatype: <eltlist, nat>
Convolution form: left
}}}

}
--
Equality automata are defined for: {eq_elt, eq_eltlist, eq_nat}
_|

-------------------
STEPS:
-------------------------------------------
Step 0, which took 0.004465 s (model generation: 0.004294,  model checking: 0.000171):

Model:
|_
{
append -> 
{{{
Q={},
Q_f={},
Delta=
{

}

Datatype: <eltlist, eltlist, eltlist>
Convolution form: left
}}}
  ;  le -> 
{{{
Q={},
Q_f={},
Delta=
{

}

Datatype: <nat, nat>
Convolution form: left
}}}
  ;  length -> 
{{{
Q={},
Q_f={},
Delta=
{

}

Datatype: <eltlist, nat>
Convolution form: left
}}}

}
--
Equality automata are defined for: {eq_elt, eq_eltlist, eq_nat}
_|

Teacher's answer:
New clause system:
{
() -> append([nil, l2, l2]) -> 0  ;  () -> le([z, s(nn2)]) -> 0  ;  () -> length([nil, z]) -> 3  ;  (append([l1, l2, _ica]) /\ le([z, _hca]) /\ length([_ica, _jca]) /\ length([l1, _hca])) -> le([z, _jca]) -> 1  ;  (append([t1, l2, _cca])) -> append([cons(h1, t1), l2, cons(h1, _cca)]) -> 1  ;  (le([nn1, nn2])) -> le([s(nn1), s(nn2)]) -> 1  ;  (le([s(nn1), s(nn2)])) -> le([nn1, nn2]) -> 1  ;  (le([s(nn1), z])) -> BOT -> 1  ;  (le([z, z])) -> BOT -> 1  ;  (length([ll, _yba])) -> length([cons(x, ll), s(_yba)]) -> 1
}
Sat witness: Yes: (() -> length([nil, z]), {

})

-------------------------------------------
Step 1, which took 0.003159 s (model generation: 0.003120,  model checking: 0.000039):

Model:
|_
{
append -> 
{{{
Q={},
Q_f={},
Delta=
{

}

Datatype: <eltlist, eltlist, eltlist>
Convolution form: left
}}}
  ;  le -> 
{{{
Q={},
Q_f={},
Delta=
{

}

Datatype: <nat, nat>
Convolution form: left
}}}
  ;  length -> 
{{{
Q={q_gen_5221},
Q_f={q_gen_5221},
Delta=
{
<nil, z>() -> q_gen_5221
}

Datatype: <eltlist, nat>
Convolution form: left
}}}

}
--
Equality automata are defined for: {eq_elt, eq_eltlist, eq_nat}
_|

Teacher's answer:
New clause system:
{
() -> append([nil, l2, l2]) -> 0  ;  () -> le([z, s(nn2)]) -> 3  ;  () -> length([nil, z]) -> 3  ;  (append([l1, l2, _ica]) /\ le([z, _hca]) /\ length([_ica, _jca]) /\ length([l1, _hca])) -> le([z, _jca]) -> 1  ;  (append([t1, l2, _cca])) -> append([cons(h1, t1), l2, cons(h1, _cca)]) -> 1  ;  (le([nn1, nn2])) -> le([s(nn1), s(nn2)]) -> 1  ;  (le([s(nn1), s(nn2)])) -> le([nn1, nn2]) -> 1  ;  (le([s(nn1), z])) -> BOT -> 1  ;  (le([z, z])) -> BOT -> 1  ;  (length([ll, _yba])) -> length([cons(x, ll), s(_yba)]) -> 1
}
Sat witness: Yes: (() -> le([z, s(nn2)]), {
nn2 -> z
})

-------------------------------------------
Step 2, which took 0.003319 s (model generation: 0.003224,  model checking: 0.000095):

Model:
|_
{
append -> 
{{{
Q={},
Q_f={},
Delta=
{

}

Datatype: <eltlist, eltlist, eltlist>
Convolution form: left
}}}
  ;  le -> 
{{{
Q={q_gen_5222, q_gen_5223},
Q_f={q_gen_5222},
Delta=
{
<z>() -> q_gen_5223
<z, s>(q_gen_5223) -> q_gen_5222
}

Datatype: <nat, nat>
Convolution form: left
}}}
  ;  length -> 
{{{
Q={q_gen_5221},
Q_f={q_gen_5221},
Delta=
{
<nil, z>() -> q_gen_5221
}

Datatype: <eltlist, nat>
Convolution form: left
}}}

}
--
Equality automata are defined for: {eq_elt, eq_eltlist, eq_nat}
_|

Teacher's answer:
New clause system:
{
() -> append([nil, l2, l2]) -> 3  ;  () -> le([z, s(nn2)]) -> 3  ;  () -> length([nil, z]) -> 3  ;  (append([l1, l2, _ica]) /\ le([z, _hca]) /\ length([_ica, _jca]) /\ length([l1, _hca])) -> le([z, _jca]) -> 1  ;  (append([t1, l2, _cca])) -> append([cons(h1, t1), l2, cons(h1, _cca)]) -> 1  ;  (le([nn1, nn2])) -> le([s(nn1), s(nn2)]) -> 1  ;  (le([s(nn1), s(nn2)])) -> le([nn1, nn2]) -> 1  ;  (le([s(nn1), z])) -> BOT -> 1  ;  (le([z, z])) -> BOT -> 1  ;  (length([ll, _yba])) -> length([cons(x, ll), s(_yba)]) -> 1
}
Sat witness: Yes: (() -> append([nil, l2, l2]), {
l2 -> nil
})

-------------------------------------------
Step 3, which took 0.003522 s (model generation: 0.003451,  model checking: 0.000071):

Model:
|_
{
append -> 
{{{
Q={q_gen_5224},
Q_f={q_gen_5224},
Delta=
{
<nil, nil, nil>() -> q_gen_5224
}

Datatype: <eltlist, eltlist, eltlist>
Convolution form: left
}}}
  ;  le -> 
{{{
Q={q_gen_5222, q_gen_5223},
Q_f={q_gen_5222},
Delta=
{
<z>() -> q_gen_5223
<z, s>(q_gen_5223) -> q_gen_5222
}

Datatype: <nat, nat>
Convolution form: left
}}}
  ;  length -> 
{{{
Q={q_gen_5221},
Q_f={q_gen_5221},
Delta=
{
<nil, z>() -> q_gen_5221
}

Datatype: <eltlist, nat>
Convolution form: left
}}}

}
--
Equality automata are defined for: {eq_elt, eq_eltlist, eq_nat}
_|

Teacher's answer:
New clause system:
{
() -> append([nil, l2, l2]) -> 3  ;  () -> le([z, s(nn2)]) -> 3  ;  () -> length([nil, z]) -> 3  ;  (append([l1, l2, _ica]) /\ le([z, _hca]) /\ length([_ica, _jca]) /\ length([l1, _hca])) -> le([z, _jca]) -> 1  ;  (append([t1, l2, _cca])) -> append([cons(h1, t1), l2, cons(h1, _cca)]) -> 1  ;  (le([nn1, nn2])) -> le([s(nn1), s(nn2)]) -> 1  ;  (le([s(nn1), s(nn2)])) -> le([nn1, nn2]) -> 1  ;  (le([s(nn1), z])) -> BOT -> 1  ;  (le([z, z])) -> BOT -> 1  ;  (length([ll, _yba])) -> length([cons(x, ll), s(_yba)]) -> 4
}
Sat witness: Yes: ((length([ll, _yba])) -> length([cons(x, ll), s(_yba)]), {
_yba -> z  ;  ll -> nil  ;  x -> b
})

-------------------------------------------
Step 4, which took 0.004763 s (model generation: 0.003169,  model checking: 0.001594):

Model:
|_
{
append -> 
{{{
Q={q_gen_5224},
Q_f={q_gen_5224},
Delta=
{
<nil, nil, nil>() -> q_gen_5224
}

Datatype: <eltlist, eltlist, eltlist>
Convolution form: left
}}}
  ;  le -> 
{{{
Q={q_gen_5222, q_gen_5223},
Q_f={q_gen_5222},
Delta=
{
<z>() -> q_gen_5223
<z, s>(q_gen_5223) -> q_gen_5222
}

Datatype: <nat, nat>
Convolution form: left
}}}
  ;  length -> 
{{{
Q={q_gen_5221, q_gen_5226, q_gen_5227},
Q_f={q_gen_5221},
Delta=
{
<nil>() -> q_gen_5226
<cons, s>(q_gen_5227, q_gen_5226) -> q_gen_5221
<nil, z>() -> q_gen_5221
<b, z>() -> q_gen_5227
}

Datatype: <eltlist, nat>
Convolution form: left
}}}

}
--
Equality automata are defined for: {eq_elt, eq_eltlist, eq_nat}
_|

Teacher's answer:
New clause system:
{
() -> append([nil, l2, l2]) -> 3  ;  () -> le([z, s(nn2)]) -> 3  ;  () -> length([nil, z]) -> 3  ;  (append([l1, l2, _ica]) /\ le([z, _hca]) /\ length([_ica, _jca]) /\ length([l1, _hca])) -> le([z, _jca]) -> 1  ;  (append([t1, l2, _cca])) -> append([cons(h1, t1), l2, cons(h1, _cca)]) -> 1  ;  (le([nn1, nn2])) -> le([s(nn1), s(nn2)]) -> 4  ;  (le([s(nn1), s(nn2)])) -> le([nn1, nn2]) -> 2  ;  (le([s(nn1), z])) -> BOT -> 2  ;  (le([z, z])) -> BOT -> 2  ;  (length([ll, _yba])) -> length([cons(x, ll), s(_yba)]) -> 4
}
Sat witness: Yes: ((le([nn1, nn2])) -> le([s(nn1), s(nn2)]), {
nn1 -> z  ;  nn2 -> s(z)
})

-------------------------------------------
Step 5, which took 0.003243 s (model generation: 0.003132,  model checking: 0.000111):

Model:
|_
{
append -> 
{{{
Q={q_gen_5224},
Q_f={q_gen_5224},
Delta=
{
<nil, nil, nil>() -> q_gen_5224
}

Datatype: <eltlist, eltlist, eltlist>
Convolution form: left
}}}
  ;  le -> 
{{{
Q={q_gen_5222, q_gen_5223},
Q_f={q_gen_5222},
Delta=
{
<z>() -> q_gen_5223
<s, s>(q_gen_5222) -> q_gen_5222
<z, s>(q_gen_5223) -> q_gen_5222
}

Datatype: <nat, nat>
Convolution form: left
}}}
  ;  length -> 
{{{
Q={q_gen_5221, q_gen_5226, q_gen_5227},
Q_f={q_gen_5221},
Delta=
{
<nil>() -> q_gen_5226
<cons, s>(q_gen_5227, q_gen_5226) -> q_gen_5221
<nil, z>() -> q_gen_5221
<b, z>() -> q_gen_5227
}

Datatype: <eltlist, nat>
Convolution form: left
}}}

}
--
Equality automata are defined for: {eq_elt, eq_eltlist, eq_nat}
_|

Teacher's answer:
New clause system:
{
() -> append([nil, l2, l2]) -> 3  ;  () -> le([z, s(nn2)]) -> 3  ;  () -> length([nil, z]) -> 3  ;  (append([l1, l2, _ica]) /\ le([z, _hca]) /\ length([_ica, _jca]) /\ length([l1, _hca])) -> le([z, _jca]) -> 1  ;  (append([t1, l2, _cca])) -> append([cons(h1, t1), l2, cons(h1, _cca)]) -> 4  ;  (le([nn1, nn2])) -> le([s(nn1), s(nn2)]) -> 4  ;  (le([s(nn1), s(nn2)])) -> le([nn1, nn2]) -> 2  ;  (le([s(nn1), z])) -> BOT -> 2  ;  (le([z, z])) -> BOT -> 2  ;  (length([ll, _yba])) -> length([cons(x, ll), s(_yba)]) -> 4
}
Sat witness: Yes: ((append([t1, l2, _cca])) -> append([cons(h1, t1), l2, cons(h1, _cca)]), {
_cca -> nil  ;  h1 -> b  ;  l2 -> nil  ;  t1 -> nil
})

-------------------------------------------
Step 6, which took 0.003904 s (model generation: 0.003648,  model checking: 0.000256):

Model:
|_
{
append -> 
{{{
Q={q_gen_5224, q_gen_5230, q_gen_5231},
Q_f={q_gen_5224},
Delta=
{
<nil, nil>() -> q_gen_5230
<b, b>() -> q_gen_5231
<cons, nil, cons>(q_gen_5231, q_gen_5230) -> q_gen_5224
<nil, nil, nil>() -> q_gen_5224
}

Datatype: <eltlist, eltlist, eltlist>
Convolution form: left
}}}
  ;  le -> 
{{{
Q={q_gen_5222, q_gen_5223},
Q_f={q_gen_5222},
Delta=
{
<z>() -> q_gen_5223
<s, s>(q_gen_5222) -> q_gen_5222
<z, s>(q_gen_5223) -> q_gen_5222
}

Datatype: <nat, nat>
Convolution form: left
}}}
  ;  length -> 
{{{
Q={q_gen_5221, q_gen_5226, q_gen_5227},
Q_f={q_gen_5221},
Delta=
{
<nil>() -> q_gen_5226
<cons, s>(q_gen_5227, q_gen_5226) -> q_gen_5221
<nil, z>() -> q_gen_5221
<b, z>() -> q_gen_5227
}

Datatype: <eltlist, nat>
Convolution form: left
}}}

}
--
Equality automata are defined for: {eq_elt, eq_eltlist, eq_nat}
_|

Teacher's answer:
New clause system:
{
() -> append([nil, l2, l2]) -> 3  ;  () -> le([z, s(nn2)]) -> 6  ;  () -> length([nil, z]) -> 4  ;  (append([l1, l2, _ica]) /\ le([z, _hca]) /\ length([_ica, _jca]) /\ length([l1, _hca])) -> le([z, _jca]) -> 2  ;  (append([t1, l2, _cca])) -> append([cons(h1, t1), l2, cons(h1, _cca)]) -> 4  ;  (le([nn1, nn2])) -> le([s(nn1), s(nn2)]) -> 4  ;  (le([s(nn1), s(nn2)])) -> le([nn1, nn2]) -> 3  ;  (le([s(nn1), z])) -> BOT -> 3  ;  (le([z, z])) -> BOT -> 3  ;  (length([ll, _yba])) -> length([cons(x, ll), s(_yba)]) -> 4
}
Sat witness: Yes: (() -> le([z, s(nn2)]), {
nn2 -> s(z)
})

-------------------------------------------
Step 7, which took 0.006613 s (model generation: 0.004701,  model checking: 0.001912):

Model:
|_
{
append -> 
{{{
Q={q_gen_5224, q_gen_5230, q_gen_5231},
Q_f={q_gen_5224},
Delta=
{
<nil, nil>() -> q_gen_5230
<b, b>() -> q_gen_5231
<cons, nil, cons>(q_gen_5231, q_gen_5230) -> q_gen_5224
<nil, nil, nil>() -> q_gen_5224
}

Datatype: <eltlist, eltlist, eltlist>
Convolution form: left
}}}
  ;  le -> 
{{{
Q={q_gen_5222, q_gen_5223},
Q_f={q_gen_5222},
Delta=
{
<s>(q_gen_5223) -> q_gen_5223
<z>() -> q_gen_5223
<s, s>(q_gen_5222) -> q_gen_5222
<z, s>(q_gen_5223) -> q_gen_5222
}

Datatype: <nat, nat>
Convolution form: left
}}}
  ;  length -> 
{{{
Q={q_gen_5221, q_gen_5226, q_gen_5227},
Q_f={q_gen_5221},
Delta=
{
<nil>() -> q_gen_5226
<cons, s>(q_gen_5227, q_gen_5226) -> q_gen_5221
<nil, z>() -> q_gen_5221
<b, z>() -> q_gen_5227
}

Datatype: <eltlist, nat>
Convolution form: left
}}}

}
--
Equality automata are defined for: {eq_elt, eq_eltlist, eq_nat}
_|

Teacher's answer:
New clause system:
{
() -> append([nil, l2, l2]) -> 6  ;  () -> le([z, s(nn2)]) -> 6  ;  () -> length([nil, z]) -> 4  ;  (append([l1, l2, _ica]) /\ le([z, _hca]) /\ length([_ica, _jca]) /\ length([l1, _hca])) -> le([z, _jca]) -> 3  ;  (append([t1, l2, _cca])) -> append([cons(h1, t1), l2, cons(h1, _cca)]) -> 4  ;  (le([nn1, nn2])) -> le([s(nn1), s(nn2)]) -> 4  ;  (le([s(nn1), s(nn2)])) -> le([nn1, nn2]) -> 4  ;  (le([s(nn1), z])) -> BOT -> 4  ;  (le([z, z])) -> BOT -> 4  ;  (length([ll, _yba])) -> length([cons(x, ll), s(_yba)]) -> 4
}
Sat witness: Yes: (() -> append([nil, l2, l2]), {
l2 -> cons(a, nil)
})

-------------------------------------------
Step 8, which took 0.004851 s (model generation: 0.004682,  model checking: 0.000169):

Model:
|_
{
append -> 
{{{
Q={q_gen_5224, q_gen_5230, q_gen_5231},
Q_f={q_gen_5224},
Delta=
{
<nil, nil>() -> q_gen_5230
<a, a>() -> q_gen_5231
<b, b>() -> q_gen_5231
<cons, nil, cons>(q_gen_5231, q_gen_5230) -> q_gen_5224
<nil, cons, cons>(q_gen_5231, q_gen_5230) -> q_gen_5224
<nil, nil, nil>() -> q_gen_5224
}

Datatype: <eltlist, eltlist, eltlist>
Convolution form: left
}}}
  ;  le -> 
{{{
Q={q_gen_5222, q_gen_5223},
Q_f={q_gen_5222},
Delta=
{
<s>(q_gen_5223) -> q_gen_5223
<z>() -> q_gen_5223
<s, s>(q_gen_5222) -> q_gen_5222
<z, s>(q_gen_5223) -> q_gen_5222
}

Datatype: <nat, nat>
Convolution form: left
}}}
  ;  length -> 
{{{
Q={q_gen_5221, q_gen_5226, q_gen_5227},
Q_f={q_gen_5221},
Delta=
{
<nil>() -> q_gen_5226
<cons, s>(q_gen_5227, q_gen_5226) -> q_gen_5221
<nil, z>() -> q_gen_5221
<b, z>() -> q_gen_5227
}

Datatype: <eltlist, nat>
Convolution form: left
}}}

}
--
Equality automata are defined for: {eq_elt, eq_eltlist, eq_nat}
_|

Teacher's answer:
New clause system:
{
() -> append([nil, l2, l2]) -> 6  ;  () -> le([z, s(nn2)]) -> 6  ;  () -> length([nil, z]) -> 4  ;  (append([l1, l2, _ica]) /\ le([z, _hca]) /\ length([_ica, _jca]) /\ length([l1, _hca])) -> le([z, _jca]) -> 4  ;  (append([t1, l2, _cca])) -> append([cons(h1, t1), l2, cons(h1, _cca)]) -> 4  ;  (le([nn1, nn2])) -> le([s(nn1), s(nn2)]) -> 4  ;  (le([s(nn1), s(nn2)])) -> le([nn1, nn2]) -> 4  ;  (le([s(nn1), z])) -> BOT -> 4  ;  (le([z, z])) -> BOT -> 4  ;  (length([ll, _yba])) -> length([cons(x, ll), s(_yba)]) -> 7
}
Sat witness: Yes: ((length([ll, _yba])) -> length([cons(x, ll), s(_yba)]), {
_yba -> z  ;  ll -> nil  ;  x -> a
})

-------------------------------------------
Step 9, which took 0.005054 s (model generation: 0.003869,  model checking: 0.001185):

Model:
|_
{
append -> 
{{{
Q={q_gen_5224, q_gen_5230, q_gen_5231},
Q_f={q_gen_5224},
Delta=
{
<nil, nil>() -> q_gen_5230
<a, a>() -> q_gen_5231
<b, b>() -> q_gen_5231
<cons, nil, cons>(q_gen_5231, q_gen_5230) -> q_gen_5224
<nil, cons, cons>(q_gen_5231, q_gen_5230) -> q_gen_5224
<nil, nil, nil>() -> q_gen_5224
}

Datatype: <eltlist, eltlist, eltlist>
Convolution form: left
}}}
  ;  le -> 
{{{
Q={q_gen_5222, q_gen_5223},
Q_f={q_gen_5222},
Delta=
{
<s>(q_gen_5223) -> q_gen_5223
<z>() -> q_gen_5223
<s, s>(q_gen_5222) -> q_gen_5222
<z, s>(q_gen_5223) -> q_gen_5222
}

Datatype: <nat, nat>
Convolution form: left
}}}
  ;  length -> 
{{{
Q={q_gen_5221, q_gen_5226, q_gen_5227},
Q_f={q_gen_5221},
Delta=
{
<nil>() -> q_gen_5226
<cons, s>(q_gen_5227, q_gen_5226) -> q_gen_5221
<nil, z>() -> q_gen_5221
<a, z>() -> q_gen_5227
<b, z>() -> q_gen_5227
}

Datatype: <eltlist, nat>
Convolution form: left
}}}

}
--
Equality automata are defined for: {eq_elt, eq_eltlist, eq_nat}
_|

Teacher's answer:
New clause system:
{
() -> append([nil, l2, l2]) -> 6  ;  () -> le([z, s(nn2)]) -> 6  ;  () -> length([nil, z]) -> 4  ;  (append([l1, l2, _ica]) /\ le([z, _hca]) /\ length([_ica, _jca]) /\ length([l1, _hca])) -> le([z, _jca]) -> 4  ;  (append([t1, l2, _cca])) -> append([cons(h1, t1), l2, cons(h1, _cca)]) -> 7  ;  (le([nn1, nn2])) -> le([s(nn1), s(nn2)]) -> 5  ;  (le([s(nn1), s(nn2)])) -> le([nn1, nn2]) -> 5  ;  (le([s(nn1), z])) -> BOT -> 5  ;  (le([z, z])) -> BOT -> 5  ;  (length([ll, _yba])) -> length([cons(x, ll), s(_yba)]) -> 7
}
Sat witness: Yes: ((append([t1, l2, _cca])) -> append([cons(h1, t1), l2, cons(h1, _cca)]), {
_cca -> cons(a, nil)  ;  h1 -> b  ;  l2 -> nil  ;  t1 -> cons(a, nil)
})

-------------------------------------------
Step 10, which took 0.004894 s (model generation: 0.004056,  model checking: 0.000838):

Model:
|_
{
append -> 
{{{
Q={q_gen_5224, q_gen_5230, q_gen_5231},
Q_f={q_gen_5224},
Delta=
{
<cons, cons>(q_gen_5231, q_gen_5230) -> q_gen_5230
<nil, nil>() -> q_gen_5230
<a, a>() -> q_gen_5231
<b, b>() -> q_gen_5231
<cons, nil, cons>(q_gen_5231, q_gen_5230) -> q_gen_5224
<nil, cons, cons>(q_gen_5231, q_gen_5230) -> q_gen_5224
<nil, nil, nil>() -> q_gen_5224
}

Datatype: <eltlist, eltlist, eltlist>
Convolution form: left
}}}
  ;  le -> 
{{{
Q={q_gen_5222, q_gen_5223},
Q_f={q_gen_5222},
Delta=
{
<s>(q_gen_5223) -> q_gen_5223
<z>() -> q_gen_5223
<s, s>(q_gen_5222) -> q_gen_5222
<z, s>(q_gen_5223) -> q_gen_5222
}

Datatype: <nat, nat>
Convolution form: left
}}}
  ;  length -> 
{{{
Q={q_gen_5221, q_gen_5226, q_gen_5227},
Q_f={q_gen_5221},
Delta=
{
<nil>() -> q_gen_5226
<cons, s>(q_gen_5227, q_gen_5226) -> q_gen_5221
<nil, z>() -> q_gen_5221
<a, z>() -> q_gen_5227
<b, z>() -> q_gen_5227
}

Datatype: <eltlist, nat>
Convolution form: left
}}}

}
--
Equality automata are defined for: {eq_elt, eq_eltlist, eq_nat}
_|

Teacher's answer:
New clause system:
{
() -> append([nil, l2, l2]) -> 7  ;  () -> le([z, s(nn2)]) -> 7  ;  () -> length([nil, z]) -> 5  ;  (append([l1, l2, _ica]) /\ le([z, _hca]) /\ length([_ica, _jca]) /\ length([l1, _hca])) -> le([z, _jca]) -> 5  ;  (append([t1, l2, _cca])) -> append([cons(h1, t1), l2, cons(h1, _cca)]) -> 7  ;  (le([nn1, nn2])) -> le([s(nn1), s(nn2)]) -> 6  ;  (le([s(nn1), s(nn2)])) -> le([nn1, nn2]) -> 6  ;  (le([s(nn1), z])) -> BOT -> 6  ;  (le([z, z])) -> BOT -> 6  ;  (length([ll, _yba])) -> length([cons(x, ll), s(_yba)]) -> 10
}
Sat witness: Yes: ((length([ll, _yba])) -> length([cons(x, ll), s(_yba)]), {
_yba -> s(z)  ;  ll -> cons(b, nil)  ;  x -> b
})

-------------------------------------------
Step 11, which took 0.006200 s (model generation: 0.004633,  model checking: 0.001567):

Model:
|_
{
append -> 
{{{
Q={q_gen_5224, q_gen_5230, q_gen_5231},
Q_f={q_gen_5224},
Delta=
{
<cons, cons>(q_gen_5231, q_gen_5230) -> q_gen_5230
<nil, nil>() -> q_gen_5230
<a, a>() -> q_gen_5231
<b, b>() -> q_gen_5231
<cons, nil, cons>(q_gen_5231, q_gen_5230) -> q_gen_5224
<nil, cons, cons>(q_gen_5231, q_gen_5230) -> q_gen_5224
<nil, nil, nil>() -> q_gen_5224
}

Datatype: <eltlist, eltlist, eltlist>
Convolution form: left
}}}
  ;  le -> 
{{{
Q={q_gen_5222, q_gen_5223},
Q_f={q_gen_5222},
Delta=
{
<s>(q_gen_5223) -> q_gen_5223
<z>() -> q_gen_5223
<s, s>(q_gen_5222) -> q_gen_5222
<z, s>(q_gen_5223) -> q_gen_5222
}

Datatype: <nat, nat>
Convolution form: left
}}}
  ;  length -> 
{{{
Q={q_gen_5221, q_gen_5226, q_gen_5227, q_gen_5243, q_gen_5245},
Q_f={q_gen_5221},
Delta=
{
<cons>(q_gen_5243, q_gen_5226) -> q_gen_5226
<nil>() -> q_gen_5226
<b>() -> q_gen_5243
<z>() -> q_gen_5245
<cons, s>(q_gen_5227, q_gen_5226) -> q_gen_5221
<nil, z>() -> q_gen_5221
<a, z>() -> q_gen_5227
<b, s>(q_gen_5245) -> q_gen_5227
<b, z>() -> q_gen_5227
}

Datatype: <eltlist, nat>
Convolution form: left
}}}

}
--
Equality automata are defined for: {eq_elt, eq_eltlist, eq_nat}
_|

Teacher's answer:
New clause system:
{
() -> append([nil, l2, l2]) -> 7  ;  () -> le([z, s(nn2)]) -> 7  ;  () -> length([nil, z]) -> 6  ;  (append([l1, l2, _ica]) /\ le([z, _hca]) /\ length([_ica, _jca]) /\ length([l1, _hca])) -> le([z, _jca]) -> 6  ;  (append([t1, l2, _cca])) -> append([cons(h1, t1), l2, cons(h1, _cca)]) -> 10  ;  (le([nn1, nn2])) -> le([s(nn1), s(nn2)]) -> 7  ;  (le([s(nn1), s(nn2)])) -> le([nn1, nn2]) -> 7  ;  (le([s(nn1), z])) -> BOT -> 7  ;  (le([z, z])) -> BOT -> 7  ;  (length([ll, _yba])) -> length([cons(x, ll), s(_yba)]) -> 10
}
Sat witness: Yes: ((append([t1, l2, _cca])) -> append([cons(h1, t1), l2, cons(h1, _cca)]), {
_cca -> cons(b, nil)  ;  h1 -> b  ;  l2 -> cons(b, nil)  ;  t1 -> nil
})

-------------------------------------------
Step 12, which took 0.006488 s (model generation: 0.005589,  model checking: 0.000899):

Model:
|_
{
append -> 
{{{
Q={q_gen_5224, q_gen_5230, q_gen_5231, q_gen_5249, q_gen_5250, q_gen_5251},
Q_f={q_gen_5224},
Delta=
{
<nil>() -> q_gen_5249
<b>() -> q_gen_5250
<cons, cons>(q_gen_5231, q_gen_5230) -> q_gen_5230
<nil, nil>() -> q_gen_5230
<a, a>() -> q_gen_5231
<b, b>() -> q_gen_5231
<cons, cons, cons>(q_gen_5251, q_gen_5224) -> q_gen_5224
<cons, nil, cons>(q_gen_5231, q_gen_5230) -> q_gen_5224
<nil, cons, cons>(q_gen_5231, q_gen_5230) -> q_gen_5224
<nil, nil, cons>(q_gen_5250, q_gen_5249) -> q_gen_5224
<nil, nil, nil>() -> q_gen_5224
<b, b, b>() -> q_gen_5251
}

Datatype: <eltlist, eltlist, eltlist>
Convolution form: left
}}}
  ;  le -> 
{{{
Q={q_gen_5222, q_gen_5223},
Q_f={q_gen_5222},
Delta=
{
<s>(q_gen_5223) -> q_gen_5223
<z>() -> q_gen_5223
<s, s>(q_gen_5222) -> q_gen_5222
<z, s>(q_gen_5223) -> q_gen_5222
}

Datatype: <nat, nat>
Convolution form: left
}}}
  ;  length -> 
{{{
Q={q_gen_5221, q_gen_5226, q_gen_5227, q_gen_5243, q_gen_5245},
Q_f={q_gen_5221},
Delta=
{
<cons>(q_gen_5243, q_gen_5226) -> q_gen_5226
<nil>() -> q_gen_5226
<b>() -> q_gen_5243
<z>() -> q_gen_5245
<cons, s>(q_gen_5227, q_gen_5226) -> q_gen_5221
<nil, z>() -> q_gen_5221
<a, z>() -> q_gen_5227
<b, s>(q_gen_5245) -> q_gen_5227
<b, z>() -> q_gen_5227
}

Datatype: <eltlist, nat>
Convolution form: left
}}}

}
--
Equality automata are defined for: {eq_elt, eq_eltlist, eq_nat}
_|

Teacher's answer:
New clause system:
{
() -> append([nil, l2, l2]) -> 8  ;  () -> le([z, s(nn2)]) -> 8  ;  () -> length([nil, z]) -> 7  ;  (append([l1, l2, _ica]) /\ le([z, _hca]) /\ length([_ica, _jca]) /\ length([l1, _hca])) -> le([z, _jca]) -> 7  ;  (append([t1, l2, _cca])) -> append([cons(h1, t1), l2, cons(h1, _cca)]) -> 10  ;  (le([nn1, nn2])) -> le([s(nn1), s(nn2)]) -> 8  ;  (le([s(nn1), s(nn2)])) -> le([nn1, nn2]) -> 8  ;  (le([s(nn1), z])) -> BOT -> 8  ;  (le([z, z])) -> BOT -> 8  ;  (length([ll, _yba])) -> length([cons(x, ll), s(_yba)]) -> 13
}
Sat witness: Yes: ((length([ll, _yba])) -> length([cons(x, ll), s(_yba)]), {
_yba -> s(z)  ;  ll -> cons(a, nil)  ;  x -> b
})

-------------------------------------------
Step 13, which took 0.006503 s (model generation: 0.005398,  model checking: 0.001105):

Model:
|_
{
append -> 
{{{
Q={q_gen_5224, q_gen_5230, q_gen_5231, q_gen_5249, q_gen_5250, q_gen_5251},
Q_f={q_gen_5224},
Delta=
{
<nil>() -> q_gen_5249
<b>() -> q_gen_5250
<cons, cons>(q_gen_5231, q_gen_5230) -> q_gen_5230
<nil, nil>() -> q_gen_5230
<a, a>() -> q_gen_5231
<b, b>() -> q_gen_5231
<cons, cons, cons>(q_gen_5251, q_gen_5224) -> q_gen_5224
<cons, nil, cons>(q_gen_5231, q_gen_5230) -> q_gen_5224
<nil, cons, cons>(q_gen_5231, q_gen_5230) -> q_gen_5224
<nil, nil, cons>(q_gen_5250, q_gen_5249) -> q_gen_5224
<nil, nil, nil>() -> q_gen_5224
<b, b, b>() -> q_gen_5251
}

Datatype: <eltlist, eltlist, eltlist>
Convolution form: left
}}}
  ;  le -> 
{{{
Q={q_gen_5222, q_gen_5223},
Q_f={q_gen_5222},
Delta=
{
<s>(q_gen_5223) -> q_gen_5223
<z>() -> q_gen_5223
<s, s>(q_gen_5222) -> q_gen_5222
<z, s>(q_gen_5223) -> q_gen_5222
}

Datatype: <nat, nat>
Convolution form: left
}}}
  ;  length -> 
{{{
Q={q_gen_5221, q_gen_5226, q_gen_5227, q_gen_5243, q_gen_5245},
Q_f={q_gen_5221},
Delta=
{
<cons>(q_gen_5243, q_gen_5226) -> q_gen_5226
<nil>() -> q_gen_5226
<a>() -> q_gen_5243
<b>() -> q_gen_5243
<z>() -> q_gen_5245
<cons, s>(q_gen_5227, q_gen_5226) -> q_gen_5221
<nil, z>() -> q_gen_5221
<a, z>() -> q_gen_5227
<b, s>(q_gen_5245) -> q_gen_5227
<b, z>() -> q_gen_5227
}

Datatype: <eltlist, nat>
Convolution form: left
}}}

}
--
Equality automata are defined for: {eq_elt, eq_eltlist, eq_nat}
_|

Teacher's answer:
New clause system:
{
() -> append([nil, l2, l2]) -> 9  ;  () -> le([z, s(nn2)]) -> 9  ;  () -> length([nil, z]) -> 8  ;  (append([l1, l2, _ica]) /\ le([z, _hca]) /\ length([_ica, _jca]) /\ length([l1, _hca])) -> le([z, _jca]) -> 8  ;  (append([t1, l2, _cca])) -> append([cons(h1, t1), l2, cons(h1, _cca)]) -> 13  ;  (le([nn1, nn2])) -> le([s(nn1), s(nn2)]) -> 9  ;  (le([s(nn1), s(nn2)])) -> le([nn1, nn2]) -> 9  ;  (le([s(nn1), z])) -> BOT -> 9  ;  (le([z, z])) -> BOT -> 9  ;  (length([ll, _yba])) -> length([cons(x, ll), s(_yba)]) -> 13
}
Sat witness: Yes: ((append([t1, l2, _cca])) -> append([cons(h1, t1), l2, cons(h1, _cca)]), {
_cca -> cons(b, nil)  ;  h1 -> b  ;  l2 -> nil  ;  t1 -> nil
})

-------------------------------------------
Step 14, which took 0.009686 s (model generation: 0.008046,  model checking: 0.001640):

Model:
|_
{
append -> 
{{{
Q={q_gen_5224, q_gen_5230, q_gen_5231, q_gen_5249, q_gen_5250, q_gen_5251},
Q_f={q_gen_5224},
Delta=
{
<nil>() -> q_gen_5249
<b>() -> q_gen_5250
<cons, cons>(q_gen_5231, q_gen_5230) -> q_gen_5230
<nil, cons>(q_gen_5250, q_gen_5249) -> q_gen_5230
<nil, nil>() -> q_gen_5230
<a, a>() -> q_gen_5231
<b, b>() -> q_gen_5231
<cons, cons, cons>(q_gen_5251, q_gen_5224) -> q_gen_5224
<cons, nil, cons>(q_gen_5231, q_gen_5230) -> q_gen_5224
<nil, cons, cons>(q_gen_5231, q_gen_5230) -> q_gen_5224
<nil, nil, cons>(q_gen_5250, q_gen_5249) -> q_gen_5224
<nil, nil, nil>() -> q_gen_5224
<b, b, b>() -> q_gen_5251
}

Datatype: <eltlist, eltlist, eltlist>
Convolution form: left
}}}
  ;  le -> 
{{{
Q={q_gen_5222, q_gen_5223},
Q_f={q_gen_5222},
Delta=
{
<s>(q_gen_5223) -> q_gen_5223
<z>() -> q_gen_5223
<s, s>(q_gen_5222) -> q_gen_5222
<z, s>(q_gen_5223) -> q_gen_5222
}

Datatype: <nat, nat>
Convolution form: left
}}}
  ;  length -> 
{{{
Q={q_gen_5221, q_gen_5226, q_gen_5227, q_gen_5243, q_gen_5245},
Q_f={q_gen_5221},
Delta=
{
<cons>(q_gen_5243, q_gen_5226) -> q_gen_5226
<nil>() -> q_gen_5226
<a>() -> q_gen_5243
<b>() -> q_gen_5243
<z>() -> q_gen_5245
<cons, s>(q_gen_5227, q_gen_5226) -> q_gen_5221
<nil, z>() -> q_gen_5221
<a, z>() -> q_gen_5227
<b, s>(q_gen_5245) -> q_gen_5227
<b, z>() -> q_gen_5227
}

Datatype: <eltlist, nat>
Convolution form: left
}}}

}
--
Equality automata are defined for: {eq_elt, eq_eltlist, eq_nat}
_|

Teacher's answer:
New clause system:
{
() -> append([nil, l2, l2]) -> 10  ;  () -> le([z, s(nn2)]) -> 10  ;  () -> length([nil, z]) -> 9  ;  (append([l1, l2, _ica]) /\ le([z, _hca]) /\ length([_ica, _jca]) /\ length([l1, _hca])) -> le([z, _jca]) -> 9  ;  (append([t1, l2, _cca])) -> append([cons(h1, t1), l2, cons(h1, _cca)]) -> 13  ;  (le([nn1, nn2])) -> le([s(nn1), s(nn2)]) -> 10  ;  (le([s(nn1), s(nn2)])) -> le([nn1, nn2]) -> 10  ;  (le([s(nn1), z])) -> BOT -> 10  ;  (le([z, z])) -> BOT -> 10  ;  (length([ll, _yba])) -> length([cons(x, ll), s(_yba)]) -> 16
}
Sat witness: Yes: ((length([ll, _yba])) -> length([cons(x, ll), s(_yba)]), {
_yba -> s(z)  ;  ll -> cons(b, nil)  ;  x -> a
})

-------------------------------------------
Step 15, which took 0.010203 s (model generation: 0.008435,  model checking: 0.001768):

Model:
|_
{
append -> 
{{{
Q={q_gen_5224, q_gen_5230, q_gen_5231, q_gen_5249, q_gen_5250, q_gen_5251},
Q_f={q_gen_5224},
Delta=
{
<nil>() -> q_gen_5249
<b>() -> q_gen_5250
<cons, cons>(q_gen_5231, q_gen_5230) -> q_gen_5230
<nil, cons>(q_gen_5250, q_gen_5249) -> q_gen_5230
<nil, nil>() -> q_gen_5230
<a, a>() -> q_gen_5231
<b, b>() -> q_gen_5231
<cons, cons, cons>(q_gen_5251, q_gen_5224) -> q_gen_5224
<cons, nil, cons>(q_gen_5231, q_gen_5230) -> q_gen_5224
<nil, cons, cons>(q_gen_5231, q_gen_5230) -> q_gen_5224
<nil, nil, cons>(q_gen_5250, q_gen_5249) -> q_gen_5224
<nil, nil, nil>() -> q_gen_5224
<b, b, b>() -> q_gen_5251
}

Datatype: <eltlist, eltlist, eltlist>
Convolution form: left
}}}
  ;  le -> 
{{{
Q={q_gen_5222, q_gen_5223},
Q_f={q_gen_5222},
Delta=
{
<s>(q_gen_5223) -> q_gen_5223
<z>() -> q_gen_5223
<s, s>(q_gen_5222) -> q_gen_5222
<z, s>(q_gen_5223) -> q_gen_5222
}

Datatype: <nat, nat>
Convolution form: left
}}}
  ;  length -> 
{{{
Q={q_gen_5221, q_gen_5226, q_gen_5227, q_gen_5243, q_gen_5245},
Q_f={q_gen_5221},
Delta=
{
<cons>(q_gen_5243, q_gen_5226) -> q_gen_5226
<nil>() -> q_gen_5226
<a>() -> q_gen_5243
<b>() -> q_gen_5243
<z>() -> q_gen_5245
<cons, s>(q_gen_5227, q_gen_5226) -> q_gen_5221
<nil, z>() -> q_gen_5221
<a, s>(q_gen_5245) -> q_gen_5227
<a, z>() -> q_gen_5227
<b, s>(q_gen_5245) -> q_gen_5227
<b, z>() -> q_gen_5227
}

Datatype: <eltlist, nat>
Convolution form: left
}}}

}
--
Equality automata are defined for: {eq_elt, eq_eltlist, eq_nat}
_|

Teacher's answer:
New clause system:
{
() -> append([nil, l2, l2]) -> 11  ;  () -> le([z, s(nn2)]) -> 11  ;  () -> length([nil, z]) -> 10  ;  (append([l1, l2, _ica]) /\ le([z, _hca]) /\ length([_ica, _jca]) /\ length([l1, _hca])) -> le([z, _jca]) -> 10  ;  (append([t1, l2, _cca])) -> append([cons(h1, t1), l2, cons(h1, _cca)]) -> 16  ;  (le([nn1, nn2])) -> le([s(nn1), s(nn2)]) -> 11  ;  (le([s(nn1), s(nn2)])) -> le([nn1, nn2]) -> 11  ;  (le([s(nn1), z])) -> BOT -> 11  ;  (le([z, z])) -> BOT -> 11  ;  (length([ll, _yba])) -> length([cons(x, ll), s(_yba)]) -> 16
}
Sat witness: Yes: ((append([t1, l2, _cca])) -> append([cons(h1, t1), l2, cons(h1, _cca)]), {
_cca -> cons(b, nil)  ;  h1 -> a  ;  l2 -> cons(b, nil)  ;  t1 -> nil
})

-------------------------------------------
Step 16, which took 0.007229 s (model generation: 0.006298,  model checking: 0.000931):

Model:
|_
{
append -> 
{{{
Q={q_gen_5224, q_gen_5230, q_gen_5231, q_gen_5249, q_gen_5250, q_gen_5251},
Q_f={q_gen_5224},
Delta=
{
<nil>() -> q_gen_5249
<b>() -> q_gen_5250
<cons, cons>(q_gen_5231, q_gen_5230) -> q_gen_5230
<nil, cons>(q_gen_5250, q_gen_5249) -> q_gen_5230
<nil, nil>() -> q_gen_5230
<a, a>() -> q_gen_5231
<b, b>() -> q_gen_5231
<cons, cons, cons>(q_gen_5251, q_gen_5224) -> q_gen_5224
<cons, nil, cons>(q_gen_5231, q_gen_5230) -> q_gen_5224
<nil, cons, cons>(q_gen_5231, q_gen_5230) -> q_gen_5224
<nil, nil, cons>(q_gen_5250, q_gen_5249) -> q_gen_5224
<nil, nil, nil>() -> q_gen_5224
<a, b, a>() -> q_gen_5251
<b, b, b>() -> q_gen_5251
}

Datatype: <eltlist, eltlist, eltlist>
Convolution form: left
}}}
  ;  le -> 
{{{
Q={q_gen_5222, q_gen_5223},
Q_f={q_gen_5222},
Delta=
{
<s>(q_gen_5223) -> q_gen_5223
<z>() -> q_gen_5223
<s, s>(q_gen_5222) -> q_gen_5222
<z, s>(q_gen_5223) -> q_gen_5222
}

Datatype: <nat, nat>
Convolution form: left
}}}
  ;  length -> 
{{{
Q={q_gen_5221, q_gen_5226, q_gen_5227, q_gen_5243, q_gen_5245},
Q_f={q_gen_5221},
Delta=
{
<cons>(q_gen_5243, q_gen_5226) -> q_gen_5226
<nil>() -> q_gen_5226
<a>() -> q_gen_5243
<b>() -> q_gen_5243
<z>() -> q_gen_5245
<cons, s>(q_gen_5227, q_gen_5226) -> q_gen_5221
<nil, z>() -> q_gen_5221
<a, s>(q_gen_5245) -> q_gen_5227
<a, z>() -> q_gen_5227
<b, s>(q_gen_5245) -> q_gen_5227
<b, z>() -> q_gen_5227
}

Datatype: <eltlist, nat>
Convolution form: left
}}}

}
--
Equality automata are defined for: {eq_elt, eq_eltlist, eq_nat}
_|

Teacher's answer:
New clause system:
{
() -> append([nil, l2, l2]) -> 12  ;  () -> le([z, s(nn2)]) -> 12  ;  () -> length([nil, z]) -> 11  ;  (append([l1, l2, _ica]) /\ le([z, _hca]) /\ length([_ica, _jca]) /\ length([l1, _hca])) -> le([z, _jca]) -> 11  ;  (append([t1, l2, _cca])) -> append([cons(h1, t1), l2, cons(h1, _cca)]) -> 16  ;  (le([nn1, nn2])) -> le([s(nn1), s(nn2)]) -> 12  ;  (le([s(nn1), s(nn2)])) -> le([nn1, nn2]) -> 12  ;  (le([s(nn1), z])) -> BOT -> 12  ;  (le([z, z])) -> BOT -> 12  ;  (length([ll, _yba])) -> length([cons(x, ll), s(_yba)]) -> 19
}
Sat witness: Yes: ((length([ll, _yba])) -> length([cons(x, ll), s(_yba)]), {
_yba -> s(s(z))  ;  ll -> cons(b, nil)  ;  x -> b
})

-------------------------------------------
Step 17, which took 0.008528 s (model generation: 0.007156,  model checking: 0.001372):

Model:
|_
{
append -> 
{{{
Q={q_gen_5224, q_gen_5230, q_gen_5231, q_gen_5249, q_gen_5250, q_gen_5251},
Q_f={q_gen_5224},
Delta=
{
<nil>() -> q_gen_5249
<b>() -> q_gen_5250
<cons, cons>(q_gen_5231, q_gen_5230) -> q_gen_5230
<nil, cons>(q_gen_5250, q_gen_5249) -> q_gen_5230
<nil, nil>() -> q_gen_5230
<a, a>() -> q_gen_5231
<b, b>() -> q_gen_5231
<cons, cons, cons>(q_gen_5251, q_gen_5224) -> q_gen_5224
<cons, nil, cons>(q_gen_5231, q_gen_5230) -> q_gen_5224
<nil, cons, cons>(q_gen_5231, q_gen_5230) -> q_gen_5224
<nil, nil, cons>(q_gen_5250, q_gen_5249) -> q_gen_5224
<nil, nil, nil>() -> q_gen_5224
<a, b, a>() -> q_gen_5251
<b, b, b>() -> q_gen_5251
}

Datatype: <eltlist, eltlist, eltlist>
Convolution form: left
}}}
  ;  le -> 
{{{
Q={q_gen_5222, q_gen_5223},
Q_f={q_gen_5222},
Delta=
{
<s>(q_gen_5223) -> q_gen_5223
<z>() -> q_gen_5223
<s, s>(q_gen_5222) -> q_gen_5222
<z, s>(q_gen_5223) -> q_gen_5222
}

Datatype: <nat, nat>
Convolution form: left
}}}
  ;  length -> 
{{{
Q={q_gen_5221, q_gen_5226, q_gen_5227, q_gen_5243, q_gen_5245},
Q_f={q_gen_5221},
Delta=
{
<cons>(q_gen_5243, q_gen_5226) -> q_gen_5226
<nil>() -> q_gen_5226
<a>() -> q_gen_5243
<b>() -> q_gen_5243
<s>(q_gen_5245) -> q_gen_5245
<z>() -> q_gen_5245
<cons, s>(q_gen_5227, q_gen_5226) -> q_gen_5221
<nil, z>() -> q_gen_5221
<a, s>(q_gen_5245) -> q_gen_5227
<a, z>() -> q_gen_5227
<b, s>(q_gen_5245) -> q_gen_5227
<b, z>() -> q_gen_5227
}

Datatype: <eltlist, nat>
Convolution form: left
}}}

}
--
Equality automata are defined for: {eq_elt, eq_eltlist, eq_nat}
_|

Teacher's answer:
New clause system:
{
() -> append([nil, l2, l2]) -> 13  ;  () -> le([z, s(nn2)]) -> 13  ;  () -> length([nil, z]) -> 12  ;  (append([l1, l2, _ica]) /\ le([z, _hca]) /\ length([_ica, _jca]) /\ length([l1, _hca])) -> le([z, _jca]) -> 12  ;  (append([t1, l2, _cca])) -> append([cons(h1, t1), l2, cons(h1, _cca)]) -> 19  ;  (le([nn1, nn2])) -> le([s(nn1), s(nn2)]) -> 13  ;  (le([s(nn1), s(nn2)])) -> le([nn1, nn2]) -> 13  ;  (le([s(nn1), z])) -> BOT -> 13  ;  (le([z, z])) -> BOT -> 13  ;  (length([ll, _yba])) -> length([cons(x, ll), s(_yba)]) -> 19
}
Sat witness: Yes: ((append([t1, l2, _cca])) -> append([cons(h1, t1), l2, cons(h1, _cca)]), {
_cca -> cons(a, nil)  ;  h1 -> b  ;  l2 -> cons(a, nil)  ;  t1 -> nil
})

-------------------------------------------
Step 18, which took 0.009109 s (model generation: 0.007619,  model checking: 0.001490):

Model:
|_
{
append -> 
{{{
Q={q_gen_5224, q_gen_5230, q_gen_5231, q_gen_5249, q_gen_5250, q_gen_5251},
Q_f={q_gen_5224},
Delta=
{
<nil>() -> q_gen_5249
<a>() -> q_gen_5250
<b>() -> q_gen_5250
<cons, cons>(q_gen_5231, q_gen_5230) -> q_gen_5230
<nil, cons>(q_gen_5250, q_gen_5249) -> q_gen_5230
<nil, nil>() -> q_gen_5230
<a, a>() -> q_gen_5231
<b, b>() -> q_gen_5231
<cons, cons, cons>(q_gen_5251, q_gen_5224) -> q_gen_5224
<cons, nil, cons>(q_gen_5231, q_gen_5230) -> q_gen_5224
<nil, cons, cons>(q_gen_5231, q_gen_5230) -> q_gen_5224
<nil, nil, cons>(q_gen_5250, q_gen_5249) -> q_gen_5224
<nil, nil, nil>() -> q_gen_5224
<a, b, a>() -> q_gen_5251
<b, a, b>() -> q_gen_5251
<b, b, b>() -> q_gen_5251
}

Datatype: <eltlist, eltlist, eltlist>
Convolution form: left
}}}
  ;  le -> 
{{{
Q={q_gen_5222, q_gen_5223},
Q_f={q_gen_5222},
Delta=
{
<s>(q_gen_5223) -> q_gen_5223
<z>() -> q_gen_5223
<s, s>(q_gen_5222) -> q_gen_5222
<z, s>(q_gen_5223) -> q_gen_5222
}

Datatype: <nat, nat>
Convolution form: left
}}}
  ;  length -> 
{{{
Q={q_gen_5221, q_gen_5226, q_gen_5227, q_gen_5243, q_gen_5245},
Q_f={q_gen_5221},
Delta=
{
<cons>(q_gen_5243, q_gen_5226) -> q_gen_5226
<nil>() -> q_gen_5226
<a>() -> q_gen_5243
<b>() -> q_gen_5243
<s>(q_gen_5245) -> q_gen_5245
<z>() -> q_gen_5245
<cons, s>(q_gen_5227, q_gen_5226) -> q_gen_5221
<nil, z>() -> q_gen_5221
<a, s>(q_gen_5245) -> q_gen_5227
<a, z>() -> q_gen_5227
<b, s>(q_gen_5245) -> q_gen_5227
<b, z>() -> q_gen_5227
}

Datatype: <eltlist, nat>
Convolution form: left
}}}

}
--
Equality automata are defined for: {eq_elt, eq_eltlist, eq_nat}
_|

Teacher's answer:
New clause system:
{
() -> append([nil, l2, l2]) -> 14  ;  () -> le([z, s(nn2)]) -> 14  ;  () -> length([nil, z]) -> 13  ;  (append([l1, l2, _ica]) /\ le([z, _hca]) /\ length([_ica, _jca]) /\ length([l1, _hca])) -> le([z, _jca]) -> 13  ;  (append([t1, l2, _cca])) -> append([cons(h1, t1), l2, cons(h1, _cca)]) -> 22  ;  (le([nn1, nn2])) -> le([s(nn1), s(nn2)]) -> 14  ;  (le([s(nn1), s(nn2)])) -> le([nn1, nn2]) -> 14  ;  (le([s(nn1), z])) -> BOT -> 14  ;  (le([z, z])) -> BOT -> 14  ;  (length([ll, _yba])) -> length([cons(x, ll), s(_yba)]) -> 20
}
Sat witness: Yes: ((append([t1, l2, _cca])) -> append([cons(h1, t1), l2, cons(h1, _cca)]), {
_cca -> cons(a, nil)  ;  h1 -> a  ;  l2 -> cons(a, nil)  ;  t1 -> nil
})

-------------------------------------------
Step 19, which took 0.009664 s (model generation: 0.007899,  model checking: 0.001765):

Model:
|_
{
append -> 
{{{
Q={q_gen_5224, q_gen_5230, q_gen_5231, q_gen_5249, q_gen_5250, q_gen_5251},
Q_f={q_gen_5224},
Delta=
{
<nil>() -> q_gen_5249
<a>() -> q_gen_5250
<b>() -> q_gen_5250
<cons, cons>(q_gen_5231, q_gen_5230) -> q_gen_5230
<nil, cons>(q_gen_5250, q_gen_5249) -> q_gen_5230
<nil, nil>() -> q_gen_5230
<a, a>() -> q_gen_5231
<b, b>() -> q_gen_5231
<cons, cons, cons>(q_gen_5251, q_gen_5224) -> q_gen_5224
<cons, nil, cons>(q_gen_5231, q_gen_5230) -> q_gen_5224
<nil, cons, cons>(q_gen_5231, q_gen_5230) -> q_gen_5224
<nil, nil, cons>(q_gen_5250, q_gen_5249) -> q_gen_5224
<nil, nil, nil>() -> q_gen_5224
<a, a, a>() -> q_gen_5251
<a, b, a>() -> q_gen_5251
<b, a, b>() -> q_gen_5251
<b, b, b>() -> q_gen_5251
}

Datatype: <eltlist, eltlist, eltlist>
Convolution form: left
}}}
  ;  le -> 
{{{
Q={q_gen_5222, q_gen_5223},
Q_f={q_gen_5222},
Delta=
{
<s>(q_gen_5223) -> q_gen_5223
<z>() -> q_gen_5223
<s, s>(q_gen_5222) -> q_gen_5222
<z, s>(q_gen_5223) -> q_gen_5222
}

Datatype: <nat, nat>
Convolution form: left
}}}
  ;  length -> 
{{{
Q={q_gen_5221, q_gen_5226, q_gen_5227, q_gen_5243, q_gen_5245},
Q_f={q_gen_5221},
Delta=
{
<cons>(q_gen_5243, q_gen_5226) -> q_gen_5226
<nil>() -> q_gen_5226
<a>() -> q_gen_5243
<b>() -> q_gen_5243
<s>(q_gen_5245) -> q_gen_5245
<z>() -> q_gen_5245
<cons, s>(q_gen_5227, q_gen_5226) -> q_gen_5221
<nil, z>() -> q_gen_5221
<a, s>(q_gen_5245) -> q_gen_5227
<a, z>() -> q_gen_5227
<b, s>(q_gen_5245) -> q_gen_5227
<b, z>() -> q_gen_5227
}

Datatype: <eltlist, nat>
Convolution form: left
}}}

}
--
Equality automata are defined for: {eq_elt, eq_eltlist, eq_nat}
_|

Teacher's answer:
New clause system:
{
() -> append([nil, l2, l2]) -> 15  ;  () -> le([z, s(nn2)]) -> 15  ;  () -> length([nil, z]) -> 14  ;  (append([l1, l2, _ica]) /\ le([z, _hca]) /\ length([_ica, _jca]) /\ length([l1, _hca])) -> le([z, _jca]) -> 14  ;  (append([t1, l2, _cca])) -> append([cons(h1, t1), l2, cons(h1, _cca)]) -> 25  ;  (le([nn1, nn2])) -> le([s(nn1), s(nn2)]) -> 15  ;  (le([s(nn1), s(nn2)])) -> le([nn1, nn2]) -> 15  ;  (le([s(nn1), z])) -> BOT -> 15  ;  (le([z, z])) -> BOT -> 15  ;  (length([ll, _yba])) -> length([cons(x, ll), s(_yba)]) -> 21
}
Sat witness: Yes: ((append([t1, l2, _cca])) -> append([cons(h1, t1), l2, cons(h1, _cca)]), {
_cca -> cons(b, cons(b, nil))  ;  h1 -> a  ;  l2 -> cons(b, nil)  ;  t1 -> nil
})

-------------------------------------------
Step 20, which took 0.014366 s (model generation: 0.009699,  model checking: 0.004667):

Model:
|_
{
append -> 
{{{
Q={q_gen_5224, q_gen_5230, q_gen_5231, q_gen_5249, q_gen_5250, q_gen_5251},
Q_f={q_gen_5224},
Delta=
{
<cons>(q_gen_5250, q_gen_5249) -> q_gen_5249
<nil>() -> q_gen_5249
<a>() -> q_gen_5250
<b>() -> q_gen_5250
<cons, cons>(q_gen_5231, q_gen_5230) -> q_gen_5230
<nil, cons>(q_gen_5250, q_gen_5249) -> q_gen_5230
<nil, nil>() -> q_gen_5230
<a, a>() -> q_gen_5231
<b, b>() -> q_gen_5231
<cons, cons, cons>(q_gen_5251, q_gen_5224) -> q_gen_5224
<cons, nil, cons>(q_gen_5231, q_gen_5230) -> q_gen_5224
<nil, cons, cons>(q_gen_5231, q_gen_5230) -> q_gen_5224
<nil, nil, cons>(q_gen_5250, q_gen_5249) -> q_gen_5224
<nil, nil, nil>() -> q_gen_5224
<a, a, a>() -> q_gen_5251
<a, b, a>() -> q_gen_5251
<b, a, b>() -> q_gen_5251
<b, b, b>() -> q_gen_5251
}

Datatype: <eltlist, eltlist, eltlist>
Convolution form: left
}}}
  ;  le -> 
{{{
Q={q_gen_5222, q_gen_5223},
Q_f={q_gen_5222},
Delta=
{
<s>(q_gen_5223) -> q_gen_5223
<z>() -> q_gen_5223
<s, s>(q_gen_5222) -> q_gen_5222
<z, s>(q_gen_5223) -> q_gen_5222
}

Datatype: <nat, nat>
Convolution form: left
}}}
  ;  length -> 
{{{
Q={q_gen_5221, q_gen_5226, q_gen_5227, q_gen_5243, q_gen_5245},
Q_f={q_gen_5221},
Delta=
{
<cons>(q_gen_5243, q_gen_5226) -> q_gen_5226
<nil>() -> q_gen_5226
<a>() -> q_gen_5243
<b>() -> q_gen_5243
<s>(q_gen_5245) -> q_gen_5245
<z>() -> q_gen_5245
<cons, s>(q_gen_5227, q_gen_5226) -> q_gen_5221
<nil, z>() -> q_gen_5221
<a, s>(q_gen_5245) -> q_gen_5227
<a, z>() -> q_gen_5227
<b, s>(q_gen_5245) -> q_gen_5227
<b, z>() -> q_gen_5227
}

Datatype: <eltlist, nat>
Convolution form: left
}}}

}
--
Equality automata are defined for: {eq_elt, eq_eltlist, eq_nat}
_|

Teacher's answer:
New clause system:
{
() -> append([nil, l2, l2]) -> 16  ;  () -> le([z, s(nn2)]) -> 16  ;  () -> length([nil, z]) -> 15  ;  (append([l1, l2, _ica]) /\ le([z, _hca]) /\ length([_ica, _jca]) /\ length([l1, _hca])) -> le([z, _jca]) -> 15  ;  (append([t1, l2, _cca])) -> append([cons(h1, t1), l2, cons(h1, _cca)]) -> 28  ;  (le([nn1, nn2])) -> le([s(nn1), s(nn2)]) -> 16  ;  (le([s(nn1), s(nn2)])) -> le([nn1, nn2]) -> 16  ;  (le([s(nn1), z])) -> BOT -> 16  ;  (le([z, z])) -> BOT -> 16  ;  (length([ll, _yba])) -> length([cons(x, ll), s(_yba)]) -> 22
}
Sat witness: Yes: ((append([t1, l2, _cca])) -> append([cons(h1, t1), l2, cons(h1, _cca)]), {
_cca -> cons(a, cons(b, nil))  ;  h1 -> a  ;  l2 -> cons(a, cons(b, nil))  ;  t1 -> nil
})

-------------------------------------------
Step 21, which took 0.026967 s (model generation: 0.021424,  model checking: 0.005543):

Model:
|_
{
append -> 
{{{
Q={q_gen_5224, q_gen_5230, q_gen_5231, q_gen_5249, q_gen_5250, q_gen_5251},
Q_f={q_gen_5224},
Delta=
{
<cons>(q_gen_5250, q_gen_5249) -> q_gen_5249
<nil>() -> q_gen_5249
<a>() -> q_gen_5250
<b>() -> q_gen_5250
<cons, cons>(q_gen_5231, q_gen_5230) -> q_gen_5230
<nil, cons>(q_gen_5250, q_gen_5249) -> q_gen_5230
<nil, nil>() -> q_gen_5230
<a, a>() -> q_gen_5231
<b, a>() -> q_gen_5231
<b, b>() -> q_gen_5231
<cons, cons, cons>(q_gen_5251, q_gen_5224) -> q_gen_5224
<cons, nil, cons>(q_gen_5231, q_gen_5230) -> q_gen_5224
<nil, cons, cons>(q_gen_5231, q_gen_5230) -> q_gen_5224
<nil, nil, cons>(q_gen_5250, q_gen_5249) -> q_gen_5224
<nil, nil, nil>() -> q_gen_5224
<a, a, a>() -> q_gen_5251
<a, b, a>() -> q_gen_5251
<b, a, b>() -> q_gen_5251
<b, b, b>() -> q_gen_5251
}

Datatype: <eltlist, eltlist, eltlist>
Convolution form: left
}}}
  ;  le -> 
{{{
Q={q_gen_5222, q_gen_5223},
Q_f={q_gen_5222},
Delta=
{
<s>(q_gen_5223) -> q_gen_5223
<z>() -> q_gen_5223
<s, s>(q_gen_5222) -> q_gen_5222
<z, s>(q_gen_5223) -> q_gen_5222
}

Datatype: <nat, nat>
Convolution form: left
}}}
  ;  length -> 
{{{
Q={q_gen_5221, q_gen_5226, q_gen_5227, q_gen_5243, q_gen_5245},
Q_f={q_gen_5221},
Delta=
{
<cons>(q_gen_5243, q_gen_5226) -> q_gen_5226
<nil>() -> q_gen_5226
<a>() -> q_gen_5243
<b>() -> q_gen_5243
<s>(q_gen_5245) -> q_gen_5245
<z>() -> q_gen_5245
<cons, s>(q_gen_5227, q_gen_5226) -> q_gen_5221
<nil, z>() -> q_gen_5221
<a, s>(q_gen_5245) -> q_gen_5227
<a, z>() -> q_gen_5227
<b, s>(q_gen_5245) -> q_gen_5227
<b, z>() -> q_gen_5227
}

Datatype: <eltlist, nat>
Convolution form: left
}}}

}
--
Equality automata are defined for: {eq_elt, eq_eltlist, eq_nat}
_|

Teacher's answer:
New clause system:
{
() -> append([nil, l2, l2]) -> 17  ;  () -> le([z, s(nn2)]) -> 17  ;  () -> length([nil, z]) -> 16  ;  (append([l1, l2, _ica]) /\ le([z, _hca]) /\ length([_ica, _jca]) /\ length([l1, _hca])) -> le([z, _jca]) -> 16  ;  (append([t1, l2, _cca])) -> append([cons(h1, t1), l2, cons(h1, _cca)]) -> 31  ;  (le([nn1, nn2])) -> le([s(nn1), s(nn2)]) -> 17  ;  (le([s(nn1), s(nn2)])) -> le([nn1, nn2]) -> 17  ;  (le([s(nn1), z])) -> BOT -> 17  ;  (le([z, z])) -> BOT -> 17  ;  (length([ll, _yba])) -> length([cons(x, ll), s(_yba)]) -> 23
}
Sat witness: Yes: ((append([t1, l2, _cca])) -> append([cons(h1, t1), l2, cons(h1, _cca)]), {
_cca -> cons(b, cons(a, nil))  ;  h1 -> b  ;  l2 -> cons(b, cons(a, nil))  ;  t1 -> nil
})

Total time: 0.186403
Reason for stopping: Proved

