Solving ../../../../benchmarks/smtlib/true/mult_leq_not_null.smt2...

Inference procedure has parameters:
Ice fuel: 200
Timeout: 40s
Convolution: left


Learning problem is:

env: {
nat -> {s, z}
}
definition:
{
(plus, F:
{() -> plus([n, z, n])
(plus([n, mm, _kh])) -> plus([n, s(mm), s(_kh)])}
(plus([_lh, _mh, _nh]) /\ plus([_lh, _mh, _oh])) -> eq_nat([_nh, _oh])
)
(mult, F:
{() -> mult([n, z, z])
(mult([n, mm, _ph]) /\ plus([n, _ph, _qh])) -> mult([n, s(mm), _qh])}
(mult([_rh, _sh, _th]) /\ mult([_rh, _sh, _uh])) -> eq_nat([_th, _uh])
)
(leq, P:
{() -> leq([z, s(nn2)])
() -> leq([z, z])
(leq([nn1, nn2])) -> leq([s(nn1), s(nn2)])
(leq([s(nn1), s(nn2)])) -> leq([nn1, nn2])
(leq([s(nn1), z])) -> BOT}
)
}

properties:
{(leq([s(z), m]) /\ mult([n, m, _vh])) -> leq([n, _vh])}


over-approximation: {mult, plus}
under-approximation: {}

Clause system for inference is:

{
() -> leq([z, s(nn2)]) -> 0  ;  () -> leq([z, z]) -> 0  ;  () -> mult([n, z, z]) -> 0  ;  () -> plus([n, z, n]) -> 0  ;  (leq([nn1, nn2])) -> leq([s(nn1), s(nn2)]) -> 0  ;  (leq([s(nn1), s(nn2)])) -> leq([nn1, nn2]) -> 0  ;  (leq([s(nn1), z])) -> BOT -> 0  ;  (leq([s(z), m]) /\ mult([n, m, _vh])) -> leq([n, _vh]) -> 0  ;  (mult([n, mm, _ph]) /\ plus([n, _ph, _qh])) -> mult([n, s(mm), _qh]) -> 0  ;  (plus([n, mm, _kh])) -> plus([n, s(mm), s(_kh)]) -> 0
}


Solving took 0.368163 seconds.
Proved
Model:
|_
{
leq -> 
{{{
Q={q_gen_8817, q_gen_8819, q_gen_8844},
Q_f={q_gen_8817},
Delta=
{
<s>(q_gen_8819) -> q_gen_8819
<z>() -> q_gen_8819
<s, s>(q_gen_8817) -> q_gen_8817
<z, s>(q_gen_8819) -> q_gen_8817
<z, z>() -> q_gen_8817
<s, s>(q_gen_8844) -> q_gen_8844
<s, z>(q_gen_8819) -> q_gen_8844
}

Datatype: <nat, nat>
Convolution form: left
}}}
  ;  mult -> 
{{{
Q={q_gen_8816, q_gen_8823, q_gen_8826, q_gen_8833, q_gen_8843, q_gen_8852},
Q_f={q_gen_8816, q_gen_8826},
Delta=
{
<s>(q_gen_8823) -> q_gen_8823
<z>() -> q_gen_8823
<s, s>(q_gen_8833) -> q_gen_8833
<z, s>(q_gen_8823) -> q_gen_8833
<z, z>() -> q_gen_8833
<s, s>(q_gen_8852) -> q_gen_8852
<s, z>(q_gen_8823) -> q_gen_8852
<s, s, s>(q_gen_8816) -> q_gen_8816
<s, z, s>(q_gen_8833) -> q_gen_8816
<z, s, s>(q_gen_8833) -> q_gen_8816
<z, s, s>(q_gen_8852) -> q_gen_8816
<z, s, z>(q_gen_8823) -> q_gen_8816
<z, z, s>(q_gen_8823) -> q_gen_8816
<z, z, z>() -> q_gen_8816
<s, z, z>(q_gen_8823) -> q_gen_8826
<s, s, s>(q_gen_8826) -> q_gen_8843
<s, s, s>(q_gen_8843) -> q_gen_8843
<s, z, s>(q_gen_8852) -> q_gen_8843
}

Datatype: <nat, nat, nat>
Convolution form: left
}}}
  ;  plus -> 
{{{
Q={q_gen_8815, q_gen_8821, q_gen_8831},
Q_f={q_gen_8815},
Delta=
{
<s>(q_gen_8831) -> q_gen_8831
<z>() -> q_gen_8831
<s, s>(q_gen_8821) -> q_gen_8821
<z, s>(q_gen_8831) -> q_gen_8821
<z, z>() -> q_gen_8821
<s, s, s>(q_gen_8815) -> q_gen_8815
<s, z, s>(q_gen_8821) -> q_gen_8815
<z, s, s>(q_gen_8821) -> q_gen_8815
<z, z, s>(q_gen_8831) -> q_gen_8815
<z, z, z>() -> q_gen_8815
}

Datatype: <nat, nat, nat>
Convolution form: left
}}}

}
--
Equality automata are defined for: {eq_nat}
_|

-------------------
STEPS:
-------------------------------------------
Step 0, which took 0.004477 s (model generation: 0.004247,  model checking: 0.000230):

Model:
|_
{
leq -> 
{{{
Q={},
Q_f={},
Delta=
{

}

Datatype: <nat, nat>
Convolution form: left
}}}
  ;  mult -> 
{{{
Q={},
Q_f={},
Delta=
{

}

Datatype: <nat, nat, nat>
Convolution form: left
}}}
  ;  plus -> 
{{{
Q={},
Q_f={},
Delta=
{

}

Datatype: <nat, nat, nat>
Convolution form: left
}}}

}
--
Equality automata are defined for: {eq_nat}
_|

Teacher's answer:
New clause system:
{
() -> leq([z, s(nn2)]) -> 0  ;  () -> leq([z, z]) -> 0  ;  () -> mult([n, z, z]) -> 0  ;  () -> plus([n, z, n]) -> 3  ;  (leq([nn1, nn2])) -> leq([s(nn1), s(nn2)]) -> 1  ;  (leq([s(nn1), s(nn2)])) -> leq([nn1, nn2]) -> 1  ;  (leq([s(nn1), z])) -> BOT -> 1  ;  (leq([s(z), m]) /\ mult([n, m, _vh])) -> leq([n, _vh]) -> 1  ;  (mult([n, mm, _ph]) /\ plus([n, _ph, _qh])) -> mult([n, s(mm), _qh]) -> 1  ;  (plus([n, mm, _kh])) -> plus([n, s(mm), s(_kh)]) -> 1
}
Sat witness: Yes: (() -> plus([n, z, n]), {
n -> z
})

-------------------------------------------
Step 1, which took 0.005272 s (model generation: 0.003572,  model checking: 0.001700):

Model:
|_
{
leq -> 
{{{
Q={},
Q_f={},
Delta=
{

}

Datatype: <nat, nat>
Convolution form: left
}}}
  ;  mult -> 
{{{
Q={},
Q_f={},
Delta=
{

}

Datatype: <nat, nat, nat>
Convolution form: left
}}}
  ;  plus -> 
{{{
Q={q_gen_8815},
Q_f={q_gen_8815},
Delta=
{
<z, z, z>() -> q_gen_8815
}

Datatype: <nat, nat, nat>
Convolution form: left
}}}

}
--
Equality automata are defined for: {eq_nat}
_|

Teacher's answer:
New clause system:
{
() -> leq([z, s(nn2)]) -> 0  ;  () -> leq([z, z]) -> 0  ;  () -> mult([n, z, z]) -> 3  ;  () -> plus([n, z, n]) -> 3  ;  (leq([nn1, nn2])) -> leq([s(nn1), s(nn2)]) -> 1  ;  (leq([s(nn1), s(nn2)])) -> leq([nn1, nn2]) -> 1  ;  (leq([s(nn1), z])) -> BOT -> 1  ;  (leq([s(z), m]) /\ mult([n, m, _vh])) -> leq([n, _vh]) -> 1  ;  (mult([n, mm, _ph]) /\ plus([n, _ph, _qh])) -> mult([n, s(mm), _qh]) -> 1  ;  (plus([n, mm, _kh])) -> plus([n, s(mm), s(_kh)]) -> 1
}
Sat witness: Yes: (() -> mult([n, z, z]), {
n -> z
})

-------------------------------------------
Step 2, which took 0.003770 s (model generation: 0.003729,  model checking: 0.000041):

Model:
|_
{
leq -> 
{{{
Q={},
Q_f={},
Delta=
{

}

Datatype: <nat, nat>
Convolution form: left
}}}
  ;  mult -> 
{{{
Q={q_gen_8816},
Q_f={q_gen_8816},
Delta=
{
<z, z, z>() -> q_gen_8816
}

Datatype: <nat, nat, nat>
Convolution form: left
}}}
  ;  plus -> 
{{{
Q={q_gen_8815},
Q_f={q_gen_8815},
Delta=
{
<z, z, z>() -> q_gen_8815
}

Datatype: <nat, nat, nat>
Convolution form: left
}}}

}
--
Equality automata are defined for: {eq_nat}
_|

Teacher's answer:
New clause system:
{
() -> leq([z, s(nn2)]) -> 0  ;  () -> leq([z, z]) -> 3  ;  () -> mult([n, z, z]) -> 3  ;  () -> plus([n, z, n]) -> 3  ;  (leq([nn1, nn2])) -> leq([s(nn1), s(nn2)]) -> 1  ;  (leq([s(nn1), s(nn2)])) -> leq([nn1, nn2]) -> 1  ;  (leq([s(nn1), z])) -> BOT -> 1  ;  (leq([s(z), m]) /\ mult([n, m, _vh])) -> leq([n, _vh]) -> 1  ;  (mult([n, mm, _ph]) /\ plus([n, _ph, _qh])) -> mult([n, s(mm), _qh]) -> 1  ;  (plus([n, mm, _kh])) -> plus([n, s(mm), s(_kh)]) -> 1
}
Sat witness: Yes: (() -> leq([z, z]), {

})

-------------------------------------------
Step 3, which took 0.003632 s (model generation: 0.003579,  model checking: 0.000053):

Model:
|_
{
leq -> 
{{{
Q={q_gen_8817},
Q_f={q_gen_8817},
Delta=
{
<z, z>() -> q_gen_8817
}

Datatype: <nat, nat>
Convolution form: left
}}}
  ;  mult -> 
{{{
Q={q_gen_8816},
Q_f={q_gen_8816},
Delta=
{
<z, z, z>() -> q_gen_8816
}

Datatype: <nat, nat, nat>
Convolution form: left
}}}
  ;  plus -> 
{{{
Q={q_gen_8815},
Q_f={q_gen_8815},
Delta=
{
<z, z, z>() -> q_gen_8815
}

Datatype: <nat, nat, nat>
Convolution form: left
}}}

}
--
Equality automata are defined for: {eq_nat}
_|

Teacher's answer:
New clause system:
{
() -> leq([z, s(nn2)]) -> 3  ;  () -> leq([z, z]) -> 3  ;  () -> mult([n, z, z]) -> 3  ;  () -> plus([n, z, n]) -> 3  ;  (leq([nn1, nn2])) -> leq([s(nn1), s(nn2)]) -> 1  ;  (leq([s(nn1), s(nn2)])) -> leq([nn1, nn2]) -> 1  ;  (leq([s(nn1), z])) -> BOT -> 1  ;  (leq([s(z), m]) /\ mult([n, m, _vh])) -> leq([n, _vh]) -> 1  ;  (mult([n, mm, _ph]) /\ plus([n, _ph, _qh])) -> mult([n, s(mm), _qh]) -> 1  ;  (plus([n, mm, _kh])) -> plus([n, s(mm), s(_kh)]) -> 1
}
Sat witness: Yes: (() -> leq([z, s(nn2)]), {
nn2 -> z
})

-------------------------------------------
Step 4, which took 0.004437 s (model generation: 0.004367,  model checking: 0.000070):

Model:
|_
{
leq -> 
{{{
Q={q_gen_8817, q_gen_8819},
Q_f={q_gen_8817},
Delta=
{
<z>() -> q_gen_8819
<z, s>(q_gen_8819) -> q_gen_8817
<z, z>() -> q_gen_8817
}

Datatype: <nat, nat>
Convolution form: left
}}}
  ;  mult -> 
{{{
Q={q_gen_8816},
Q_f={q_gen_8816},
Delta=
{
<z, z, z>() -> q_gen_8816
}

Datatype: <nat, nat, nat>
Convolution form: left
}}}
  ;  plus -> 
{{{
Q={q_gen_8815},
Q_f={q_gen_8815},
Delta=
{
<z, z, z>() -> q_gen_8815
}

Datatype: <nat, nat, nat>
Convolution form: left
}}}

}
--
Equality automata are defined for: {eq_nat}
_|

Teacher's answer:
New clause system:
{
() -> leq([z, s(nn2)]) -> 3  ;  () -> leq([z, z]) -> 3  ;  () -> mult([n, z, z]) -> 3  ;  () -> plus([n, z, n]) -> 3  ;  (leq([nn1, nn2])) -> leq([s(nn1), s(nn2)]) -> 1  ;  (leq([s(nn1), s(nn2)])) -> leq([nn1, nn2]) -> 1  ;  (leq([s(nn1), z])) -> BOT -> 1  ;  (leq([s(z), m]) /\ mult([n, m, _vh])) -> leq([n, _vh]) -> 1  ;  (mult([n, mm, _ph]) /\ plus([n, _ph, _qh])) -> mult([n, s(mm), _qh]) -> 1  ;  (plus([n, mm, _kh])) -> plus([n, s(mm), s(_kh)]) -> 4
}
Sat witness: Yes: ((plus([n, mm, _kh])) -> plus([n, s(mm), s(_kh)]), {
_kh -> z  ;  mm -> z  ;  n -> z
})

-------------------------------------------
Step 5, which took 0.003247 s (model generation: 0.003138,  model checking: 0.000109):

Model:
|_
{
leq -> 
{{{
Q={q_gen_8817, q_gen_8819},
Q_f={q_gen_8817},
Delta=
{
<z>() -> q_gen_8819
<z, s>(q_gen_8819) -> q_gen_8817
<z, z>() -> q_gen_8817
}

Datatype: <nat, nat>
Convolution form: left
}}}
  ;  mult -> 
{{{
Q={q_gen_8816},
Q_f={q_gen_8816},
Delta=
{
<z, z, z>() -> q_gen_8816
}

Datatype: <nat, nat, nat>
Convolution form: left
}}}
  ;  plus -> 
{{{
Q={q_gen_8815, q_gen_8821},
Q_f={q_gen_8815},
Delta=
{
<z, z>() -> q_gen_8821
<z, s, s>(q_gen_8821) -> q_gen_8815
<z, z, z>() -> q_gen_8815
}

Datatype: <nat, nat, nat>
Convolution form: left
}}}

}
--
Equality automata are defined for: {eq_nat}
_|

Teacher's answer:
New clause system:
{
() -> leq([z, s(nn2)]) -> 3  ;  () -> leq([z, z]) -> 3  ;  () -> mult([n, z, z]) -> 3  ;  () -> plus([n, z, n]) -> 3  ;  (leq([nn1, nn2])) -> leq([s(nn1), s(nn2)]) -> 1  ;  (leq([s(nn1), s(nn2)])) -> leq([nn1, nn2]) -> 1  ;  (leq([s(nn1), z])) -> BOT -> 1  ;  (leq([s(z), m]) /\ mult([n, m, _vh])) -> leq([n, _vh]) -> 1  ;  (mult([n, mm, _ph]) /\ plus([n, _ph, _qh])) -> mult([n, s(mm), _qh]) -> 4  ;  (plus([n, mm, _kh])) -> plus([n, s(mm), s(_kh)]) -> 4
}
Sat witness: Yes: ((mult([n, mm, _ph]) /\ plus([n, _ph, _qh])) -> mult([n, s(mm), _qh]), {
_ph -> z  ;  _qh -> z  ;  mm -> z  ;  n -> z
})

-------------------------------------------
Step 6, which took 0.003420 s (model generation: 0.003319,  model checking: 0.000101):

Model:
|_
{
leq -> 
{{{
Q={q_gen_8817, q_gen_8819},
Q_f={q_gen_8817},
Delta=
{
<z>() -> q_gen_8819
<z, s>(q_gen_8819) -> q_gen_8817
<z, z>() -> q_gen_8817
}

Datatype: <nat, nat>
Convolution form: left
}}}
  ;  mult -> 
{{{
Q={q_gen_8816, q_gen_8823},
Q_f={q_gen_8816},
Delta=
{
<z>() -> q_gen_8823
<z, s, z>(q_gen_8823) -> q_gen_8816
<z, z, z>() -> q_gen_8816
}

Datatype: <nat, nat, nat>
Convolution form: left
}}}
  ;  plus -> 
{{{
Q={q_gen_8815, q_gen_8821},
Q_f={q_gen_8815},
Delta=
{
<z, z>() -> q_gen_8821
<z, s, s>(q_gen_8821) -> q_gen_8815
<z, z, z>() -> q_gen_8815
}

Datatype: <nat, nat, nat>
Convolution form: left
}}}

}
--
Equality automata are defined for: {eq_nat}
_|

Teacher's answer:
New clause system:
{
() -> leq([z, s(nn2)]) -> 3  ;  () -> leq([z, z]) -> 3  ;  () -> mult([n, z, z]) -> 3  ;  () -> plus([n, z, n]) -> 3  ;  (leq([nn1, nn2])) -> leq([s(nn1), s(nn2)]) -> 4  ;  (leq([s(nn1), s(nn2)])) -> leq([nn1, nn2]) -> 2  ;  (leq([s(nn1), z])) -> BOT -> 2  ;  (leq([s(z), m]) /\ mult([n, m, _vh])) -> leq([n, _vh]) -> 2  ;  (mult([n, mm, _ph]) /\ plus([n, _ph, _qh])) -> mult([n, s(mm), _qh]) -> 4  ;  (plus([n, mm, _kh])) -> plus([n, s(mm), s(_kh)]) -> 4
}
Sat witness: Yes: ((leq([nn1, nn2])) -> leq([s(nn1), s(nn2)]), {
nn1 -> z  ;  nn2 -> z
})

-------------------------------------------
Step 7, which took 0.005015 s (model generation: 0.003419,  model checking: 0.001596):

Model:
|_
{
leq -> 
{{{
Q={q_gen_8817, q_gen_8819},
Q_f={q_gen_8817},
Delta=
{
<z>() -> q_gen_8819
<s, s>(q_gen_8817) -> q_gen_8817
<z, s>(q_gen_8819) -> q_gen_8817
<z, z>() -> q_gen_8817
}

Datatype: <nat, nat>
Convolution form: left
}}}
  ;  mult -> 
{{{
Q={q_gen_8816, q_gen_8823},
Q_f={q_gen_8816},
Delta=
{
<z>() -> q_gen_8823
<z, s, z>(q_gen_8823) -> q_gen_8816
<z, z, z>() -> q_gen_8816
}

Datatype: <nat, nat, nat>
Convolution form: left
}}}
  ;  plus -> 
{{{
Q={q_gen_8815, q_gen_8821},
Q_f={q_gen_8815},
Delta=
{
<z, z>() -> q_gen_8821
<z, s, s>(q_gen_8821) -> q_gen_8815
<z, z, z>() -> q_gen_8815
}

Datatype: <nat, nat, nat>
Convolution form: left
}}}

}
--
Equality automata are defined for: {eq_nat}
_|

Teacher's answer:
New clause system:
{
() -> leq([z, s(nn2)]) -> 3  ;  () -> leq([z, z]) -> 3  ;  () -> mult([n, z, z]) -> 3  ;  () -> plus([n, z, n]) -> 6  ;  (leq([nn1, nn2])) -> leq([s(nn1), s(nn2)]) -> 4  ;  (leq([s(nn1), s(nn2)])) -> leq([nn1, nn2]) -> 3  ;  (leq([s(nn1), z])) -> BOT -> 3  ;  (leq([s(z), m]) /\ mult([n, m, _vh])) -> leq([n, _vh]) -> 3  ;  (mult([n, mm, _ph]) /\ plus([n, _ph, _qh])) -> mult([n, s(mm), _qh]) -> 4  ;  (plus([n, mm, _kh])) -> plus([n, s(mm), s(_kh)]) -> 4
}
Sat witness: Yes: (() -> plus([n, z, n]), {
n -> s(z)
})

-------------------------------------------
Step 8, which took 0.004212 s (model generation: 0.003966,  model checking: 0.000246):

Model:
|_
{
leq -> 
{{{
Q={q_gen_8817, q_gen_8819},
Q_f={q_gen_8817},
Delta=
{
<z>() -> q_gen_8819
<s, s>(q_gen_8817) -> q_gen_8817
<z, s>(q_gen_8819) -> q_gen_8817
<z, z>() -> q_gen_8817
}

Datatype: <nat, nat>
Convolution form: left
}}}
  ;  mult -> 
{{{
Q={q_gen_8816, q_gen_8823},
Q_f={q_gen_8816},
Delta=
{
<z>() -> q_gen_8823
<z, s, z>(q_gen_8823) -> q_gen_8816
<z, z, z>() -> q_gen_8816
}

Datatype: <nat, nat, nat>
Convolution form: left
}}}
  ;  plus -> 
{{{
Q={q_gen_8815, q_gen_8821},
Q_f={q_gen_8815},
Delta=
{
<z, z>() -> q_gen_8821
<s, z, s>(q_gen_8821) -> q_gen_8815
<z, s, s>(q_gen_8821) -> q_gen_8815
<z, z, z>() -> q_gen_8815
}

Datatype: <nat, nat, nat>
Convolution form: left
}}}

}
--
Equality automata are defined for: {eq_nat}
_|

Teacher's answer:
New clause system:
{
() -> leq([z, s(nn2)]) -> 3  ;  () -> leq([z, z]) -> 3  ;  () -> mult([n, z, z]) -> 6  ;  () -> plus([n, z, n]) -> 6  ;  (leq([nn1, nn2])) -> leq([s(nn1), s(nn2)]) -> 4  ;  (leq([s(nn1), s(nn2)])) -> leq([nn1, nn2]) -> 4  ;  (leq([s(nn1), z])) -> BOT -> 4  ;  (leq([s(z), m]) /\ mult([n, m, _vh])) -> leq([n, _vh]) -> 4  ;  (mult([n, mm, _ph]) /\ plus([n, _ph, _qh])) -> mult([n, s(mm), _qh]) -> 4  ;  (plus([n, mm, _kh])) -> plus([n, s(mm), s(_kh)]) -> 4
}
Sat witness: Yes: (() -> mult([n, z, z]), {
n -> s(z)
})

-------------------------------------------
Step 9, which took 0.005551 s (model generation: 0.005445,  model checking: 0.000106):

Model:
|_
{
leq -> 
{{{
Q={q_gen_8817, q_gen_8819},
Q_f={q_gen_8817},
Delta=
{
<z>() -> q_gen_8819
<s, s>(q_gen_8817) -> q_gen_8817
<z, s>(q_gen_8819) -> q_gen_8817
<z, z>() -> q_gen_8817
}

Datatype: <nat, nat>
Convolution form: left
}}}
  ;  mult -> 
{{{
Q={q_gen_8816, q_gen_8823},
Q_f={q_gen_8816},
Delta=
{
<z>() -> q_gen_8823
<s, z, z>(q_gen_8823) -> q_gen_8816
<z, s, z>(q_gen_8823) -> q_gen_8816
<z, z, z>() -> q_gen_8816
}

Datatype: <nat, nat, nat>
Convolution form: left
}}}
  ;  plus -> 
{{{
Q={q_gen_8815, q_gen_8821},
Q_f={q_gen_8815},
Delta=
{
<z, z>() -> q_gen_8821
<s, z, s>(q_gen_8821) -> q_gen_8815
<z, s, s>(q_gen_8821) -> q_gen_8815
<z, z, z>() -> q_gen_8815
}

Datatype: <nat, nat, nat>
Convolution form: left
}}}

}
--
Equality automata are defined for: {eq_nat}
_|

Teacher's answer:
New clause system:
{
() -> leq([z, s(nn2)]) -> 6  ;  () -> leq([z, z]) -> 4  ;  () -> mult([n, z, z]) -> 6  ;  () -> plus([n, z, n]) -> 6  ;  (leq([nn1, nn2])) -> leq([s(nn1), s(nn2)]) -> 4  ;  (leq([s(nn1), s(nn2)])) -> leq([nn1, nn2]) -> 4  ;  (leq([s(nn1), z])) -> BOT -> 4  ;  (leq([s(z), m]) /\ mult([n, m, _vh])) -> leq([n, _vh]) -> 4  ;  (mult([n, mm, _ph]) /\ plus([n, _ph, _qh])) -> mult([n, s(mm), _qh]) -> 4  ;  (plus([n, mm, _kh])) -> plus([n, s(mm), s(_kh)]) -> 4
}
Sat witness: Yes: (() -> leq([z, s(nn2)]), {
nn2 -> s(z)
})

-------------------------------------------
Step 10, which took 0.006892 s (model generation: 0.006713,  model checking: 0.000179):

Model:
|_
{
leq -> 
{{{
Q={q_gen_8817, q_gen_8819},
Q_f={q_gen_8817},
Delta=
{
<s>(q_gen_8819) -> q_gen_8819
<z>() -> q_gen_8819
<s, s>(q_gen_8817) -> q_gen_8817
<z, s>(q_gen_8819) -> q_gen_8817
<z, z>() -> q_gen_8817
}

Datatype: <nat, nat>
Convolution form: left
}}}
  ;  mult -> 
{{{
Q={q_gen_8816, q_gen_8823},
Q_f={q_gen_8816},
Delta=
{
<z>() -> q_gen_8823
<s, z, z>(q_gen_8823) -> q_gen_8816
<z, s, z>(q_gen_8823) -> q_gen_8816
<z, z, z>() -> q_gen_8816
}

Datatype: <nat, nat, nat>
Convolution form: left
}}}
  ;  plus -> 
{{{
Q={q_gen_8815, q_gen_8821},
Q_f={q_gen_8815},
Delta=
{
<z, z>() -> q_gen_8821
<s, z, s>(q_gen_8821) -> q_gen_8815
<z, s, s>(q_gen_8821) -> q_gen_8815
<z, z, z>() -> q_gen_8815
}

Datatype: <nat, nat, nat>
Convolution form: left
}}}

}
--
Equality automata are defined for: {eq_nat}
_|

Teacher's answer:
New clause system:
{
() -> leq([z, s(nn2)]) -> 6  ;  () -> leq([z, z]) -> 4  ;  () -> mult([n, z, z]) -> 6  ;  () -> plus([n, z, n]) -> 6  ;  (leq([nn1, nn2])) -> leq([s(nn1), s(nn2)]) -> 4  ;  (leq([s(nn1), s(nn2)])) -> leq([nn1, nn2]) -> 4  ;  (leq([s(nn1), z])) -> BOT -> 4  ;  (leq([s(z), m]) /\ mult([n, m, _vh])) -> leq([n, _vh]) -> 4  ;  (mult([n, mm, _ph]) /\ plus([n, _ph, _qh])) -> mult([n, s(mm), _qh]) -> 4  ;  (plus([n, mm, _kh])) -> plus([n, s(mm), s(_kh)]) -> 7
}
Sat witness: Yes: ((plus([n, mm, _kh])) -> plus([n, s(mm), s(_kh)]), {
_kh -> s(z)  ;  mm -> z  ;  n -> s(z)
})

-------------------------------------------
Step 11, which took 0.005358 s (model generation: 0.005109,  model checking: 0.000249):

Model:
|_
{
leq -> 
{{{
Q={q_gen_8817, q_gen_8819},
Q_f={q_gen_8817},
Delta=
{
<s>(q_gen_8819) -> q_gen_8819
<z>() -> q_gen_8819
<s, s>(q_gen_8817) -> q_gen_8817
<z, s>(q_gen_8819) -> q_gen_8817
<z, z>() -> q_gen_8817
}

Datatype: <nat, nat>
Convolution form: left
}}}
  ;  mult -> 
{{{
Q={q_gen_8816, q_gen_8823},
Q_f={q_gen_8816},
Delta=
{
<z>() -> q_gen_8823
<s, z, z>(q_gen_8823) -> q_gen_8816
<z, s, z>(q_gen_8823) -> q_gen_8816
<z, z, z>() -> q_gen_8816
}

Datatype: <nat, nat, nat>
Convolution form: left
}}}
  ;  plus -> 
{{{
Q={q_gen_8815, q_gen_8821, q_gen_8831},
Q_f={q_gen_8815},
Delta=
{
<z>() -> q_gen_8831
<z, z>() -> q_gen_8821
<s, s, s>(q_gen_8815) -> q_gen_8815
<s, z, s>(q_gen_8821) -> q_gen_8815
<z, s, s>(q_gen_8821) -> q_gen_8815
<z, z, s>(q_gen_8831) -> q_gen_8815
<z, z, z>() -> q_gen_8815
}

Datatype: <nat, nat, nat>
Convolution form: left
}}}

}
--
Equality automata are defined for: {eq_nat}
_|

Teacher's answer:
New clause system:
{
() -> leq([z, s(nn2)]) -> 6  ;  () -> leq([z, z]) -> 4  ;  () -> mult([n, z, z]) -> 6  ;  () -> plus([n, z, n]) -> 6  ;  (leq([nn1, nn2])) -> leq([s(nn1), s(nn2)]) -> 4  ;  (leq([s(nn1), s(nn2)])) -> leq([nn1, nn2]) -> 4  ;  (leq([s(nn1), z])) -> BOT -> 4  ;  (leq([s(z), m]) /\ mult([n, m, _vh])) -> leq([n, _vh]) -> 4  ;  (mult([n, mm, _ph]) /\ plus([n, _ph, _qh])) -> mult([n, s(mm), _qh]) -> 7  ;  (plus([n, mm, _kh])) -> plus([n, s(mm), s(_kh)]) -> 7
}
Sat witness: Yes: ((mult([n, mm, _ph]) /\ plus([n, _ph, _qh])) -> mult([n, s(mm), _qh]), {
_ph -> z  ;  _qh -> s(z)  ;  mm -> z  ;  n -> z
})

-------------------------------------------
Step 12, which took 0.009077 s (model generation: 0.007458,  model checking: 0.001619):

Model:
|_
{
leq -> 
{{{
Q={q_gen_8817, q_gen_8819},
Q_f={q_gen_8817},
Delta=
{
<s>(q_gen_8819) -> q_gen_8819
<z>() -> q_gen_8819
<s, s>(q_gen_8817) -> q_gen_8817
<z, s>(q_gen_8819) -> q_gen_8817
<z, z>() -> q_gen_8817
}

Datatype: <nat, nat>
Convolution form: left
}}}
  ;  mult -> 
{{{
Q={q_gen_8816, q_gen_8823, q_gen_8833},
Q_f={q_gen_8816},
Delta=
{
<z>() -> q_gen_8823
<z, z>() -> q_gen_8833
<s, z, z>(q_gen_8823) -> q_gen_8816
<z, s, s>(q_gen_8833) -> q_gen_8816
<z, s, z>(q_gen_8823) -> q_gen_8816
<z, z, z>() -> q_gen_8816
}

Datatype: <nat, nat, nat>
Convolution form: left
}}}
  ;  plus -> 
{{{
Q={q_gen_8815, q_gen_8821, q_gen_8831},
Q_f={q_gen_8815},
Delta=
{
<z>() -> q_gen_8831
<z, z>() -> q_gen_8821
<s, s, s>(q_gen_8815) -> q_gen_8815
<s, z, s>(q_gen_8821) -> q_gen_8815
<z, s, s>(q_gen_8821) -> q_gen_8815
<z, z, s>(q_gen_8831) -> q_gen_8815
<z, z, z>() -> q_gen_8815
}

Datatype: <nat, nat, nat>
Convolution form: left
}}}

}
--
Equality automata are defined for: {eq_nat}
_|

Teacher's answer:
New clause system:
{
() -> leq([z, s(nn2)]) -> 6  ;  () -> leq([z, z]) -> 5  ;  () -> mult([n, z, z]) -> 6  ;  () -> plus([n, z, n]) -> 9  ;  (leq([nn1, nn2])) -> leq([s(nn1), s(nn2)]) -> 5  ;  (leq([s(nn1), s(nn2)])) -> leq([nn1, nn2]) -> 5  ;  (leq([s(nn1), z])) -> BOT -> 5  ;  (leq([s(z), m]) /\ mult([n, m, _vh])) -> leq([n, _vh]) -> 5  ;  (mult([n, mm, _ph]) /\ plus([n, _ph, _qh])) -> mult([n, s(mm), _qh]) -> 7  ;  (plus([n, mm, _kh])) -> plus([n, s(mm), s(_kh)]) -> 7
}
Sat witness: Yes: (() -> plus([n, z, n]), {
n -> s(s(z))
})

-------------------------------------------
Step 13, which took 0.009603 s (model generation: 0.009106,  model checking: 0.000497):

Model:
|_
{
leq -> 
{{{
Q={q_gen_8817, q_gen_8819},
Q_f={q_gen_8817},
Delta=
{
<s>(q_gen_8819) -> q_gen_8819
<z>() -> q_gen_8819
<s, s>(q_gen_8817) -> q_gen_8817
<z, s>(q_gen_8819) -> q_gen_8817
<z, z>() -> q_gen_8817
}

Datatype: <nat, nat>
Convolution form: left
}}}
  ;  mult -> 
{{{
Q={q_gen_8816, q_gen_8823, q_gen_8833},
Q_f={q_gen_8816},
Delta=
{
<z>() -> q_gen_8823
<z, z>() -> q_gen_8833
<s, z, z>(q_gen_8823) -> q_gen_8816
<z, s, s>(q_gen_8833) -> q_gen_8816
<z, s, z>(q_gen_8823) -> q_gen_8816
<z, z, z>() -> q_gen_8816
}

Datatype: <nat, nat, nat>
Convolution form: left
}}}
  ;  plus -> 
{{{
Q={q_gen_8815, q_gen_8821, q_gen_8831},
Q_f={q_gen_8815},
Delta=
{
<z>() -> q_gen_8831
<s, s>(q_gen_8821) -> q_gen_8821
<z, z>() -> q_gen_8821
<s, s, s>(q_gen_8815) -> q_gen_8815
<s, z, s>(q_gen_8821) -> q_gen_8815
<z, s, s>(q_gen_8821) -> q_gen_8815
<z, z, s>(q_gen_8831) -> q_gen_8815
<z, z, z>() -> q_gen_8815
}

Datatype: <nat, nat, nat>
Convolution form: left
}}}

}
--
Equality automata are defined for: {eq_nat}
_|

Teacher's answer:
New clause system:
{
() -> leq([z, s(nn2)]) -> 6  ;  () -> leq([z, z]) -> 6  ;  () -> mult([n, z, z]) -> 9  ;  () -> plus([n, z, n]) -> 9  ;  (leq([nn1, nn2])) -> leq([s(nn1), s(nn2)]) -> 6  ;  (leq([s(nn1), s(nn2)])) -> leq([nn1, nn2]) -> 6  ;  (leq([s(nn1), z])) -> BOT -> 6  ;  (leq([s(z), m]) /\ mult([n, m, _vh])) -> leq([n, _vh]) -> 6  ;  (mult([n, mm, _ph]) /\ plus([n, _ph, _qh])) -> mult([n, s(mm), _qh]) -> 7  ;  (plus([n, mm, _kh])) -> plus([n, s(mm), s(_kh)]) -> 7
}
Sat witness: Yes: (() -> mult([n, z, z]), {
n -> s(s(z))
})

-------------------------------------------
Step 14, which took 0.011009 s (model generation: 0.009875,  model checking: 0.001134):

Model:
|_
{
leq -> 
{{{
Q={q_gen_8817, q_gen_8819},
Q_f={q_gen_8817},
Delta=
{
<s>(q_gen_8819) -> q_gen_8819
<z>() -> q_gen_8819
<s, s>(q_gen_8817) -> q_gen_8817
<z, s>(q_gen_8819) -> q_gen_8817
<z, z>() -> q_gen_8817
}

Datatype: <nat, nat>
Convolution form: left
}}}
  ;  mult -> 
{{{
Q={q_gen_8816, q_gen_8823, q_gen_8833},
Q_f={q_gen_8816},
Delta=
{
<s>(q_gen_8823) -> q_gen_8823
<z>() -> q_gen_8823
<z, z>() -> q_gen_8833
<s, z, z>(q_gen_8823) -> q_gen_8816
<z, s, s>(q_gen_8833) -> q_gen_8816
<z, s, z>(q_gen_8823) -> q_gen_8816
<z, z, z>() -> q_gen_8816
}

Datatype: <nat, nat, nat>
Convolution form: left
}}}
  ;  plus -> 
{{{
Q={q_gen_8815, q_gen_8821, q_gen_8831},
Q_f={q_gen_8815},
Delta=
{
<z>() -> q_gen_8831
<s, s>(q_gen_8821) -> q_gen_8821
<z, z>() -> q_gen_8821
<s, s, s>(q_gen_8815) -> q_gen_8815
<s, z, s>(q_gen_8821) -> q_gen_8815
<z, s, s>(q_gen_8821) -> q_gen_8815
<z, z, s>(q_gen_8831) -> q_gen_8815
<z, z, z>() -> q_gen_8815
}

Datatype: <nat, nat, nat>
Convolution form: left
}}}

}
--
Equality automata are defined for: {eq_nat}
_|

Teacher's answer:
New clause system:
{
() -> leq([z, s(nn2)]) -> 7  ;  () -> leq([z, z]) -> 7  ;  () -> mult([n, z, z]) -> 9  ;  () -> plus([n, z, n]) -> 9  ;  (leq([nn1, nn2])) -> leq([s(nn1), s(nn2)]) -> 7  ;  (leq([s(nn1), s(nn2)])) -> leq([nn1, nn2]) -> 7  ;  (leq([s(nn1), z])) -> BOT -> 7  ;  (leq([s(z), m]) /\ mult([n, m, _vh])) -> leq([n, _vh]) -> 7  ;  (mult([n, mm, _ph]) /\ plus([n, _ph, _qh])) -> mult([n, s(mm), _qh]) -> 7  ;  (plus([n, mm, _kh])) -> plus([n, s(mm), s(_kh)]) -> 10
}
Sat witness: Yes: ((plus([n, mm, _kh])) -> plus([n, s(mm), s(_kh)]), {
_kh -> s(z)  ;  mm -> z  ;  n -> z
})

-------------------------------------------
Step 15, which took 0.008960 s (model generation: 0.008593,  model checking: 0.000367):

Model:
|_
{
leq -> 
{{{
Q={q_gen_8817, q_gen_8819},
Q_f={q_gen_8817},
Delta=
{
<s>(q_gen_8819) -> q_gen_8819
<z>() -> q_gen_8819
<s, s>(q_gen_8817) -> q_gen_8817
<z, s>(q_gen_8819) -> q_gen_8817
<z, z>() -> q_gen_8817
}

Datatype: <nat, nat>
Convolution form: left
}}}
  ;  mult -> 
{{{
Q={q_gen_8816, q_gen_8823, q_gen_8833},
Q_f={q_gen_8816},
Delta=
{
<s>(q_gen_8823) -> q_gen_8823
<z>() -> q_gen_8823
<z, z>() -> q_gen_8833
<s, z, z>(q_gen_8823) -> q_gen_8816
<z, s, s>(q_gen_8833) -> q_gen_8816
<z, s, z>(q_gen_8823) -> q_gen_8816
<z, z, z>() -> q_gen_8816
}

Datatype: <nat, nat, nat>
Convolution form: left
}}}
  ;  plus -> 
{{{
Q={q_gen_8815, q_gen_8821, q_gen_8831},
Q_f={q_gen_8815},
Delta=
{
<z>() -> q_gen_8831
<s, s>(q_gen_8821) -> q_gen_8821
<z, s>(q_gen_8831) -> q_gen_8821
<z, z>() -> q_gen_8821
<s, s, s>(q_gen_8815) -> q_gen_8815
<s, z, s>(q_gen_8821) -> q_gen_8815
<z, s, s>(q_gen_8821) -> q_gen_8815
<z, z, s>(q_gen_8831) -> q_gen_8815
<z, z, z>() -> q_gen_8815
}

Datatype: <nat, nat, nat>
Convolution form: left
}}}

}
--
Equality automata are defined for: {eq_nat}
_|

Teacher's answer:
New clause system:
{
() -> leq([z, s(nn2)]) -> 7  ;  () -> leq([z, z]) -> 7  ;  () -> mult([n, z, z]) -> 9  ;  () -> plus([n, z, n]) -> 9  ;  (leq([nn1, nn2])) -> leq([s(nn1), s(nn2)]) -> 7  ;  (leq([s(nn1), s(nn2)])) -> leq([nn1, nn2]) -> 7  ;  (leq([s(nn1), z])) -> BOT -> 7  ;  (leq([s(z), m]) /\ mult([n, m, _vh])) -> leq([n, _vh]) -> 7  ;  (mult([n, mm, _ph]) /\ plus([n, _ph, _qh])) -> mult([n, s(mm), _qh]) -> 10  ;  (plus([n, mm, _kh])) -> plus([n, s(mm), s(_kh)]) -> 10
}
Sat witness: Yes: ((mult([n, mm, _ph]) /\ plus([n, _ph, _qh])) -> mult([n, s(mm), _qh]), {
_ph -> z  ;  _qh -> s(s(z))  ;  mm -> z  ;  n -> s(z)
})

-------------------------------------------
Step 16, which took 0.011582 s (model generation: 0.011378,  model checking: 0.000204):

Model:
|_
{
leq -> 
{{{
Q={q_gen_8817, q_gen_8819},
Q_f={q_gen_8817},
Delta=
{
<s>(q_gen_8819) -> q_gen_8819
<z>() -> q_gen_8819
<s, s>(q_gen_8817) -> q_gen_8817
<z, s>(q_gen_8819) -> q_gen_8817
<z, z>() -> q_gen_8817
}

Datatype: <nat, nat>
Convolution form: left
}}}
  ;  mult -> 
{{{
Q={q_gen_8816, q_gen_8823, q_gen_8833},
Q_f={q_gen_8816},
Delta=
{
<s>(q_gen_8823) -> q_gen_8823
<z>() -> q_gen_8823
<z, z>() -> q_gen_8833
<s, s, s>(q_gen_8816) -> q_gen_8816
<s, z, z>(q_gen_8823) -> q_gen_8816
<z, s, s>(q_gen_8833) -> q_gen_8816
<z, s, z>(q_gen_8823) -> q_gen_8816
<z, z, s>(q_gen_8823) -> q_gen_8816
<z, z, z>() -> q_gen_8816
}

Datatype: <nat, nat, nat>
Convolution form: left
}}}
  ;  plus -> 
{{{
Q={q_gen_8815, q_gen_8821, q_gen_8831},
Q_f={q_gen_8815},
Delta=
{
<z>() -> q_gen_8831
<s, s>(q_gen_8821) -> q_gen_8821
<z, s>(q_gen_8831) -> q_gen_8821
<z, z>() -> q_gen_8821
<s, s, s>(q_gen_8815) -> q_gen_8815
<s, z, s>(q_gen_8821) -> q_gen_8815
<z, s, s>(q_gen_8821) -> q_gen_8815
<z, z, s>(q_gen_8831) -> q_gen_8815
<z, z, z>() -> q_gen_8815
}

Datatype: <nat, nat, nat>
Convolution form: left
}}}

}
--
Equality automata are defined for: {eq_nat}
_|

Teacher's answer:
New clause system:
{
() -> leq([z, s(nn2)]) -> 7  ;  () -> leq([z, z]) -> 7  ;  () -> mult([n, z, z]) -> 9  ;  () -> plus([n, z, n]) -> 9  ;  (leq([nn1, nn2])) -> leq([s(nn1), s(nn2)]) -> 7  ;  (leq([s(nn1), s(nn2)])) -> leq([nn1, nn2]) -> 7  ;  (leq([s(nn1), z])) -> BOT -> 7  ;  (leq([s(z), m]) /\ mult([n, m, _vh])) -> leq([n, _vh]) -> 10  ;  (mult([n, mm, _ph]) /\ plus([n, _ph, _qh])) -> mult([n, s(mm), _qh]) -> 10  ;  (plus([n, mm, _kh])) -> plus([n, s(mm), s(_kh)]) -> 10
}
Sat witness: Yes: ((leq([s(z), m]) /\ mult([n, m, _vh])) -> leq([n, _vh]), {
_vh -> s(z)  ;  m -> s(z)  ;  n -> s(s(z))
})

-------------------------------------------
Step 17, which took 0.012447 s (model generation: 0.012397,  model checking: 0.000050):

Model:
|_
{
leq -> 
{{{
Q={q_gen_8817, q_gen_8819},
Q_f={q_gen_8817},
Delta=
{
<s>(q_gen_8819) -> q_gen_8819
<z>() -> q_gen_8819
<s, s>(q_gen_8817) -> q_gen_8817
<s, z>(q_gen_8819) -> q_gen_8817
<z, s>(q_gen_8819) -> q_gen_8817
<z, z>() -> q_gen_8817
}

Datatype: <nat, nat>
Convolution form: left
}}}
  ;  mult -> 
{{{
Q={q_gen_8816, q_gen_8823, q_gen_8833},
Q_f={q_gen_8816},
Delta=
{
<s>(q_gen_8823) -> q_gen_8823
<z>() -> q_gen_8823
<z, z>() -> q_gen_8833
<s, s, s>(q_gen_8816) -> q_gen_8816
<s, z, z>(q_gen_8823) -> q_gen_8816
<z, s, s>(q_gen_8833) -> q_gen_8816
<z, s, z>(q_gen_8823) -> q_gen_8816
<z, z, s>(q_gen_8823) -> q_gen_8816
<z, z, z>() -> q_gen_8816
}

Datatype: <nat, nat, nat>
Convolution form: left
}}}
  ;  plus -> 
{{{
Q={q_gen_8815, q_gen_8821, q_gen_8831},
Q_f={q_gen_8815},
Delta=
{
<z>() -> q_gen_8831
<s, s>(q_gen_8821) -> q_gen_8821
<z, s>(q_gen_8831) -> q_gen_8821
<z, z>() -> q_gen_8821
<s, s, s>(q_gen_8815) -> q_gen_8815
<s, z, s>(q_gen_8821) -> q_gen_8815
<z, s, s>(q_gen_8821) -> q_gen_8815
<z, z, s>(q_gen_8831) -> q_gen_8815
<z, z, z>() -> q_gen_8815
}

Datatype: <nat, nat, nat>
Convolution form: left
}}}

}
--
Equality automata are defined for: {eq_nat}
_|

Teacher's answer:
New clause system:
{
() -> leq([z, s(nn2)]) -> 7  ;  () -> leq([z, z]) -> 7  ;  () -> mult([n, z, z]) -> 9  ;  () -> plus([n, z, n]) -> 9  ;  (leq([nn1, nn2])) -> leq([s(nn1), s(nn2)]) -> 7  ;  (leq([s(nn1), s(nn2)])) -> leq([nn1, nn2]) -> 7  ;  (leq([s(nn1), z])) -> BOT -> 10  ;  (leq([s(z), m]) /\ mult([n, m, _vh])) -> leq([n, _vh]) -> 10  ;  (mult([n, mm, _ph]) /\ plus([n, _ph, _qh])) -> mult([n, s(mm), _qh]) -> 10  ;  (plus([n, mm, _kh])) -> plus([n, s(mm), s(_kh)]) -> 10
}
Sat witness: Yes: ((leq([s(nn1), z])) -> BOT, {
nn1 -> z
})

-------------------------------------------
Step 18, which took 0.011538 s (model generation: 0.011336,  model checking: 0.000202):

Model:
|_
{
leq -> 
{{{
Q={q_gen_8817, q_gen_8819, q_gen_8845},
Q_f={q_gen_8817},
Delta=
{
<s>(q_gen_8819) -> q_gen_8819
<z>() -> q_gen_8819
<s, s>(q_gen_8817) -> q_gen_8817
<s, s>(q_gen_8845) -> q_gen_8817
<z, s>(q_gen_8819) -> q_gen_8817
<z, z>() -> q_gen_8817
<s, z>(q_gen_8819) -> q_gen_8845
}

Datatype: <nat, nat>
Convolution form: left
}}}
  ;  mult -> 
{{{
Q={q_gen_8816, q_gen_8823, q_gen_8833},
Q_f={q_gen_8816},
Delta=
{
<s>(q_gen_8823) -> q_gen_8823
<z>() -> q_gen_8823
<z, z>() -> q_gen_8833
<s, s, s>(q_gen_8816) -> q_gen_8816
<s, z, z>(q_gen_8823) -> q_gen_8816
<z, s, s>(q_gen_8833) -> q_gen_8816
<z, s, z>(q_gen_8823) -> q_gen_8816
<z, z, s>(q_gen_8823) -> q_gen_8816
<z, z, z>() -> q_gen_8816
}

Datatype: <nat, nat, nat>
Convolution form: left
}}}
  ;  plus -> 
{{{
Q={q_gen_8815, q_gen_8821, q_gen_8831},
Q_f={q_gen_8815},
Delta=
{
<z>() -> q_gen_8831
<s, s>(q_gen_8821) -> q_gen_8821
<z, s>(q_gen_8831) -> q_gen_8821
<z, z>() -> q_gen_8821
<s, s, s>(q_gen_8815) -> q_gen_8815
<s, z, s>(q_gen_8821) -> q_gen_8815
<z, s, s>(q_gen_8821) -> q_gen_8815
<z, z, s>(q_gen_8831) -> q_gen_8815
<z, z, z>() -> q_gen_8815
}

Datatype: <nat, nat, nat>
Convolution form: left
}}}

}
--
Equality automata are defined for: {eq_nat}
_|

Teacher's answer:
New clause system:
{
() -> leq([z, s(nn2)]) -> 7  ;  () -> leq([z, z]) -> 7  ;  () -> mult([n, z, z]) -> 9  ;  () -> plus([n, z, n]) -> 9  ;  (leq([nn1, nn2])) -> leq([s(nn1), s(nn2)]) -> 7  ;  (leq([s(nn1), s(nn2)])) -> leq([nn1, nn2]) -> 10  ;  (leq([s(nn1), z])) -> BOT -> 10  ;  (leq([s(z), m]) /\ mult([n, m, _vh])) -> leq([n, _vh]) -> 10  ;  (mult([n, mm, _ph]) /\ plus([n, _ph, _qh])) -> mult([n, s(mm), _qh]) -> 10  ;  (plus([n, mm, _kh])) -> plus([n, s(mm), s(_kh)]) -> 10
}
Sat witness: Yes: ((leq([s(nn1), s(nn2)])) -> leq([nn1, nn2]), {
nn1 -> s(z)  ;  nn2 -> z
})

-------------------------------------------
Step 19, which took 0.014778 s (model generation: 0.013735,  model checking: 0.001043):

Model:
|_
{
leq -> 
{{{
Q={q_gen_8817, q_gen_8819, q_gen_8844},
Q_f={q_gen_8817},
Delta=
{
<s>(q_gen_8819) -> q_gen_8819
<z>() -> q_gen_8819
<s, s>(q_gen_8817) -> q_gen_8817
<z, s>(q_gen_8819) -> q_gen_8817
<z, z>() -> q_gen_8817
<s, s>(q_gen_8844) -> q_gen_8844
<s, z>(q_gen_8819) -> q_gen_8844
}

Datatype: <nat, nat>
Convolution form: left
}}}
  ;  mult -> 
{{{
Q={q_gen_8816, q_gen_8823, q_gen_8833, q_gen_8842},
Q_f={q_gen_8816},
Delta=
{
<s>(q_gen_8823) -> q_gen_8823
<z>() -> q_gen_8823
<z, z>() -> q_gen_8833
<s, s, s>(q_gen_8842) -> q_gen_8816
<s, z, z>(q_gen_8823) -> q_gen_8816
<z, s, s>(q_gen_8833) -> q_gen_8816
<z, s, z>(q_gen_8823) -> q_gen_8816
<z, z, z>() -> q_gen_8816
<s, s, s>(q_gen_8816) -> q_gen_8842
<z, z, s>(q_gen_8823) -> q_gen_8842
}

Datatype: <nat, nat, nat>
Convolution form: left
}}}
  ;  plus -> 
{{{
Q={q_gen_8815, q_gen_8821, q_gen_8831},
Q_f={q_gen_8815},
Delta=
{
<z>() -> q_gen_8831
<s, s>(q_gen_8821) -> q_gen_8821
<z, s>(q_gen_8831) -> q_gen_8821
<z, z>() -> q_gen_8821
<s, s, s>(q_gen_8815) -> q_gen_8815
<s, z, s>(q_gen_8821) -> q_gen_8815
<z, s, s>(q_gen_8821) -> q_gen_8815
<z, z, s>(q_gen_8831) -> q_gen_8815
<z, z, z>() -> q_gen_8815
}

Datatype: <nat, nat, nat>
Convolution form: left
}}}

}
--
Equality automata are defined for: {eq_nat}
_|

Teacher's answer:
New clause system:
{
() -> leq([z, s(nn2)]) -> 8  ;  () -> leq([z, z]) -> 8  ;  () -> mult([n, z, z]) -> 10  ;  () -> plus([n, z, n]) -> 10  ;  (leq([nn1, nn2])) -> leq([s(nn1), s(nn2)]) -> 8  ;  (leq([s(nn1), s(nn2)])) -> leq([nn1, nn2]) -> 10  ;  (leq([s(nn1), z])) -> BOT -> 10  ;  (leq([s(z), m]) /\ mult([n, m, _vh])) -> leq([n, _vh]) -> 10  ;  (mult([n, mm, _ph]) /\ plus([n, _ph, _qh])) -> mult([n, s(mm), _qh]) -> 10  ;  (plus([n, mm, _kh])) -> plus([n, s(mm), s(_kh)]) -> 13
}
Sat witness: Yes: ((plus([n, mm, _kh])) -> plus([n, s(mm), s(_kh)]), {
_kh -> s(s(z))  ;  mm -> z  ;  n -> s(z)
})

-------------------------------------------
Step 20, which took 0.009236 s (model generation: 0.008840,  model checking: 0.000396):

Model:
|_
{
leq -> 
{{{
Q={q_gen_8817, q_gen_8819, q_gen_8844},
Q_f={q_gen_8817},
Delta=
{
<s>(q_gen_8819) -> q_gen_8819
<z>() -> q_gen_8819
<s, s>(q_gen_8817) -> q_gen_8817
<z, s>(q_gen_8819) -> q_gen_8817
<z, z>() -> q_gen_8817
<s, s>(q_gen_8844) -> q_gen_8844
<s, z>(q_gen_8819) -> q_gen_8844
}

Datatype: <nat, nat>
Convolution form: left
}}}
  ;  mult -> 
{{{
Q={q_gen_8816, q_gen_8823, q_gen_8833, q_gen_8842},
Q_f={q_gen_8816},
Delta=
{
<s>(q_gen_8823) -> q_gen_8823
<z>() -> q_gen_8823
<z, z>() -> q_gen_8833
<s, s, s>(q_gen_8842) -> q_gen_8816
<s, z, z>(q_gen_8823) -> q_gen_8816
<z, s, s>(q_gen_8833) -> q_gen_8816
<z, s, z>(q_gen_8823) -> q_gen_8816
<z, z, z>() -> q_gen_8816
<s, s, s>(q_gen_8816) -> q_gen_8842
<z, z, s>(q_gen_8823) -> q_gen_8842
}

Datatype: <nat, nat, nat>
Convolution form: left
}}}
  ;  plus -> 
{{{
Q={q_gen_8815, q_gen_8821, q_gen_8831},
Q_f={q_gen_8815},
Delta=
{
<s>(q_gen_8831) -> q_gen_8831
<z>() -> q_gen_8831
<s, s>(q_gen_8821) -> q_gen_8821
<z, s>(q_gen_8831) -> q_gen_8821
<z, z>() -> q_gen_8821
<s, s, s>(q_gen_8815) -> q_gen_8815
<s, z, s>(q_gen_8821) -> q_gen_8815
<z, s, s>(q_gen_8821) -> q_gen_8815
<z, z, s>(q_gen_8831) -> q_gen_8815
<z, z, z>() -> q_gen_8815
}

Datatype: <nat, nat, nat>
Convolution form: left
}}}

}
--
Equality automata are defined for: {eq_nat}
_|

Teacher's answer:
New clause system:
{
() -> leq([z, s(nn2)]) -> 9  ;  () -> leq([z, z]) -> 9  ;  () -> mult([n, z, z]) -> 10  ;  () -> plus([n, z, n]) -> 10  ;  (leq([nn1, nn2])) -> leq([s(nn1), s(nn2)]) -> 9  ;  (leq([s(nn1), s(nn2)])) -> leq([nn1, nn2]) -> 10  ;  (leq([s(nn1), z])) -> BOT -> 10  ;  (leq([s(z), m]) /\ mult([n, m, _vh])) -> leq([n, _vh]) -> 10  ;  (mult([n, mm, _ph]) /\ plus([n, _ph, _qh])) -> mult([n, s(mm), _qh]) -> 13  ;  (plus([n, mm, _kh])) -> plus([n, s(mm), s(_kh)]) -> 13
}
Sat witness: Yes: ((mult([n, mm, _ph]) /\ plus([n, _ph, _qh])) -> mult([n, s(mm), _qh]), {
_ph -> z  ;  _qh -> s(z)  ;  mm -> z  ;  n -> s(z)
})

-------------------------------------------
Step 21, which took 0.011928 s (model generation: 0.011092,  model checking: 0.000836):

Model:
|_
{
leq -> 
{{{
Q={q_gen_8817, q_gen_8819, q_gen_8844},
Q_f={q_gen_8817},
Delta=
{
<s>(q_gen_8819) -> q_gen_8819
<z>() -> q_gen_8819
<s, s>(q_gen_8817) -> q_gen_8817
<z, s>(q_gen_8819) -> q_gen_8817
<z, z>() -> q_gen_8817
<s, s>(q_gen_8844) -> q_gen_8844
<s, z>(q_gen_8819) -> q_gen_8844
}

Datatype: <nat, nat>
Convolution form: left
}}}
  ;  mult -> 
{{{
Q={q_gen_8816, q_gen_8823, q_gen_8826, q_gen_8833, q_gen_8843},
Q_f={q_gen_8816, q_gen_8826},
Delta=
{
<s>(q_gen_8823) -> q_gen_8823
<z>() -> q_gen_8823
<z, z>() -> q_gen_8833
<z, s, z>(q_gen_8823) -> q_gen_8816
<z, z, s>(q_gen_8823) -> q_gen_8816
<z, z, z>() -> q_gen_8816
<s, s, s>(q_gen_8816) -> q_gen_8826
<s, z, z>(q_gen_8823) -> q_gen_8826
<z, s, s>(q_gen_8833) -> q_gen_8826
<s, s, s>(q_gen_8826) -> q_gen_8843
}

Datatype: <nat, nat, nat>
Convolution form: left
}}}
  ;  plus -> 
{{{
Q={q_gen_8815, q_gen_8821, q_gen_8831},
Q_f={q_gen_8815},
Delta=
{
<s>(q_gen_8831) -> q_gen_8831
<z>() -> q_gen_8831
<s, s>(q_gen_8821) -> q_gen_8821
<z, s>(q_gen_8831) -> q_gen_8821
<z, z>() -> q_gen_8821
<s, s, s>(q_gen_8815) -> q_gen_8815
<s, z, s>(q_gen_8821) -> q_gen_8815
<z, s, s>(q_gen_8821) -> q_gen_8815
<z, z, s>(q_gen_8831) -> q_gen_8815
<z, z, z>() -> q_gen_8815
}

Datatype: <nat, nat, nat>
Convolution form: left
}}}

}
--
Equality automata are defined for: {eq_nat}
_|

Teacher's answer:
New clause system:
{
() -> leq([z, s(nn2)]) -> 10  ;  () -> leq([z, z]) -> 10  ;  () -> mult([n, z, z]) -> 11  ;  () -> plus([n, z, n]) -> 11  ;  (leq([nn1, nn2])) -> leq([s(nn1), s(nn2)]) -> 10  ;  (leq([s(nn1), s(nn2)])) -> leq([nn1, nn2]) -> 11  ;  (leq([s(nn1), z])) -> BOT -> 11  ;  (leq([s(z), m]) /\ mult([n, m, _vh])) -> leq([n, _vh]) -> 11  ;  (mult([n, mm, _ph]) /\ plus([n, _ph, _qh])) -> mult([n, s(mm), _qh]) -> 16  ;  (plus([n, mm, _kh])) -> plus([n, s(mm), s(_kh)]) -> 14
}
Sat witness: Yes: ((mult([n, mm, _ph]) /\ plus([n, _ph, _qh])) -> mult([n, s(mm), _qh]), {
_ph -> s(z)  ;  _qh -> s(s(z))  ;  mm -> s(z)  ;  n -> s(z)
})

-------------------------------------------
Step 22, which took 0.011007 s (model generation: 0.009170,  model checking: 0.001837):

Model:
|_
{
leq -> 
{{{
Q={q_gen_8817, q_gen_8819, q_gen_8844},
Q_f={q_gen_8817},
Delta=
{
<s>(q_gen_8819) -> q_gen_8819
<z>() -> q_gen_8819
<s, s>(q_gen_8817) -> q_gen_8817
<z, s>(q_gen_8819) -> q_gen_8817
<z, z>() -> q_gen_8817
<s, s>(q_gen_8844) -> q_gen_8844
<s, z>(q_gen_8819) -> q_gen_8844
}

Datatype: <nat, nat>
Convolution form: left
}}}
  ;  mult -> 
{{{
Q={q_gen_8816, q_gen_8822, q_gen_8823, q_gen_8833, q_gen_8843},
Q_f={q_gen_8816, q_gen_8822},
Delta=
{
<s>(q_gen_8823) -> q_gen_8823
<z>() -> q_gen_8823
<z, z>() -> q_gen_8833
<s, s, s>(q_gen_8816) -> q_gen_8816
<z, s, s>(q_gen_8833) -> q_gen_8816
<z, z, s>(q_gen_8823) -> q_gen_8816
<z, z, z>() -> q_gen_8816
<s, z, z>(q_gen_8823) -> q_gen_8822
<z, s, z>(q_gen_8823) -> q_gen_8822
<s, s, s>(q_gen_8822) -> q_gen_8843
}

Datatype: <nat, nat, nat>
Convolution form: left
}}}
  ;  plus -> 
{{{
Q={q_gen_8815, q_gen_8821, q_gen_8831},
Q_f={q_gen_8815},
Delta=
{
<s>(q_gen_8831) -> q_gen_8831
<z>() -> q_gen_8831
<s, s>(q_gen_8821) -> q_gen_8821
<z, s>(q_gen_8831) -> q_gen_8821
<z, z>() -> q_gen_8821
<s, s, s>(q_gen_8815) -> q_gen_8815
<s, z, s>(q_gen_8821) -> q_gen_8815
<z, s, s>(q_gen_8821) -> q_gen_8815
<z, z, s>(q_gen_8831) -> q_gen_8815
<z, z, z>() -> q_gen_8815
}

Datatype: <nat, nat, nat>
Convolution form: left
}}}

}
--
Equality automata are defined for: {eq_nat}
_|

Teacher's answer:
New clause system:
{
() -> leq([z, s(nn2)]) -> 11  ;  () -> leq([z, z]) -> 11  ;  () -> mult([n, z, z]) -> 12  ;  () -> plus([n, z, n]) -> 12  ;  (leq([nn1, nn2])) -> leq([s(nn1), s(nn2)]) -> 11  ;  (leq([s(nn1), s(nn2)])) -> leq([nn1, nn2]) -> 12  ;  (leq([s(nn1), z])) -> BOT -> 12  ;  (leq([s(z), m]) /\ mult([n, m, _vh])) -> leq([n, _vh]) -> 12  ;  (mult([n, mm, _ph]) /\ plus([n, _ph, _qh])) -> mult([n, s(mm), _qh]) -> 19  ;  (plus([n, mm, _kh])) -> plus([n, s(mm), s(_kh)]) -> 15
}
Sat witness: Yes: ((mult([n, mm, _ph]) /\ plus([n, _ph, _qh])) -> mult([n, s(mm), _qh]), {
_ph -> z  ;  _qh -> s(z)  ;  mm -> s(z)  ;  n -> z
})

-------------------------------------------
Step 23, which took 0.014611 s (model generation: 0.013770,  model checking: 0.000841):

Model:
|_
{
leq -> 
{{{
Q={q_gen_8817, q_gen_8819, q_gen_8844},
Q_f={q_gen_8817},
Delta=
{
<s>(q_gen_8819) -> q_gen_8819
<z>() -> q_gen_8819
<s, s>(q_gen_8817) -> q_gen_8817
<z, s>(q_gen_8819) -> q_gen_8817
<z, z>() -> q_gen_8817
<s, s>(q_gen_8844) -> q_gen_8844
<s, z>(q_gen_8819) -> q_gen_8844
}

Datatype: <nat, nat>
Convolution form: left
}}}
  ;  mult -> 
{{{
Q={q_gen_8816, q_gen_8822, q_gen_8823, q_gen_8833, q_gen_8843},
Q_f={q_gen_8816, q_gen_8822},
Delta=
{
<s>(q_gen_8823) -> q_gen_8823
<z>() -> q_gen_8823
<s, z>(q_gen_8823) -> q_gen_8833
<z, z>() -> q_gen_8833
<z, s, s>(q_gen_8833) -> q_gen_8816
<z, z, s>(q_gen_8823) -> q_gen_8816
<z, z, z>() -> q_gen_8816
<s, s, s>(q_gen_8816) -> q_gen_8822
<s, z, z>(q_gen_8823) -> q_gen_8822
<z, s, z>(q_gen_8823) -> q_gen_8822
<s, s, s>(q_gen_8822) -> q_gen_8843
}

Datatype: <nat, nat, nat>
Convolution form: left
}}}
  ;  plus -> 
{{{
Q={q_gen_8815, q_gen_8821, q_gen_8831},
Q_f={q_gen_8815},
Delta=
{
<s>(q_gen_8831) -> q_gen_8831
<z>() -> q_gen_8831
<s, s>(q_gen_8821) -> q_gen_8821
<z, s>(q_gen_8831) -> q_gen_8821
<z, z>() -> q_gen_8821
<s, s, s>(q_gen_8815) -> q_gen_8815
<s, z, s>(q_gen_8821) -> q_gen_8815
<z, s, s>(q_gen_8821) -> q_gen_8815
<z, z, s>(q_gen_8831) -> q_gen_8815
<z, z, z>() -> q_gen_8815
}

Datatype: <nat, nat, nat>
Convolution form: left
}}}

}
--
Equality automata are defined for: {eq_nat}
_|

Teacher's answer:
New clause system:
{
() -> leq([z, s(nn2)]) -> 12  ;  () -> leq([z, z]) -> 12  ;  () -> mult([n, z, z]) -> 13  ;  () -> plus([n, z, n]) -> 13  ;  (leq([nn1, nn2])) -> leq([s(nn1), s(nn2)]) -> 12  ;  (leq([s(nn1), s(nn2)])) -> leq([nn1, nn2]) -> 13  ;  (leq([s(nn1), z])) -> BOT -> 13  ;  (leq([s(z), m]) /\ mult([n, m, _vh])) -> leq([n, _vh]) -> 13  ;  (mult([n, mm, _ph]) /\ plus([n, _ph, _qh])) -> mult([n, s(mm), _qh]) -> 22  ;  (plus([n, mm, _kh])) -> plus([n, s(mm), s(_kh)]) -> 16
}
Sat witness: Yes: ((mult([n, mm, _ph]) /\ plus([n, _ph, _qh])) -> mult([n, s(mm), _qh]), {
_ph -> s(z)  ;  _qh -> s(z)  ;  mm -> s(z)  ;  n -> s(z)
})

-------------------------------------------
Step 24, which took 0.008253 s (model generation: 0.007252,  model checking: 0.001001):

Model:
|_
{
leq -> 
{{{
Q={q_gen_8817, q_gen_8819, q_gen_8844},
Q_f={q_gen_8817},
Delta=
{
<s>(q_gen_8819) -> q_gen_8819
<z>() -> q_gen_8819
<s, s>(q_gen_8817) -> q_gen_8817
<z, s>(q_gen_8819) -> q_gen_8817
<z, z>() -> q_gen_8817
<s, s>(q_gen_8844) -> q_gen_8844
<s, z>(q_gen_8819) -> q_gen_8844
}

Datatype: <nat, nat>
Convolution form: left
}}}
  ;  mult -> 
{{{
Q={q_gen_8816, q_gen_8823, q_gen_8826, q_gen_8833, q_gen_8842},
Q_f={q_gen_8816, q_gen_8826},
Delta=
{
<s>(q_gen_8823) -> q_gen_8823
<z>() -> q_gen_8823
<s, z>(q_gen_8823) -> q_gen_8833
<z, z>() -> q_gen_8833
<z, s, s>(q_gen_8833) -> q_gen_8816
<z, s, z>(q_gen_8823) -> q_gen_8816
<z, z, z>() -> q_gen_8816
<s, s, s>(q_gen_8816) -> q_gen_8826
<s, s, s>(q_gen_8842) -> q_gen_8826
<s, z, z>(q_gen_8823) -> q_gen_8826
<s, s, s>(q_gen_8826) -> q_gen_8842
<z, z, s>(q_gen_8823) -> q_gen_8842
}

Datatype: <nat, nat, nat>
Convolution form: left
}}}
  ;  plus -> 
{{{
Q={q_gen_8815, q_gen_8821, q_gen_8831},
Q_f={q_gen_8815},
Delta=
{
<s>(q_gen_8831) -> q_gen_8831
<z>() -> q_gen_8831
<s, s>(q_gen_8821) -> q_gen_8821
<z, s>(q_gen_8831) -> q_gen_8821
<z, z>() -> q_gen_8821
<s, s, s>(q_gen_8815) -> q_gen_8815
<s, z, s>(q_gen_8821) -> q_gen_8815
<z, s, s>(q_gen_8821) -> q_gen_8815
<z, z, s>(q_gen_8831) -> q_gen_8815
<z, z, z>() -> q_gen_8815
}

Datatype: <nat, nat, nat>
Convolution form: left
}}}

}
--
Equality automata are defined for: {eq_nat}
_|

Teacher's answer:
New clause system:
{
() -> leq([z, s(nn2)]) -> 13  ;  () -> leq([z, z]) -> 13  ;  () -> mult([n, z, z]) -> 13  ;  () -> plus([n, z, n]) -> 13  ;  (leq([nn1, nn2])) -> leq([s(nn1), s(nn2)]) -> 13  ;  (leq([s(nn1), s(nn2)])) -> leq([nn1, nn2]) -> 13  ;  (leq([s(nn1), z])) -> BOT -> 13  ;  (leq([s(z), m]) /\ mult([n, m, _vh])) -> leq([n, _vh]) -> 16  ;  (mult([n, mm, _ph]) /\ plus([n, _ph, _qh])) -> mult([n, s(mm), _qh]) -> 22  ;  (plus([n, mm, _kh])) -> plus([n, s(mm), s(_kh)]) -> 16
}
Sat witness: Yes: ((leq([s(z), m]) /\ mult([n, m, _vh])) -> leq([n, _vh]), {
_vh -> s(s(z))  ;  m -> s(s(z))  ;  n -> s(s(s(z)))
})

-------------------------------------------
Step 25, which took 0.022940 s (model generation: 0.021336,  model checking: 0.001604):

Model:
|_
{
leq -> 
{{{
Q={q_gen_8817, q_gen_8819, q_gen_8844},
Q_f={q_gen_8817},
Delta=
{
<s>(q_gen_8819) -> q_gen_8819
<z>() -> q_gen_8819
<s, s>(q_gen_8817) -> q_gen_8817
<z, s>(q_gen_8819) -> q_gen_8817
<z, z>() -> q_gen_8817
<s, s>(q_gen_8844) -> q_gen_8844
<s, z>(q_gen_8819) -> q_gen_8844
}

Datatype: <nat, nat>
Convolution form: left
}}}
  ;  mult -> 
{{{
Q={q_gen_8816, q_gen_8823, q_gen_8826, q_gen_8833, q_gen_8843},
Q_f={q_gen_8816, q_gen_8826},
Delta=
{
<s>(q_gen_8823) -> q_gen_8823
<z>() -> q_gen_8823
<s, z>(q_gen_8823) -> q_gen_8833
<z, z>() -> q_gen_8833
<z, s, s>(q_gen_8833) -> q_gen_8816
<z, s, z>(q_gen_8823) -> q_gen_8816
<z, z, s>(q_gen_8823) -> q_gen_8816
<z, z, z>() -> q_gen_8816
<s, s, s>(q_gen_8816) -> q_gen_8826
<s, z, z>(q_gen_8823) -> q_gen_8826
<s, s, s>(q_gen_8826) -> q_gen_8843
<s, s, s>(q_gen_8843) -> q_gen_8843
}

Datatype: <nat, nat, nat>
Convolution form: left
}}}
  ;  plus -> 
{{{
Q={q_gen_8815, q_gen_8821, q_gen_8831},
Q_f={q_gen_8815},
Delta=
{
<s>(q_gen_8831) -> q_gen_8831
<z>() -> q_gen_8831
<s, s>(q_gen_8821) -> q_gen_8821
<z, s>(q_gen_8831) -> q_gen_8821
<z, z>() -> q_gen_8821
<s, s, s>(q_gen_8815) -> q_gen_8815
<s, z, s>(q_gen_8821) -> q_gen_8815
<z, s, s>(q_gen_8821) -> q_gen_8815
<z, z, s>(q_gen_8831) -> q_gen_8815
<z, z, z>() -> q_gen_8815
}

Datatype: <nat, nat, nat>
Convolution form: left
}}}

}
--
Equality automata are defined for: {eq_nat}
_|

Teacher's answer:
New clause system:
{
() -> leq([z, s(nn2)]) -> 14  ;  () -> leq([z, z]) -> 14  ;  () -> mult([n, z, z]) -> 14  ;  () -> plus([n, z, n]) -> 14  ;  (leq([nn1, nn2])) -> leq([s(nn1), s(nn2)]) -> 14  ;  (leq([s(nn1), s(nn2)])) -> leq([nn1, nn2]) -> 14  ;  (leq([s(nn1), z])) -> BOT -> 14  ;  (leq([s(z), m]) /\ mult([n, m, _vh])) -> leq([n, _vh]) -> 17  ;  (mult([n, mm, _ph]) /\ plus([n, _ph, _qh])) -> mult([n, s(mm), _qh]) -> 25  ;  (plus([n, mm, _kh])) -> plus([n, s(mm), s(_kh)]) -> 17
}
Sat witness: Yes: ((mult([n, mm, _ph]) /\ plus([n, _ph, _qh])) -> mult([n, s(mm), _qh]), {
_ph -> z  ;  _qh -> s(s(s(z)))  ;  mm -> z  ;  n -> s(s(z))
})

-------------------------------------------
Step 26, which took 0.013954 s (model generation: 0.013230,  model checking: 0.000724):

Model:
|_
{
leq -> 
{{{
Q={q_gen_8817, q_gen_8819, q_gen_8844},
Q_f={q_gen_8817},
Delta=
{
<s>(q_gen_8819) -> q_gen_8819
<z>() -> q_gen_8819
<s, s>(q_gen_8817) -> q_gen_8817
<z, s>(q_gen_8819) -> q_gen_8817
<z, z>() -> q_gen_8817
<s, s>(q_gen_8844) -> q_gen_8844
<s, z>(q_gen_8819) -> q_gen_8844
}

Datatype: <nat, nat>
Convolution form: left
}}}
  ;  mult -> 
{{{
Q={q_gen_8816, q_gen_8823, q_gen_8826, q_gen_8833, q_gen_8843},
Q_f={q_gen_8816, q_gen_8826},
Delta=
{
<s>(q_gen_8823) -> q_gen_8823
<z>() -> q_gen_8823
<s, z>(q_gen_8823) -> q_gen_8833
<z, s>(q_gen_8823) -> q_gen_8833
<z, z>() -> q_gen_8833
<s, z, s>(q_gen_8833) -> q_gen_8816
<z, s, s>(q_gen_8833) -> q_gen_8816
<z, s, z>(q_gen_8823) -> q_gen_8816
<z, z, s>(q_gen_8823) -> q_gen_8816
<z, z, z>() -> q_gen_8816
<s, s, s>(q_gen_8816) -> q_gen_8826
<s, z, z>(q_gen_8823) -> q_gen_8826
<s, s, s>(q_gen_8826) -> q_gen_8843
<s, s, s>(q_gen_8843) -> q_gen_8843
}

Datatype: <nat, nat, nat>
Convolution form: left
}}}
  ;  plus -> 
{{{
Q={q_gen_8815, q_gen_8821, q_gen_8831},
Q_f={q_gen_8815},
Delta=
{
<s>(q_gen_8831) -> q_gen_8831
<z>() -> q_gen_8831
<s, s>(q_gen_8821) -> q_gen_8821
<z, s>(q_gen_8831) -> q_gen_8821
<z, z>() -> q_gen_8821
<s, s, s>(q_gen_8815) -> q_gen_8815
<s, z, s>(q_gen_8821) -> q_gen_8815
<z, s, s>(q_gen_8821) -> q_gen_8815
<z, z, s>(q_gen_8831) -> q_gen_8815
<z, z, z>() -> q_gen_8815
}

Datatype: <nat, nat, nat>
Convolution form: left
}}}

}
--
Equality automata are defined for: {eq_nat}
_|

Teacher's answer:
New clause system:
{
() -> leq([z, s(nn2)]) -> 15  ;  () -> leq([z, z]) -> 15  ;  () -> mult([n, z, z]) -> 15  ;  () -> plus([n, z, n]) -> 15  ;  (leq([nn1, nn2])) -> leq([s(nn1), s(nn2)]) -> 15  ;  (leq([s(nn1), s(nn2)])) -> leq([nn1, nn2]) -> 15  ;  (leq([s(nn1), z])) -> BOT -> 15  ;  (leq([s(z), m]) /\ mult([n, m, _vh])) -> leq([n, _vh]) -> 20  ;  (mult([n, mm, _ph]) /\ plus([n, _ph, _qh])) -> mult([n, s(mm), _qh]) -> 25  ;  (plus([n, mm, _kh])) -> plus([n, s(mm), s(_kh)]) -> 18
}
Sat witness: Yes: ((leq([s(z), m]) /\ mult([n, m, _vh])) -> leq([n, _vh]), {
_vh -> s(s(z))  ;  m -> s(z)  ;  n -> s(s(s(z)))
})

-------------------------------------------
Step 27, which took 0.011039 s (model generation: 0.010950,  model checking: 0.000089):

Model:
|_
{
leq -> 
{{{
Q={q_gen_8817, q_gen_8819, q_gen_8844, q_gen_8845},
Q_f={q_gen_8817},
Delta=
{
<s>(q_gen_8819) -> q_gen_8819
<z>() -> q_gen_8819
<s, s>(q_gen_8817) -> q_gen_8817
<s, s>(q_gen_8844) -> q_gen_8817
<z, s>(q_gen_8819) -> q_gen_8817
<z, z>() -> q_gen_8817
<s, s>(q_gen_8845) -> q_gen_8844
<s, z>(q_gen_8819) -> q_gen_8845
}

Datatype: <nat, nat>
Convolution form: left
}}}
  ;  mult -> 
{{{
Q={q_gen_8816, q_gen_8823, q_gen_8826, q_gen_8833, q_gen_8842},
Q_f={q_gen_8816, q_gen_8826},
Delta=
{
<s>(q_gen_8823) -> q_gen_8823
<z>() -> q_gen_8823
<s, z>(q_gen_8823) -> q_gen_8833
<z, s>(q_gen_8823) -> q_gen_8833
<z, z>() -> q_gen_8833
<s, s, s>(q_gen_8842) -> q_gen_8816
<z, s, s>(q_gen_8833) -> q_gen_8816
<z, s, z>(q_gen_8823) -> q_gen_8816
<z, z, z>() -> q_gen_8816
<s, s, s>(q_gen_8816) -> q_gen_8826
<s, z, z>(q_gen_8823) -> q_gen_8826
<s, s, s>(q_gen_8826) -> q_gen_8842
<s, z, s>(q_gen_8833) -> q_gen_8842
<z, z, s>(q_gen_8823) -> q_gen_8842
}

Datatype: <nat, nat, nat>
Convolution form: left
}}}
  ;  plus -> 
{{{
Q={q_gen_8815, q_gen_8821, q_gen_8831},
Q_f={q_gen_8815},
Delta=
{
<s>(q_gen_8831) -> q_gen_8831
<z>() -> q_gen_8831
<s, s>(q_gen_8821) -> q_gen_8821
<z, s>(q_gen_8831) -> q_gen_8821
<z, z>() -> q_gen_8821
<s, s, s>(q_gen_8815) -> q_gen_8815
<s, z, s>(q_gen_8821) -> q_gen_8815
<z, s, s>(q_gen_8821) -> q_gen_8815
<z, z, s>(q_gen_8831) -> q_gen_8815
<z, z, z>() -> q_gen_8815
}

Datatype: <nat, nat, nat>
Convolution form: left
}}}

}
--
Equality automata are defined for: {eq_nat}
_|

Teacher's answer:
New clause system:
{
() -> leq([z, s(nn2)]) -> 15  ;  () -> leq([z, z]) -> 15  ;  () -> mult([n, z, z]) -> 15  ;  () -> plus([n, z, n]) -> 15  ;  (leq([nn1, nn2])) -> leq([s(nn1), s(nn2)]) -> 15  ;  (leq([s(nn1), s(nn2)])) -> leq([nn1, nn2]) -> 18  ;  (leq([s(nn1), z])) -> BOT -> 16  ;  (leq([s(z), m]) /\ mult([n, m, _vh])) -> leq([n, _vh]) -> 20  ;  (mult([n, mm, _ph]) /\ plus([n, _ph, _qh])) -> mult([n, s(mm), _qh]) -> 25  ;  (plus([n, mm, _kh])) -> plus([n, s(mm), s(_kh)]) -> 18
}
Sat witness: Yes: ((leq([s(nn1), s(nn2)])) -> leq([nn1, nn2]), {
nn1 -> s(s(z))  ;  nn2 -> s(z)
})

-------------------------------------------
Step 28, which took 0.012560 s (model generation: 0.011968,  model checking: 0.000592):

Model:
|_
{
leq -> 
{{{
Q={q_gen_8817, q_gen_8819, q_gen_8844},
Q_f={q_gen_8817},
Delta=
{
<s>(q_gen_8819) -> q_gen_8819
<z>() -> q_gen_8819
<s, s>(q_gen_8817) -> q_gen_8817
<z, s>(q_gen_8819) -> q_gen_8817
<z, z>() -> q_gen_8817
<s, s>(q_gen_8844) -> q_gen_8844
<s, z>(q_gen_8819) -> q_gen_8844
}

Datatype: <nat, nat>
Convolution form: left
}}}
  ;  mult -> 
{{{
Q={q_gen_8816, q_gen_8823, q_gen_8826, q_gen_8833, q_gen_8843, q_gen_8862},
Q_f={q_gen_8816, q_gen_8826},
Delta=
{
<s>(q_gen_8823) -> q_gen_8823
<z>() -> q_gen_8823
<s, z>(q_gen_8823) -> q_gen_8833
<z, z>() -> q_gen_8833
<z, s>(q_gen_8823) -> q_gen_8862
<s, z, s>(q_gen_8862) -> q_gen_8816
<z, s, s>(q_gen_8833) -> q_gen_8816
<z, s, z>(q_gen_8823) -> q_gen_8816
<z, z, s>(q_gen_8823) -> q_gen_8816
<z, z, z>() -> q_gen_8816
<s, s, s>(q_gen_8816) -> q_gen_8826
<s, z, z>(q_gen_8823) -> q_gen_8826
<s, s, s>(q_gen_8826) -> q_gen_8843
<s, s, s>(q_gen_8843) -> q_gen_8843
<s, z, s>(q_gen_8833) -> q_gen_8843
}

Datatype: <nat, nat, nat>
Convolution form: left
}}}
  ;  plus -> 
{{{
Q={q_gen_8815, q_gen_8821, q_gen_8831},
Q_f={q_gen_8815},
Delta=
{
<s>(q_gen_8831) -> q_gen_8831
<z>() -> q_gen_8831
<s, s>(q_gen_8821) -> q_gen_8821
<z, s>(q_gen_8831) -> q_gen_8821
<z, z>() -> q_gen_8821
<s, s, s>(q_gen_8815) -> q_gen_8815
<s, z, s>(q_gen_8821) -> q_gen_8815
<z, s, s>(q_gen_8821) -> q_gen_8815
<z, z, s>(q_gen_8831) -> q_gen_8815
<z, z, z>() -> q_gen_8815
}

Datatype: <nat, nat, nat>
Convolution form: left
}}}

}
--
Equality automata are defined for: {eq_nat}
_|

Teacher's answer:
New clause system:
{
() -> leq([z, s(nn2)]) -> 16  ;  () -> leq([z, z]) -> 16  ;  () -> mult([n, z, z]) -> 16  ;  () -> plus([n, z, n]) -> 16  ;  (leq([nn1, nn2])) -> leq([s(nn1), s(nn2)]) -> 16  ;  (leq([s(nn1), s(nn2)])) -> leq([nn1, nn2]) -> 19  ;  (leq([s(nn1), z])) -> BOT -> 17  ;  (leq([s(z), m]) /\ mult([n, m, _vh])) -> leq([n, _vh]) -> 21  ;  (mult([n, mm, _ph]) /\ plus([n, _ph, _qh])) -> mult([n, s(mm), _qh]) -> 28  ;  (plus([n, mm, _kh])) -> plus([n, s(mm), s(_kh)]) -> 19
}
Sat witness: Yes: ((mult([n, mm, _ph]) /\ plus([n, _ph, _qh])) -> mult([n, s(mm), _qh]), {
_ph -> z  ;  _qh -> s(s(z))  ;  mm -> z  ;  n -> s(s(z))
})

-------------------------------------------
Step 29, which took 0.013203 s (model generation: 0.012225,  model checking: 0.000978):

Model:
|_
{
leq -> 
{{{
Q={q_gen_8817, q_gen_8819, q_gen_8844},
Q_f={q_gen_8817},
Delta=
{
<s>(q_gen_8819) -> q_gen_8819
<z>() -> q_gen_8819
<s, s>(q_gen_8817) -> q_gen_8817
<z, s>(q_gen_8819) -> q_gen_8817
<z, z>() -> q_gen_8817
<s, s>(q_gen_8844) -> q_gen_8844
<s, z>(q_gen_8819) -> q_gen_8844
}

Datatype: <nat, nat>
Convolution form: left
}}}
  ;  mult -> 
{{{
Q={q_gen_8816, q_gen_8823, q_gen_8826, q_gen_8833, q_gen_8843, q_gen_8852},
Q_f={q_gen_8816, q_gen_8826},
Delta=
{
<s>(q_gen_8823) -> q_gen_8823
<z>() -> q_gen_8823
<z, s>(q_gen_8823) -> q_gen_8833
<z, z>() -> q_gen_8833
<s, z>(q_gen_8823) -> q_gen_8852
<s, z, s>(q_gen_8833) -> q_gen_8816
<z, s, s>(q_gen_8833) -> q_gen_8816
<z, s, z>(q_gen_8823) -> q_gen_8816
<z, z, s>(q_gen_8823) -> q_gen_8816
<z, z, z>() -> q_gen_8816
<s, s, s>(q_gen_8816) -> q_gen_8826
<s, z, z>(q_gen_8823) -> q_gen_8826
<z, s, s>(q_gen_8852) -> q_gen_8826
<s, s, s>(q_gen_8826) -> q_gen_8843
<s, s, s>(q_gen_8843) -> q_gen_8843
<s, z, s>(q_gen_8852) -> q_gen_8843
}

Datatype: <nat, nat, nat>
Convolution form: left
}}}
  ;  plus -> 
{{{
Q={q_gen_8815, q_gen_8821, q_gen_8831},
Q_f={q_gen_8815},
Delta=
{
<s>(q_gen_8831) -> q_gen_8831
<z>() -> q_gen_8831
<s, s>(q_gen_8821) -> q_gen_8821
<z, s>(q_gen_8831) -> q_gen_8821
<z, z>() -> q_gen_8821
<s, s, s>(q_gen_8815) -> q_gen_8815
<s, z, s>(q_gen_8821) -> q_gen_8815
<z, s, s>(q_gen_8821) -> q_gen_8815
<z, z, s>(q_gen_8831) -> q_gen_8815
<z, z, z>() -> q_gen_8815
}

Datatype: <nat, nat, nat>
Convolution form: left
}}}

}
--
Equality automata are defined for: {eq_nat}
_|

Teacher's answer:
New clause system:
{
() -> leq([z, s(nn2)]) -> 17  ;  () -> leq([z, z]) -> 17  ;  () -> mult([n, z, z]) -> 17  ;  () -> plus([n, z, n]) -> 17  ;  (leq([nn1, nn2])) -> leq([s(nn1), s(nn2)]) -> 17  ;  (leq([s(nn1), s(nn2)])) -> leq([nn1, nn2]) -> 20  ;  (leq([s(nn1), z])) -> BOT -> 18  ;  (leq([s(z), m]) /\ mult([n, m, _vh])) -> leq([n, _vh]) -> 22  ;  (mult([n, mm, _ph]) /\ plus([n, _ph, _qh])) -> mult([n, s(mm), _qh]) -> 31  ;  (plus([n, mm, _kh])) -> plus([n, s(mm), s(_kh)]) -> 20
}
Sat witness: Yes: ((mult([n, mm, _ph]) /\ plus([n, _ph, _qh])) -> mult([n, s(mm), _qh]), {
_ph -> s(z)  ;  _qh -> s(s(z))  ;  mm -> s(s(z))  ;  n -> s(z)
})

-------------------------------------------
Step 30, which took 0.013779 s (model generation: 0.012841,  model checking: 0.000938):

Model:
|_
{
leq -> 
{{{
Q={q_gen_8817, q_gen_8819, q_gen_8844},
Q_f={q_gen_8817},
Delta=
{
<s>(q_gen_8819) -> q_gen_8819
<z>() -> q_gen_8819
<s, s>(q_gen_8817) -> q_gen_8817
<z, s>(q_gen_8819) -> q_gen_8817
<z, z>() -> q_gen_8817
<s, s>(q_gen_8844) -> q_gen_8844
<s, z>(q_gen_8819) -> q_gen_8844
}

Datatype: <nat, nat>
Convolution form: left
}}}
  ;  mult -> 
{{{
Q={q_gen_8816, q_gen_8823, q_gen_8826, q_gen_8833, q_gen_8843, q_gen_8852},
Q_f={q_gen_8816, q_gen_8826},
Delta=
{
<s>(q_gen_8823) -> q_gen_8823
<z>() -> q_gen_8823
<z, s>(q_gen_8823) -> q_gen_8833
<z, z>() -> q_gen_8833
<s, z>(q_gen_8823) -> q_gen_8852
<s, z, s>(q_gen_8833) -> q_gen_8816
<z, s, s>(q_gen_8833) -> q_gen_8816
<z, s, s>(q_gen_8852) -> q_gen_8816
<z, s, z>(q_gen_8823) -> q_gen_8816
<z, z, s>(q_gen_8823) -> q_gen_8816
<z, z, z>() -> q_gen_8816
<s, s, s>(q_gen_8816) -> q_gen_8826
<s, z, z>(q_gen_8823) -> q_gen_8826
<s, s, s>(q_gen_8826) -> q_gen_8843
<s, s, s>(q_gen_8843) -> q_gen_8843
<s, z, s>(q_gen_8852) -> q_gen_8843
}

Datatype: <nat, nat, nat>
Convolution form: left
}}}
  ;  plus -> 
{{{
Q={q_gen_8815, q_gen_8821, q_gen_8831},
Q_f={q_gen_8815},
Delta=
{
<s>(q_gen_8831) -> q_gen_8831
<z>() -> q_gen_8831
<s, s>(q_gen_8821) -> q_gen_8821
<z, s>(q_gen_8831) -> q_gen_8821
<z, z>() -> q_gen_8821
<s, s, s>(q_gen_8815) -> q_gen_8815
<s, z, s>(q_gen_8821) -> q_gen_8815
<z, s, s>(q_gen_8821) -> q_gen_8815
<z, z, s>(q_gen_8831) -> q_gen_8815
<z, z, z>() -> q_gen_8815
}

Datatype: <nat, nat, nat>
Convolution form: left
}}}

}
--
Equality automata are defined for: {eq_nat}
_|

Teacher's answer:
New clause system:
{
() -> leq([z, s(nn2)]) -> 18  ;  () -> leq([z, z]) -> 18  ;  () -> mult([n, z, z]) -> 18  ;  () -> plus([n, z, n]) -> 18  ;  (leq([nn1, nn2])) -> leq([s(nn1), s(nn2)]) -> 18  ;  (leq([s(nn1), s(nn2)])) -> leq([nn1, nn2]) -> 21  ;  (leq([s(nn1), z])) -> BOT -> 19  ;  (leq([s(z), m]) /\ mult([n, m, _vh])) -> leq([n, _vh]) -> 23  ;  (mult([n, mm, _ph]) /\ plus([n, _ph, _qh])) -> mult([n, s(mm), _qh]) -> 34  ;  (plus([n, mm, _kh])) -> plus([n, s(mm), s(_kh)]) -> 21
}
Sat witness: Yes: ((mult([n, mm, _ph]) /\ plus([n, _ph, _qh])) -> mult([n, s(mm), _qh]), {
_ph -> s(s(z))  ;  _qh -> s(s(z))  ;  mm -> s(z)  ;  n -> s(s(z))
})

-------------------------------------------
Step 31, which took 0.014846 s (model generation: 0.014231,  model checking: 0.000615):

Model:
|_
{
leq -> 
{{{
Q={q_gen_8817, q_gen_8819, q_gen_8844},
Q_f={q_gen_8817},
Delta=
{
<s>(q_gen_8819) -> q_gen_8819
<z>() -> q_gen_8819
<s, s>(q_gen_8817) -> q_gen_8817
<z, s>(q_gen_8819) -> q_gen_8817
<z, z>() -> q_gen_8817
<s, s>(q_gen_8844) -> q_gen_8844
<s, z>(q_gen_8819) -> q_gen_8844
}

Datatype: <nat, nat>
Convolution form: left
}}}
  ;  mult -> 
{{{
Q={q_gen_8816, q_gen_8823, q_gen_8826, q_gen_8833, q_gen_8843, q_gen_8852},
Q_f={q_gen_8816, q_gen_8826},
Delta=
{
<s>(q_gen_8823) -> q_gen_8823
<z>() -> q_gen_8823
<z, s>(q_gen_8823) -> q_gen_8833
<z, z>() -> q_gen_8833
<s, z>(q_gen_8823) -> q_gen_8852
<s, s, s>(q_gen_8816) -> q_gen_8816
<s, z, s>(q_gen_8833) -> q_gen_8816
<z, s, s>(q_gen_8833) -> q_gen_8816
<z, s, s>(q_gen_8852) -> q_gen_8816
<z, s, z>(q_gen_8823) -> q_gen_8816
<z, z, s>(q_gen_8823) -> q_gen_8816
<z, z, z>() -> q_gen_8816
<s, z, z>(q_gen_8823) -> q_gen_8826
<s, s, s>(q_gen_8826) -> q_gen_8843
<s, s, s>(q_gen_8843) -> q_gen_8843
<s, z, s>(q_gen_8852) -> q_gen_8843
}

Datatype: <nat, nat, nat>
Convolution form: left
}}}
  ;  plus -> 
{{{
Q={q_gen_8815, q_gen_8821, q_gen_8831},
Q_f={q_gen_8815},
Delta=
{
<s>(q_gen_8831) -> q_gen_8831
<z>() -> q_gen_8831
<s, s>(q_gen_8821) -> q_gen_8821
<z, s>(q_gen_8831) -> q_gen_8821
<z, z>() -> q_gen_8821
<s, s, s>(q_gen_8815) -> q_gen_8815
<s, z, s>(q_gen_8821) -> q_gen_8815
<z, s, s>(q_gen_8821) -> q_gen_8815
<z, z, s>(q_gen_8831) -> q_gen_8815
<z, z, z>() -> q_gen_8815
}

Datatype: <nat, nat, nat>
Convolution form: left
}}}

}
--
Equality automata are defined for: {eq_nat}
_|

Teacher's answer:
New clause system:
{
() -> leq([z, s(nn2)]) -> 19  ;  () -> leq([z, z]) -> 19  ;  () -> mult([n, z, z]) -> 19  ;  () -> plus([n, z, n]) -> 19  ;  (leq([nn1, nn2])) -> leq([s(nn1), s(nn2)]) -> 19  ;  (leq([s(nn1), s(nn2)])) -> leq([nn1, nn2]) -> 22  ;  (leq([s(nn1), z])) -> BOT -> 20  ;  (leq([s(z), m]) /\ mult([n, m, _vh])) -> leq([n, _vh]) -> 24  ;  (mult([n, mm, _ph]) /\ plus([n, _ph, _qh])) -> mult([n, s(mm), _qh]) -> 37  ;  (plus([n, mm, _kh])) -> plus([n, s(mm), s(_kh)]) -> 22
}
Sat witness: Yes: ((mult([n, mm, _ph]) /\ plus([n, _ph, _qh])) -> mult([n, s(mm), _qh]), {
_ph -> z  ;  _qh -> s(s(s(z)))  ;  mm -> z  ;  n -> s(s(s(z)))
})

-------------------------------------------
Step 32, which took 0.018726 s (model generation: 0.017427,  model checking: 0.001299):

Model:
|_
{
leq -> 
{{{
Q={q_gen_8817, q_gen_8819, q_gen_8844},
Q_f={q_gen_8817},
Delta=
{
<s>(q_gen_8819) -> q_gen_8819
<z>() -> q_gen_8819
<s, s>(q_gen_8817) -> q_gen_8817
<z, s>(q_gen_8819) -> q_gen_8817
<z, z>() -> q_gen_8817
<s, s>(q_gen_8844) -> q_gen_8844
<s, z>(q_gen_8819) -> q_gen_8844
}

Datatype: <nat, nat>
Convolution form: left
}}}
  ;  mult -> 
{{{
Q={q_gen_8816, q_gen_8823, q_gen_8826, q_gen_8833, q_gen_8843, q_gen_8852},
Q_f={q_gen_8816, q_gen_8826},
Delta=
{
<s>(q_gen_8823) -> q_gen_8823
<z>() -> q_gen_8823
<s, s>(q_gen_8833) -> q_gen_8833
<z, s>(q_gen_8823) -> q_gen_8833
<z, z>() -> q_gen_8833
<s, z>(q_gen_8823) -> q_gen_8852
<s, s, s>(q_gen_8816) -> q_gen_8816
<s, z, s>(q_gen_8833) -> q_gen_8816
<z, s, s>(q_gen_8833) -> q_gen_8816
<z, s, s>(q_gen_8852) -> q_gen_8816
<z, s, z>(q_gen_8823) -> q_gen_8816
<z, z, s>(q_gen_8823) -> q_gen_8816
<z, z, z>() -> q_gen_8816
<s, z, z>(q_gen_8823) -> q_gen_8826
<s, s, s>(q_gen_8826) -> q_gen_8843
<s, s, s>(q_gen_8843) -> q_gen_8843
<s, z, s>(q_gen_8852) -> q_gen_8843
}

Datatype: <nat, nat, nat>
Convolution form: left
}}}
  ;  plus -> 
{{{
Q={q_gen_8815, q_gen_8821, q_gen_8831},
Q_f={q_gen_8815},
Delta=
{
<s>(q_gen_8831) -> q_gen_8831
<z>() -> q_gen_8831
<s, s>(q_gen_8821) -> q_gen_8821
<z, s>(q_gen_8831) -> q_gen_8821
<z, z>() -> q_gen_8821
<s, s, s>(q_gen_8815) -> q_gen_8815
<s, z, s>(q_gen_8821) -> q_gen_8815
<z, s, s>(q_gen_8821) -> q_gen_8815
<z, z, s>(q_gen_8831) -> q_gen_8815
<z, z, z>() -> q_gen_8815
}

Datatype: <nat, nat, nat>
Convolution form: left
}}}

}
--
Equality automata are defined for: {eq_nat}
_|

Teacher's answer:
New clause system:
{
() -> leq([z, s(nn2)]) -> 20  ;  () -> leq([z, z]) -> 20  ;  () -> mult([n, z, z]) -> 20  ;  () -> plus([n, z, n]) -> 20  ;  (leq([nn1, nn2])) -> leq([s(nn1), s(nn2)]) -> 20  ;  (leq([s(nn1), s(nn2)])) -> leq([nn1, nn2]) -> 23  ;  (leq([s(nn1), z])) -> BOT -> 21  ;  (leq([s(z), m]) /\ mult([n, m, _vh])) -> leq([n, _vh]) -> 25  ;  (mult([n, mm, _ph]) /\ plus([n, _ph, _qh])) -> mult([n, s(mm), _qh]) -> 40  ;  (plus([n, mm, _kh])) -> plus([n, s(mm), s(_kh)]) -> 23
}
Sat witness: Yes: ((mult([n, mm, _ph]) /\ plus([n, _ph, _qh])) -> mult([n, s(mm), _qh]), {
_ph -> z  ;  _qh -> s(s(z))  ;  mm -> s(s(z))  ;  n -> z
})

-------------------------------------------
Step 33, which took 0.021221 s (model generation: 0.020532,  model checking: 0.000689):

Model:
|_
{
leq -> 
{{{
Q={q_gen_8817, q_gen_8819, q_gen_8844},
Q_f={q_gen_8817},
Delta=
{
<s>(q_gen_8819) -> q_gen_8819
<z>() -> q_gen_8819
<s, s>(q_gen_8817) -> q_gen_8817
<z, s>(q_gen_8819) -> q_gen_8817
<z, z>() -> q_gen_8817
<s, s>(q_gen_8844) -> q_gen_8844
<s, z>(q_gen_8819) -> q_gen_8844
}

Datatype: <nat, nat>
Convolution form: left
}}}
  ;  mult -> 
{{{
Q={q_gen_8816, q_gen_8823, q_gen_8826, q_gen_8833, q_gen_8843, q_gen_8852},
Q_f={q_gen_8816, q_gen_8826},
Delta=
{
<s>(q_gen_8823) -> q_gen_8823
<z>() -> q_gen_8823
<s, s>(q_gen_8833) -> q_gen_8833
<s, s>(q_gen_8852) -> q_gen_8833
<z, s>(q_gen_8823) -> q_gen_8833
<z, z>() -> q_gen_8833
<s, z>(q_gen_8823) -> q_gen_8852
<s, s, s>(q_gen_8816) -> q_gen_8816
<s, z, s>(q_gen_8833) -> q_gen_8816
<z, s, s>(q_gen_8833) -> q_gen_8816
<z, s, s>(q_gen_8852) -> q_gen_8816
<z, s, z>(q_gen_8823) -> q_gen_8816
<z, z, s>(q_gen_8823) -> q_gen_8816
<z, z, z>() -> q_gen_8816
<s, z, s>(q_gen_8852) -> q_gen_8826
<s, z, z>(q_gen_8823) -> q_gen_8826
<s, s, s>(q_gen_8826) -> q_gen_8843
<s, s, s>(q_gen_8843) -> q_gen_8843
}

Datatype: <nat, nat, nat>
Convolution form: left
}}}
  ;  plus -> 
{{{
Q={q_gen_8815, q_gen_8821, q_gen_8831},
Q_f={q_gen_8815},
Delta=
{
<s>(q_gen_8831) -> q_gen_8831
<z>() -> q_gen_8831
<s, s>(q_gen_8821) -> q_gen_8821
<z, s>(q_gen_8831) -> q_gen_8821
<z, z>() -> q_gen_8821
<s, s, s>(q_gen_8815) -> q_gen_8815
<s, z, s>(q_gen_8821) -> q_gen_8815
<z, s, s>(q_gen_8821) -> q_gen_8815
<z, z, s>(q_gen_8831) -> q_gen_8815
<z, z, z>() -> q_gen_8815
}

Datatype: <nat, nat, nat>
Convolution form: left
}}}

}
--
Equality automata are defined for: {eq_nat}
_|

Teacher's answer:
New clause system:
{
() -> leq([z, s(nn2)]) -> 21  ;  () -> leq([z, z]) -> 21  ;  () -> mult([n, z, z]) -> 21  ;  () -> plus([n, z, n]) -> 21  ;  (leq([nn1, nn2])) -> leq([s(nn1), s(nn2)]) -> 21  ;  (leq([s(nn1), s(nn2)])) -> leq([nn1, nn2]) -> 24  ;  (leq([s(nn1), z])) -> BOT -> 22  ;  (leq([s(z), m]) /\ mult([n, m, _vh])) -> leq([n, _vh]) -> 28  ;  (mult([n, mm, _ph]) /\ plus([n, _ph, _qh])) -> mult([n, s(mm), _qh]) -> 40  ;  (plus([n, mm, _kh])) -> plus([n, s(mm), s(_kh)]) -> 24
}
Sat witness: Yes: ((leq([s(z), m]) /\ mult([n, m, _vh])) -> leq([n, _vh]), {
_vh -> s(s(s(z)))  ;  m -> s(z)  ;  n -> s(s(s(s(z))))
})

Total time: 0.368163
Reason for stopping: Proved

