Solving ../../../../benchmarks/smtlib/true/tree_shallow_taller_node.smt2...

Inference procedure has parameters:
Ice fuel: 200
Timeout: 40s
Convolution: left


Learning problem is:

env: {
elt -> {a, b}  ;  etree -> {leaf, node}  ;  nat -> {s, z}
}
definition:
{
(le_nat, P:
{() -> le_nat([z, s(nn2)])
(le_nat([nn1, nn2])) -> le_nat([s(nn1), s(nn2)])
(le_nat([s(nn1), s(nn2)])) -> le_nat([nn1, nn2])
(le_nat([s(nn1), z])) -> BOT
(le_nat([z, z])) -> BOT}
)
(max, F:
{(le_nat([n, m])) -> max([n, m, m])
(not le_nat([n, m])) -> max([n, m, n])}
(max([_g, _h, _i]) /\ max([_g, _h, _j])) -> eq_nat([_i, _j])
)
(shallower, P:
{() -> shallower([leaf, n])
(shallower([t1, m]) /\ shallower([t2, m])) -> shallower([node(e, t1, t2), s(m)])
(shallower([t1, m]) /\ shallower([node(e, t1, t2), s(m)])) -> shallower([t2, m])
(not shallower([t1, m]) /\ shallower([node(e, t1, t2), s(m)])) -> BOT
(shallower([node(e, t1, t2), z])) -> BOT}
)
(taller, P:
{() -> taller([leaf, z])
() -> taller([node(e, t1, t2), z])
(taller([t1, m])) -> taller([node(e, t1, t2), s(m)])
(not taller([t1, m]) /\ taller([t2, m])) -> taller([node(e, t1, t2), s(m)])
(not taller([t1, m]) /\ not taller([t2, m]) /\ taller([node(e, t1, t2), s(m)])) -> BOT
(taller([leaf, s(m)])) -> BOT}
)
}

properties:
{(max([n1, n2, _k]) /\ taller([t1, n1]) /\ taller([t2, n2])) -> taller([node(e, t1, t2), s(_k)]), (max([n1, n2, _l]) /\ shallower([t1, n1]) /\ shallower([t2, n2])) -> shallower([node(e, t1, t2), s(_l)])}


over-approximation: {le_nat, max}
under-approximation: {le_nat}

Clause system for inference is:

{
() -> le_nat([z, s(nn2)]) -> 0  ;  () -> shallower([leaf, n]) -> 0  ;  () -> taller([leaf, z]) -> 0  ;  () -> taller([node(e, t1, t2), z]) -> 0  ;  (le_nat([n, m])) -> max([n, m, m]) -> 0  ;  (not le_nat([n, m])) -> max([n, m, n]) -> 0  ;  (le_nat([nn1, nn2])) -> le_nat([s(nn1), s(nn2)]) -> 0  ;  (le_nat([s(nn1), s(nn2)])) -> le_nat([nn1, nn2]) -> 0  ;  (le_nat([s(nn1), z])) -> BOT -> 0  ;  (le_nat([z, z])) -> BOT -> 0  ;  (max([n1, n2, _k]) /\ taller([t1, n1]) /\ taller([t2, n2])) -> taller([node(e, t1, t2), s(_k)]) -> 0  ;  (max([n1, n2, _l]) /\ shallower([t1, n1]) /\ shallower([t2, n2])) -> shallower([node(e, t1, t2), s(_l)]) -> 0  ;  (shallower([t1, m]) /\ shallower([t2, m])) -> shallower([node(e, t1, t2), s(m)]) -> 0  ;  (shallower([t1, m]) /\ shallower([node(e, t1, t2), s(m)])) -> shallower([t2, m]) -> 0  ;  (not shallower([t1, m]) /\ shallower([node(e, t1, t2), s(m)])) -> BOT -> 0  ;  (shallower([node(e, t1, t2), z])) -> BOT -> 0  ;  (taller([t1, m])) -> taller([node(e, t1, t2), s(m)]) -> 0  ;  (not taller([t1, m]) /\ taller([t2, m])) -> taller([node(e, t1, t2), s(m)]) -> 0  ;  (not taller([t1, m]) /\ not taller([t2, m]) /\ taller([node(e, t1, t2), s(m)])) -> BOT -> 0  ;  (taller([leaf, s(m)])) -> BOT -> 0
}


Solving took 40.001693 seconds.
DontKnow. Stopped because: timeout
Working model:
|_
{
le_nat -> 
{{{
Q={q_gen_13036, q_gen_13043, q_gen_13044, q_gen_13056, q_gen_13068, q_gen_13072, q_gen_13073, q_gen_13088},
Q_f={},
Delta=
{
<z>() -> q_gen_13044
<s>(q_gen_13044) -> q_gen_13073
<z, z>() -> q_gen_13036
<z, s>(q_gen_13044) -> q_gen_13043
<s, s>(q_gen_13043) -> q_gen_13056
<s, s>(q_gen_13036) -> q_gen_13068
<z, s>(q_gen_13073) -> q_gen_13072
<s, z>(q_gen_13044) -> q_gen_13088
}

Datatype: <nat, nat>
Convolution form: left
}}}
  ;  max -> 
{{{
Q={q_gen_13037, q_gen_13057, q_gen_13058, q_gen_13069, q_gen_13078, q_gen_13079, q_gen_13089},
Q_f={},
Delta=
{
<z, z>() -> q_gen_13058
<s, s>(q_gen_13058) -> q_gen_13079
<z, z, z>() -> q_gen_13037
<z, s, s>(q_gen_13058) -> q_gen_13057
<s, s, s>(q_gen_13037) -> q_gen_13069
<z, s, s>(q_gen_13079) -> q_gen_13078
<s, z, s>(q_gen_13058) -> q_gen_13089
}

Datatype: <nat, nat, nat>
Convolution form: left
}}}
  ;  shallower -> 
{{{
Q={q_gen_13042, q_gen_13053, q_gen_13054, q_gen_13055, q_gen_13059, q_gen_13060, q_gen_13070, q_gen_13071, q_gen_13076, q_gen_13077, q_gen_13082, q_gen_13083, q_gen_13090, q_gen_13091},
Q_f={},
Delta=
{
<leaf>() -> q_gen_13054
<z>() -> q_gen_13071
<s>(q_gen_13071) -> q_gen_13091
<leaf, z>() -> q_gen_13042
<node, s>(q_gen_13055, q_gen_13054, q_gen_13054) -> q_gen_13053
<b, z>() -> q_gen_13055
<node, s>(q_gen_13060, q_gen_13054, q_gen_13054) -> q_gen_13059
<a, z>() -> q_gen_13060
<leaf, s>(q_gen_13071) -> q_gen_13070
<node, s>(q_gen_13077, q_gen_13054, q_gen_13054) -> q_gen_13076
<b, s>(q_gen_13071) -> q_gen_13077
<node, s>(q_gen_13083, q_gen_13054, q_gen_13054) -> q_gen_13082
<a, s>(q_gen_13071) -> q_gen_13083
<leaf, s>(q_gen_13091) -> q_gen_13090
}

Datatype: <etree, nat>
Convolution form: left
}}}
  ;  taller -> 
{{{
Q={q_gen_13038, q_gen_13039, q_gen_13040, q_gen_13041, q_gen_13045, q_gen_13046, q_gen_13047, q_gen_13048, q_gen_13049, q_gen_13050, q_gen_13051, q_gen_13052, q_gen_13061, q_gen_13062, q_gen_13063, q_gen_13064, q_gen_13065, q_gen_13066, q_gen_13067, q_gen_13074, q_gen_13075, q_gen_13080, q_gen_13081, q_gen_13084, q_gen_13085, q_gen_13086, q_gen_13087},
Q_f={},
Delta=
{
<leaf>() -> q_gen_13039
<b>() -> q_gen_13040
<node>(q_gen_13047, q_gen_13039, q_gen_13039) -> q_gen_13046
<a>() -> q_gen_13047
<node>(q_gen_13047, q_gen_13039, q_gen_13046) -> q_gen_13049
<node>(q_gen_13040, q_gen_13046, q_gen_13046) -> q_gen_13063
<z>() -> q_gen_13065
<node>(q_gen_13040, q_gen_13039, q_gen_13039) -> q_gen_13081
<node>(q_gen_13040, q_gen_13081, q_gen_13081) -> q_gen_13086
<node, z>(q_gen_13040, q_gen_13039, q_gen_13039) -> q_gen_13038
<leaf, z>() -> q_gen_13041
<node, z>(q_gen_13047, q_gen_13039, q_gen_13046) -> q_gen_13045
<node, s>(q_gen_13050, q_gen_13049, q_gen_13039) -> q_gen_13048
<b, z>() -> q_gen_13050
<node, s>(q_gen_13052, q_gen_13039, q_gen_13039) -> q_gen_13051
<a, z>() -> q_gen_13052
<node, s>(q_gen_13050, q_gen_13046, q_gen_13046) -> q_gen_13061
<node, s>(q_gen_13064, q_gen_13039, q_gen_13063) -> q_gen_13062
<b, s>(q_gen_13065) -> q_gen_13064
<leaf, s>(q_gen_13065) -> q_gen_13066
<node, s>(q_gen_13064, q_gen_13039, q_gen_13039) -> q_gen_13067
<node, s>(q_gen_13064, q_gen_13039, q_gen_13046) -> q_gen_13074
<node, s>(q_gen_13050, q_gen_13039, q_gen_13039) -> q_gen_13075
<node, z>(q_gen_13040, q_gen_13039, q_gen_13081) -> q_gen_13080
<node, s>(q_gen_13050, q_gen_13081, q_gen_13039) -> q_gen_13084
<node, s>(q_gen_13064, q_gen_13039, q_gen_13086) -> q_gen_13085
<node, s>(q_gen_13050, q_gen_13081, q_gen_13081) -> q_gen_13087
}

Datatype: <etree, nat>
Convolution form: left
}}}

}
--
Equality automata are defined for: {eq_elt, eq_etree, eq_nat}
_|

-------------------
STEPS:
-------------------------------------------
Step 0, which took 0.004071 s (model generation: 0.003707,  model checking: 0.000364):

Model:
|_
{
le_nat -> 
{{{
Q={},
Q_f={},
Delta=
{

}

Datatype: <nat, nat>
Convolution form: left
}}}
  ;  max -> 
{{{
Q={},
Q_f={},
Delta=
{

}

Datatype: <nat, nat, nat>
Convolution form: left
}}}
  ;  shallower -> 
{{{
Q={},
Q_f={},
Delta=
{

}

Datatype: <etree, nat>
Convolution form: left
}}}
  ;  taller -> 
{{{
Q={},
Q_f={},
Delta=
{

}

Datatype: <etree, nat>
Convolution form: left
}}}

}
--
Equality automata are defined for: {eq_elt, eq_etree, eq_nat}
_|

Teacher's answer:
New clause system:
{
() -> le_nat([z, s(nn2)]) -> 0  ;  () -> shallower([leaf, n]) -> 0  ;  () -> taller([leaf, z]) -> 0  ;  () -> taller([node(e, t1, t2), z]) -> 0  ;  (le_nat([n, m])) -> max([n, m, m]) -> 0  ;  (not le_nat([n, m])) -> max([n, m, n]) -> 3  ;  (le_nat([nn1, nn2])) -> le_nat([s(nn1), s(nn2)]) -> 1  ;  (le_nat([s(nn1), s(nn2)])) -> le_nat([nn1, nn2]) -> 1  ;  (le_nat([s(nn1), z])) -> BOT -> 1  ;  (le_nat([z, z])) -> BOT -> 1  ;  (max([n1, n2, _k]) /\ taller([t1, n1]) /\ taller([t2, n2])) -> taller([node(e, t1, t2), s(_k)]) -> 1  ;  (max([n1, n2, _l]) /\ shallower([t1, n1]) /\ shallower([t2, n2])) -> shallower([node(e, t1, t2), s(_l)]) -> 1  ;  (shallower([t1, m]) /\ shallower([t2, m])) -> shallower([node(e, t1, t2), s(m)]) -> 1  ;  (shallower([t1, m]) /\ shallower([node(e, t1, t2), s(m)])) -> shallower([t2, m]) -> 1  ;  (not shallower([t1, m]) /\ shallower([node(e, t1, t2), s(m)])) -> BOT -> 1  ;  (shallower([node(e, t1, t2), z])) -> BOT -> 1  ;  (taller([t1, m])) -> taller([node(e, t1, t2), s(m)]) -> 1  ;  (not taller([t1, m]) /\ taller([t2, m])) -> taller([node(e, t1, t2), s(m)]) -> 1  ;  (not taller([t1, m]) /\ not taller([t2, m]) /\ taller([node(e, t1, t2), s(m)])) -> BOT -> 1  ;  (taller([leaf, s(m)])) -> BOT -> 1
}
Sat witness: Yes: ((not le_nat([n, m])) -> max([n, m, n]), {
m -> z  ;  n -> z
})

-------------------------------------------
Step 1, which took 0.003656 s (model generation: 0.003341,  model checking: 0.000315):

Model:
|_
{
le_nat -> 
{{{
Q={q_gen_13036},
Q_f={},
Delta=
{
<z, z>() -> q_gen_13036
}

Datatype: <nat, nat>
Convolution form: left
}}}
  ;  max -> 
{{{
Q={q_gen_13037},
Q_f={q_gen_13037},
Delta=
{
<z, z, z>() -> q_gen_13037
}

Datatype: <nat, nat, nat>
Convolution form: left
}}}
  ;  shallower -> 
{{{
Q={},
Q_f={},
Delta=
{

}

Datatype: <etree, nat>
Convolution form: left
}}}
  ;  taller -> 
{{{
Q={},
Q_f={},
Delta=
{

}

Datatype: <etree, nat>
Convolution form: left
}}}

}
--
Equality automata are defined for: {eq_elt, eq_etree, eq_nat}
_|

Teacher's answer:
New clause system:
{
() -> le_nat([z, s(nn2)]) -> 0  ;  () -> shallower([leaf, n]) -> 0  ;  () -> taller([leaf, z]) -> 0  ;  () -> taller([node(e, t1, t2), z]) -> 3  ;  (le_nat([n, m])) -> max([n, m, m]) -> 1  ;  (not le_nat([n, m])) -> max([n, m, n]) -> 3  ;  (le_nat([nn1, nn2])) -> le_nat([s(nn1), s(nn2)]) -> 1  ;  (le_nat([s(nn1), s(nn2)])) -> le_nat([nn1, nn2]) -> 1  ;  (le_nat([s(nn1), z])) -> BOT -> 1  ;  (le_nat([z, z])) -> BOT -> 1  ;  (max([n1, n2, _k]) /\ taller([t1, n1]) /\ taller([t2, n2])) -> taller([node(e, t1, t2), s(_k)]) -> 1  ;  (max([n1, n2, _l]) /\ shallower([t1, n1]) /\ shallower([t2, n2])) -> shallower([node(e, t1, t2), s(_l)]) -> 1  ;  (shallower([t1, m]) /\ shallower([t2, m])) -> shallower([node(e, t1, t2), s(m)]) -> 1  ;  (shallower([t1, m]) /\ shallower([node(e, t1, t2), s(m)])) -> shallower([t2, m]) -> 1  ;  (not shallower([t1, m]) /\ shallower([node(e, t1, t2), s(m)])) -> BOT -> 1  ;  (shallower([node(e, t1, t2), z])) -> BOT -> 1  ;  (taller([t1, m])) -> taller([node(e, t1, t2), s(m)]) -> 1  ;  (not taller([t1, m]) /\ taller([t2, m])) -> taller([node(e, t1, t2), s(m)]) -> 1  ;  (not taller([t1, m]) /\ not taller([t2, m]) /\ taller([node(e, t1, t2), s(m)])) -> BOT -> 1  ;  (taller([leaf, s(m)])) -> BOT -> 1
}
Sat witness: Yes: (() -> taller([node(e, t1, t2), z]), {
e -> b  ;  t1 -> leaf  ;  t2 -> leaf
})

-------------------------------------------
Step 2, which took 0.003333 s (model generation: 0.003245,  model checking: 0.000088):

Model:
|_
{
le_nat -> 
{{{
Q={q_gen_13036},
Q_f={},
Delta=
{
<z, z>() -> q_gen_13036
}

Datatype: <nat, nat>
Convolution form: left
}}}
  ;  max -> 
{{{
Q={q_gen_13037},
Q_f={q_gen_13037},
Delta=
{
<z, z, z>() -> q_gen_13037
}

Datatype: <nat, nat, nat>
Convolution form: left
}}}
  ;  shallower -> 
{{{
Q={},
Q_f={},
Delta=
{

}

Datatype: <etree, nat>
Convolution form: left
}}}
  ;  taller -> 
{{{
Q={q_gen_13038, q_gen_13039, q_gen_13040},
Q_f={q_gen_13038},
Delta=
{
<leaf>() -> q_gen_13039
<b>() -> q_gen_13040
<node, z>(q_gen_13040, q_gen_13039, q_gen_13039) -> q_gen_13038
}

Datatype: <etree, nat>
Convolution form: left
}}}

}
--
Equality automata are defined for: {eq_elt, eq_etree, eq_nat}
_|

Teacher's answer:
New clause system:
{
() -> le_nat([z, s(nn2)]) -> 0  ;  () -> shallower([leaf, n]) -> 0  ;  () -> taller([leaf, z]) -> 3  ;  () -> taller([node(e, t1, t2), z]) -> 3  ;  (le_nat([n, m])) -> max([n, m, m]) -> 1  ;  (not le_nat([n, m])) -> max([n, m, n]) -> 3  ;  (le_nat([nn1, nn2])) -> le_nat([s(nn1), s(nn2)]) -> 1  ;  (le_nat([s(nn1), s(nn2)])) -> le_nat([nn1, nn2]) -> 1  ;  (le_nat([s(nn1), z])) -> BOT -> 1  ;  (le_nat([z, z])) -> BOT -> 1  ;  (max([n1, n2, _k]) /\ taller([t1, n1]) /\ taller([t2, n2])) -> taller([node(e, t1, t2), s(_k)]) -> 1  ;  (max([n1, n2, _l]) /\ shallower([t1, n1]) /\ shallower([t2, n2])) -> shallower([node(e, t1, t2), s(_l)]) -> 1  ;  (shallower([t1, m]) /\ shallower([t2, m])) -> shallower([node(e, t1, t2), s(m)]) -> 1  ;  (shallower([t1, m]) /\ shallower([node(e, t1, t2), s(m)])) -> shallower([t2, m]) -> 1  ;  (not shallower([t1, m]) /\ shallower([node(e, t1, t2), s(m)])) -> BOT -> 1  ;  (shallower([node(e, t1, t2), z])) -> BOT -> 1  ;  (taller([t1, m])) -> taller([node(e, t1, t2), s(m)]) -> 1  ;  (not taller([t1, m]) /\ taller([t2, m])) -> taller([node(e, t1, t2), s(m)]) -> 1  ;  (not taller([t1, m]) /\ not taller([t2, m]) /\ taller([node(e, t1, t2), s(m)])) -> BOT -> 1  ;  (taller([leaf, s(m)])) -> BOT -> 1
}
Sat witness: Yes: (() -> taller([leaf, z]), {

})

-------------------------------------------
Step 3, which took 0.003478 s (model generation: 0.003386,  model checking: 0.000092):

Model:
|_
{
le_nat -> 
{{{
Q={q_gen_13036},
Q_f={q_gen_13036},
Delta=
{
<z, z>() -> q_gen_13036
}

Datatype: <nat, nat>
Convolution form: left
}}}
  ;  max -> 
{{{
Q={q_gen_13037},
Q_f={},
Delta=
{
<z, z, z>() -> q_gen_13037
}

Datatype: <nat, nat, nat>
Convolution form: left
}}}
  ;  shallower -> 
{{{
Q={},
Q_f={},
Delta=
{

}

Datatype: <etree, nat>
Convolution form: left
}}}
  ;  taller -> 
{{{
Q={q_gen_13038, q_gen_13039, q_gen_13040},
Q_f={q_gen_13038},
Delta=
{
<leaf>() -> q_gen_13039
<b>() -> q_gen_13040
<leaf, z>() -> q_gen_13038
<node, z>(q_gen_13040, q_gen_13039, q_gen_13039) -> q_gen_13038
}

Datatype: <etree, nat>
Convolution form: left
}}}

}
--
Equality automata are defined for: {eq_elt, eq_etree, eq_nat}
_|

Teacher's answer:
New clause system:
{
() -> le_nat([z, s(nn2)]) -> 0  ;  () -> shallower([leaf, n]) -> 3  ;  () -> taller([leaf, z]) -> 3  ;  () -> taller([node(e, t1, t2), z]) -> 3  ;  (le_nat([n, m])) -> max([n, m, m]) -> 1  ;  (not le_nat([n, m])) -> max([n, m, n]) -> 3  ;  (le_nat([nn1, nn2])) -> le_nat([s(nn1), s(nn2)]) -> 1  ;  (le_nat([s(nn1), s(nn2)])) -> le_nat([nn1, nn2]) -> 1  ;  (le_nat([s(nn1), z])) -> BOT -> 1  ;  (le_nat([z, z])) -> BOT -> 1  ;  (max([n1, n2, _k]) /\ taller([t1, n1]) /\ taller([t2, n2])) -> taller([node(e, t1, t2), s(_k)]) -> 1  ;  (max([n1, n2, _l]) /\ shallower([t1, n1]) /\ shallower([t2, n2])) -> shallower([node(e, t1, t2), s(_l)]) -> 1  ;  (shallower([t1, m]) /\ shallower([t2, m])) -> shallower([node(e, t1, t2), s(m)]) -> 1  ;  (shallower([t1, m]) /\ shallower([node(e, t1, t2), s(m)])) -> shallower([t2, m]) -> 1  ;  (not shallower([t1, m]) /\ shallower([node(e, t1, t2), s(m)])) -> BOT -> 1  ;  (shallower([node(e, t1, t2), z])) -> BOT -> 1  ;  (taller([t1, m])) -> taller([node(e, t1, t2), s(m)]) -> 1  ;  (not taller([t1, m]) /\ taller([t2, m])) -> taller([node(e, t1, t2), s(m)]) -> 1  ;  (not taller([t1, m]) /\ not taller([t2, m]) /\ taller([node(e, t1, t2), s(m)])) -> BOT -> 1  ;  (taller([leaf, s(m)])) -> BOT -> 1
}
Sat witness: Yes: (() -> shallower([leaf, n]), {
n -> z
})

-------------------------------------------
Step 4, which took 0.003352 s (model generation: 0.003307,  model checking: 0.000045):

Model:
|_
{
le_nat -> 
{{{
Q={q_gen_13036},
Q_f={q_gen_13036},
Delta=
{
<z, z>() -> q_gen_13036
}

Datatype: <nat, nat>
Convolution form: left
}}}
  ;  max -> 
{{{
Q={q_gen_13037},
Q_f={},
Delta=
{
<z, z, z>() -> q_gen_13037
}

Datatype: <nat, nat, nat>
Convolution form: left
}}}
  ;  shallower -> 
{{{
Q={q_gen_13042},
Q_f={q_gen_13042},
Delta=
{
<leaf, z>() -> q_gen_13042
}

Datatype: <etree, nat>
Convolution form: left
}}}
  ;  taller -> 
{{{
Q={q_gen_13038, q_gen_13039, q_gen_13040},
Q_f={q_gen_13038},
Delta=
{
<leaf>() -> q_gen_13039
<b>() -> q_gen_13040
<leaf, z>() -> q_gen_13038
<node, z>(q_gen_13040, q_gen_13039, q_gen_13039) -> q_gen_13038
}

Datatype: <etree, nat>
Convolution form: left
}}}

}
--
Equality automata are defined for: {eq_elt, eq_etree, eq_nat}
_|

Teacher's answer:
New clause system:
{
() -> le_nat([z, s(nn2)]) -> 3  ;  () -> shallower([leaf, n]) -> 3  ;  () -> taller([leaf, z]) -> 3  ;  () -> taller([node(e, t1, t2), z]) -> 3  ;  (le_nat([n, m])) -> max([n, m, m]) -> 1  ;  (not le_nat([n, m])) -> max([n, m, n]) -> 3  ;  (le_nat([nn1, nn2])) -> le_nat([s(nn1), s(nn2)]) -> 1  ;  (le_nat([s(nn1), s(nn2)])) -> le_nat([nn1, nn2]) -> 1  ;  (le_nat([s(nn1), z])) -> BOT -> 1  ;  (le_nat([z, z])) -> BOT -> 1  ;  (max([n1, n2, _k]) /\ taller([t1, n1]) /\ taller([t2, n2])) -> taller([node(e, t1, t2), s(_k)]) -> 1  ;  (max([n1, n2, _l]) /\ shallower([t1, n1]) /\ shallower([t2, n2])) -> shallower([node(e, t1, t2), s(_l)]) -> 1  ;  (shallower([t1, m]) /\ shallower([t2, m])) -> shallower([node(e, t1, t2), s(m)]) -> 1  ;  (shallower([t1, m]) /\ shallower([node(e, t1, t2), s(m)])) -> shallower([t2, m]) -> 1  ;  (not shallower([t1, m]) /\ shallower([node(e, t1, t2), s(m)])) -> BOT -> 1  ;  (shallower([node(e, t1, t2), z])) -> BOT -> 1  ;  (taller([t1, m])) -> taller([node(e, t1, t2), s(m)]) -> 1  ;  (not taller([t1, m]) /\ taller([t2, m])) -> taller([node(e, t1, t2), s(m)]) -> 1  ;  (not taller([t1, m]) /\ not taller([t2, m]) /\ taller([node(e, t1, t2), s(m)])) -> BOT -> 1  ;  (taller([leaf, s(m)])) -> BOT -> 1
}
Sat witness: Yes: (() -> le_nat([z, s(nn2)]), {
nn2 -> z
})

-------------------------------------------
Step 5, which took 0.016934 s (model generation: 0.003401,  model checking: 0.013533):

Model:
|_
{
le_nat -> 
{{{
Q={q_gen_13036, q_gen_13044},
Q_f={q_gen_13036},
Delta=
{
<z>() -> q_gen_13044
<z, s>(q_gen_13044) -> q_gen_13036
<z, z>() -> q_gen_13036
}

Datatype: <nat, nat>
Convolution form: left
}}}
  ;  max -> 
{{{
Q={q_gen_13037},
Q_f={},
Delta=
{
<z, z, z>() -> q_gen_13037
}

Datatype: <nat, nat, nat>
Convolution form: left
}}}
  ;  shallower -> 
{{{
Q={q_gen_13042},
Q_f={q_gen_13042},
Delta=
{
<leaf, z>() -> q_gen_13042
}

Datatype: <etree, nat>
Convolution form: left
}}}
  ;  taller -> 
{{{
Q={q_gen_13038, q_gen_13039, q_gen_13040},
Q_f={q_gen_13038},
Delta=
{
<leaf>() -> q_gen_13039
<b>() -> q_gen_13040
<leaf, z>() -> q_gen_13038
<node, z>(q_gen_13040, q_gen_13039, q_gen_13039) -> q_gen_13038
}

Datatype: <etree, nat>
Convolution form: left
}}}

}
--
Equality automata are defined for: {eq_elt, eq_etree, eq_nat}
_|

Teacher's answer:
New clause system:
{
() -> le_nat([z, s(nn2)]) -> 3  ;  () -> shallower([leaf, n]) -> 3  ;  () -> taller([leaf, z]) -> 3  ;  () -> taller([node(e, t1, t2), z]) -> 3  ;  (le_nat([n, m])) -> max([n, m, m]) -> 1  ;  (not le_nat([n, m])) -> max([n, m, n]) -> 3  ;  (le_nat([nn1, nn2])) -> le_nat([s(nn1), s(nn2)]) -> 1  ;  (le_nat([s(nn1), s(nn2)])) -> le_nat([nn1, nn2]) -> 1  ;  (le_nat([s(nn1), z])) -> BOT -> 1  ;  (le_nat([z, z])) -> BOT -> 1  ;  (max([n1, n2, _k]) /\ taller([t1, n1]) /\ taller([t2, n2])) -> taller([node(e, t1, t2), s(_k)]) -> 1  ;  (max([n1, n2, _l]) /\ shallower([t1, n1]) /\ shallower([t2, n2])) -> shallower([node(e, t1, t2), s(_l)]) -> 1  ;  (shallower([t1, m]) /\ shallower([t2, m])) -> shallower([node(e, t1, t2), s(m)]) -> 1  ;  (shallower([t1, m]) /\ shallower([node(e, t1, t2), s(m)])) -> shallower([t2, m]) -> 1  ;  (not shallower([t1, m]) /\ shallower([node(e, t1, t2), s(m)])) -> BOT -> 1  ;  (shallower([node(e, t1, t2), z])) -> BOT -> 1  ;  (taller([t1, m])) -> taller([node(e, t1, t2), s(m)]) -> 1  ;  (not taller([t1, m]) /\ taller([t2, m])) -> taller([node(e, t1, t2), s(m)]) -> 4  ;  (not taller([t1, m]) /\ not taller([t2, m]) /\ taller([node(e, t1, t2), s(m)])) -> BOT -> 2  ;  (taller([leaf, s(m)])) -> BOT -> 2
}
Sat witness: Yes: ((not taller([t1, m]) /\ taller([t2, m])) -> taller([node(e, t1, t2), s(m)]), {
e -> b  ;  m -> z  ;  t1 -> node(a, leaf, node(a, leaf, leaf))  ;  t2 -> leaf
})

-------------------------------------------
Step 6, which took 0.003886 s (model generation: 0.003763,  model checking: 0.000123):

Model:
|_
{
le_nat -> 
{{{
Q={q_gen_13036, q_gen_13044},
Q_f={q_gen_13036},
Delta=
{
<z>() -> q_gen_13044
<z, s>(q_gen_13044) -> q_gen_13036
<z, z>() -> q_gen_13036
}

Datatype: <nat, nat>
Convolution form: left
}}}
  ;  max -> 
{{{
Q={q_gen_13037},
Q_f={},
Delta=
{
<z, z, z>() -> q_gen_13037
}

Datatype: <nat, nat, nat>
Convolution form: left
}}}
  ;  shallower -> 
{{{
Q={q_gen_13042},
Q_f={q_gen_13042},
Delta=
{
<leaf, z>() -> q_gen_13042
}

Datatype: <etree, nat>
Convolution form: left
}}}
  ;  taller -> 
{{{
Q={q_gen_13038, q_gen_13039, q_gen_13040, q_gen_13050},
Q_f={q_gen_13038},
Delta=
{
<leaf>() -> q_gen_13039
<node>(q_gen_13040, q_gen_13039, q_gen_13039) -> q_gen_13039
<a>() -> q_gen_13040
<b>() -> q_gen_13040
<leaf, z>() -> q_gen_13038
<node, s>(q_gen_13050, q_gen_13039, q_gen_13039) -> q_gen_13038
<node, z>(q_gen_13040, q_gen_13039, q_gen_13039) -> q_gen_13038
<b, z>() -> q_gen_13050
}

Datatype: <etree, nat>
Convolution form: left
}}}

}
--
Equality automata are defined for: {eq_elt, eq_etree, eq_nat}
_|

Teacher's answer:
New clause system:
{
() -> le_nat([z, s(nn2)]) -> 3  ;  () -> shallower([leaf, n]) -> 3  ;  () -> taller([leaf, z]) -> 3  ;  () -> taller([node(e, t1, t2), z]) -> 3  ;  (le_nat([n, m])) -> max([n, m, m]) -> 1  ;  (not le_nat([n, m])) -> max([n, m, n]) -> 3  ;  (le_nat([nn1, nn2])) -> le_nat([s(nn1), s(nn2)]) -> 1  ;  (le_nat([s(nn1), s(nn2)])) -> le_nat([nn1, nn2]) -> 1  ;  (le_nat([s(nn1), z])) -> BOT -> 1  ;  (le_nat([z, z])) -> BOT -> 1  ;  (max([n1, n2, _k]) /\ taller([t1, n1]) /\ taller([t2, n2])) -> taller([node(e, t1, t2), s(_k)]) -> 1  ;  (max([n1, n2, _l]) /\ shallower([t1, n1]) /\ shallower([t2, n2])) -> shallower([node(e, t1, t2), s(_l)]) -> 1  ;  (shallower([t1, m]) /\ shallower([t2, m])) -> shallower([node(e, t1, t2), s(m)]) -> 1  ;  (shallower([t1, m]) /\ shallower([node(e, t1, t2), s(m)])) -> shallower([t2, m]) -> 1  ;  (not shallower([t1, m]) /\ shallower([node(e, t1, t2), s(m)])) -> BOT -> 1  ;  (shallower([node(e, t1, t2), z])) -> BOT -> 1  ;  (taller([t1, m])) -> taller([node(e, t1, t2), s(m)]) -> 4  ;  (not taller([t1, m]) /\ taller([t2, m])) -> taller([node(e, t1, t2), s(m)]) -> 4  ;  (not taller([t1, m]) /\ not taller([t2, m]) /\ taller([node(e, t1, t2), s(m)])) -> BOT -> 2  ;  (taller([leaf, s(m)])) -> BOT -> 2
}
Sat witness: Yes: ((taller([t1, m])) -> taller([node(e, t1, t2), s(m)]), {
e -> a  ;  m -> z  ;  t1 -> leaf  ;  t2 -> leaf
})

-------------------------------------------
Step 7, which took 0.004027 s (model generation: 0.003881,  model checking: 0.000146):

Model:
|_
{
le_nat -> 
{{{
Q={q_gen_13036, q_gen_13044},
Q_f={q_gen_13036},
Delta=
{
<z>() -> q_gen_13044
<z, s>(q_gen_13044) -> q_gen_13036
<z, z>() -> q_gen_13036
}

Datatype: <nat, nat>
Convolution form: left
}}}
  ;  max -> 
{{{
Q={q_gen_13037},
Q_f={},
Delta=
{
<z, z, z>() -> q_gen_13037
}

Datatype: <nat, nat, nat>
Convolution form: left
}}}
  ;  shallower -> 
{{{
Q={q_gen_13042},
Q_f={q_gen_13042},
Delta=
{
<leaf, z>() -> q_gen_13042
}

Datatype: <etree, nat>
Convolution form: left
}}}
  ;  taller -> 
{{{
Q={q_gen_13038, q_gen_13039, q_gen_13040, q_gen_13050},
Q_f={q_gen_13038},
Delta=
{
<leaf>() -> q_gen_13039
<node>(q_gen_13040, q_gen_13039, q_gen_13039) -> q_gen_13039
<a>() -> q_gen_13040
<b>() -> q_gen_13040
<leaf, z>() -> q_gen_13038
<node, s>(q_gen_13050, q_gen_13039, q_gen_13039) -> q_gen_13038
<node, z>(q_gen_13040, q_gen_13039, q_gen_13039) -> q_gen_13038
<a, z>() -> q_gen_13050
<b, z>() -> q_gen_13050
}

Datatype: <etree, nat>
Convolution form: left
}}}

}
--
Equality automata are defined for: {eq_elt, eq_etree, eq_nat}
_|

Teacher's answer:
New clause system:
{
() -> le_nat([z, s(nn2)]) -> 3  ;  () -> shallower([leaf, n]) -> 3  ;  () -> taller([leaf, z]) -> 3  ;  () -> taller([node(e, t1, t2), z]) -> 3  ;  (le_nat([n, m])) -> max([n, m, m]) -> 1  ;  (not le_nat([n, m])) -> max([n, m, n]) -> 3  ;  (le_nat([nn1, nn2])) -> le_nat([s(nn1), s(nn2)]) -> 1  ;  (le_nat([s(nn1), s(nn2)])) -> le_nat([nn1, nn2]) -> 1  ;  (le_nat([s(nn1), z])) -> BOT -> 1  ;  (le_nat([z, z])) -> BOT -> 1  ;  (max([n1, n2, _k]) /\ taller([t1, n1]) /\ taller([t2, n2])) -> taller([node(e, t1, t2), s(_k)]) -> 1  ;  (max([n1, n2, _l]) /\ shallower([t1, n1]) /\ shallower([t2, n2])) -> shallower([node(e, t1, t2), s(_l)]) -> 1  ;  (shallower([t1, m]) /\ shallower([t2, m])) -> shallower([node(e, t1, t2), s(m)]) -> 4  ;  (shallower([t1, m]) /\ shallower([node(e, t1, t2), s(m)])) -> shallower([t2, m]) -> 2  ;  (not shallower([t1, m]) /\ shallower([node(e, t1, t2), s(m)])) -> BOT -> 2  ;  (shallower([node(e, t1, t2), z])) -> BOT -> 2  ;  (taller([t1, m])) -> taller([node(e, t1, t2), s(m)]) -> 4  ;  (not taller([t1, m]) /\ taller([t2, m])) -> taller([node(e, t1, t2), s(m)]) -> 4  ;  (not taller([t1, m]) /\ not taller([t2, m]) /\ taller([node(e, t1, t2), s(m)])) -> BOT -> 2  ;  (taller([leaf, s(m)])) -> BOT -> 2
}
Sat witness: Yes: ((shallower([t1, m]) /\ shallower([t2, m])) -> shallower([node(e, t1, t2), s(m)]), {
e -> b  ;  m -> z  ;  t1 -> leaf  ;  t2 -> leaf
})

-------------------------------------------
Step 8, which took 0.004558 s (model generation: 0.003822,  model checking: 0.000736):

Model:
|_
{
le_nat -> 
{{{
Q={q_gen_13036, q_gen_13044},
Q_f={q_gen_13036},
Delta=
{
<z>() -> q_gen_13044
<z, s>(q_gen_13044) -> q_gen_13036
<z, z>() -> q_gen_13036
}

Datatype: <nat, nat>
Convolution form: left
}}}
  ;  max -> 
{{{
Q={q_gen_13037},
Q_f={},
Delta=
{
<z, z, z>() -> q_gen_13037
}

Datatype: <nat, nat, nat>
Convolution form: left
}}}
  ;  shallower -> 
{{{
Q={q_gen_13042, q_gen_13054, q_gen_13055},
Q_f={q_gen_13042},
Delta=
{
<leaf>() -> q_gen_13054
<leaf, z>() -> q_gen_13042
<node, s>(q_gen_13055, q_gen_13054, q_gen_13054) -> q_gen_13042
<b, z>() -> q_gen_13055
}

Datatype: <etree, nat>
Convolution form: left
}}}
  ;  taller -> 
{{{
Q={q_gen_13038, q_gen_13039, q_gen_13040, q_gen_13050},
Q_f={q_gen_13038},
Delta=
{
<leaf>() -> q_gen_13039
<node>(q_gen_13040, q_gen_13039, q_gen_13039) -> q_gen_13039
<a>() -> q_gen_13040
<b>() -> q_gen_13040
<leaf, z>() -> q_gen_13038
<node, s>(q_gen_13050, q_gen_13039, q_gen_13039) -> q_gen_13038
<node, z>(q_gen_13040, q_gen_13039, q_gen_13039) -> q_gen_13038
<a, z>() -> q_gen_13050
<b, z>() -> q_gen_13050
}

Datatype: <etree, nat>
Convolution form: left
}}}

}
--
Equality automata are defined for: {eq_elt, eq_etree, eq_nat}
_|

Teacher's answer:
New clause system:
{
() -> le_nat([z, s(nn2)]) -> 3  ;  () -> shallower([leaf, n]) -> 3  ;  () -> taller([leaf, z]) -> 3  ;  () -> taller([node(e, t1, t2), z]) -> 3  ;  (le_nat([n, m])) -> max([n, m, m]) -> 1  ;  (not le_nat([n, m])) -> max([n, m, n]) -> 3  ;  (le_nat([nn1, nn2])) -> le_nat([s(nn1), s(nn2)]) -> 1  ;  (le_nat([s(nn1), s(nn2)])) -> le_nat([nn1, nn2]) -> 1  ;  (le_nat([s(nn1), z])) -> BOT -> 1  ;  (le_nat([z, z])) -> BOT -> 4  ;  (max([n1, n2, _k]) /\ taller([t1, n1]) /\ taller([t2, n2])) -> taller([node(e, t1, t2), s(_k)]) -> 2  ;  (max([n1, n2, _l]) /\ shallower([t1, n1]) /\ shallower([t2, n2])) -> shallower([node(e, t1, t2), s(_l)]) -> 2  ;  (shallower([t1, m]) /\ shallower([t2, m])) -> shallower([node(e, t1, t2), s(m)]) -> 4  ;  (shallower([t1, m]) /\ shallower([node(e, t1, t2), s(m)])) -> shallower([t2, m]) -> 2  ;  (not shallower([t1, m]) /\ shallower([node(e, t1, t2), s(m)])) -> BOT -> 2  ;  (shallower([node(e, t1, t2), z])) -> BOT -> 2  ;  (taller([t1, m])) -> taller([node(e, t1, t2), s(m)]) -> 4  ;  (not taller([t1, m]) /\ taller([t2, m])) -> taller([node(e, t1, t2), s(m)]) -> 4  ;  (not taller([t1, m]) /\ not taller([t2, m]) /\ taller([node(e, t1, t2), s(m)])) -> BOT -> 2  ;  (taller([leaf, s(m)])) -> BOT -> 2
}
Sat witness: Yes: ((le_nat([z, z])) -> BOT, {

})

-------------------------------------------
Step 9, which took 0.004502 s (model generation: 0.004335,  model checking: 0.000167):

Model:
|_
{
le_nat -> 
{{{
Q={q_gen_13036, q_gen_13043, q_gen_13044},
Q_f={q_gen_13043},
Delta=
{
<z>() -> q_gen_13044
<z, z>() -> q_gen_13036
<z, s>(q_gen_13044) -> q_gen_13043
}

Datatype: <nat, nat>
Convolution form: left
}}}
  ;  max -> 
{{{
Q={q_gen_13037},
Q_f={q_gen_13037},
Delta=
{
<z, z, z>() -> q_gen_13037
}

Datatype: <nat, nat, nat>
Convolution form: left
}}}
  ;  shallower -> 
{{{
Q={q_gen_13042, q_gen_13054, q_gen_13055},
Q_f={q_gen_13042},
Delta=
{
<leaf>() -> q_gen_13054
<leaf, z>() -> q_gen_13042
<node, s>(q_gen_13055, q_gen_13054, q_gen_13054) -> q_gen_13042
<b, z>() -> q_gen_13055
}

Datatype: <etree, nat>
Convolution form: left
}}}
  ;  taller -> 
{{{
Q={q_gen_13038, q_gen_13039, q_gen_13040, q_gen_13050},
Q_f={q_gen_13038},
Delta=
{
<leaf>() -> q_gen_13039
<node>(q_gen_13040, q_gen_13039, q_gen_13039) -> q_gen_13039
<a>() -> q_gen_13040
<b>() -> q_gen_13040
<leaf, z>() -> q_gen_13038
<node, s>(q_gen_13050, q_gen_13039, q_gen_13039) -> q_gen_13038
<node, z>(q_gen_13040, q_gen_13039, q_gen_13039) -> q_gen_13038
<a, z>() -> q_gen_13050
<b, z>() -> q_gen_13050
}

Datatype: <etree, nat>
Convolution form: left
}}}

}
--
Equality automata are defined for: {eq_elt, eq_etree, eq_nat}
_|

Teacher's answer:
New clause system:
{
() -> le_nat([z, s(nn2)]) -> 3  ;  () -> shallower([leaf, n]) -> 3  ;  () -> taller([leaf, z]) -> 3  ;  () -> taller([node(e, t1, t2), z]) -> 3  ;  (le_nat([n, m])) -> max([n, m, m]) -> 1  ;  (not le_nat([n, m])) -> max([n, m, n]) -> 3  ;  (le_nat([nn1, nn2])) -> le_nat([s(nn1), s(nn2)]) -> 4  ;  (le_nat([s(nn1), s(nn2)])) -> le_nat([nn1, nn2]) -> 2  ;  (le_nat([s(nn1), z])) -> BOT -> 2  ;  (le_nat([z, z])) -> BOT -> 4  ;  (max([n1, n2, _k]) /\ taller([t1, n1]) /\ taller([t2, n2])) -> taller([node(e, t1, t2), s(_k)]) -> 2  ;  (max([n1, n2, _l]) /\ shallower([t1, n1]) /\ shallower([t2, n2])) -> shallower([node(e, t1, t2), s(_l)]) -> 2  ;  (shallower([t1, m]) /\ shallower([t2, m])) -> shallower([node(e, t1, t2), s(m)]) -> 4  ;  (shallower([t1, m]) /\ shallower([node(e, t1, t2), s(m)])) -> shallower([t2, m]) -> 2  ;  (not shallower([t1, m]) /\ shallower([node(e, t1, t2), s(m)])) -> BOT -> 2  ;  (shallower([node(e, t1, t2), z])) -> BOT -> 2  ;  (taller([t1, m])) -> taller([node(e, t1, t2), s(m)]) -> 4  ;  (not taller([t1, m]) /\ taller([t2, m])) -> taller([node(e, t1, t2), s(m)]) -> 4  ;  (not taller([t1, m]) /\ not taller([t2, m]) /\ taller([node(e, t1, t2), s(m)])) -> BOT -> 2  ;  (taller([leaf, s(m)])) -> BOT -> 2
}
Sat witness: Yes: ((le_nat([nn1, nn2])) -> le_nat([s(nn1), s(nn2)]), {
nn1 -> z  ;  nn2 -> s(z)
})

-------------------------------------------
Step 10, which took 0.007499 s (model generation: 0.006422,  model checking: 0.001077):

Model:
|_
{
le_nat -> 
{{{
Q={q_gen_13036, q_gen_13043, q_gen_13044},
Q_f={q_gen_13043},
Delta=
{
<z>() -> q_gen_13044
<z, z>() -> q_gen_13036
<s, s>(q_gen_13043) -> q_gen_13043
<z, s>(q_gen_13044) -> q_gen_13043
}

Datatype: <nat, nat>
Convolution form: left
}}}
  ;  max -> 
{{{
Q={q_gen_13037},
Q_f={q_gen_13037},
Delta=
{
<z, z, z>() -> q_gen_13037
}

Datatype: <nat, nat, nat>
Convolution form: left
}}}
  ;  shallower -> 
{{{
Q={q_gen_13042, q_gen_13054, q_gen_13055},
Q_f={q_gen_13042},
Delta=
{
<leaf>() -> q_gen_13054
<leaf, z>() -> q_gen_13042
<node, s>(q_gen_13055, q_gen_13054, q_gen_13054) -> q_gen_13042
<b, z>() -> q_gen_13055
}

Datatype: <etree, nat>
Convolution form: left
}}}
  ;  taller -> 
{{{
Q={q_gen_13038, q_gen_13039, q_gen_13040, q_gen_13050},
Q_f={q_gen_13038},
Delta=
{
<leaf>() -> q_gen_13039
<node>(q_gen_13040, q_gen_13039, q_gen_13039) -> q_gen_13039
<a>() -> q_gen_13040
<b>() -> q_gen_13040
<leaf, z>() -> q_gen_13038
<node, s>(q_gen_13050, q_gen_13039, q_gen_13039) -> q_gen_13038
<node, z>(q_gen_13040, q_gen_13039, q_gen_13039) -> q_gen_13038
<a, z>() -> q_gen_13050
<b, z>() -> q_gen_13050
}

Datatype: <etree, nat>
Convolution form: left
}}}

}
--
Equality automata are defined for: {eq_elt, eq_etree, eq_nat}
_|

Teacher's answer:
New clause system:
{
() -> le_nat([z, s(nn2)]) -> 3  ;  () -> shallower([leaf, n]) -> 3  ;  () -> taller([leaf, z]) -> 3  ;  () -> taller([node(e, t1, t2), z]) -> 3  ;  (le_nat([n, m])) -> max([n, m, m]) -> 4  ;  (not le_nat([n, m])) -> max([n, m, n]) -> 3  ;  (le_nat([nn1, nn2])) -> le_nat([s(nn1), s(nn2)]) -> 4  ;  (le_nat([s(nn1), s(nn2)])) -> le_nat([nn1, nn2]) -> 2  ;  (le_nat([s(nn1), z])) -> BOT -> 2  ;  (le_nat([z, z])) -> BOT -> 4  ;  (max([n1, n2, _k]) /\ taller([t1, n1]) /\ taller([t2, n2])) -> taller([node(e, t1, t2), s(_k)]) -> 2  ;  (max([n1, n2, _l]) /\ shallower([t1, n1]) /\ shallower([t2, n2])) -> shallower([node(e, t1, t2), s(_l)]) -> 2  ;  (shallower([t1, m]) /\ shallower([t2, m])) -> shallower([node(e, t1, t2), s(m)]) -> 4  ;  (shallower([t1, m]) /\ shallower([node(e, t1, t2), s(m)])) -> shallower([t2, m]) -> 2  ;  (not shallower([t1, m]) /\ shallower([node(e, t1, t2), s(m)])) -> BOT -> 2  ;  (shallower([node(e, t1, t2), z])) -> BOT -> 2  ;  (taller([t1, m])) -> taller([node(e, t1, t2), s(m)]) -> 4  ;  (not taller([t1, m]) /\ taller([t2, m])) -> taller([node(e, t1, t2), s(m)]) -> 4  ;  (not taller([t1, m]) /\ not taller([t2, m]) /\ taller([node(e, t1, t2), s(m)])) -> BOT -> 2  ;  (taller([leaf, s(m)])) -> BOT -> 2
}
Sat witness: Yes: ((le_nat([n, m])) -> max([n, m, m]), {
m -> s(z)  ;  n -> z
})

-------------------------------------------
Step 11, which took 0.012168 s (model generation: 0.008274,  model checking: 0.003894):

Model:
|_
{
le_nat -> 
{{{
Q={q_gen_13036, q_gen_13043, q_gen_13044},
Q_f={q_gen_13043},
Delta=
{
<z>() -> q_gen_13044
<z, z>() -> q_gen_13036
<s, s>(q_gen_13043) -> q_gen_13043
<z, s>(q_gen_13044) -> q_gen_13043
}

Datatype: <nat, nat>
Convolution form: left
}}}
  ;  max -> 
{{{
Q={q_gen_13037, q_gen_13058},
Q_f={q_gen_13037},
Delta=
{
<z, z>() -> q_gen_13058
<z, s, s>(q_gen_13058) -> q_gen_13037
<z, z, z>() -> q_gen_13037
}

Datatype: <nat, nat, nat>
Convolution form: left
}}}
  ;  shallower -> 
{{{
Q={q_gen_13042, q_gen_13054, q_gen_13055},
Q_f={q_gen_13042},
Delta=
{
<leaf>() -> q_gen_13054
<leaf, z>() -> q_gen_13042
<node, s>(q_gen_13055, q_gen_13054, q_gen_13054) -> q_gen_13042
<b, z>() -> q_gen_13055
}

Datatype: <etree, nat>
Convolution form: left
}}}
  ;  taller -> 
{{{
Q={q_gen_13038, q_gen_13039, q_gen_13040, q_gen_13050},
Q_f={q_gen_13038},
Delta=
{
<leaf>() -> q_gen_13039
<node>(q_gen_13040, q_gen_13039, q_gen_13039) -> q_gen_13039
<a>() -> q_gen_13040
<b>() -> q_gen_13040
<leaf, z>() -> q_gen_13038
<node, s>(q_gen_13050, q_gen_13039, q_gen_13039) -> q_gen_13038
<node, z>(q_gen_13040, q_gen_13039, q_gen_13039) -> q_gen_13038
<a, z>() -> q_gen_13050
<b, z>() -> q_gen_13050
}

Datatype: <etree, nat>
Convolution form: left
}}}

}
--
Equality automata are defined for: {eq_elt, eq_etree, eq_nat}
_|

Teacher's answer:
New clause system:
{
() -> le_nat([z, s(nn2)]) -> 3  ;  () -> shallower([leaf, n]) -> 3  ;  () -> taller([leaf, z]) -> 3  ;  () -> taller([node(e, t1, t2), z]) -> 3  ;  (le_nat([n, m])) -> max([n, m, m]) -> 4  ;  (not le_nat([n, m])) -> max([n, m, n]) -> 3  ;  (le_nat([nn1, nn2])) -> le_nat([s(nn1), s(nn2)]) -> 4  ;  (le_nat([s(nn1), s(nn2)])) -> le_nat([nn1, nn2]) -> 2  ;  (le_nat([s(nn1), z])) -> BOT -> 2  ;  (le_nat([z, z])) -> BOT -> 4  ;  (max([n1, n2, _k]) /\ taller([t1, n1]) /\ taller([t2, n2])) -> taller([node(e, t1, t2), s(_k)]) -> 2  ;  (max([n1, n2, _l]) /\ shallower([t1, n1]) /\ shallower([t2, n2])) -> shallower([node(e, t1, t2), s(_l)]) -> 5  ;  (shallower([t1, m]) /\ shallower([t2, m])) -> shallower([node(e, t1, t2), s(m)]) -> 4  ;  (shallower([t1, m]) /\ shallower([node(e, t1, t2), s(m)])) -> shallower([t2, m]) -> 3  ;  (not shallower([t1, m]) /\ shallower([node(e, t1, t2), s(m)])) -> BOT -> 3  ;  (shallower([node(e, t1, t2), z])) -> BOT -> 3  ;  (taller([t1, m])) -> taller([node(e, t1, t2), s(m)]) -> 4  ;  (not taller([t1, m]) /\ taller([t2, m])) -> taller([node(e, t1, t2), s(m)]) -> 4  ;  (not taller([t1, m]) /\ not taller([t2, m]) /\ taller([node(e, t1, t2), s(m)])) -> BOT -> 3  ;  (taller([leaf, s(m)])) -> BOT -> 3
}
Sat witness: Yes: ((max([n1, n2, _l]) /\ shallower([t1, n1]) /\ shallower([t2, n2])) -> shallower([node(e, t1, t2), s(_l)]), {
_l -> z  ;  e -> a  ;  n1 -> z  ;  n2 -> z  ;  t1 -> leaf  ;  t2 -> leaf
})

-------------------------------------------
Step 12, which took 0.013466 s (model generation: 0.011517,  model checking: 0.001949):

Model:
|_
{
le_nat -> 
{{{
Q={q_gen_13036, q_gen_13043, q_gen_13044},
Q_f={q_gen_13043},
Delta=
{
<z>() -> q_gen_13044
<z, z>() -> q_gen_13036
<s, s>(q_gen_13043) -> q_gen_13043
<z, s>(q_gen_13044) -> q_gen_13043
}

Datatype: <nat, nat>
Convolution form: left
}}}
  ;  max -> 
{{{
Q={q_gen_13037, q_gen_13058},
Q_f={q_gen_13037},
Delta=
{
<z, z>() -> q_gen_13058
<z, s, s>(q_gen_13058) -> q_gen_13037
<z, z, z>() -> q_gen_13037
}

Datatype: <nat, nat, nat>
Convolution form: left
}}}
  ;  shallower -> 
{{{
Q={q_gen_13042, q_gen_13054, q_gen_13055},
Q_f={q_gen_13042},
Delta=
{
<leaf>() -> q_gen_13054
<leaf, z>() -> q_gen_13042
<node, s>(q_gen_13055, q_gen_13054, q_gen_13054) -> q_gen_13042
<a, z>() -> q_gen_13055
<b, z>() -> q_gen_13055
}

Datatype: <etree, nat>
Convolution form: left
}}}
  ;  taller -> 
{{{
Q={q_gen_13038, q_gen_13039, q_gen_13040, q_gen_13050},
Q_f={q_gen_13038},
Delta=
{
<leaf>() -> q_gen_13039
<node>(q_gen_13040, q_gen_13039, q_gen_13039) -> q_gen_13039
<a>() -> q_gen_13040
<b>() -> q_gen_13040
<leaf, z>() -> q_gen_13038
<node, s>(q_gen_13050, q_gen_13039, q_gen_13039) -> q_gen_13038
<node, z>(q_gen_13040, q_gen_13039, q_gen_13039) -> q_gen_13038
<a, z>() -> q_gen_13050
<b, z>() -> q_gen_13050
}

Datatype: <etree, nat>
Convolution form: left
}}}

}
--
Equality automata are defined for: {eq_elt, eq_etree, eq_nat}
_|

Teacher's answer:
New clause system:
{
() -> le_nat([z, s(nn2)]) -> 3  ;  () -> shallower([leaf, n]) -> 3  ;  () -> taller([leaf, z]) -> 3  ;  () -> taller([node(e, t1, t2), z]) -> 3  ;  (le_nat([n, m])) -> max([n, m, m]) -> 4  ;  (not le_nat([n, m])) -> max([n, m, n]) -> 3  ;  (le_nat([nn1, nn2])) -> le_nat([s(nn1), s(nn2)]) -> 4  ;  (le_nat([s(nn1), s(nn2)])) -> le_nat([nn1, nn2]) -> 2  ;  (le_nat([s(nn1), z])) -> BOT -> 2  ;  (le_nat([z, z])) -> BOT -> 4  ;  (max([n1, n2, _k]) /\ taller([t1, n1]) /\ taller([t2, n2])) -> taller([node(e, t1, t2), s(_k)]) -> 5  ;  (max([n1, n2, _l]) /\ shallower([t1, n1]) /\ shallower([t2, n2])) -> shallower([node(e, t1, t2), s(_l)]) -> 5  ;  (shallower([t1, m]) /\ shallower([t2, m])) -> shallower([node(e, t1, t2), s(m)]) -> 4  ;  (shallower([t1, m]) /\ shallower([node(e, t1, t2), s(m)])) -> shallower([t2, m]) -> 3  ;  (not shallower([t1, m]) /\ shallower([node(e, t1, t2), s(m)])) -> BOT -> 3  ;  (shallower([node(e, t1, t2), z])) -> BOT -> 3  ;  (taller([t1, m])) -> taller([node(e, t1, t2), s(m)]) -> 4  ;  (not taller([t1, m]) /\ taller([t2, m])) -> taller([node(e, t1, t2), s(m)]) -> 4  ;  (not taller([t1, m]) /\ not taller([t2, m]) /\ taller([node(e, t1, t2), s(m)])) -> BOT -> 3  ;  (taller([leaf, s(m)])) -> BOT -> 3
}
Sat witness: Yes: ((max([n1, n2, _k]) /\ taller([t1, n1]) /\ taller([t2, n2])) -> taller([node(e, t1, t2), s(_k)]), {
_k -> s(z)  ;  e -> b  ;  n1 -> z  ;  n2 -> s(z)  ;  t1 -> leaf  ;  t2 -> node(b, node(a, leaf, leaf), node(a, leaf, leaf))
})

-------------------------------------------
Step 13, which took 0.010546 s (model generation: 0.009970,  model checking: 0.000576):

Model:
|_
{
le_nat -> 
{{{
Q={q_gen_13036, q_gen_13043, q_gen_13044},
Q_f={q_gen_13043},
Delta=
{
<z>() -> q_gen_13044
<z, z>() -> q_gen_13036
<s, s>(q_gen_13043) -> q_gen_13043
<z, s>(q_gen_13044) -> q_gen_13043
}

Datatype: <nat, nat>
Convolution form: left
}}}
  ;  max -> 
{{{
Q={q_gen_13037, q_gen_13058},
Q_f={q_gen_13037},
Delta=
{
<z, z>() -> q_gen_13058
<z, s, s>(q_gen_13058) -> q_gen_13037
<z, z, z>() -> q_gen_13037
}

Datatype: <nat, nat, nat>
Convolution form: left
}}}
  ;  shallower -> 
{{{
Q={q_gen_13042, q_gen_13054, q_gen_13055},
Q_f={q_gen_13042},
Delta=
{
<leaf>() -> q_gen_13054
<leaf, z>() -> q_gen_13042
<node, s>(q_gen_13055, q_gen_13054, q_gen_13054) -> q_gen_13042
<a, z>() -> q_gen_13055
<b, z>() -> q_gen_13055
}

Datatype: <etree, nat>
Convolution form: left
}}}
  ;  taller -> 
{{{
Q={q_gen_13038, q_gen_13039, q_gen_13040, q_gen_13050, q_gen_13065},
Q_f={q_gen_13038},
Delta=
{
<leaf>() -> q_gen_13039
<node>(q_gen_13040, q_gen_13039, q_gen_13039) -> q_gen_13039
<a>() -> q_gen_13040
<b>() -> q_gen_13040
<z>() -> q_gen_13065
<leaf, z>() -> q_gen_13038
<node, s>(q_gen_13050, q_gen_13039, q_gen_13039) -> q_gen_13038
<node, z>(q_gen_13040, q_gen_13039, q_gen_13039) -> q_gen_13038
<a, z>() -> q_gen_13050
<b, s>(q_gen_13065) -> q_gen_13050
<b, z>() -> q_gen_13050
}

Datatype: <etree, nat>
Convolution form: left
}}}

}
--
Equality automata are defined for: {eq_elt, eq_etree, eq_nat}
_|

Teacher's answer:
New clause system:
{
() -> le_nat([z, s(nn2)]) -> 3  ;  () -> shallower([leaf, n]) -> 3  ;  () -> taller([leaf, z]) -> 3  ;  () -> taller([node(e, t1, t2), z]) -> 3  ;  (le_nat([n, m])) -> max([n, m, m]) -> 4  ;  (not le_nat([n, m])) -> max([n, m, n]) -> 3  ;  (le_nat([nn1, nn2])) -> le_nat([s(nn1), s(nn2)]) -> 4  ;  (le_nat([s(nn1), s(nn2)])) -> le_nat([nn1, nn2]) -> 3  ;  (le_nat([s(nn1), z])) -> BOT -> 3  ;  (le_nat([z, z])) -> BOT -> 4  ;  (max([n1, n2, _k]) /\ taller([t1, n1]) /\ taller([t2, n2])) -> taller([node(e, t1, t2), s(_k)]) -> 5  ;  (max([n1, n2, _l]) /\ shallower([t1, n1]) /\ shallower([t2, n2])) -> shallower([node(e, t1, t2), s(_l)]) -> 5  ;  (shallower([t1, m]) /\ shallower([t2, m])) -> shallower([node(e, t1, t2), s(m)]) -> 4  ;  (shallower([t1, m]) /\ shallower([node(e, t1, t2), s(m)])) -> shallower([t2, m]) -> 3  ;  (not shallower([t1, m]) /\ shallower([node(e, t1, t2), s(m)])) -> BOT -> 3  ;  (shallower([node(e, t1, t2), z])) -> BOT -> 3  ;  (taller([t1, m])) -> taller([node(e, t1, t2), s(m)]) -> 4  ;  (not taller([t1, m]) /\ taller([t2, m])) -> taller([node(e, t1, t2), s(m)]) -> 4  ;  (not taller([t1, m]) /\ not taller([t2, m]) /\ taller([node(e, t1, t2), s(m)])) -> BOT -> 6  ;  (taller([leaf, s(m)])) -> BOT -> 4
}
Sat witness: Yes: ((not taller([t1, m]) /\ not taller([t2, m]) /\ taller([node(e, t1, t2), s(m)])) -> BOT, {
e -> b  ;  m -> s(z)  ;  t1 -> leaf  ;  t2 -> leaf
})

-------------------------------------------
Step 14, which took 0.011068 s (model generation: 0.009767,  model checking: 0.001301):

Model:
|_
{
le_nat -> 
{{{
Q={q_gen_13036, q_gen_13043, q_gen_13044},
Q_f={q_gen_13043},
Delta=
{
<z>() -> q_gen_13044
<z, z>() -> q_gen_13036
<s, s>(q_gen_13043) -> q_gen_13043
<z, s>(q_gen_13044) -> q_gen_13043
}

Datatype: <nat, nat>
Convolution form: left
}}}
  ;  max -> 
{{{
Q={q_gen_13037, q_gen_13058},
Q_f={q_gen_13037},
Delta=
{
<z, z>() -> q_gen_13058
<z, s, s>(q_gen_13058) -> q_gen_13037
<z, z, z>() -> q_gen_13037
}

Datatype: <nat, nat, nat>
Convolution form: left
}}}
  ;  shallower -> 
{{{
Q={q_gen_13042, q_gen_13054, q_gen_13055},
Q_f={q_gen_13042},
Delta=
{
<leaf>() -> q_gen_13054
<leaf, z>() -> q_gen_13042
<node, s>(q_gen_13055, q_gen_13054, q_gen_13054) -> q_gen_13042
<a, z>() -> q_gen_13055
<b, z>() -> q_gen_13055
}

Datatype: <etree, nat>
Convolution form: left
}}}
  ;  taller -> 
{{{
Q={q_gen_13038, q_gen_13039, q_gen_13040, q_gen_13050, q_gen_13065},
Q_f={q_gen_13038},
Delta=
{
<leaf>() -> q_gen_13039
<node>(q_gen_13040, q_gen_13039, q_gen_13039) -> q_gen_13039
<a>() -> q_gen_13040
<b>() -> q_gen_13040
<z>() -> q_gen_13065
<leaf, s>(q_gen_13065) -> q_gen_13038
<leaf, z>() -> q_gen_13038
<node, s>(q_gen_13050, q_gen_13039, q_gen_13039) -> q_gen_13038
<node, z>(q_gen_13040, q_gen_13039, q_gen_13039) -> q_gen_13038
<a, z>() -> q_gen_13050
<b, s>(q_gen_13065) -> q_gen_13050
<b, z>() -> q_gen_13050
}

Datatype: <etree, nat>
Convolution form: left
}}}

}
--
Equality automata are defined for: {eq_elt, eq_etree, eq_nat}
_|

Teacher's answer:
New clause system:
{
() -> le_nat([z, s(nn2)]) -> 3  ;  () -> shallower([leaf, n]) -> 3  ;  () -> taller([leaf, z]) -> 3  ;  () -> taller([node(e, t1, t2), z]) -> 3  ;  (le_nat([n, m])) -> max([n, m, m]) -> 4  ;  (not le_nat([n, m])) -> max([n, m, n]) -> 6  ;  (le_nat([nn1, nn2])) -> le_nat([s(nn1), s(nn2)]) -> 4  ;  (le_nat([s(nn1), s(nn2)])) -> le_nat([nn1, nn2]) -> 4  ;  (le_nat([s(nn1), z])) -> BOT -> 4  ;  (le_nat([z, z])) -> BOT -> 4  ;  (max([n1, n2, _k]) /\ taller([t1, n1]) /\ taller([t2, n2])) -> taller([node(e, t1, t2), s(_k)]) -> 5  ;  (max([n1, n2, _l]) /\ shallower([t1, n1]) /\ shallower([t2, n2])) -> shallower([node(e, t1, t2), s(_l)]) -> 5  ;  (shallower([t1, m]) /\ shallower([t2, m])) -> shallower([node(e, t1, t2), s(m)]) -> 4  ;  (shallower([t1, m]) /\ shallower([node(e, t1, t2), s(m)])) -> shallower([t2, m]) -> 4  ;  (not shallower([t1, m]) /\ shallower([node(e, t1, t2), s(m)])) -> BOT -> 4  ;  (shallower([node(e, t1, t2), z])) -> BOT -> 4  ;  (taller([t1, m])) -> taller([node(e, t1, t2), s(m)]) -> 4  ;  (not taller([t1, m]) /\ taller([t2, m])) -> taller([node(e, t1, t2), s(m)]) -> 4  ;  (not taller([t1, m]) /\ not taller([t2, m]) /\ taller([node(e, t1, t2), s(m)])) -> BOT -> 6  ;  (taller([leaf, s(m)])) -> BOT -> 4
}
Sat witness: Yes: ((not le_nat([n, m])) -> max([n, m, n]), {
m -> s(z)  ;  n -> s(z)
})

-------------------------------------------
Step 15, which took 0.013327 s (model generation: 0.012864,  model checking: 0.000463):

Model:
|_
{
le_nat -> 
{{{
Q={q_gen_13036, q_gen_13043, q_gen_13044},
Q_f={q_gen_13043},
Delta=
{
<z>() -> q_gen_13044
<s, s>(q_gen_13036) -> q_gen_13036
<z, z>() -> q_gen_13036
<s, s>(q_gen_13043) -> q_gen_13043
<z, s>(q_gen_13044) -> q_gen_13043
}

Datatype: <nat, nat>
Convolution form: left
}}}
  ;  max -> 
{{{
Q={q_gen_13037, q_gen_13058},
Q_f={q_gen_13037},
Delta=
{
<z, z>() -> q_gen_13058
<s, s, s>(q_gen_13037) -> q_gen_13037
<z, s, s>(q_gen_13058) -> q_gen_13037
<z, z, z>() -> q_gen_13037
}

Datatype: <nat, nat, nat>
Convolution form: left
}}}
  ;  shallower -> 
{{{
Q={q_gen_13042, q_gen_13054, q_gen_13055},
Q_f={q_gen_13042},
Delta=
{
<leaf>() -> q_gen_13054
<leaf, z>() -> q_gen_13042
<node, s>(q_gen_13055, q_gen_13054, q_gen_13054) -> q_gen_13042
<a, z>() -> q_gen_13055
<b, z>() -> q_gen_13055
}

Datatype: <etree, nat>
Convolution form: left
}}}
  ;  taller -> 
{{{
Q={q_gen_13038, q_gen_13039, q_gen_13040, q_gen_13050, q_gen_13065},
Q_f={q_gen_13038},
Delta=
{
<leaf>() -> q_gen_13039
<node>(q_gen_13040, q_gen_13039, q_gen_13039) -> q_gen_13039
<a>() -> q_gen_13040
<b>() -> q_gen_13040
<z>() -> q_gen_13065
<leaf, s>(q_gen_13065) -> q_gen_13038
<leaf, z>() -> q_gen_13038
<node, s>(q_gen_13050, q_gen_13039, q_gen_13039) -> q_gen_13038
<node, z>(q_gen_13040, q_gen_13039, q_gen_13039) -> q_gen_13038
<a, z>() -> q_gen_13050
<b, s>(q_gen_13065) -> q_gen_13050
<b, z>() -> q_gen_13050
}

Datatype: <etree, nat>
Convolution form: left
}}}

}
--
Equality automata are defined for: {eq_elt, eq_etree, eq_nat}
_|

Teacher's answer:
New clause system:
{
() -> le_nat([z, s(nn2)]) -> 3  ;  () -> shallower([leaf, n]) -> 6  ;  () -> taller([leaf, z]) -> 4  ;  () -> taller([node(e, t1, t2), z]) -> 4  ;  (le_nat([n, m])) -> max([n, m, m]) -> 4  ;  (not le_nat([n, m])) -> max([n, m, n]) -> 6  ;  (le_nat([nn1, nn2])) -> le_nat([s(nn1), s(nn2)]) -> 4  ;  (le_nat([s(nn1), s(nn2)])) -> le_nat([nn1, nn2]) -> 4  ;  (le_nat([s(nn1), z])) -> BOT -> 4  ;  (le_nat([z, z])) -> BOT -> 4  ;  (max([n1, n2, _k]) /\ taller([t1, n1]) /\ taller([t2, n2])) -> taller([node(e, t1, t2), s(_k)]) -> 5  ;  (max([n1, n2, _l]) /\ shallower([t1, n1]) /\ shallower([t2, n2])) -> shallower([node(e, t1, t2), s(_l)]) -> 5  ;  (shallower([t1, m]) /\ shallower([t2, m])) -> shallower([node(e, t1, t2), s(m)]) -> 4  ;  (shallower([t1, m]) /\ shallower([node(e, t1, t2), s(m)])) -> shallower([t2, m]) -> 4  ;  (not shallower([t1, m]) /\ shallower([node(e, t1, t2), s(m)])) -> BOT -> 4  ;  (shallower([node(e, t1, t2), z])) -> BOT -> 4  ;  (taller([t1, m])) -> taller([node(e, t1, t2), s(m)]) -> 4  ;  (not taller([t1, m]) /\ taller([t2, m])) -> taller([node(e, t1, t2), s(m)]) -> 4  ;  (not taller([t1, m]) /\ not taller([t2, m]) /\ taller([node(e, t1, t2), s(m)])) -> BOT -> 6  ;  (taller([leaf, s(m)])) -> BOT -> 4
}
Sat witness: Yes: (() -> shallower([leaf, n]), {
n -> s(z)
})

-------------------------------------------
Step 16, which took 0.014327 s (model generation: 0.014228,  model checking: 0.000099):

Model:
|_
{
le_nat -> 
{{{
Q={q_gen_13036, q_gen_13043, q_gen_13044},
Q_f={q_gen_13043},
Delta=
{
<z>() -> q_gen_13044
<s, s>(q_gen_13036) -> q_gen_13036
<z, z>() -> q_gen_13036
<s, s>(q_gen_13043) -> q_gen_13043
<z, s>(q_gen_13044) -> q_gen_13043
}

Datatype: <nat, nat>
Convolution form: left
}}}
  ;  max -> 
{{{
Q={q_gen_13037, q_gen_13058},
Q_f={q_gen_13037},
Delta=
{
<z, z>() -> q_gen_13058
<s, s, s>(q_gen_13037) -> q_gen_13037
<z, s, s>(q_gen_13058) -> q_gen_13037
<z, z, z>() -> q_gen_13037
}

Datatype: <nat, nat, nat>
Convolution form: left
}}}
  ;  shallower -> 
{{{
Q={q_gen_13042, q_gen_13054, q_gen_13055, q_gen_13071},
Q_f={q_gen_13042},
Delta=
{
<leaf>() -> q_gen_13054
<z>() -> q_gen_13071
<leaf, s>(q_gen_13071) -> q_gen_13042
<leaf, z>() -> q_gen_13042
<node, s>(q_gen_13055, q_gen_13054, q_gen_13054) -> q_gen_13042
<a, z>() -> q_gen_13055
<b, z>() -> q_gen_13055
}

Datatype: <etree, nat>
Convolution form: left
}}}
  ;  taller -> 
{{{
Q={q_gen_13038, q_gen_13039, q_gen_13040, q_gen_13050, q_gen_13065},
Q_f={q_gen_13038},
Delta=
{
<leaf>() -> q_gen_13039
<node>(q_gen_13040, q_gen_13039, q_gen_13039) -> q_gen_13039
<a>() -> q_gen_13040
<b>() -> q_gen_13040
<z>() -> q_gen_13065
<leaf, s>(q_gen_13065) -> q_gen_13038
<leaf, z>() -> q_gen_13038
<node, s>(q_gen_13050, q_gen_13039, q_gen_13039) -> q_gen_13038
<node, z>(q_gen_13040, q_gen_13039, q_gen_13039) -> q_gen_13038
<a, z>() -> q_gen_13050
<b, s>(q_gen_13065) -> q_gen_13050
<b, z>() -> q_gen_13050
}

Datatype: <etree, nat>
Convolution form: left
}}}

}
--
Equality automata are defined for: {eq_elt, eq_etree, eq_nat}
_|

Teacher's answer:
New clause system:
{
() -> le_nat([z, s(nn2)]) -> 6  ;  () -> shallower([leaf, n]) -> 6  ;  () -> taller([leaf, z]) -> 4  ;  () -> taller([node(e, t1, t2), z]) -> 4  ;  (le_nat([n, m])) -> max([n, m, m]) -> 4  ;  (not le_nat([n, m])) -> max([n, m, n]) -> 6  ;  (le_nat([nn1, nn2])) -> le_nat([s(nn1), s(nn2)]) -> 4  ;  (le_nat([s(nn1), s(nn2)])) -> le_nat([nn1, nn2]) -> 4  ;  (le_nat([s(nn1), z])) -> BOT -> 4  ;  (le_nat([z, z])) -> BOT -> 4  ;  (max([n1, n2, _k]) /\ taller([t1, n1]) /\ taller([t2, n2])) -> taller([node(e, t1, t2), s(_k)]) -> 5  ;  (max([n1, n2, _l]) /\ shallower([t1, n1]) /\ shallower([t2, n2])) -> shallower([node(e, t1, t2), s(_l)]) -> 5  ;  (shallower([t1, m]) /\ shallower([t2, m])) -> shallower([node(e, t1, t2), s(m)]) -> 4  ;  (shallower([t1, m]) /\ shallower([node(e, t1, t2), s(m)])) -> shallower([t2, m]) -> 4  ;  (not shallower([t1, m]) /\ shallower([node(e, t1, t2), s(m)])) -> BOT -> 4  ;  (shallower([node(e, t1, t2), z])) -> BOT -> 4  ;  (taller([t1, m])) -> taller([node(e, t1, t2), s(m)]) -> 4  ;  (not taller([t1, m]) /\ taller([t2, m])) -> taller([node(e, t1, t2), s(m)]) -> 4  ;  (not taller([t1, m]) /\ not taller([t2, m]) /\ taller([node(e, t1, t2), s(m)])) -> BOT -> 6  ;  (taller([leaf, s(m)])) -> BOT -> 4
}
Sat witness: Yes: (() -> le_nat([z, s(nn2)]), {
nn2 -> s(z)
})

-------------------------------------------
Step 17, which took 0.014864 s (model generation: 0.014816,  model checking: 0.000048):

Model:
|_
{
le_nat -> 
{{{
Q={q_gen_13036, q_gen_13043, q_gen_13044},
Q_f={q_gen_13043},
Delta=
{
<s>(q_gen_13044) -> q_gen_13044
<z>() -> q_gen_13044
<s, s>(q_gen_13036) -> q_gen_13036
<z, z>() -> q_gen_13036
<s, s>(q_gen_13043) -> q_gen_13043
<z, s>(q_gen_13044) -> q_gen_13043
}

Datatype: <nat, nat>
Convolution form: left
}}}
  ;  max -> 
{{{
Q={q_gen_13037, q_gen_13058},
Q_f={q_gen_13037},
Delta=
{
<z, z>() -> q_gen_13058
<s, s, s>(q_gen_13037) -> q_gen_13037
<z, s, s>(q_gen_13058) -> q_gen_13037
<z, z, z>() -> q_gen_13037
}

Datatype: <nat, nat, nat>
Convolution form: left
}}}
  ;  shallower -> 
{{{
Q={q_gen_13042, q_gen_13054, q_gen_13055, q_gen_13071},
Q_f={q_gen_13042},
Delta=
{
<leaf>() -> q_gen_13054
<z>() -> q_gen_13071
<leaf, s>(q_gen_13071) -> q_gen_13042
<leaf, z>() -> q_gen_13042
<node, s>(q_gen_13055, q_gen_13054, q_gen_13054) -> q_gen_13042
<a, z>() -> q_gen_13055
<b, z>() -> q_gen_13055
}

Datatype: <etree, nat>
Convolution form: left
}}}
  ;  taller -> 
{{{
Q={q_gen_13038, q_gen_13039, q_gen_13040, q_gen_13050, q_gen_13065},
Q_f={q_gen_13038},
Delta=
{
<leaf>() -> q_gen_13039
<node>(q_gen_13040, q_gen_13039, q_gen_13039) -> q_gen_13039
<a>() -> q_gen_13040
<b>() -> q_gen_13040
<z>() -> q_gen_13065
<leaf, s>(q_gen_13065) -> q_gen_13038
<leaf, z>() -> q_gen_13038
<node, s>(q_gen_13050, q_gen_13039, q_gen_13039) -> q_gen_13038
<node, z>(q_gen_13040, q_gen_13039, q_gen_13039) -> q_gen_13038
<a, z>() -> q_gen_13050
<b, s>(q_gen_13065) -> q_gen_13050
<b, z>() -> q_gen_13050
}

Datatype: <etree, nat>
Convolution form: left
}}}

}
--
Equality automata are defined for: {eq_elt, eq_etree, eq_nat}
_|

Teacher's answer:
New clause system:
{
() -> le_nat([z, s(nn2)]) -> 6  ;  () -> shallower([leaf, n]) -> 6  ;  () -> taller([leaf, z]) -> 4  ;  () -> taller([node(e, t1, t2), z]) -> 4  ;  (le_nat([n, m])) -> max([n, m, m]) -> 4  ;  (not le_nat([n, m])) -> max([n, m, n]) -> 6  ;  (le_nat([nn1, nn2])) -> le_nat([s(nn1), s(nn2)]) -> 4  ;  (le_nat([s(nn1), s(nn2)])) -> le_nat([nn1, nn2]) -> 4  ;  (le_nat([s(nn1), z])) -> BOT -> 4  ;  (le_nat([z, z])) -> BOT -> 4  ;  (max([n1, n2, _k]) /\ taller([t1, n1]) /\ taller([t2, n2])) -> taller([node(e, t1, t2), s(_k)]) -> 5  ;  (max([n1, n2, _l]) /\ shallower([t1, n1]) /\ shallower([t2, n2])) -> shallower([node(e, t1, t2), s(_l)]) -> 5  ;  (shallower([t1, m]) /\ shallower([t2, m])) -> shallower([node(e, t1, t2), s(m)]) -> 4  ;  (shallower([t1, m]) /\ shallower([node(e, t1, t2), s(m)])) -> shallower([t2, m]) -> 4  ;  (not shallower([t1, m]) /\ shallower([node(e, t1, t2), s(m)])) -> BOT -> 4  ;  (shallower([node(e, t1, t2), z])) -> BOT -> 4  ;  (taller([t1, m])) -> taller([node(e, t1, t2), s(m)]) -> 4  ;  (not taller([t1, m]) /\ taller([t2, m])) -> taller([node(e, t1, t2), s(m)]) -> 4  ;  (not taller([t1, m]) /\ not taller([t2, m]) /\ taller([node(e, t1, t2), s(m)])) -> BOT -> 6  ;  (taller([leaf, s(m)])) -> BOT -> 7
}
Sat witness: Yes: ((taller([leaf, s(m)])) -> BOT, {
m -> z
})

-------------------------------------------
Step 18, which took 0.015042 s (model generation: 0.014629,  model checking: 0.000413):

Model:
|_
{
le_nat -> 
{{{
Q={q_gen_13036, q_gen_13043, q_gen_13044},
Q_f={q_gen_13043},
Delta=
{
<s>(q_gen_13044) -> q_gen_13044
<z>() -> q_gen_13044
<s, s>(q_gen_13036) -> q_gen_13036
<z, z>() -> q_gen_13036
<s, s>(q_gen_13043) -> q_gen_13043
<z, s>(q_gen_13044) -> q_gen_13043
}

Datatype: <nat, nat>
Convolution form: left
}}}
  ;  max -> 
{{{
Q={q_gen_13037, q_gen_13058},
Q_f={q_gen_13037},
Delta=
{
<z, z>() -> q_gen_13058
<s, s, s>(q_gen_13037) -> q_gen_13037
<z, s, s>(q_gen_13058) -> q_gen_13037
<z, z, z>() -> q_gen_13037
}

Datatype: <nat, nat, nat>
Convolution form: left
}}}
  ;  shallower -> 
{{{
Q={q_gen_13042, q_gen_13054, q_gen_13055, q_gen_13071},
Q_f={q_gen_13042},
Delta=
{
<leaf>() -> q_gen_13054
<z>() -> q_gen_13071
<leaf, s>(q_gen_13071) -> q_gen_13042
<leaf, z>() -> q_gen_13042
<node, s>(q_gen_13055, q_gen_13054, q_gen_13054) -> q_gen_13042
<a, z>() -> q_gen_13055
<b, z>() -> q_gen_13055
}

Datatype: <etree, nat>
Convolution form: left
}}}
  ;  taller -> 
{{{
Q={q_gen_13038, q_gen_13039, q_gen_13040, q_gen_13048, q_gen_13050, q_gen_13052, q_gen_13065},
Q_f={q_gen_13038},
Delta=
{
<leaf>() -> q_gen_13039
<node>(q_gen_13040, q_gen_13039, q_gen_13039) -> q_gen_13039
<a>() -> q_gen_13040
<b>() -> q_gen_13040
<z>() -> q_gen_13065
<leaf, z>() -> q_gen_13038
<node, s>(q_gen_13052, q_gen_13039, q_gen_13039) -> q_gen_13038
<node, z>(q_gen_13040, q_gen_13039, q_gen_13039) -> q_gen_13038
<leaf, s>(q_gen_13065) -> q_gen_13048
<node, s>(q_gen_13050, q_gen_13039, q_gen_13039) -> q_gen_13048
<b, s>(q_gen_13065) -> q_gen_13050
<b, z>() -> q_gen_13050
<a, z>() -> q_gen_13052
}

Datatype: <etree, nat>
Convolution form: left
}}}

}
--
Equality automata are defined for: {eq_elt, eq_etree, eq_nat}
_|

Teacher's answer:
New clause system:
{
() -> le_nat([z, s(nn2)]) -> 6  ;  () -> shallower([leaf, n]) -> 6  ;  () -> taller([leaf, z]) -> 4  ;  () -> taller([node(e, t1, t2), z]) -> 4  ;  (le_nat([n, m])) -> max([n, m, m]) -> 4  ;  (not le_nat([n, m])) -> max([n, m, n]) -> 6  ;  (le_nat([nn1, nn2])) -> le_nat([s(nn1), s(nn2)]) -> 4  ;  (le_nat([s(nn1), s(nn2)])) -> le_nat([nn1, nn2]) -> 4  ;  (le_nat([s(nn1), z])) -> BOT -> 4  ;  (le_nat([z, z])) -> BOT -> 4  ;  (max([n1, n2, _k]) /\ taller([t1, n1]) /\ taller([t2, n2])) -> taller([node(e, t1, t2), s(_k)]) -> 5  ;  (max([n1, n2, _l]) /\ shallower([t1, n1]) /\ shallower([t2, n2])) -> shallower([node(e, t1, t2), s(_l)]) -> 5  ;  (shallower([t1, m]) /\ shallower([t2, m])) -> shallower([node(e, t1, t2), s(m)]) -> 4  ;  (shallower([t1, m]) /\ shallower([node(e, t1, t2), s(m)])) -> shallower([t2, m]) -> 4  ;  (not shallower([t1, m]) /\ shallower([node(e, t1, t2), s(m)])) -> BOT -> 4  ;  (shallower([node(e, t1, t2), z])) -> BOT -> 4  ;  (taller([t1, m])) -> taller([node(e, t1, t2), s(m)]) -> 4  ;  (not taller([t1, m]) /\ taller([t2, m])) -> taller([node(e, t1, t2), s(m)]) -> 7  ;  (not taller([t1, m]) /\ not taller([t2, m]) /\ taller([node(e, t1, t2), s(m)])) -> BOT -> 6  ;  (taller([leaf, s(m)])) -> BOT -> 7
}
Sat witness: Yes: ((not taller([t1, m]) /\ taller([t2, m])) -> taller([node(e, t1, t2), s(m)]), {
e -> b  ;  m -> s(z)  ;  t1 -> leaf  ;  t2 -> node(a, leaf, leaf)
})

-------------------------------------------
Step 19, which took 0.007573 s (model generation: 0.007120,  model checking: 0.000453):

Model:
|_
{
le_nat -> 
{{{
Q={q_gen_13036, q_gen_13043, q_gen_13044},
Q_f={q_gen_13043},
Delta=
{
<s>(q_gen_13044) -> q_gen_13044
<z>() -> q_gen_13044
<s, s>(q_gen_13036) -> q_gen_13036
<z, z>() -> q_gen_13036
<s, s>(q_gen_13043) -> q_gen_13043
<z, s>(q_gen_13044) -> q_gen_13043
}

Datatype: <nat, nat>
Convolution form: left
}}}
  ;  max -> 
{{{
Q={q_gen_13037, q_gen_13058},
Q_f={q_gen_13037},
Delta=
{
<z, z>() -> q_gen_13058
<s, s, s>(q_gen_13037) -> q_gen_13037
<z, s, s>(q_gen_13058) -> q_gen_13037
<z, z, z>() -> q_gen_13037
}

Datatype: <nat, nat, nat>
Convolution form: left
}}}
  ;  shallower -> 
{{{
Q={q_gen_13042, q_gen_13054, q_gen_13055, q_gen_13071},
Q_f={q_gen_13042},
Delta=
{
<leaf>() -> q_gen_13054
<z>() -> q_gen_13071
<leaf, s>(q_gen_13071) -> q_gen_13042
<leaf, z>() -> q_gen_13042
<node, s>(q_gen_13055, q_gen_13054, q_gen_13054) -> q_gen_13042
<a, z>() -> q_gen_13055
<b, z>() -> q_gen_13055
}

Datatype: <etree, nat>
Convolution form: left
}}}
  ;  taller -> 
{{{
Q={q_gen_13038, q_gen_13039, q_gen_13040, q_gen_13046, q_gen_13050, q_gen_13052, q_gen_13065, q_gen_13066},
Q_f={q_gen_13038},
Delta=
{
<leaf>() -> q_gen_13039
<a>() -> q_gen_13040
<b>() -> q_gen_13040
<node>(q_gen_13040, q_gen_13039, q_gen_13039) -> q_gen_13046
<node>(q_gen_13040, q_gen_13039, q_gen_13046) -> q_gen_13046
<node>(q_gen_13040, q_gen_13046, q_gen_13046) -> q_gen_13046
<z>() -> q_gen_13065
<leaf, z>() -> q_gen_13038
<node, s>(q_gen_13050, q_gen_13039, q_gen_13046) -> q_gen_13038
<node, s>(q_gen_13050, q_gen_13046, q_gen_13039) -> q_gen_13038
<node, s>(q_gen_13050, q_gen_13046, q_gen_13046) -> q_gen_13038
<node, s>(q_gen_13052, q_gen_13039, q_gen_13039) -> q_gen_13038
<node, z>(q_gen_13040, q_gen_13039, q_gen_13039) -> q_gen_13038
<node, z>(q_gen_13040, q_gen_13039, q_gen_13046) -> q_gen_13038
<b, s>(q_gen_13065) -> q_gen_13050
<b, z>() -> q_gen_13050
<a, z>() -> q_gen_13052
<leaf, s>(q_gen_13065) -> q_gen_13066
<node, s>(q_gen_13050, q_gen_13039, q_gen_13039) -> q_gen_13066
}

Datatype: <etree, nat>
Convolution form: left
}}}

}
--
Equality automata are defined for: {eq_elt, eq_etree, eq_nat}
_|

Teacher's answer:
New clause system:
{
() -> le_nat([z, s(nn2)]) -> 6  ;  () -> shallower([leaf, n]) -> 6  ;  () -> taller([leaf, z]) -> 4  ;  () -> taller([node(e, t1, t2), z]) -> 4  ;  (le_nat([n, m])) -> max([n, m, m]) -> 4  ;  (not le_nat([n, m])) -> max([n, m, n]) -> 6  ;  (le_nat([nn1, nn2])) -> le_nat([s(nn1), s(nn2)]) -> 4  ;  (le_nat([s(nn1), s(nn2)])) -> le_nat([nn1, nn2]) -> 4  ;  (le_nat([s(nn1), z])) -> BOT -> 4  ;  (le_nat([z, z])) -> BOT -> 4  ;  (max([n1, n2, _k]) /\ taller([t1, n1]) /\ taller([t2, n2])) -> taller([node(e, t1, t2), s(_k)]) -> 5  ;  (max([n1, n2, _l]) /\ shallower([t1, n1]) /\ shallower([t2, n2])) -> shallower([node(e, t1, t2), s(_l)]) -> 5  ;  (shallower([t1, m]) /\ shallower([t2, m])) -> shallower([node(e, t1, t2), s(m)]) -> 4  ;  (shallower([t1, m]) /\ shallower([node(e, t1, t2), s(m)])) -> shallower([t2, m]) -> 4  ;  (not shallower([t1, m]) /\ shallower([node(e, t1, t2), s(m)])) -> BOT -> 4  ;  (shallower([node(e, t1, t2), z])) -> BOT -> 4  ;  (taller([t1, m])) -> taller([node(e, t1, t2), s(m)]) -> 7  ;  (not taller([t1, m]) /\ taller([t2, m])) -> taller([node(e, t1, t2), s(m)]) -> 7  ;  (not taller([t1, m]) /\ not taller([t2, m]) /\ taller([node(e, t1, t2), s(m)])) -> BOT -> 6  ;  (taller([leaf, s(m)])) -> BOT -> 7
}
Sat witness: Yes: ((taller([t1, m])) -> taller([node(e, t1, t2), s(m)]), {
e -> b  ;  m -> z  ;  t1 -> leaf  ;  t2 -> leaf
})

-------------------------------------------
Step 20, which took 0.010193 s (model generation: 0.007295,  model checking: 0.002898):

Model:
|_
{
le_nat -> 
{{{
Q={q_gen_13036, q_gen_13043, q_gen_13044},
Q_f={q_gen_13043},
Delta=
{
<s>(q_gen_13044) -> q_gen_13044
<z>() -> q_gen_13044
<s, s>(q_gen_13036) -> q_gen_13036
<z, z>() -> q_gen_13036
<s, s>(q_gen_13043) -> q_gen_13043
<z, s>(q_gen_13044) -> q_gen_13043
}

Datatype: <nat, nat>
Convolution form: left
}}}
  ;  max -> 
{{{
Q={q_gen_13037, q_gen_13058},
Q_f={q_gen_13037},
Delta=
{
<z, z>() -> q_gen_13058
<s, s, s>(q_gen_13037) -> q_gen_13037
<z, s, s>(q_gen_13058) -> q_gen_13037
<z, z, z>() -> q_gen_13037
}

Datatype: <nat, nat, nat>
Convolution form: left
}}}
  ;  shallower -> 
{{{
Q={q_gen_13042, q_gen_13054, q_gen_13055, q_gen_13071},
Q_f={q_gen_13042},
Delta=
{
<leaf>() -> q_gen_13054
<z>() -> q_gen_13071
<leaf, s>(q_gen_13071) -> q_gen_13042
<leaf, z>() -> q_gen_13042
<node, s>(q_gen_13055, q_gen_13054, q_gen_13054) -> q_gen_13042
<a, z>() -> q_gen_13055
<b, z>() -> q_gen_13055
}

Datatype: <etree, nat>
Convolution form: left
}}}
  ;  taller -> 
{{{
Q={q_gen_13038, q_gen_13039, q_gen_13040, q_gen_13046, q_gen_13048, q_gen_13050, q_gen_13064, q_gen_13065},
Q_f={q_gen_13038},
Delta=
{
<leaf>() -> q_gen_13039
<a>() -> q_gen_13040
<b>() -> q_gen_13040
<node>(q_gen_13040, q_gen_13039, q_gen_13039) -> q_gen_13046
<node>(q_gen_13040, q_gen_13039, q_gen_13046) -> q_gen_13046
<node>(q_gen_13040, q_gen_13046, q_gen_13046) -> q_gen_13046
<z>() -> q_gen_13065
<leaf, z>() -> q_gen_13038
<node, s>(q_gen_13050, q_gen_13039, q_gen_13039) -> q_gen_13038
<node, s>(q_gen_13050, q_gen_13046, q_gen_13046) -> q_gen_13038
<node, s>(q_gen_13064, q_gen_13039, q_gen_13046) -> q_gen_13038
<node, z>(q_gen_13040, q_gen_13039, q_gen_13039) -> q_gen_13038
<node, z>(q_gen_13040, q_gen_13039, q_gen_13046) -> q_gen_13038
<leaf, s>(q_gen_13065) -> q_gen_13048
<node, s>(q_gen_13050, q_gen_13046, q_gen_13039) -> q_gen_13048
<node, s>(q_gen_13064, q_gen_13039, q_gen_13039) -> q_gen_13048
<a, z>() -> q_gen_13050
<b, z>() -> q_gen_13050
<b, s>(q_gen_13065) -> q_gen_13064
}

Datatype: <etree, nat>
Convolution form: left
}}}

}
--
Equality automata are defined for: {eq_elt, eq_etree, eq_nat}
_|

Teacher's answer:
New clause system:
{
() -> le_nat([z, s(nn2)]) -> 6  ;  () -> shallower([leaf, n]) -> 6  ;  () -> taller([leaf, z]) -> 4  ;  () -> taller([node(e, t1, t2), z]) -> 4  ;  (le_nat([n, m])) -> max([n, m, m]) -> 4  ;  (not le_nat([n, m])) -> max([n, m, n]) -> 6  ;  (le_nat([nn1, nn2])) -> le_nat([s(nn1), s(nn2)]) -> 4  ;  (le_nat([s(nn1), s(nn2)])) -> le_nat([nn1, nn2]) -> 4  ;  (le_nat([s(nn1), z])) -> BOT -> 4  ;  (le_nat([z, z])) -> BOT -> 4  ;  (max([n1, n2, _k]) /\ taller([t1, n1]) /\ taller([t2, n2])) -> taller([node(e, t1, t2), s(_k)]) -> 5  ;  (max([n1, n2, _l]) /\ shallower([t1, n1]) /\ shallower([t2, n2])) -> shallower([node(e, t1, t2), s(_l)]) -> 5  ;  (shallower([t1, m]) /\ shallower([t2, m])) -> shallower([node(e, t1, t2), s(m)]) -> 7  ;  (shallower([t1, m]) /\ shallower([node(e, t1, t2), s(m)])) -> shallower([t2, m]) -> 5  ;  (not shallower([t1, m]) /\ shallower([node(e, t1, t2), s(m)])) -> BOT -> 5  ;  (shallower([node(e, t1, t2), z])) -> BOT -> 5  ;  (taller([t1, m])) -> taller([node(e, t1, t2), s(m)]) -> 7  ;  (not taller([t1, m]) /\ taller([t2, m])) -> taller([node(e, t1, t2), s(m)]) -> 7  ;  (not taller([t1, m]) /\ not taller([t2, m]) /\ taller([node(e, t1, t2), s(m)])) -> BOT -> 6  ;  (taller([leaf, s(m)])) -> BOT -> 7
}
Sat witness: Yes: ((shallower([t1, m]) /\ shallower([t2, m])) -> shallower([node(e, t1, t2), s(m)]), {
e -> b  ;  m -> s(z)  ;  t1 -> leaf  ;  t2 -> leaf
})

-------------------------------------------
Step 21, which took 0.017141 s (model generation: 0.016794,  model checking: 0.000347):

Model:
|_
{
le_nat -> 
{{{
Q={q_gen_13036, q_gen_13043, q_gen_13044},
Q_f={q_gen_13043},
Delta=
{
<s>(q_gen_13044) -> q_gen_13044
<z>() -> q_gen_13044
<s, s>(q_gen_13036) -> q_gen_13036
<z, z>() -> q_gen_13036
<s, s>(q_gen_13043) -> q_gen_13043
<z, s>(q_gen_13044) -> q_gen_13043
}

Datatype: <nat, nat>
Convolution form: left
}}}
  ;  max -> 
{{{
Q={q_gen_13037, q_gen_13058},
Q_f={q_gen_13037},
Delta=
{
<z, z>() -> q_gen_13058
<s, s, s>(q_gen_13037) -> q_gen_13037
<z, s, s>(q_gen_13058) -> q_gen_13037
<z, z, z>() -> q_gen_13037
}

Datatype: <nat, nat, nat>
Convolution form: left
}}}
  ;  shallower -> 
{{{
Q={q_gen_13042, q_gen_13054, q_gen_13055, q_gen_13071},
Q_f={q_gen_13042},
Delta=
{
<leaf>() -> q_gen_13054
<z>() -> q_gen_13071
<leaf, s>(q_gen_13071) -> q_gen_13042
<leaf, z>() -> q_gen_13042
<node, s>(q_gen_13055, q_gen_13054, q_gen_13054) -> q_gen_13042
<a, z>() -> q_gen_13055
<b, s>(q_gen_13071) -> q_gen_13055
<b, z>() -> q_gen_13055
}

Datatype: <etree, nat>
Convolution form: left
}}}
  ;  taller -> 
{{{
Q={q_gen_13038, q_gen_13039, q_gen_13040, q_gen_13046, q_gen_13048, q_gen_13050, q_gen_13064, q_gen_13065},
Q_f={q_gen_13038},
Delta=
{
<leaf>() -> q_gen_13039
<node>(q_gen_13040, q_gen_13046, q_gen_13046) -> q_gen_13039
<a>() -> q_gen_13040
<b>() -> q_gen_13040
<node>(q_gen_13040, q_gen_13039, q_gen_13039) -> q_gen_13046
<node>(q_gen_13040, q_gen_13039, q_gen_13046) -> q_gen_13046
<z>() -> q_gen_13065
<leaf, z>() -> q_gen_13038
<node, s>(q_gen_13050, q_gen_13039, q_gen_13039) -> q_gen_13038
<node, s>(q_gen_13064, q_gen_13039, q_gen_13046) -> q_gen_13038
<node, z>(q_gen_13040, q_gen_13039, q_gen_13039) -> q_gen_13038
<node, z>(q_gen_13040, q_gen_13039, q_gen_13046) -> q_gen_13038
<leaf, s>(q_gen_13065) -> q_gen_13048
<node, s>(q_gen_13050, q_gen_13046, q_gen_13039) -> q_gen_13048
<node, s>(q_gen_13050, q_gen_13046, q_gen_13046) -> q_gen_13048
<node, s>(q_gen_13064, q_gen_13039, q_gen_13039) -> q_gen_13048
<a, z>() -> q_gen_13050
<b, z>() -> q_gen_13050
<b, s>(q_gen_13065) -> q_gen_13064
}

Datatype: <etree, nat>
Convolution form: left
}}}

}
--
Equality automata are defined for: {eq_elt, eq_etree, eq_nat}
_|

Teacher's answer:
New clause system:
{
() -> le_nat([z, s(nn2)]) -> 6  ;  () -> shallower([leaf, n]) -> 6  ;  () -> taller([leaf, z]) -> 4  ;  () -> taller([node(e, t1, t2), z]) -> 4  ;  (le_nat([n, m])) -> max([n, m, m]) -> 7  ;  (not le_nat([n, m])) -> max([n, m, n]) -> 6  ;  (le_nat([nn1, nn2])) -> le_nat([s(nn1), s(nn2)]) -> 5  ;  (le_nat([s(nn1), s(nn2)])) -> le_nat([nn1, nn2]) -> 5  ;  (le_nat([s(nn1), z])) -> BOT -> 5  ;  (le_nat([z, z])) -> BOT -> 5  ;  (max([n1, n2, _k]) /\ taller([t1, n1]) /\ taller([t2, n2])) -> taller([node(e, t1, t2), s(_k)]) -> 5  ;  (max([n1, n2, _l]) /\ shallower([t1, n1]) /\ shallower([t2, n2])) -> shallower([node(e, t1, t2), s(_l)]) -> 5  ;  (shallower([t1, m]) /\ shallower([t2, m])) -> shallower([node(e, t1, t2), s(m)]) -> 7  ;  (shallower([t1, m]) /\ shallower([node(e, t1, t2), s(m)])) -> shallower([t2, m]) -> 5  ;  (not shallower([t1, m]) /\ shallower([node(e, t1, t2), s(m)])) -> BOT -> 5  ;  (shallower([node(e, t1, t2), z])) -> BOT -> 5  ;  (taller([t1, m])) -> taller([node(e, t1, t2), s(m)]) -> 7  ;  (not taller([t1, m]) /\ taller([t2, m])) -> taller([node(e, t1, t2), s(m)]) -> 7  ;  (not taller([t1, m]) /\ not taller([t2, m]) /\ taller([node(e, t1, t2), s(m)])) -> BOT -> 6  ;  (taller([leaf, s(m)])) -> BOT -> 7
}
Sat witness: Yes: ((le_nat([n, m])) -> max([n, m, m]), {
m -> s(s(z))  ;  n -> z
})

-------------------------------------------
Step 22, which took 0.011795 s (model generation: 0.011555,  model checking: 0.000240):

Model:
|_
{
le_nat -> 
{{{
Q={q_gen_13036, q_gen_13043, q_gen_13044},
Q_f={q_gen_13043},
Delta=
{
<s>(q_gen_13044) -> q_gen_13044
<z>() -> q_gen_13044
<s, s>(q_gen_13036) -> q_gen_13036
<z, z>() -> q_gen_13036
<s, s>(q_gen_13043) -> q_gen_13043
<z, s>(q_gen_13044) -> q_gen_13043
}

Datatype: <nat, nat>
Convolution form: left
}}}
  ;  max -> 
{{{
Q={q_gen_13037, q_gen_13058},
Q_f={q_gen_13037},
Delta=
{
<s, s>(q_gen_13058) -> q_gen_13058
<z, z>() -> q_gen_13058
<s, s, s>(q_gen_13037) -> q_gen_13037
<z, s, s>(q_gen_13058) -> q_gen_13037
<z, z, z>() -> q_gen_13037
}

Datatype: <nat, nat, nat>
Convolution form: left
}}}
  ;  shallower -> 
{{{
Q={q_gen_13042, q_gen_13054, q_gen_13055, q_gen_13071},
Q_f={q_gen_13042},
Delta=
{
<leaf>() -> q_gen_13054
<z>() -> q_gen_13071
<leaf, s>(q_gen_13071) -> q_gen_13042
<leaf, z>() -> q_gen_13042
<node, s>(q_gen_13055, q_gen_13054, q_gen_13054) -> q_gen_13042
<a, z>() -> q_gen_13055
<b, s>(q_gen_13071) -> q_gen_13055
<b, z>() -> q_gen_13055
}

Datatype: <etree, nat>
Convolution form: left
}}}
  ;  taller -> 
{{{
Q={q_gen_13038, q_gen_13039, q_gen_13040, q_gen_13045, q_gen_13046, q_gen_13050, q_gen_13064, q_gen_13065},
Q_f={q_gen_13038},
Delta=
{
<leaf>() -> q_gen_13039
<node>(q_gen_13040, q_gen_13046, q_gen_13046) -> q_gen_13039
<a>() -> q_gen_13040
<b>() -> q_gen_13040
<node>(q_gen_13040, q_gen_13039, q_gen_13039) -> q_gen_13046
<node>(q_gen_13040, q_gen_13039, q_gen_13046) -> q_gen_13046
<z>() -> q_gen_13065
<leaf, z>() -> q_gen_13038
<node, s>(q_gen_13050, q_gen_13039, q_gen_13039) -> q_gen_13038
<node, s>(q_gen_13050, q_gen_13046, q_gen_13039) -> q_gen_13038
<node, s>(q_gen_13064, q_gen_13039, q_gen_13046) -> q_gen_13038
<node, z>(q_gen_13040, q_gen_13039, q_gen_13039) -> q_gen_13038
<leaf, s>(q_gen_13065) -> q_gen_13045
<node, s>(q_gen_13050, q_gen_13046, q_gen_13046) -> q_gen_13045
<node, s>(q_gen_13064, q_gen_13039, q_gen_13039) -> q_gen_13045
<node, z>(q_gen_13040, q_gen_13039, q_gen_13046) -> q_gen_13045
<a, z>() -> q_gen_13050
<b, z>() -> q_gen_13050
<b, s>(q_gen_13065) -> q_gen_13064
}

Datatype: <etree, nat>
Convolution form: left
}}}

}
--
Equality automata are defined for: {eq_elt, eq_etree, eq_nat}
_|

Teacher's answer:
New clause system:
{
() -> le_nat([z, s(nn2)]) -> 6  ;  () -> shallower([leaf, n]) -> 6  ;  () -> taller([leaf, z]) -> 4  ;  () -> taller([node(e, t1, t2), z]) -> 7  ;  (le_nat([n, m])) -> max([n, m, m]) -> 7  ;  (not le_nat([n, m])) -> max([n, m, n]) -> 6  ;  (le_nat([nn1, nn2])) -> le_nat([s(nn1), s(nn2)]) -> 5  ;  (le_nat([s(nn1), s(nn2)])) -> le_nat([nn1, nn2]) -> 5  ;  (le_nat([s(nn1), z])) -> BOT -> 5  ;  (le_nat([z, z])) -> BOT -> 5  ;  (max([n1, n2, _k]) /\ taller([t1, n1]) /\ taller([t2, n2])) -> taller([node(e, t1, t2), s(_k)]) -> 5  ;  (max([n1, n2, _l]) /\ shallower([t1, n1]) /\ shallower([t2, n2])) -> shallower([node(e, t1, t2), s(_l)]) -> 5  ;  (shallower([t1, m]) /\ shallower([t2, m])) -> shallower([node(e, t1, t2), s(m)]) -> 7  ;  (shallower([t1, m]) /\ shallower([node(e, t1, t2), s(m)])) -> shallower([t2, m]) -> 5  ;  (not shallower([t1, m]) /\ shallower([node(e, t1, t2), s(m)])) -> BOT -> 5  ;  (shallower([node(e, t1, t2), z])) -> BOT -> 5  ;  (taller([t1, m])) -> taller([node(e, t1, t2), s(m)]) -> 7  ;  (not taller([t1, m]) /\ taller([t2, m])) -> taller([node(e, t1, t2), s(m)]) -> 7  ;  (not taller([t1, m]) /\ not taller([t2, m]) /\ taller([node(e, t1, t2), s(m)])) -> BOT -> 6  ;  (taller([leaf, s(m)])) -> BOT -> 7
}
Sat witness: Yes: (() -> taller([node(e, t1, t2), z]), {
e -> b  ;  t1 -> leaf  ;  t2 -> node(b, leaf, leaf)
})

-------------------------------------------
Step 23, which took 0.011884 s (model generation: 0.009752,  model checking: 0.002132):

Model:
|_
{
le_nat -> 
{{{
Q={q_gen_13036, q_gen_13043, q_gen_13044},
Q_f={q_gen_13043},
Delta=
{
<s>(q_gen_13044) -> q_gen_13044
<z>() -> q_gen_13044
<s, s>(q_gen_13036) -> q_gen_13036
<z, z>() -> q_gen_13036
<s, s>(q_gen_13043) -> q_gen_13043
<z, s>(q_gen_13044) -> q_gen_13043
}

Datatype: <nat, nat>
Convolution form: left
}}}
  ;  max -> 
{{{
Q={q_gen_13037, q_gen_13058},
Q_f={q_gen_13037},
Delta=
{
<s, s>(q_gen_13058) -> q_gen_13058
<z, z>() -> q_gen_13058
<s, s, s>(q_gen_13037) -> q_gen_13037
<z, s, s>(q_gen_13058) -> q_gen_13037
<z, z, z>() -> q_gen_13037
}

Datatype: <nat, nat, nat>
Convolution form: left
}}}
  ;  shallower -> 
{{{
Q={q_gen_13042, q_gen_13054, q_gen_13055, q_gen_13071},
Q_f={q_gen_13042},
Delta=
{
<leaf>() -> q_gen_13054
<z>() -> q_gen_13071
<leaf, s>(q_gen_13071) -> q_gen_13042
<leaf, z>() -> q_gen_13042
<node, s>(q_gen_13055, q_gen_13054, q_gen_13054) -> q_gen_13042
<a, z>() -> q_gen_13055
<b, s>(q_gen_13071) -> q_gen_13055
<b, z>() -> q_gen_13055
}

Datatype: <etree, nat>
Convolution form: left
}}}
  ;  taller -> 
{{{
Q={q_gen_13038, q_gen_13039, q_gen_13040, q_gen_13046, q_gen_13050, q_gen_13061, q_gen_13064, q_gen_13065},
Q_f={q_gen_13038},
Delta=
{
<leaf>() -> q_gen_13039
<node>(q_gen_13040, q_gen_13046, q_gen_13046) -> q_gen_13039
<a>() -> q_gen_13040
<b>() -> q_gen_13040
<node>(q_gen_13040, q_gen_13039, q_gen_13039) -> q_gen_13046
<node>(q_gen_13040, q_gen_13039, q_gen_13046) -> q_gen_13046
<z>() -> q_gen_13065
<leaf, z>() -> q_gen_13038
<node, s>(q_gen_13050, q_gen_13039, q_gen_13039) -> q_gen_13038
<node, s>(q_gen_13050, q_gen_13046, q_gen_13039) -> q_gen_13038
<node, s>(q_gen_13064, q_gen_13039, q_gen_13046) -> q_gen_13038
<node, z>(q_gen_13040, q_gen_13039, q_gen_13039) -> q_gen_13038
<node, z>(q_gen_13040, q_gen_13039, q_gen_13046) -> q_gen_13038
<a, z>() -> q_gen_13050
<b, z>() -> q_gen_13050
<leaf, s>(q_gen_13065) -> q_gen_13061
<node, s>(q_gen_13050, q_gen_13046, q_gen_13046) -> q_gen_13061
<node, s>(q_gen_13064, q_gen_13039, q_gen_13039) -> q_gen_13061
<b, s>(q_gen_13065) -> q_gen_13064
}

Datatype: <etree, nat>
Convolution form: left
}}}

}
--
Equality automata are defined for: {eq_elt, eq_etree, eq_nat}
_|

Teacher's answer:
New clause system:
{
() -> le_nat([z, s(nn2)]) -> 6  ;  () -> shallower([leaf, n]) -> 6  ;  () -> taller([leaf, z]) -> 5  ;  () -> taller([node(e, t1, t2), z]) -> 7  ;  (le_nat([n, m])) -> max([n, m, m]) -> 7  ;  (not le_nat([n, m])) -> max([n, m, n]) -> 6  ;  (le_nat([nn1, nn2])) -> le_nat([s(nn1), s(nn2)]) -> 5  ;  (le_nat([s(nn1), s(nn2)])) -> le_nat([nn1, nn2]) -> 5  ;  (le_nat([s(nn1), z])) -> BOT -> 5  ;  (le_nat([z, z])) -> BOT -> 5  ;  (max([n1, n2, _k]) /\ taller([t1, n1]) /\ taller([t2, n2])) -> taller([node(e, t1, t2), s(_k)]) -> 5  ;  (max([n1, n2, _l]) /\ shallower([t1, n1]) /\ shallower([t2, n2])) -> shallower([node(e, t1, t2), s(_l)]) -> 8  ;  (shallower([t1, m]) /\ shallower([t2, m])) -> shallower([node(e, t1, t2), s(m)]) -> 7  ;  (shallower([t1, m]) /\ shallower([node(e, t1, t2), s(m)])) -> shallower([t2, m]) -> 6  ;  (not shallower([t1, m]) /\ shallower([node(e, t1, t2), s(m)])) -> BOT -> 6  ;  (shallower([node(e, t1, t2), z])) -> BOT -> 6  ;  (taller([t1, m])) -> taller([node(e, t1, t2), s(m)]) -> 7  ;  (not taller([t1, m]) /\ taller([t2, m])) -> taller([node(e, t1, t2), s(m)]) -> 7  ;  (not taller([t1, m]) /\ not taller([t2, m]) /\ taller([node(e, t1, t2), s(m)])) -> BOT -> 6  ;  (taller([leaf, s(m)])) -> BOT -> 7
}
Sat witness: Yes: ((max([n1, n2, _l]) /\ shallower([t1, n1]) /\ shallower([t2, n2])) -> shallower([node(e, t1, t2), s(_l)]), {
_l -> s(z)  ;  e -> a  ;  n1 -> z  ;  n2 -> s(z)  ;  t1 -> leaf  ;  t2 -> leaf
})

-------------------------------------------
Step 24, which took 0.022020 s (model generation: 0.018631,  model checking: 0.003389):

Model:
|_
{
le_nat -> 
{{{
Q={q_gen_13036, q_gen_13043, q_gen_13044},
Q_f={q_gen_13043},
Delta=
{
<s>(q_gen_13044) -> q_gen_13044
<z>() -> q_gen_13044
<s, s>(q_gen_13036) -> q_gen_13036
<z, z>() -> q_gen_13036
<s, s>(q_gen_13043) -> q_gen_13043
<z, s>(q_gen_13044) -> q_gen_13043
}

Datatype: <nat, nat>
Convolution form: left
}}}
  ;  max -> 
{{{
Q={q_gen_13037, q_gen_13058},
Q_f={q_gen_13037},
Delta=
{
<s, s>(q_gen_13058) -> q_gen_13058
<z, z>() -> q_gen_13058
<s, s, s>(q_gen_13037) -> q_gen_13037
<z, s, s>(q_gen_13058) -> q_gen_13037
<z, z, z>() -> q_gen_13037
}

Datatype: <nat, nat, nat>
Convolution form: left
}}}
  ;  shallower -> 
{{{
Q={q_gen_13042, q_gen_13054, q_gen_13055, q_gen_13071},
Q_f={q_gen_13042},
Delta=
{
<leaf>() -> q_gen_13054
<z>() -> q_gen_13071
<leaf, s>(q_gen_13071) -> q_gen_13042
<leaf, z>() -> q_gen_13042
<node, s>(q_gen_13055, q_gen_13054, q_gen_13054) -> q_gen_13042
<a, s>(q_gen_13071) -> q_gen_13055
<a, z>() -> q_gen_13055
<b, s>(q_gen_13071) -> q_gen_13055
<b, z>() -> q_gen_13055
}

Datatype: <etree, nat>
Convolution form: left
}}}
  ;  taller -> 
{{{
Q={q_gen_13038, q_gen_13039, q_gen_13040, q_gen_13046, q_gen_13048, q_gen_13050, q_gen_13064, q_gen_13065},
Q_f={q_gen_13038},
Delta=
{
<leaf>() -> q_gen_13039
<node>(q_gen_13040, q_gen_13046, q_gen_13046) -> q_gen_13039
<a>() -> q_gen_13040
<b>() -> q_gen_13040
<node>(q_gen_13040, q_gen_13039, q_gen_13039) -> q_gen_13046
<node>(q_gen_13040, q_gen_13039, q_gen_13046) -> q_gen_13046
<z>() -> q_gen_13065
<leaf, z>() -> q_gen_13038
<node, s>(q_gen_13050, q_gen_13039, q_gen_13039) -> q_gen_13038
<node, s>(q_gen_13064, q_gen_13039, q_gen_13046) -> q_gen_13038
<node, z>(q_gen_13040, q_gen_13039, q_gen_13039) -> q_gen_13038
<node, z>(q_gen_13040, q_gen_13039, q_gen_13046) -> q_gen_13038
<leaf, s>(q_gen_13065) -> q_gen_13048
<node, s>(q_gen_13050, q_gen_13046, q_gen_13039) -> q_gen_13048
<node, s>(q_gen_13050, q_gen_13046, q_gen_13046) -> q_gen_13048
<node, s>(q_gen_13064, q_gen_13039, q_gen_13039) -> q_gen_13048
<a, z>() -> q_gen_13050
<b, z>() -> q_gen_13050
<b, s>(q_gen_13065) -> q_gen_13064
}

Datatype: <etree, nat>
Convolution form: left
}}}

}
--
Equality automata are defined for: {eq_elt, eq_etree, eq_nat}
_|

Teacher's answer:
New clause system:
{
() -> le_nat([z, s(nn2)]) -> 6  ;  () -> shallower([leaf, n]) -> 6  ;  () -> taller([leaf, z]) -> 5  ;  () -> taller([node(e, t1, t2), z]) -> 7  ;  (le_nat([n, m])) -> max([n, m, m]) -> 7  ;  (not le_nat([n, m])) -> max([n, m, n]) -> 6  ;  (le_nat([nn1, nn2])) -> le_nat([s(nn1), s(nn2)]) -> 5  ;  (le_nat([s(nn1), s(nn2)])) -> le_nat([nn1, nn2]) -> 5  ;  (le_nat([s(nn1), z])) -> BOT -> 5  ;  (le_nat([z, z])) -> BOT -> 5  ;  (max([n1, n2, _k]) /\ taller([t1, n1]) /\ taller([t2, n2])) -> taller([node(e, t1, t2), s(_k)]) -> 8  ;  (max([n1, n2, _l]) /\ shallower([t1, n1]) /\ shallower([t2, n2])) -> shallower([node(e, t1, t2), s(_l)]) -> 8  ;  (shallower([t1, m]) /\ shallower([t2, m])) -> shallower([node(e, t1, t2), s(m)]) -> 7  ;  (shallower([t1, m]) /\ shallower([node(e, t1, t2), s(m)])) -> shallower([t2, m]) -> 6  ;  (not shallower([t1, m]) /\ shallower([node(e, t1, t2), s(m)])) -> BOT -> 6  ;  (shallower([node(e, t1, t2), z])) -> BOT -> 6  ;  (taller([t1, m])) -> taller([node(e, t1, t2), s(m)]) -> 7  ;  (not taller([t1, m]) /\ taller([t2, m])) -> taller([node(e, t1, t2), s(m)]) -> 7  ;  (not taller([t1, m]) /\ not taller([t2, m]) /\ taller([node(e, t1, t2), s(m)])) -> BOT -> 6  ;  (taller([leaf, s(m)])) -> BOT -> 7
}
Sat witness: Yes: ((max([n1, n2, _k]) /\ taller([t1, n1]) /\ taller([t2, n2])) -> taller([node(e, t1, t2), s(_k)]), {
_k -> z  ;  e -> b  ;  n1 -> z  ;  n2 -> z  ;  t1 -> node(b, leaf, leaf)  ;  t2 -> leaf
})

-------------------------------------------
Step 25, which took 0.025852 s (model generation: 0.020090,  model checking: 0.005762):

Model:
|_
{
le_nat -> 
{{{
Q={q_gen_13036, q_gen_13043, q_gen_13044},
Q_f={q_gen_13043},
Delta=
{
<s>(q_gen_13044) -> q_gen_13044
<z>() -> q_gen_13044
<s, s>(q_gen_13036) -> q_gen_13036
<z, z>() -> q_gen_13036
<s, s>(q_gen_13043) -> q_gen_13043
<z, s>(q_gen_13044) -> q_gen_13043
}

Datatype: <nat, nat>
Convolution form: left
}}}
  ;  max -> 
{{{
Q={q_gen_13037, q_gen_13058},
Q_f={q_gen_13037},
Delta=
{
<s, s>(q_gen_13058) -> q_gen_13058
<z, z>() -> q_gen_13058
<s, s, s>(q_gen_13037) -> q_gen_13037
<z, s, s>(q_gen_13058) -> q_gen_13037
<z, z, z>() -> q_gen_13037
}

Datatype: <nat, nat, nat>
Convolution form: left
}}}
  ;  shallower -> 
{{{
Q={q_gen_13042, q_gen_13054, q_gen_13055, q_gen_13071},
Q_f={q_gen_13042},
Delta=
{
<leaf>() -> q_gen_13054
<z>() -> q_gen_13071
<leaf, s>(q_gen_13071) -> q_gen_13042
<leaf, z>() -> q_gen_13042
<node, s>(q_gen_13055, q_gen_13054, q_gen_13054) -> q_gen_13042
<a, s>(q_gen_13071) -> q_gen_13055
<a, z>() -> q_gen_13055
<b, s>(q_gen_13071) -> q_gen_13055
<b, z>() -> q_gen_13055
}

Datatype: <etree, nat>
Convolution form: left
}}}
  ;  taller -> 
{{{
Q={q_gen_13038, q_gen_13039, q_gen_13040, q_gen_13046, q_gen_13050, q_gen_13061, q_gen_13064, q_gen_13065},
Q_f={q_gen_13038},
Delta=
{
<leaf>() -> q_gen_13039
<node>(q_gen_13040, q_gen_13039, q_gen_13046) -> q_gen_13039
<a>() -> q_gen_13040
<b>() -> q_gen_13040
<node>(q_gen_13040, q_gen_13039, q_gen_13039) -> q_gen_13046
<node>(q_gen_13040, q_gen_13046, q_gen_13046) -> q_gen_13046
<z>() -> q_gen_13065
<leaf, z>() -> q_gen_13038
<node, s>(q_gen_13050, q_gen_13039, q_gen_13039) -> q_gen_13038
<node, s>(q_gen_13050, q_gen_13046, q_gen_13039) -> q_gen_13038
<node, s>(q_gen_13064, q_gen_13039, q_gen_13046) -> q_gen_13038
<node, z>(q_gen_13040, q_gen_13039, q_gen_13039) -> q_gen_13038
<node, z>(q_gen_13040, q_gen_13039, q_gen_13046) -> q_gen_13038
<a, z>() -> q_gen_13050
<b, z>() -> q_gen_13050
<leaf, s>(q_gen_13065) -> q_gen_13061
<node, s>(q_gen_13050, q_gen_13046, q_gen_13046) -> q_gen_13061
<node, s>(q_gen_13064, q_gen_13039, q_gen_13039) -> q_gen_13061
<b, s>(q_gen_13065) -> q_gen_13064
}

Datatype: <etree, nat>
Convolution form: left
}}}

}
--
Equality automata are defined for: {eq_elt, eq_etree, eq_nat}
_|

Teacher's answer:
New clause system:
{
() -> le_nat([z, s(nn2)]) -> 6  ;  () -> shallower([leaf, n]) -> 6  ;  () -> taller([leaf, z]) -> 6  ;  () -> taller([node(e, t1, t2), z]) -> 7  ;  (le_nat([n, m])) -> max([n, m, m]) -> 7  ;  (not le_nat([n, m])) -> max([n, m, n]) -> 6  ;  (le_nat([nn1, nn2])) -> le_nat([s(nn1), s(nn2)]) -> 6  ;  (le_nat([s(nn1), s(nn2)])) -> le_nat([nn1, nn2]) -> 6  ;  (le_nat([s(nn1), z])) -> BOT -> 6  ;  (le_nat([z, z])) -> BOT -> 6  ;  (max([n1, n2, _k]) /\ taller([t1, n1]) /\ taller([t2, n2])) -> taller([node(e, t1, t2), s(_k)]) -> 8  ;  (max([n1, n2, _l]) /\ shallower([t1, n1]) /\ shallower([t2, n2])) -> shallower([node(e, t1, t2), s(_l)]) -> 8  ;  (shallower([t1, m]) /\ shallower([t2, m])) -> shallower([node(e, t1, t2), s(m)]) -> 7  ;  (shallower([t1, m]) /\ shallower([node(e, t1, t2), s(m)])) -> shallower([t2, m]) -> 6  ;  (not shallower([t1, m]) /\ shallower([node(e, t1, t2), s(m)])) -> BOT -> 6  ;  (shallower([node(e, t1, t2), z])) -> BOT -> 6  ;  (taller([t1, m])) -> taller([node(e, t1, t2), s(m)]) -> 7  ;  (not taller([t1, m]) /\ taller([t2, m])) -> taller([node(e, t1, t2), s(m)]) -> 7  ;  (not taller([t1, m]) /\ not taller([t2, m]) /\ taller([node(e, t1, t2), s(m)])) -> BOT -> 9  ;  (taller([leaf, s(m)])) -> BOT -> 7
}
Sat witness: Yes: ((not taller([t1, m]) /\ not taller([t2, m]) /\ taller([node(e, t1, t2), s(m)])) -> BOT, {
e -> b  ;  m -> s(z)  ;  t1 -> leaf  ;  t2 -> node(b, node(b, leaf, leaf), node(b, leaf, leaf))
})

-------------------------------------------
Step 26, which took 0.026403 s (model generation: 0.024822,  model checking: 0.001581):

Model:
|_
{
le_nat -> 
{{{
Q={q_gen_13036, q_gen_13043, q_gen_13044},
Q_f={q_gen_13043},
Delta=
{
<s>(q_gen_13044) -> q_gen_13044
<z>() -> q_gen_13044
<s, s>(q_gen_13036) -> q_gen_13036
<z, z>() -> q_gen_13036
<s, s>(q_gen_13043) -> q_gen_13043
<z, s>(q_gen_13044) -> q_gen_13043
}

Datatype: <nat, nat>
Convolution form: left
}}}
  ;  max -> 
{{{
Q={q_gen_13037, q_gen_13058},
Q_f={q_gen_13037},
Delta=
{
<s, s>(q_gen_13058) -> q_gen_13058
<z, z>() -> q_gen_13058
<s, s, s>(q_gen_13037) -> q_gen_13037
<z, s, s>(q_gen_13058) -> q_gen_13037
<z, z, z>() -> q_gen_13037
}

Datatype: <nat, nat, nat>
Convolution form: left
}}}
  ;  shallower -> 
{{{
Q={q_gen_13042, q_gen_13054, q_gen_13055, q_gen_13071},
Q_f={q_gen_13042},
Delta=
{
<leaf>() -> q_gen_13054
<z>() -> q_gen_13071
<leaf, s>(q_gen_13071) -> q_gen_13042
<leaf, z>() -> q_gen_13042
<node, s>(q_gen_13055, q_gen_13054, q_gen_13054) -> q_gen_13042
<a, s>(q_gen_13071) -> q_gen_13055
<a, z>() -> q_gen_13055
<b, s>(q_gen_13071) -> q_gen_13055
<b, z>() -> q_gen_13055
}

Datatype: <etree, nat>
Convolution form: left
}}}
  ;  taller -> 
{{{
Q={q_gen_13038, q_gen_13039, q_gen_13040, q_gen_13046, q_gen_13050, q_gen_13061, q_gen_13064, q_gen_13065},
Q_f={q_gen_13038},
Delta=
{
<leaf>() -> q_gen_13039
<node>(q_gen_13040, q_gen_13046, q_gen_13046) -> q_gen_13039
<a>() -> q_gen_13040
<b>() -> q_gen_13040
<node>(q_gen_13040, q_gen_13039, q_gen_13039) -> q_gen_13046
<node>(q_gen_13040, q_gen_13039, q_gen_13046) -> q_gen_13046
<z>() -> q_gen_13065
<leaf, z>() -> q_gen_13038
<node, s>(q_gen_13050, q_gen_13039, q_gen_13039) -> q_gen_13038
<node, s>(q_gen_13050, q_gen_13046, q_gen_13039) -> q_gen_13038
<node, s>(q_gen_13064, q_gen_13039, q_gen_13046) -> q_gen_13038
<node, z>(q_gen_13040, q_gen_13039, q_gen_13039) -> q_gen_13038
<node, z>(q_gen_13040, q_gen_13039, q_gen_13046) -> q_gen_13038
<a, z>() -> q_gen_13050
<b, z>() -> q_gen_13050
<leaf, s>(q_gen_13065) -> q_gen_13061
<node, s>(q_gen_13050, q_gen_13046, q_gen_13046) -> q_gen_13061
<node, s>(q_gen_13064, q_gen_13039, q_gen_13039) -> q_gen_13061
<b, s>(q_gen_13065) -> q_gen_13064
}

Datatype: <etree, nat>
Convolution form: left
}}}

}
--
Equality automata are defined for: {eq_elt, eq_etree, eq_nat}
_|

Teacher's answer:
New clause system:
{
() -> le_nat([z, s(nn2)]) -> 6  ;  () -> shallower([leaf, n]) -> 6  ;  () -> taller([leaf, z]) -> 6  ;  () -> taller([node(e, t1, t2), z]) -> 7  ;  (le_nat([n, m])) -> max([n, m, m]) -> 7  ;  (not le_nat([n, m])) -> max([n, m, n]) -> 9  ;  (le_nat([nn1, nn2])) -> le_nat([s(nn1), s(nn2)]) -> 7  ;  (le_nat([s(nn1), s(nn2)])) -> le_nat([nn1, nn2]) -> 7  ;  (le_nat([s(nn1), z])) -> BOT -> 7  ;  (le_nat([z, z])) -> BOT -> 7  ;  (max([n1, n2, _k]) /\ taller([t1, n1]) /\ taller([t2, n2])) -> taller([node(e, t1, t2), s(_k)]) -> 8  ;  (max([n1, n2, _l]) /\ shallower([t1, n1]) /\ shallower([t2, n2])) -> shallower([node(e, t1, t2), s(_l)]) -> 8  ;  (shallower([t1, m]) /\ shallower([t2, m])) -> shallower([node(e, t1, t2), s(m)]) -> 7  ;  (shallower([t1, m]) /\ shallower([node(e, t1, t2), s(m)])) -> shallower([t2, m]) -> 7  ;  (not shallower([t1, m]) /\ shallower([node(e, t1, t2), s(m)])) -> BOT -> 7  ;  (shallower([node(e, t1, t2), z])) -> BOT -> 7  ;  (taller([t1, m])) -> taller([node(e, t1, t2), s(m)]) -> 7  ;  (not taller([t1, m]) /\ taller([t2, m])) -> taller([node(e, t1, t2), s(m)]) -> 7  ;  (not taller([t1, m]) /\ not taller([t2, m]) /\ taller([node(e, t1, t2), s(m)])) -> BOT -> 9  ;  (taller([leaf, s(m)])) -> BOT -> 7
}
Sat witness: Yes: ((not le_nat([n, m])) -> max([n, m, n]), {
m -> z  ;  n -> s(z)
})

-------------------------------------------
Step 27, which took 0.018374 s (model generation: 0.017864,  model checking: 0.000510):

Model:
|_
{
le_nat -> 
{{{
Q={q_gen_13036, q_gen_13043, q_gen_13044},
Q_f={q_gen_13043},
Delta=
{
<s>(q_gen_13044) -> q_gen_13044
<z>() -> q_gen_13044
<s, s>(q_gen_13036) -> q_gen_13036
<s, z>(q_gen_13044) -> q_gen_13036
<z, z>() -> q_gen_13036
<s, s>(q_gen_13043) -> q_gen_13043
<z, s>(q_gen_13044) -> q_gen_13043
}

Datatype: <nat, nat>
Convolution form: left
}}}
  ;  max -> 
{{{
Q={q_gen_13037, q_gen_13058},
Q_f={q_gen_13037},
Delta=
{
<s, s>(q_gen_13058) -> q_gen_13058
<z, z>() -> q_gen_13058
<s, s, s>(q_gen_13037) -> q_gen_13037
<s, z, s>(q_gen_13058) -> q_gen_13037
<z, s, s>(q_gen_13058) -> q_gen_13037
<z, z, z>() -> q_gen_13037
}

Datatype: <nat, nat, nat>
Convolution form: left
}}}
  ;  shallower -> 
{{{
Q={q_gen_13042, q_gen_13054, q_gen_13055, q_gen_13071},
Q_f={q_gen_13042},
Delta=
{
<leaf>() -> q_gen_13054
<z>() -> q_gen_13071
<leaf, s>(q_gen_13071) -> q_gen_13042
<leaf, z>() -> q_gen_13042
<node, s>(q_gen_13055, q_gen_13054, q_gen_13054) -> q_gen_13042
<a, s>(q_gen_13071) -> q_gen_13055
<a, z>() -> q_gen_13055
<b, s>(q_gen_13071) -> q_gen_13055
<b, z>() -> q_gen_13055
}

Datatype: <etree, nat>
Convolution form: left
}}}
  ;  taller -> 
{{{
Q={q_gen_13038, q_gen_13039, q_gen_13040, q_gen_13046, q_gen_13050, q_gen_13061, q_gen_13064, q_gen_13065},
Q_f={q_gen_13038},
Delta=
{
<leaf>() -> q_gen_13039
<node>(q_gen_13040, q_gen_13046, q_gen_13046) -> q_gen_13039
<a>() -> q_gen_13040
<b>() -> q_gen_13040
<node>(q_gen_13040, q_gen_13039, q_gen_13039) -> q_gen_13046
<node>(q_gen_13040, q_gen_13039, q_gen_13046) -> q_gen_13046
<z>() -> q_gen_13065
<leaf, z>() -> q_gen_13038
<node, s>(q_gen_13050, q_gen_13039, q_gen_13039) -> q_gen_13038
<node, s>(q_gen_13050, q_gen_13046, q_gen_13039) -> q_gen_13038
<node, s>(q_gen_13064, q_gen_13039, q_gen_13046) -> q_gen_13038
<node, z>(q_gen_13040, q_gen_13039, q_gen_13039) -> q_gen_13038
<node, z>(q_gen_13040, q_gen_13039, q_gen_13046) -> q_gen_13038
<a, z>() -> q_gen_13050
<b, z>() -> q_gen_13050
<leaf, s>(q_gen_13065) -> q_gen_13061
<node, s>(q_gen_13050, q_gen_13046, q_gen_13046) -> q_gen_13061
<node, s>(q_gen_13064, q_gen_13039, q_gen_13039) -> q_gen_13061
<b, s>(q_gen_13065) -> q_gen_13064
}

Datatype: <etree, nat>
Convolution form: left
}}}

}
--
Equality automata are defined for: {eq_elt, eq_etree, eq_nat}
_|

Teacher's answer:
New clause system:
{
() -> le_nat([z, s(nn2)]) -> 6  ;  () -> shallower([leaf, n]) -> 9  ;  () -> taller([leaf, z]) -> 7  ;  () -> taller([node(e, t1, t2), z]) -> 7  ;  (le_nat([n, m])) -> max([n, m, m]) -> 7  ;  (not le_nat([n, m])) -> max([n, m, n]) -> 9  ;  (le_nat([nn1, nn2])) -> le_nat([s(nn1), s(nn2)]) -> 7  ;  (le_nat([s(nn1), s(nn2)])) -> le_nat([nn1, nn2]) -> 7  ;  (le_nat([s(nn1), z])) -> BOT -> 7  ;  (le_nat([z, z])) -> BOT -> 7  ;  (max([n1, n2, _k]) /\ taller([t1, n1]) /\ taller([t2, n2])) -> taller([node(e, t1, t2), s(_k)]) -> 8  ;  (max([n1, n2, _l]) /\ shallower([t1, n1]) /\ shallower([t2, n2])) -> shallower([node(e, t1, t2), s(_l)]) -> 8  ;  (shallower([t1, m]) /\ shallower([t2, m])) -> shallower([node(e, t1, t2), s(m)]) -> 7  ;  (shallower([t1, m]) /\ shallower([node(e, t1, t2), s(m)])) -> shallower([t2, m]) -> 7  ;  (not shallower([t1, m]) /\ shallower([node(e, t1, t2), s(m)])) -> BOT -> 7  ;  (shallower([node(e, t1, t2), z])) -> BOT -> 7  ;  (taller([t1, m])) -> taller([node(e, t1, t2), s(m)]) -> 7  ;  (not taller([t1, m]) /\ taller([t2, m])) -> taller([node(e, t1, t2), s(m)]) -> 7  ;  (not taller([t1, m]) /\ not taller([t2, m]) /\ taller([node(e, t1, t2), s(m)])) -> BOT -> 9  ;  (taller([leaf, s(m)])) -> BOT -> 7
}
Sat witness: Yes: (() -> shallower([leaf, n]), {
n -> s(s(z))
})

Total time: 40.001693
Reason for stopping: DontKnow. Stopped because: timeout

