Solving ../../../../benchmarks/smtlib/true/timbuk_reverse.smt2...

Inference procedure has parameters:
Ice fuel: 200
Timeout: 40s
Convolution: left


Learning problem is:

env: {
elt -> {a, b}  ;  eltlist -> {cons, nil}
}
definition:
{
(leq, P:
{() -> leq([a, y])
() -> leq([b, b])
(leq([b, a])) -> BOT}
)
(append, F:
{() -> append([nil, l2, l2])
(append([t1, l2, _ti])) -> append([cons(h1, t1), l2, cons(h1, _ti)])}
(append([_ui, _vi, _wi]) /\ append([_ui, _vi, _xi])) -> eq_eltlist([_wi, _xi])
)
(reverse, F:
{() -> reverse([nil, nil])
(append([_yi, cons(h1, nil), _zi]) /\ reverse([t1, _yi])) -> reverse([cons(h1, t1), _zi])}
(reverse([_aj, _bj]) /\ reverse([_aj, _cj])) -> eq_eltlist([_bj, _cj])
)
(sorted, P:
{() -> sorted([cons(x, nil)])
() -> sorted([nil])}
)
(invsorted, P:
{() -> invsorted([cons(x, nil)])
() -> invsorted([nil])}
)
}

properties:
{(reverse([l, _dj]) /\ sorted([l])) -> invsorted([_dj])}


over-approximation: {append, leq, reverse, sorted}
under-approximation: {invsorted, leq}

Clause system for inference is:

{
() -> append([nil, l2, l2]) -> 0  ;  () -> invsorted([cons(x, nil)]) -> 0  ;  () -> invsorted([nil]) -> 0  ;  () -> leq([a, y]) -> 0  ;  () -> leq([b, b]) -> 0  ;  () -> reverse([nil, nil]) -> 0  ;  () -> sorted([cons(x, nil)]) -> 0  ;  () -> sorted([nil]) -> 0  ;  (append([_yi, cons(h1, nil), _zi]) /\ reverse([t1, _yi])) -> reverse([cons(h1, t1), _zi]) -> 0  ;  (append([t1, l2, _ti])) -> append([cons(h1, t1), l2, cons(h1, _ti)]) -> 0  ;  (leq([b, a])) -> BOT -> 0  ;  (reverse([l, _dj]) /\ sorted([l])) -> invsorted([_dj]) -> 0
}


Solving took 0.356814 seconds.
Proved
Model:
|_
{
append -> 
{{{
Q={q_gen_10698, q_gen_10700, q_gen_10701, q_gen_10717, q_gen_10718, q_gen_10719},
Q_f={q_gen_10698},
Delta=
{
<cons>(q_gen_10718, q_gen_10717) -> q_gen_10717
<nil>() -> q_gen_10717
<a>() -> q_gen_10718
<b>() -> q_gen_10718
<cons, cons>(q_gen_10701, q_gen_10700) -> q_gen_10700
<nil, cons>(q_gen_10718, q_gen_10717) -> q_gen_10700
<nil, nil>() -> q_gen_10700
<a, a>() -> q_gen_10701
<a, b>() -> q_gen_10701
<b, a>() -> q_gen_10701
<b, b>() -> q_gen_10701
<cons, cons, cons>(q_gen_10719, q_gen_10698) -> q_gen_10698
<cons, nil, cons>(q_gen_10701, q_gen_10700) -> q_gen_10698
<nil, cons, cons>(q_gen_10701, q_gen_10700) -> q_gen_10698
<nil, nil, cons>(q_gen_10718, q_gen_10717) -> q_gen_10698
<nil, nil, nil>() -> q_gen_10698
<a, a, a>() -> q_gen_10719
<a, b, a>() -> q_gen_10719
<b, a, b>() -> q_gen_10719
<b, b, b>() -> q_gen_10719
}

Datatype: <eltlist, eltlist, eltlist>
Convolution form: left
}}}
  ;  invsorted -> 
{{{
Q={q_gen_10695, q_gen_10697},
Q_f={q_gen_10695},
Delta=
{
<cons>(q_gen_10697, q_gen_10695) -> q_gen_10695
<nil>() -> q_gen_10695
<a>() -> q_gen_10697
<b>() -> q_gen_10697
}

Datatype: <eltlist>
Convolution form: left
}}}
  ;  leq -> 
{{{
Q={q_gen_10693},
Q_f={q_gen_10693},
Delta=
{
<a, a>() -> q_gen_10693
<a, b>() -> q_gen_10693
<b, b>() -> q_gen_10693
}

Datatype: <elt, elt>
Convolution form: left
}}}
  ;  reverse -> 
{{{
Q={q_gen_10692, q_gen_10714, q_gen_10727, q_gen_10728},
Q_f={q_gen_10692},
Delta=
{
<cons>(q_gen_10728, q_gen_10727) -> q_gen_10727
<nil>() -> q_gen_10727
<a>() -> q_gen_10728
<b>() -> q_gen_10728
<cons, cons>(q_gen_10714, q_gen_10692) -> q_gen_10692
<cons, nil>(q_gen_10728, q_gen_10727) -> q_gen_10692
<nil, cons>(q_gen_10728, q_gen_10727) -> q_gen_10692
<nil, nil>() -> q_gen_10692
<a, a>() -> q_gen_10714
<a, b>() -> q_gen_10714
<b, a>() -> q_gen_10714
<b, b>() -> q_gen_10714
}

Datatype: <eltlist, eltlist>
Convolution form: left
}}}
  ;  sorted -> 
{{{
Q={q_gen_10689, q_gen_10691},
Q_f={q_gen_10689},
Delta=
{
<cons>(q_gen_10691, q_gen_10689) -> q_gen_10689
<nil>() -> q_gen_10689
<a>() -> q_gen_10691
<b>() -> q_gen_10691
}

Datatype: <eltlist>
Convolution form: left
}}}

}
--
Equality automata are defined for: {eq_elt, eq_eltlist}
_|

-------------------
STEPS:
-------------------------------------------
Step 0, which took 0.004602 s (model generation: 0.004359,  model checking: 0.000243):

Model:
|_
{
append -> 
{{{
Q={},
Q_f={},
Delta=
{

}

Datatype: <eltlist, eltlist, eltlist>
Convolution form: left
}}}
  ;  invsorted -> 
{{{
Q={},
Q_f={},
Delta=
{

}

Datatype: <eltlist>
Convolution form: left
}}}
  ;  leq -> 
{{{
Q={},
Q_f={},
Delta=
{

}

Datatype: <elt, elt>
Convolution form: left
}}}
  ;  reverse -> 
{{{
Q={},
Q_f={},
Delta=
{

}

Datatype: <eltlist, eltlist>
Convolution form: left
}}}
  ;  sorted -> 
{{{
Q={},
Q_f={},
Delta=
{

}

Datatype: <eltlist>
Convolution form: left
}}}

}
--
Equality automata are defined for: {eq_elt, eq_eltlist}
_|

Teacher's answer:
New clause system:
{
() -> append([nil, l2, l2]) -> 0  ;  () -> invsorted([cons(x, nil)]) -> 0  ;  () -> invsorted([nil]) -> 0  ;  () -> leq([a, y]) -> 0  ;  () -> leq([b, b]) -> 0  ;  () -> reverse([nil, nil]) -> 0  ;  () -> sorted([cons(x, nil)]) -> 0  ;  () -> sorted([nil]) -> 3  ;  (append([_yi, cons(h1, nil), _zi]) /\ reverse([t1, _yi])) -> reverse([cons(h1, t1), _zi]) -> 1  ;  (append([t1, l2, _ti])) -> append([cons(h1, t1), l2, cons(h1, _ti)]) -> 1  ;  (leq([b, a])) -> BOT -> 1  ;  (reverse([l, _dj]) /\ sorted([l])) -> invsorted([_dj]) -> 1
}
Sat witness: Yes: (() -> sorted([nil]), {

})

-------------------------------------------
Step 1, which took 0.004296 s (model generation: 0.003513,  model checking: 0.000783):

Model:
|_
{
append -> 
{{{
Q={},
Q_f={},
Delta=
{

}

Datatype: <eltlist, eltlist, eltlist>
Convolution form: left
}}}
  ;  invsorted -> 
{{{
Q={},
Q_f={},
Delta=
{

}

Datatype: <eltlist>
Convolution form: left
}}}
  ;  leq -> 
{{{
Q={},
Q_f={},
Delta=
{

}

Datatype: <elt, elt>
Convolution form: left
}}}
  ;  reverse -> 
{{{
Q={},
Q_f={},
Delta=
{

}

Datatype: <eltlist, eltlist>
Convolution form: left
}}}
  ;  sorted -> 
{{{
Q={q_gen_10689},
Q_f={q_gen_10689},
Delta=
{
<nil>() -> q_gen_10689
}

Datatype: <eltlist>
Convolution form: left
}}}

}
--
Equality automata are defined for: {eq_elt, eq_eltlist}
_|

Teacher's answer:
New clause system:
{
() -> append([nil, l2, l2]) -> 0  ;  () -> invsorted([cons(x, nil)]) -> 0  ;  () -> invsorted([nil]) -> 0  ;  () -> leq([a, y]) -> 0  ;  () -> leq([b, b]) -> 0  ;  () -> reverse([nil, nil]) -> 0  ;  () -> sorted([cons(x, nil)]) -> 3  ;  () -> sorted([nil]) -> 3  ;  (append([_yi, cons(h1, nil), _zi]) /\ reverse([t1, _yi])) -> reverse([cons(h1, t1), _zi]) -> 1  ;  (append([t1, l2, _ti])) -> append([cons(h1, t1), l2, cons(h1, _ti)]) -> 1  ;  (leq([b, a])) -> BOT -> 1  ;  (reverse([l, _dj]) /\ sorted([l])) -> invsorted([_dj]) -> 1
}
Sat witness: Yes: (() -> sorted([cons(x, nil)]), {
x -> b
})

-------------------------------------------
Step 2, which took 0.003812 s (model generation: 0.003763,  model checking: 0.000049):

Model:
|_
{
append -> 
{{{
Q={},
Q_f={},
Delta=
{

}

Datatype: <eltlist, eltlist, eltlist>
Convolution form: left
}}}
  ;  invsorted -> 
{{{
Q={},
Q_f={},
Delta=
{

}

Datatype: <eltlist>
Convolution form: left
}}}
  ;  leq -> 
{{{
Q={},
Q_f={},
Delta=
{

}

Datatype: <elt, elt>
Convolution form: left
}}}
  ;  reverse -> 
{{{
Q={},
Q_f={},
Delta=
{

}

Datatype: <eltlist, eltlist>
Convolution form: left
}}}
  ;  sorted -> 
{{{
Q={q_gen_10689, q_gen_10691},
Q_f={q_gen_10689},
Delta=
{
<cons>(q_gen_10691, q_gen_10689) -> q_gen_10689
<nil>() -> q_gen_10689
<b>() -> q_gen_10691
}

Datatype: <eltlist>
Convolution form: left
}}}

}
--
Equality automata are defined for: {eq_elt, eq_eltlist}
_|

Teacher's answer:
New clause system:
{
() -> append([nil, l2, l2]) -> 0  ;  () -> invsorted([cons(x, nil)]) -> 0  ;  () -> invsorted([nil]) -> 0  ;  () -> leq([a, y]) -> 0  ;  () -> leq([b, b]) -> 0  ;  () -> reverse([nil, nil]) -> 3  ;  () -> sorted([cons(x, nil)]) -> 3  ;  () -> sorted([nil]) -> 3  ;  (append([_yi, cons(h1, nil), _zi]) /\ reverse([t1, _yi])) -> reverse([cons(h1, t1), _zi]) -> 1  ;  (append([t1, l2, _ti])) -> append([cons(h1, t1), l2, cons(h1, _ti)]) -> 1  ;  (leq([b, a])) -> BOT -> 1  ;  (reverse([l, _dj]) /\ sorted([l])) -> invsorted([_dj]) -> 1
}
Sat witness: Yes: (() -> reverse([nil, nil]), {

})

-------------------------------------------
Step 3, which took 0.003426 s (model generation: 0.003403,  model checking: 0.000023):

Model:
|_
{
append -> 
{{{
Q={},
Q_f={},
Delta=
{

}

Datatype: <eltlist, eltlist, eltlist>
Convolution form: left
}}}
  ;  invsorted -> 
{{{
Q={},
Q_f={},
Delta=
{

}

Datatype: <eltlist>
Convolution form: left
}}}
  ;  leq -> 
{{{
Q={},
Q_f={},
Delta=
{

}

Datatype: <elt, elt>
Convolution form: left
}}}
  ;  reverse -> 
{{{
Q={q_gen_10692},
Q_f={q_gen_10692},
Delta=
{
<nil, nil>() -> q_gen_10692
}

Datatype: <eltlist, eltlist>
Convolution form: left
}}}
  ;  sorted -> 
{{{
Q={q_gen_10689, q_gen_10691},
Q_f={q_gen_10689},
Delta=
{
<cons>(q_gen_10691, q_gen_10689) -> q_gen_10689
<nil>() -> q_gen_10689
<b>() -> q_gen_10691
}

Datatype: <eltlist>
Convolution form: left
}}}

}
--
Equality automata are defined for: {eq_elt, eq_eltlist}
_|

Teacher's answer:
New clause system:
{
() -> append([nil, l2, l2]) -> 0  ;  () -> invsorted([cons(x, nil)]) -> 0  ;  () -> invsorted([nil]) -> 0  ;  () -> leq([a, y]) -> 0  ;  () -> leq([b, b]) -> 3  ;  () -> reverse([nil, nil]) -> 3  ;  () -> sorted([cons(x, nil)]) -> 3  ;  () -> sorted([nil]) -> 3  ;  (append([_yi, cons(h1, nil), _zi]) /\ reverse([t1, _yi])) -> reverse([cons(h1, t1), _zi]) -> 1  ;  (append([t1, l2, _ti])) -> append([cons(h1, t1), l2, cons(h1, _ti)]) -> 1  ;  (leq([b, a])) -> BOT -> 1  ;  (reverse([l, _dj]) /\ sorted([l])) -> invsorted([_dj]) -> 1
}
Sat witness: Yes: (() -> leq([b, b]), {

})

-------------------------------------------
Step 4, which took 0.002975 s (model generation: 0.002947,  model checking: 0.000028):

Model:
|_
{
append -> 
{{{
Q={},
Q_f={},
Delta=
{

}

Datatype: <eltlist, eltlist, eltlist>
Convolution form: left
}}}
  ;  invsorted -> 
{{{
Q={},
Q_f={},
Delta=
{

}

Datatype: <eltlist>
Convolution form: left
}}}
  ;  leq -> 
{{{
Q={q_gen_10693},
Q_f={q_gen_10693},
Delta=
{
<b, b>() -> q_gen_10693
}

Datatype: <elt, elt>
Convolution form: left
}}}
  ;  reverse -> 
{{{
Q={q_gen_10692},
Q_f={q_gen_10692},
Delta=
{
<nil, nil>() -> q_gen_10692
}

Datatype: <eltlist, eltlist>
Convolution form: left
}}}
  ;  sorted -> 
{{{
Q={q_gen_10689, q_gen_10691},
Q_f={q_gen_10689},
Delta=
{
<cons>(q_gen_10691, q_gen_10689) -> q_gen_10689
<nil>() -> q_gen_10689
<b>() -> q_gen_10691
}

Datatype: <eltlist>
Convolution form: left
}}}

}
--
Equality automata are defined for: {eq_elt, eq_eltlist}
_|

Teacher's answer:
New clause system:
{
() -> append([nil, l2, l2]) -> 0  ;  () -> invsorted([cons(x, nil)]) -> 0  ;  () -> invsorted([nil]) -> 0  ;  () -> leq([a, y]) -> 3  ;  () -> leq([b, b]) -> 3  ;  () -> reverse([nil, nil]) -> 3  ;  () -> sorted([cons(x, nil)]) -> 3  ;  () -> sorted([nil]) -> 3  ;  (append([_yi, cons(h1, nil), _zi]) /\ reverse([t1, _yi])) -> reverse([cons(h1, t1), _zi]) -> 1  ;  (append([t1, l2, _ti])) -> append([cons(h1, t1), l2, cons(h1, _ti)]) -> 1  ;  (leq([b, a])) -> BOT -> 1  ;  (reverse([l, _dj]) /\ sorted([l])) -> invsorted([_dj]) -> 1
}
Sat witness: Yes: (() -> leq([a, y]), {
y -> b
})

-------------------------------------------
Step 5, which took 0.003126 s (model generation: 0.003096,  model checking: 0.000030):

Model:
|_
{
append -> 
{{{
Q={},
Q_f={},
Delta=
{

}

Datatype: <eltlist, eltlist, eltlist>
Convolution form: left
}}}
  ;  invsorted -> 
{{{
Q={},
Q_f={},
Delta=
{

}

Datatype: <eltlist>
Convolution form: left
}}}
  ;  leq -> 
{{{
Q={q_gen_10693},
Q_f={q_gen_10693},
Delta=
{
<a, b>() -> q_gen_10693
<b, b>() -> q_gen_10693
}

Datatype: <elt, elt>
Convolution form: left
}}}
  ;  reverse -> 
{{{
Q={q_gen_10692},
Q_f={q_gen_10692},
Delta=
{
<nil, nil>() -> q_gen_10692
}

Datatype: <eltlist, eltlist>
Convolution form: left
}}}
  ;  sorted -> 
{{{
Q={q_gen_10689, q_gen_10691},
Q_f={q_gen_10689},
Delta=
{
<cons>(q_gen_10691, q_gen_10689) -> q_gen_10689
<nil>() -> q_gen_10689
<b>() -> q_gen_10691
}

Datatype: <eltlist>
Convolution form: left
}}}

}
--
Equality automata are defined for: {eq_elt, eq_eltlist}
_|

Teacher's answer:
New clause system:
{
() -> append([nil, l2, l2]) -> 0  ;  () -> invsorted([cons(x, nil)]) -> 0  ;  () -> invsorted([nil]) -> 3  ;  () -> leq([a, y]) -> 3  ;  () -> leq([b, b]) -> 3  ;  () -> reverse([nil, nil]) -> 3  ;  () -> sorted([cons(x, nil)]) -> 3  ;  () -> sorted([nil]) -> 3  ;  (append([_yi, cons(h1, nil), _zi]) /\ reverse([t1, _yi])) -> reverse([cons(h1, t1), _zi]) -> 1  ;  (append([t1, l2, _ti])) -> append([cons(h1, t1), l2, cons(h1, _ti)]) -> 1  ;  (leq([b, a])) -> BOT -> 1  ;  (reverse([l, _dj]) /\ sorted([l])) -> invsorted([_dj]) -> 1
}
Sat witness: Yes: (() -> invsorted([nil]), {

})

-------------------------------------------
Step 6, which took 0.003654 s (model generation: 0.003606,  model checking: 0.000048):

Model:
|_
{
append -> 
{{{
Q={},
Q_f={},
Delta=
{

}

Datatype: <eltlist, eltlist, eltlist>
Convolution form: left
}}}
  ;  invsorted -> 
{{{
Q={q_gen_10695},
Q_f={q_gen_10695},
Delta=
{
<nil>() -> q_gen_10695
}

Datatype: <eltlist>
Convolution form: left
}}}
  ;  leq -> 
{{{
Q={q_gen_10693},
Q_f={q_gen_10693},
Delta=
{
<a, b>() -> q_gen_10693
<b, b>() -> q_gen_10693
}

Datatype: <elt, elt>
Convolution form: left
}}}
  ;  reverse -> 
{{{
Q={q_gen_10692},
Q_f={q_gen_10692},
Delta=
{
<nil, nil>() -> q_gen_10692
}

Datatype: <eltlist, eltlist>
Convolution form: left
}}}
  ;  sorted -> 
{{{
Q={q_gen_10689, q_gen_10691},
Q_f={q_gen_10689},
Delta=
{
<cons>(q_gen_10691, q_gen_10689) -> q_gen_10689
<nil>() -> q_gen_10689
<b>() -> q_gen_10691
}

Datatype: <eltlist>
Convolution form: left
}}}

}
--
Equality automata are defined for: {eq_elt, eq_eltlist}
_|

Teacher's answer:
New clause system:
{
() -> append([nil, l2, l2]) -> 0  ;  () -> invsorted([cons(x, nil)]) -> 3  ;  () -> invsorted([nil]) -> 3  ;  () -> leq([a, y]) -> 3  ;  () -> leq([b, b]) -> 3  ;  () -> reverse([nil, nil]) -> 3  ;  () -> sorted([cons(x, nil)]) -> 3  ;  () -> sorted([nil]) -> 3  ;  (append([_yi, cons(h1, nil), _zi]) /\ reverse([t1, _yi])) -> reverse([cons(h1, t1), _zi]) -> 1  ;  (append([t1, l2, _ti])) -> append([cons(h1, t1), l2, cons(h1, _ti)]) -> 1  ;  (leq([b, a])) -> BOT -> 1  ;  (reverse([l, _dj]) /\ sorted([l])) -> invsorted([_dj]) -> 1
}
Sat witness: Yes: (() -> invsorted([cons(x, nil)]), {
x -> b
})

-------------------------------------------
Step 7, which took 0.004783 s (model generation: 0.004640,  model checking: 0.000143):

Model:
|_
{
append -> 
{{{
Q={},
Q_f={},
Delta=
{

}

Datatype: <eltlist, eltlist, eltlist>
Convolution form: left
}}}
  ;  invsorted -> 
{{{
Q={q_gen_10695, q_gen_10697},
Q_f={q_gen_10695},
Delta=
{
<cons>(q_gen_10697, q_gen_10695) -> q_gen_10695
<nil>() -> q_gen_10695
<b>() -> q_gen_10697
}

Datatype: <eltlist>
Convolution form: left
}}}
  ;  leq -> 
{{{
Q={q_gen_10693},
Q_f={q_gen_10693},
Delta=
{
<a, b>() -> q_gen_10693
<b, b>() -> q_gen_10693
}

Datatype: <elt, elt>
Convolution form: left
}}}
  ;  reverse -> 
{{{
Q={q_gen_10692},
Q_f={q_gen_10692},
Delta=
{
<nil, nil>() -> q_gen_10692
}

Datatype: <eltlist, eltlist>
Convolution form: left
}}}
  ;  sorted -> 
{{{
Q={q_gen_10689, q_gen_10691},
Q_f={q_gen_10689},
Delta=
{
<cons>(q_gen_10691, q_gen_10689) -> q_gen_10689
<nil>() -> q_gen_10689
<b>() -> q_gen_10691
}

Datatype: <eltlist>
Convolution form: left
}}}

}
--
Equality automata are defined for: {eq_elt, eq_eltlist}
_|

Teacher's answer:
New clause system:
{
() -> append([nil, l2, l2]) -> 3  ;  () -> invsorted([cons(x, nil)]) -> 3  ;  () -> invsorted([nil]) -> 3  ;  () -> leq([a, y]) -> 3  ;  () -> leq([b, b]) -> 3  ;  () -> reverse([nil, nil]) -> 3  ;  () -> sorted([cons(x, nil)]) -> 3  ;  () -> sorted([nil]) -> 3  ;  (append([_yi, cons(h1, nil), _zi]) /\ reverse([t1, _yi])) -> reverse([cons(h1, t1), _zi]) -> 1  ;  (append([t1, l2, _ti])) -> append([cons(h1, t1), l2, cons(h1, _ti)]) -> 1  ;  (leq([b, a])) -> BOT -> 1  ;  (reverse([l, _dj]) /\ sorted([l])) -> invsorted([_dj]) -> 1
}
Sat witness: Yes: (() -> append([nil, l2, l2]), {
l2 -> nil
})

-------------------------------------------
Step 8, which took 0.011669 s (model generation: 0.006812,  model checking: 0.004857):

Model:
|_
{
append -> 
{{{
Q={q_gen_10698},
Q_f={q_gen_10698},
Delta=
{
<nil, nil, nil>() -> q_gen_10698
}

Datatype: <eltlist, eltlist, eltlist>
Convolution form: left
}}}
  ;  invsorted -> 
{{{
Q={q_gen_10695, q_gen_10697},
Q_f={q_gen_10695},
Delta=
{
<cons>(q_gen_10697, q_gen_10695) -> q_gen_10695
<nil>() -> q_gen_10695
<b>() -> q_gen_10697
}

Datatype: <eltlist>
Convolution form: left
}}}
  ;  leq -> 
{{{
Q={q_gen_10693},
Q_f={q_gen_10693},
Delta=
{
<a, b>() -> q_gen_10693
<b, b>() -> q_gen_10693
}

Datatype: <elt, elt>
Convolution form: left
}}}
  ;  reverse -> 
{{{
Q={q_gen_10692},
Q_f={q_gen_10692},
Delta=
{
<nil, nil>() -> q_gen_10692
}

Datatype: <eltlist, eltlist>
Convolution form: left
}}}
  ;  sorted -> 
{{{
Q={q_gen_10689, q_gen_10691},
Q_f={q_gen_10689},
Delta=
{
<cons>(q_gen_10691, q_gen_10689) -> q_gen_10689
<nil>() -> q_gen_10689
<b>() -> q_gen_10691
}

Datatype: <eltlist>
Convolution form: left
}}}

}
--
Equality automata are defined for: {eq_elt, eq_eltlist}
_|

Teacher's answer:
New clause system:
{
() -> append([nil, l2, l2]) -> 3  ;  () -> invsorted([cons(x, nil)]) -> 3  ;  () -> invsorted([nil]) -> 3  ;  () -> leq([a, y]) -> 3  ;  () -> leq([b, b]) -> 3  ;  () -> reverse([nil, nil]) -> 3  ;  () -> sorted([cons(x, nil)]) -> 3  ;  () -> sorted([nil]) -> 3  ;  (append([_yi, cons(h1, nil), _zi]) /\ reverse([t1, _yi])) -> reverse([cons(h1, t1), _zi]) -> 1  ;  (append([t1, l2, _ti])) -> append([cons(h1, t1), l2, cons(h1, _ti)]) -> 4  ;  (leq([b, a])) -> BOT -> 2  ;  (reverse([l, _dj]) /\ sorted([l])) -> invsorted([_dj]) -> 2
}
Sat witness: Yes: ((append([t1, l2, _ti])) -> append([cons(h1, t1), l2, cons(h1, _ti)]), {
_ti -> nil  ;  h1 -> b  ;  l2 -> nil  ;  t1 -> nil
})

-------------------------------------------
Step 9, which took 0.007699 s (model generation: 0.007354,  model checking: 0.000345):

Model:
|_
{
append -> 
{{{
Q={q_gen_10698, q_gen_10700, q_gen_10701},
Q_f={q_gen_10698},
Delta=
{
<nil, nil>() -> q_gen_10700
<b, b>() -> q_gen_10701
<cons, nil, cons>(q_gen_10701, q_gen_10700) -> q_gen_10698
<nil, nil, nil>() -> q_gen_10698
}

Datatype: <eltlist, eltlist, eltlist>
Convolution form: left
}}}
  ;  invsorted -> 
{{{
Q={q_gen_10695, q_gen_10697},
Q_f={q_gen_10695},
Delta=
{
<cons>(q_gen_10697, q_gen_10695) -> q_gen_10695
<nil>() -> q_gen_10695
<b>() -> q_gen_10697
}

Datatype: <eltlist>
Convolution form: left
}}}
  ;  leq -> 
{{{
Q={q_gen_10693},
Q_f={q_gen_10693},
Delta=
{
<a, b>() -> q_gen_10693
<b, b>() -> q_gen_10693
}

Datatype: <elt, elt>
Convolution form: left
}}}
  ;  reverse -> 
{{{
Q={q_gen_10692},
Q_f={q_gen_10692},
Delta=
{
<nil, nil>() -> q_gen_10692
}

Datatype: <eltlist, eltlist>
Convolution form: left
}}}
  ;  sorted -> 
{{{
Q={q_gen_10689, q_gen_10691},
Q_f={q_gen_10689},
Delta=
{
<cons>(q_gen_10691, q_gen_10689) -> q_gen_10689
<nil>() -> q_gen_10689
<b>() -> q_gen_10691
}

Datatype: <eltlist>
Convolution form: left
}}}

}
--
Equality automata are defined for: {eq_elt, eq_eltlist}
_|

Teacher's answer:
New clause system:
{
() -> append([nil, l2, l2]) -> 3  ;  () -> invsorted([cons(x, nil)]) -> 3  ;  () -> invsorted([nil]) -> 3  ;  () -> leq([a, y]) -> 3  ;  () -> leq([b, b]) -> 3  ;  () -> reverse([nil, nil]) -> 3  ;  () -> sorted([cons(x, nil)]) -> 6  ;  () -> sorted([nil]) -> 4  ;  (append([_yi, cons(h1, nil), _zi]) /\ reverse([t1, _yi])) -> reverse([cons(h1, t1), _zi]) -> 2  ;  (append([t1, l2, _ti])) -> append([cons(h1, t1), l2, cons(h1, _ti)]) -> 4  ;  (leq([b, a])) -> BOT -> 3  ;  (reverse([l, _dj]) /\ sorted([l])) -> invsorted([_dj]) -> 3
}
Sat witness: Yes: (() -> sorted([cons(x, nil)]), {
x -> a
})

-------------------------------------------
Step 10, which took 0.010136 s (model generation: 0.009783,  model checking: 0.000353):

Model:
|_
{
append -> 
{{{
Q={q_gen_10698, q_gen_10700, q_gen_10701},
Q_f={q_gen_10698},
Delta=
{
<nil, nil>() -> q_gen_10700
<b, b>() -> q_gen_10701
<cons, nil, cons>(q_gen_10701, q_gen_10700) -> q_gen_10698
<nil, nil, nil>() -> q_gen_10698
}

Datatype: <eltlist, eltlist, eltlist>
Convolution form: left
}}}
  ;  invsorted -> 
{{{
Q={q_gen_10695, q_gen_10697},
Q_f={q_gen_10695},
Delta=
{
<cons>(q_gen_10697, q_gen_10695) -> q_gen_10695
<nil>() -> q_gen_10695
<b>() -> q_gen_10697
}

Datatype: <eltlist>
Convolution form: left
}}}
  ;  leq -> 
{{{
Q={q_gen_10693},
Q_f={q_gen_10693},
Delta=
{
<a, b>() -> q_gen_10693
<b, b>() -> q_gen_10693
}

Datatype: <elt, elt>
Convolution form: left
}}}
  ;  reverse -> 
{{{
Q={q_gen_10692},
Q_f={q_gen_10692},
Delta=
{
<nil, nil>() -> q_gen_10692
}

Datatype: <eltlist, eltlist>
Convolution form: left
}}}
  ;  sorted -> 
{{{
Q={q_gen_10689, q_gen_10691},
Q_f={q_gen_10689},
Delta=
{
<cons>(q_gen_10691, q_gen_10689) -> q_gen_10689
<nil>() -> q_gen_10689
<a>() -> q_gen_10691
<b>() -> q_gen_10691
}

Datatype: <eltlist>
Convolution form: left
}}}

}
--
Equality automata are defined for: {eq_elt, eq_eltlist}
_|

Teacher's answer:
New clause system:
{
() -> append([nil, l2, l2]) -> 3  ;  () -> invsorted([cons(x, nil)]) -> 3  ;  () -> invsorted([nil]) -> 3  ;  () -> leq([a, y]) -> 6  ;  () -> leq([b, b]) -> 4  ;  () -> reverse([nil, nil]) -> 4  ;  () -> sorted([cons(x, nil)]) -> 6  ;  () -> sorted([nil]) -> 4  ;  (append([_yi, cons(h1, nil), _zi]) /\ reverse([t1, _yi])) -> reverse([cons(h1, t1), _zi]) -> 3  ;  (append([t1, l2, _ti])) -> append([cons(h1, t1), l2, cons(h1, _ti)]) -> 4  ;  (leq([b, a])) -> BOT -> 4  ;  (reverse([l, _dj]) /\ sorted([l])) -> invsorted([_dj]) -> 4
}
Sat witness: Yes: (() -> leq([a, y]), {
y -> a
})

-------------------------------------------
Step 11, which took 0.008608 s (model generation: 0.008503,  model checking: 0.000105):

Model:
|_
{
append -> 
{{{
Q={q_gen_10698, q_gen_10700, q_gen_10701},
Q_f={q_gen_10698},
Delta=
{
<nil, nil>() -> q_gen_10700
<b, b>() -> q_gen_10701
<cons, nil, cons>(q_gen_10701, q_gen_10700) -> q_gen_10698
<nil, nil, nil>() -> q_gen_10698
}

Datatype: <eltlist, eltlist, eltlist>
Convolution form: left
}}}
  ;  invsorted -> 
{{{
Q={q_gen_10695, q_gen_10697},
Q_f={q_gen_10695},
Delta=
{
<cons>(q_gen_10697, q_gen_10695) -> q_gen_10695
<nil>() -> q_gen_10695
<b>() -> q_gen_10697
}

Datatype: <eltlist>
Convolution form: left
}}}
  ;  leq -> 
{{{
Q={q_gen_10693},
Q_f={q_gen_10693},
Delta=
{
<a, a>() -> q_gen_10693
<a, b>() -> q_gen_10693
<b, b>() -> q_gen_10693
}

Datatype: <elt, elt>
Convolution form: left
}}}
  ;  reverse -> 
{{{
Q={q_gen_10692},
Q_f={q_gen_10692},
Delta=
{
<nil, nil>() -> q_gen_10692
}

Datatype: <eltlist, eltlist>
Convolution form: left
}}}
  ;  sorted -> 
{{{
Q={q_gen_10689, q_gen_10691},
Q_f={q_gen_10689},
Delta=
{
<cons>(q_gen_10691, q_gen_10689) -> q_gen_10689
<nil>() -> q_gen_10689
<a>() -> q_gen_10691
<b>() -> q_gen_10691
}

Datatype: <eltlist>
Convolution form: left
}}}

}
--
Equality automata are defined for: {eq_elt, eq_eltlist}
_|

Teacher's answer:
New clause system:
{
() -> append([nil, l2, l2]) -> 3  ;  () -> invsorted([cons(x, nil)]) -> 6  ;  () -> invsorted([nil]) -> 4  ;  () -> leq([a, y]) -> 6  ;  () -> leq([b, b]) -> 4  ;  () -> reverse([nil, nil]) -> 4  ;  () -> sorted([cons(x, nil)]) -> 6  ;  () -> sorted([nil]) -> 4  ;  (append([_yi, cons(h1, nil), _zi]) /\ reverse([t1, _yi])) -> reverse([cons(h1, t1), _zi]) -> 4  ;  (append([t1, l2, _ti])) -> append([cons(h1, t1), l2, cons(h1, _ti)]) -> 4  ;  (leq([b, a])) -> BOT -> 4  ;  (reverse([l, _dj]) /\ sorted([l])) -> invsorted([_dj]) -> 4
}
Sat witness: Yes: (() -> invsorted([cons(x, nil)]), {
x -> a
})

-------------------------------------------
Step 12, which took 0.003975 s (model generation: 0.003798,  model checking: 0.000177):

Model:
|_
{
append -> 
{{{
Q={q_gen_10698, q_gen_10700, q_gen_10701},
Q_f={q_gen_10698},
Delta=
{
<nil, nil>() -> q_gen_10700
<b, b>() -> q_gen_10701
<cons, nil, cons>(q_gen_10701, q_gen_10700) -> q_gen_10698
<nil, nil, nil>() -> q_gen_10698
}

Datatype: <eltlist, eltlist, eltlist>
Convolution form: left
}}}
  ;  invsorted -> 
{{{
Q={q_gen_10695, q_gen_10697},
Q_f={q_gen_10695},
Delta=
{
<cons>(q_gen_10697, q_gen_10695) -> q_gen_10695
<nil>() -> q_gen_10695
<a>() -> q_gen_10697
<b>() -> q_gen_10697
}

Datatype: <eltlist>
Convolution form: left
}}}
  ;  leq -> 
{{{
Q={q_gen_10693},
Q_f={q_gen_10693},
Delta=
{
<a, a>() -> q_gen_10693
<a, b>() -> q_gen_10693
<b, b>() -> q_gen_10693
}

Datatype: <elt, elt>
Convolution form: left
}}}
  ;  reverse -> 
{{{
Q={q_gen_10692},
Q_f={q_gen_10692},
Delta=
{
<nil, nil>() -> q_gen_10692
}

Datatype: <eltlist, eltlist>
Convolution form: left
}}}
  ;  sorted -> 
{{{
Q={q_gen_10689, q_gen_10691},
Q_f={q_gen_10689},
Delta=
{
<cons>(q_gen_10691, q_gen_10689) -> q_gen_10689
<nil>() -> q_gen_10689
<a>() -> q_gen_10691
<b>() -> q_gen_10691
}

Datatype: <eltlist>
Convolution form: left
}}}

}
--
Equality automata are defined for: {eq_elt, eq_eltlist}
_|

Teacher's answer:
New clause system:
{
() -> append([nil, l2, l2]) -> 6  ;  () -> invsorted([cons(x, nil)]) -> 6  ;  () -> invsorted([nil]) -> 4  ;  () -> leq([a, y]) -> 6  ;  () -> leq([b, b]) -> 4  ;  () -> reverse([nil, nil]) -> 4  ;  () -> sorted([cons(x, nil)]) -> 6  ;  () -> sorted([nil]) -> 4  ;  (append([_yi, cons(h1, nil), _zi]) /\ reverse([t1, _yi])) -> reverse([cons(h1, t1), _zi]) -> 4  ;  (append([t1, l2, _ti])) -> append([cons(h1, t1), l2, cons(h1, _ti)]) -> 4  ;  (leq([b, a])) -> BOT -> 4  ;  (reverse([l, _dj]) /\ sorted([l])) -> invsorted([_dj]) -> 4
}
Sat witness: Yes: (() -> append([nil, l2, l2]), {
l2 -> cons(a, nil)
})

-------------------------------------------
Step 13, which took 0.012456 s (model generation: 0.011632,  model checking: 0.000824):

Model:
|_
{
append -> 
{{{
Q={q_gen_10698, q_gen_10700, q_gen_10701},
Q_f={q_gen_10698},
Delta=
{
<nil, nil>() -> q_gen_10700
<a, a>() -> q_gen_10701
<b, b>() -> q_gen_10701
<cons, nil, cons>(q_gen_10701, q_gen_10700) -> q_gen_10698
<nil, cons, cons>(q_gen_10701, q_gen_10700) -> q_gen_10698
<nil, nil, nil>() -> q_gen_10698
}

Datatype: <eltlist, eltlist, eltlist>
Convolution form: left
}}}
  ;  invsorted -> 
{{{
Q={q_gen_10695, q_gen_10697},
Q_f={q_gen_10695},
Delta=
{
<cons>(q_gen_10697, q_gen_10695) -> q_gen_10695
<nil>() -> q_gen_10695
<a>() -> q_gen_10697
<b>() -> q_gen_10697
}

Datatype: <eltlist>
Convolution form: left
}}}
  ;  leq -> 
{{{
Q={q_gen_10693},
Q_f={q_gen_10693},
Delta=
{
<a, a>() -> q_gen_10693
<a, b>() -> q_gen_10693
<b, b>() -> q_gen_10693
}

Datatype: <elt, elt>
Convolution form: left
}}}
  ;  reverse -> 
{{{
Q={q_gen_10692},
Q_f={q_gen_10692},
Delta=
{
<nil, nil>() -> q_gen_10692
}

Datatype: <eltlist, eltlist>
Convolution form: left
}}}
  ;  sorted -> 
{{{
Q={q_gen_10689, q_gen_10691},
Q_f={q_gen_10689},
Delta=
{
<cons>(q_gen_10691, q_gen_10689) -> q_gen_10689
<nil>() -> q_gen_10689
<a>() -> q_gen_10691
<b>() -> q_gen_10691
}

Datatype: <eltlist>
Convolution form: left
}}}

}
--
Equality automata are defined for: {eq_elt, eq_eltlist}
_|

Teacher's answer:
New clause system:
{
() -> append([nil, l2, l2]) -> 6  ;  () -> invsorted([cons(x, nil)]) -> 6  ;  () -> invsorted([nil]) -> 4  ;  () -> leq([a, y]) -> 6  ;  () -> leq([b, b]) -> 4  ;  () -> reverse([nil, nil]) -> 4  ;  () -> sorted([cons(x, nil)]) -> 6  ;  () -> sorted([nil]) -> 4  ;  (append([_yi, cons(h1, nil), _zi]) /\ reverse([t1, _yi])) -> reverse([cons(h1, t1), _zi]) -> 4  ;  (append([t1, l2, _ti])) -> append([cons(h1, t1), l2, cons(h1, _ti)]) -> 7  ;  (leq([b, a])) -> BOT -> 5  ;  (reverse([l, _dj]) /\ sorted([l])) -> invsorted([_dj]) -> 5
}
Sat witness: Yes: ((append([t1, l2, _ti])) -> append([cons(h1, t1), l2, cons(h1, _ti)]), {
_ti -> cons(a, nil)  ;  h1 -> b  ;  l2 -> nil  ;  t1 -> cons(a, nil)
})

-------------------------------------------
Step 14, which took 0.012278 s (model generation: 0.012035,  model checking: 0.000243):

Model:
|_
{
append -> 
{{{
Q={q_gen_10698, q_gen_10700, q_gen_10701},
Q_f={q_gen_10698},
Delta=
{
<cons, cons>(q_gen_10701, q_gen_10700) -> q_gen_10700
<nil, nil>() -> q_gen_10700
<a, a>() -> q_gen_10701
<b, b>() -> q_gen_10701
<cons, nil, cons>(q_gen_10701, q_gen_10700) -> q_gen_10698
<nil, cons, cons>(q_gen_10701, q_gen_10700) -> q_gen_10698
<nil, nil, nil>() -> q_gen_10698
}

Datatype: <eltlist, eltlist, eltlist>
Convolution form: left
}}}
  ;  invsorted -> 
{{{
Q={q_gen_10695, q_gen_10697},
Q_f={q_gen_10695},
Delta=
{
<cons>(q_gen_10697, q_gen_10695) -> q_gen_10695
<nil>() -> q_gen_10695
<a>() -> q_gen_10697
<b>() -> q_gen_10697
}

Datatype: <eltlist>
Convolution form: left
}}}
  ;  leq -> 
{{{
Q={q_gen_10693},
Q_f={q_gen_10693},
Delta=
{
<a, a>() -> q_gen_10693
<a, b>() -> q_gen_10693
<b, b>() -> q_gen_10693
}

Datatype: <elt, elt>
Convolution form: left
}}}
  ;  reverse -> 
{{{
Q={q_gen_10692},
Q_f={q_gen_10692},
Delta=
{
<nil, nil>() -> q_gen_10692
}

Datatype: <eltlist, eltlist>
Convolution form: left
}}}
  ;  sorted -> 
{{{
Q={q_gen_10689, q_gen_10691},
Q_f={q_gen_10689},
Delta=
{
<cons>(q_gen_10691, q_gen_10689) -> q_gen_10689
<nil>() -> q_gen_10689
<a>() -> q_gen_10691
<b>() -> q_gen_10691
}

Datatype: <eltlist>
Convolution form: left
}}}

}
--
Equality automata are defined for: {eq_elt, eq_eltlist}
_|

Teacher's answer:
New clause system:
{
() -> append([nil, l2, l2]) -> 6  ;  () -> invsorted([cons(x, nil)]) -> 6  ;  () -> invsorted([nil]) -> 4  ;  () -> leq([a, y]) -> 6  ;  () -> leq([b, b]) -> 4  ;  () -> reverse([nil, nil]) -> 4  ;  () -> sorted([cons(x, nil)]) -> 6  ;  () -> sorted([nil]) -> 4  ;  (append([_yi, cons(h1, nil), _zi]) /\ reverse([t1, _yi])) -> reverse([cons(h1, t1), _zi]) -> 7  ;  (append([t1, l2, _ti])) -> append([cons(h1, t1), l2, cons(h1, _ti)]) -> 7  ;  (leq([b, a])) -> BOT -> 5  ;  (reverse([l, _dj]) /\ sorted([l])) -> invsorted([_dj]) -> 5
}
Sat witness: Yes: ((append([_yi, cons(h1, nil), _zi]) /\ reverse([t1, _yi])) -> reverse([cons(h1, t1), _zi]), {
_yi -> nil  ;  _zi -> cons(b, nil)  ;  h1 -> b  ;  t1 -> nil
})

-------------------------------------------
Step 15, which took 0.012040 s (model generation: 0.010909,  model checking: 0.001131):

Model:
|_
{
append -> 
{{{
Q={q_gen_10698, q_gen_10700, q_gen_10701},
Q_f={q_gen_10698},
Delta=
{
<cons, cons>(q_gen_10701, q_gen_10700) -> q_gen_10700
<nil, nil>() -> q_gen_10700
<a, a>() -> q_gen_10701
<b, b>() -> q_gen_10701
<cons, nil, cons>(q_gen_10701, q_gen_10700) -> q_gen_10698
<nil, cons, cons>(q_gen_10701, q_gen_10700) -> q_gen_10698
<nil, nil, nil>() -> q_gen_10698
}

Datatype: <eltlist, eltlist, eltlist>
Convolution form: left
}}}
  ;  invsorted -> 
{{{
Q={q_gen_10695, q_gen_10697},
Q_f={q_gen_10695},
Delta=
{
<cons>(q_gen_10697, q_gen_10695) -> q_gen_10695
<nil>() -> q_gen_10695
<a>() -> q_gen_10697
<b>() -> q_gen_10697
}

Datatype: <eltlist>
Convolution form: left
}}}
  ;  leq -> 
{{{
Q={q_gen_10693},
Q_f={q_gen_10693},
Delta=
{
<a, a>() -> q_gen_10693
<a, b>() -> q_gen_10693
<b, b>() -> q_gen_10693
}

Datatype: <elt, elt>
Convolution form: left
}}}
  ;  reverse -> 
{{{
Q={q_gen_10692, q_gen_10714},
Q_f={q_gen_10692},
Delta=
{
<cons, cons>(q_gen_10714, q_gen_10692) -> q_gen_10692
<nil, nil>() -> q_gen_10692
<b, b>() -> q_gen_10714
}

Datatype: <eltlist, eltlist>
Convolution form: left
}}}
  ;  sorted -> 
{{{
Q={q_gen_10689, q_gen_10691},
Q_f={q_gen_10689},
Delta=
{
<cons>(q_gen_10691, q_gen_10689) -> q_gen_10689
<nil>() -> q_gen_10689
<a>() -> q_gen_10691
<b>() -> q_gen_10691
}

Datatype: <eltlist>
Convolution form: left
}}}

}
--
Equality automata are defined for: {eq_elt, eq_eltlist}
_|

Teacher's answer:
New clause system:
{
() -> append([nil, l2, l2]) -> 7  ;  () -> invsorted([cons(x, nil)]) -> 7  ;  () -> invsorted([nil]) -> 5  ;  () -> leq([a, y]) -> 7  ;  () -> leq([b, b]) -> 5  ;  () -> reverse([nil, nil]) -> 5  ;  () -> sorted([cons(x, nil)]) -> 7  ;  () -> sorted([nil]) -> 5  ;  (append([_yi, cons(h1, nil), _zi]) /\ reverse([t1, _yi])) -> reverse([cons(h1, t1), _zi]) -> 7  ;  (append([t1, l2, _ti])) -> append([cons(h1, t1), l2, cons(h1, _ti)]) -> 10  ;  (leq([b, a])) -> BOT -> 6  ;  (reverse([l, _dj]) /\ sorted([l])) -> invsorted([_dj]) -> 6
}
Sat witness: Yes: ((append([t1, l2, _ti])) -> append([cons(h1, t1), l2, cons(h1, _ti)]), {
_ti -> cons(b, nil)  ;  h1 -> b  ;  l2 -> cons(b, nil)  ;  t1 -> nil
})

-------------------------------------------
Step 16, which took 0.007823 s (model generation: 0.007599,  model checking: 0.000224):

Model:
|_
{
append -> 
{{{
Q={q_gen_10698, q_gen_10700, q_gen_10701, q_gen_10717, q_gen_10718, q_gen_10719},
Q_f={q_gen_10698},
Delta=
{
<nil>() -> q_gen_10717
<b>() -> q_gen_10718
<cons, cons>(q_gen_10701, q_gen_10700) -> q_gen_10700
<nil, nil>() -> q_gen_10700
<a, a>() -> q_gen_10701
<b, b>() -> q_gen_10701
<cons, cons, cons>(q_gen_10719, q_gen_10698) -> q_gen_10698
<cons, nil, cons>(q_gen_10701, q_gen_10700) -> q_gen_10698
<nil, cons, cons>(q_gen_10701, q_gen_10700) -> q_gen_10698
<nil, nil, cons>(q_gen_10718, q_gen_10717) -> q_gen_10698
<nil, nil, nil>() -> q_gen_10698
<b, b, b>() -> q_gen_10719
}

Datatype: <eltlist, eltlist, eltlist>
Convolution form: left
}}}
  ;  invsorted -> 
{{{
Q={q_gen_10695, q_gen_10697},
Q_f={q_gen_10695},
Delta=
{
<cons>(q_gen_10697, q_gen_10695) -> q_gen_10695
<nil>() -> q_gen_10695
<a>() -> q_gen_10697
<b>() -> q_gen_10697
}

Datatype: <eltlist>
Convolution form: left
}}}
  ;  leq -> 
{{{
Q={q_gen_10693},
Q_f={q_gen_10693},
Delta=
{
<a, a>() -> q_gen_10693
<a, b>() -> q_gen_10693
<b, b>() -> q_gen_10693
}

Datatype: <elt, elt>
Convolution form: left
}}}
  ;  reverse -> 
{{{
Q={q_gen_10692, q_gen_10714},
Q_f={q_gen_10692},
Delta=
{
<cons, cons>(q_gen_10714, q_gen_10692) -> q_gen_10692
<nil, nil>() -> q_gen_10692
<b, b>() -> q_gen_10714
}

Datatype: <eltlist, eltlist>
Convolution form: left
}}}
  ;  sorted -> 
{{{
Q={q_gen_10689, q_gen_10691},
Q_f={q_gen_10689},
Delta=
{
<cons>(q_gen_10691, q_gen_10689) -> q_gen_10689
<nil>() -> q_gen_10689
<a>() -> q_gen_10691
<b>() -> q_gen_10691
}

Datatype: <eltlist>
Convolution form: left
}}}

}
--
Equality automata are defined for: {eq_elt, eq_eltlist}
_|

Teacher's answer:
New clause system:
{
() -> append([nil, l2, l2]) -> 7  ;  () -> invsorted([cons(x, nil)]) -> 7  ;  () -> invsorted([nil]) -> 6  ;  () -> leq([a, y]) -> 7  ;  () -> leq([b, b]) -> 6  ;  () -> reverse([nil, nil]) -> 6  ;  () -> sorted([cons(x, nil)]) -> 7  ;  () -> sorted([nil]) -> 6  ;  (append([_yi, cons(h1, nil), _zi]) /\ reverse([t1, _yi])) -> reverse([cons(h1, t1), _zi]) -> 10  ;  (append([t1, l2, _ti])) -> append([cons(h1, t1), l2, cons(h1, _ti)]) -> 10  ;  (leq([b, a])) -> BOT -> 7  ;  (reverse([l, _dj]) /\ sorted([l])) -> invsorted([_dj]) -> 7
}
Sat witness: Yes: ((append([_yi, cons(h1, nil), _zi]) /\ reverse([t1, _yi])) -> reverse([cons(h1, t1), _zi]), {
_yi -> nil  ;  _zi -> cons(a, nil)  ;  h1 -> a  ;  t1 -> nil
})

-------------------------------------------
Step 17, which took 0.014017 s (model generation: 0.010237,  model checking: 0.003780):

Model:
|_
{
append -> 
{{{
Q={q_gen_10698, q_gen_10700, q_gen_10701, q_gen_10717, q_gen_10718, q_gen_10719},
Q_f={q_gen_10698},
Delta=
{
<nil>() -> q_gen_10717
<b>() -> q_gen_10718
<cons, cons>(q_gen_10701, q_gen_10700) -> q_gen_10700
<nil, nil>() -> q_gen_10700
<a, a>() -> q_gen_10701
<b, b>() -> q_gen_10701
<cons, cons, cons>(q_gen_10719, q_gen_10698) -> q_gen_10698
<cons, nil, cons>(q_gen_10701, q_gen_10700) -> q_gen_10698
<nil, cons, cons>(q_gen_10701, q_gen_10700) -> q_gen_10698
<nil, nil, cons>(q_gen_10718, q_gen_10717) -> q_gen_10698
<nil, nil, nil>() -> q_gen_10698
<b, b, b>() -> q_gen_10719
}

Datatype: <eltlist, eltlist, eltlist>
Convolution form: left
}}}
  ;  invsorted -> 
{{{
Q={q_gen_10695, q_gen_10697},
Q_f={q_gen_10695},
Delta=
{
<cons>(q_gen_10697, q_gen_10695) -> q_gen_10695
<nil>() -> q_gen_10695
<a>() -> q_gen_10697
<b>() -> q_gen_10697
}

Datatype: <eltlist>
Convolution form: left
}}}
  ;  leq -> 
{{{
Q={q_gen_10693},
Q_f={q_gen_10693},
Delta=
{
<a, a>() -> q_gen_10693
<a, b>() -> q_gen_10693
<b, b>() -> q_gen_10693
}

Datatype: <elt, elt>
Convolution form: left
}}}
  ;  reverse -> 
{{{
Q={q_gen_10692, q_gen_10714},
Q_f={q_gen_10692},
Delta=
{
<cons, cons>(q_gen_10714, q_gen_10692) -> q_gen_10692
<nil, nil>() -> q_gen_10692
<a, a>() -> q_gen_10714
<b, b>() -> q_gen_10714
}

Datatype: <eltlist, eltlist>
Convolution form: left
}}}
  ;  sorted -> 
{{{
Q={q_gen_10689, q_gen_10691},
Q_f={q_gen_10689},
Delta=
{
<cons>(q_gen_10691, q_gen_10689) -> q_gen_10689
<nil>() -> q_gen_10689
<a>() -> q_gen_10691
<b>() -> q_gen_10691
}

Datatype: <eltlist>
Convolution form: left
}}}

}
--
Equality automata are defined for: {eq_elt, eq_eltlist}
_|

Teacher's answer:
New clause system:
{
() -> append([nil, l2, l2]) -> 8  ;  () -> invsorted([cons(x, nil)]) -> 8  ;  () -> invsorted([nil]) -> 7  ;  () -> leq([a, y]) -> 8  ;  () -> leq([b, b]) -> 7  ;  () -> reverse([nil, nil]) -> 7  ;  () -> sorted([cons(x, nil)]) -> 8  ;  () -> sorted([nil]) -> 7  ;  (append([_yi, cons(h1, nil), _zi]) /\ reverse([t1, _yi])) -> reverse([cons(h1, t1), _zi]) -> 10  ;  (append([t1, l2, _ti])) -> append([cons(h1, t1), l2, cons(h1, _ti)]) -> 13  ;  (leq([b, a])) -> BOT -> 8  ;  (reverse([l, _dj]) /\ sorted([l])) -> invsorted([_dj]) -> 8
}
Sat witness: Yes: ((append([t1, l2, _ti])) -> append([cons(h1, t1), l2, cons(h1, _ti)]), {
_ti -> cons(b, nil)  ;  h1 -> b  ;  l2 -> nil  ;  t1 -> nil
})

-------------------------------------------
Step 18, which took 0.018858 s (model generation: 0.017130,  model checking: 0.001728):

Model:
|_
{
append -> 
{{{
Q={q_gen_10698, q_gen_10700, q_gen_10701, q_gen_10717, q_gen_10718, q_gen_10719},
Q_f={q_gen_10698},
Delta=
{
<nil>() -> q_gen_10717
<b>() -> q_gen_10718
<cons, cons>(q_gen_10701, q_gen_10700) -> q_gen_10700
<nil, cons>(q_gen_10718, q_gen_10717) -> q_gen_10700
<nil, nil>() -> q_gen_10700
<a, a>() -> q_gen_10701
<b, b>() -> q_gen_10701
<cons, cons, cons>(q_gen_10719, q_gen_10698) -> q_gen_10698
<cons, nil, cons>(q_gen_10701, q_gen_10700) -> q_gen_10698
<nil, cons, cons>(q_gen_10701, q_gen_10700) -> q_gen_10698
<nil, nil, cons>(q_gen_10718, q_gen_10717) -> q_gen_10698
<nil, nil, nil>() -> q_gen_10698
<b, b, b>() -> q_gen_10719
}

Datatype: <eltlist, eltlist, eltlist>
Convolution form: left
}}}
  ;  invsorted -> 
{{{
Q={q_gen_10695, q_gen_10697},
Q_f={q_gen_10695},
Delta=
{
<cons>(q_gen_10697, q_gen_10695) -> q_gen_10695
<nil>() -> q_gen_10695
<a>() -> q_gen_10697
<b>() -> q_gen_10697
}

Datatype: <eltlist>
Convolution form: left
}}}
  ;  leq -> 
{{{
Q={q_gen_10693},
Q_f={q_gen_10693},
Delta=
{
<a, a>() -> q_gen_10693
<a, b>() -> q_gen_10693
<b, b>() -> q_gen_10693
}

Datatype: <elt, elt>
Convolution form: left
}}}
  ;  reverse -> 
{{{
Q={q_gen_10692, q_gen_10714},
Q_f={q_gen_10692},
Delta=
{
<cons, cons>(q_gen_10714, q_gen_10692) -> q_gen_10692
<nil, nil>() -> q_gen_10692
<a, a>() -> q_gen_10714
<b, b>() -> q_gen_10714
}

Datatype: <eltlist, eltlist>
Convolution form: left
}}}
  ;  sorted -> 
{{{
Q={q_gen_10689, q_gen_10691},
Q_f={q_gen_10689},
Delta=
{
<cons>(q_gen_10691, q_gen_10689) -> q_gen_10689
<nil>() -> q_gen_10689
<a>() -> q_gen_10691
<b>() -> q_gen_10691
}

Datatype: <eltlist>
Convolution form: left
}}}

}
--
Equality automata are defined for: {eq_elt, eq_eltlist}
_|

Teacher's answer:
New clause system:
{
() -> append([nil, l2, l2]) -> 9  ;  () -> invsorted([cons(x, nil)]) -> 9  ;  () -> invsorted([nil]) -> 8  ;  () -> leq([a, y]) -> 9  ;  () -> leq([b, b]) -> 8  ;  () -> reverse([nil, nil]) -> 8  ;  () -> sorted([cons(x, nil)]) -> 9  ;  () -> sorted([nil]) -> 8  ;  (append([_yi, cons(h1, nil), _zi]) /\ reverse([t1, _yi])) -> reverse([cons(h1, t1), _zi]) -> 13  ;  (append([t1, l2, _ti])) -> append([cons(h1, t1), l2, cons(h1, _ti)]) -> 13  ;  (leq([b, a])) -> BOT -> 9  ;  (reverse([l, _dj]) /\ sorted([l])) -> invsorted([_dj]) -> 9
}
Sat witness: Yes: ((append([_yi, cons(h1, nil), _zi]) /\ reverse([t1, _yi])) -> reverse([cons(h1, t1), _zi]), {
_yi -> nil  ;  _zi -> cons(b, cons(b, nil))  ;  h1 -> b  ;  t1 -> nil
})

-------------------------------------------
Step 19, which took 0.019785 s (model generation: 0.017681,  model checking: 0.002104):

Model:
|_
{
append -> 
{{{
Q={q_gen_10698, q_gen_10700, q_gen_10701, q_gen_10717, q_gen_10718, q_gen_10719},
Q_f={q_gen_10698},
Delta=
{
<nil>() -> q_gen_10717
<b>() -> q_gen_10718
<cons, cons>(q_gen_10701, q_gen_10700) -> q_gen_10700
<nil, cons>(q_gen_10718, q_gen_10717) -> q_gen_10700
<nil, nil>() -> q_gen_10700
<a, a>() -> q_gen_10701
<b, b>() -> q_gen_10701
<cons, cons, cons>(q_gen_10719, q_gen_10698) -> q_gen_10698
<cons, nil, cons>(q_gen_10701, q_gen_10700) -> q_gen_10698
<nil, cons, cons>(q_gen_10701, q_gen_10700) -> q_gen_10698
<nil, nil, cons>(q_gen_10718, q_gen_10717) -> q_gen_10698
<nil, nil, nil>() -> q_gen_10698
<b, b, b>() -> q_gen_10719
}

Datatype: <eltlist, eltlist, eltlist>
Convolution form: left
}}}
  ;  invsorted -> 
{{{
Q={q_gen_10695, q_gen_10697},
Q_f={q_gen_10695},
Delta=
{
<cons>(q_gen_10697, q_gen_10695) -> q_gen_10695
<nil>() -> q_gen_10695
<a>() -> q_gen_10697
<b>() -> q_gen_10697
}

Datatype: <eltlist>
Convolution form: left
}}}
  ;  leq -> 
{{{
Q={q_gen_10693},
Q_f={q_gen_10693},
Delta=
{
<a, a>() -> q_gen_10693
<a, b>() -> q_gen_10693
<b, b>() -> q_gen_10693
}

Datatype: <elt, elt>
Convolution form: left
}}}
  ;  reverse -> 
{{{
Q={q_gen_10692, q_gen_10714, q_gen_10727, q_gen_10728},
Q_f={q_gen_10692},
Delta=
{
<nil>() -> q_gen_10727
<b>() -> q_gen_10728
<cons, cons>(q_gen_10714, q_gen_10692) -> q_gen_10692
<nil, cons>(q_gen_10728, q_gen_10727) -> q_gen_10692
<nil, nil>() -> q_gen_10692
<a, a>() -> q_gen_10714
<b, b>() -> q_gen_10714
}

Datatype: <eltlist, eltlist>
Convolution form: left
}}}
  ;  sorted -> 
{{{
Q={q_gen_10689, q_gen_10691},
Q_f={q_gen_10689},
Delta=
{
<cons>(q_gen_10691, q_gen_10689) -> q_gen_10689
<nil>() -> q_gen_10689
<a>() -> q_gen_10691
<b>() -> q_gen_10691
}

Datatype: <eltlist>
Convolution form: left
}}}

}
--
Equality automata are defined for: {eq_elt, eq_eltlist}
_|

Teacher's answer:
New clause system:
{
() -> append([nil, l2, l2]) -> 10  ;  () -> invsorted([cons(x, nil)]) -> 10  ;  () -> invsorted([nil]) -> 9  ;  () -> leq([a, y]) -> 10  ;  () -> leq([b, b]) -> 9  ;  () -> reverse([nil, nil]) -> 9  ;  () -> sorted([cons(x, nil)]) -> 10  ;  () -> sorted([nil]) -> 9  ;  (append([_yi, cons(h1, nil), _zi]) /\ reverse([t1, _yi])) -> reverse([cons(h1, t1), _zi]) -> 13  ;  (append([t1, l2, _ti])) -> append([cons(h1, t1), l2, cons(h1, _ti)]) -> 16  ;  (leq([b, a])) -> BOT -> 10  ;  (reverse([l, _dj]) /\ sorted([l])) -> invsorted([_dj]) -> 10
}
Sat witness: Yes: ((append([t1, l2, _ti])) -> append([cons(h1, t1), l2, cons(h1, _ti)]), {
_ti -> cons(b, nil)  ;  h1 -> a  ;  l2 -> cons(b, nil)  ;  t1 -> nil
})

-------------------------------------------
Step 20, which took 0.007732 s (model generation: 0.006583,  model checking: 0.001149):

Model:
|_
{
append -> 
{{{
Q={q_gen_10698, q_gen_10700, q_gen_10701, q_gen_10717, q_gen_10718, q_gen_10719},
Q_f={q_gen_10698},
Delta=
{
<nil>() -> q_gen_10717
<b>() -> q_gen_10718
<cons, cons>(q_gen_10701, q_gen_10700) -> q_gen_10700
<nil, cons>(q_gen_10718, q_gen_10717) -> q_gen_10700
<nil, nil>() -> q_gen_10700
<a, a>() -> q_gen_10701
<b, b>() -> q_gen_10701
<cons, cons, cons>(q_gen_10719, q_gen_10698) -> q_gen_10698
<cons, nil, cons>(q_gen_10701, q_gen_10700) -> q_gen_10698
<nil, cons, cons>(q_gen_10701, q_gen_10700) -> q_gen_10698
<nil, nil, cons>(q_gen_10718, q_gen_10717) -> q_gen_10698
<nil, nil, nil>() -> q_gen_10698
<a, b, a>() -> q_gen_10719
<b, b, b>() -> q_gen_10719
}

Datatype: <eltlist, eltlist, eltlist>
Convolution form: left
}}}
  ;  invsorted -> 
{{{
Q={q_gen_10695, q_gen_10697},
Q_f={q_gen_10695},
Delta=
{
<cons>(q_gen_10697, q_gen_10695) -> q_gen_10695
<nil>() -> q_gen_10695
<a>() -> q_gen_10697
<b>() -> q_gen_10697
}

Datatype: <eltlist>
Convolution form: left
}}}
  ;  leq -> 
{{{
Q={q_gen_10693},
Q_f={q_gen_10693},
Delta=
{
<a, a>() -> q_gen_10693
<a, b>() -> q_gen_10693
<b, b>() -> q_gen_10693
}

Datatype: <elt, elt>
Convolution form: left
}}}
  ;  reverse -> 
{{{
Q={q_gen_10692, q_gen_10714, q_gen_10727, q_gen_10728},
Q_f={q_gen_10692},
Delta=
{
<nil>() -> q_gen_10727
<b>() -> q_gen_10728
<cons, cons>(q_gen_10714, q_gen_10692) -> q_gen_10692
<nil, cons>(q_gen_10728, q_gen_10727) -> q_gen_10692
<nil, nil>() -> q_gen_10692
<a, a>() -> q_gen_10714
<b, b>() -> q_gen_10714
}

Datatype: <eltlist, eltlist>
Convolution form: left
}}}
  ;  sorted -> 
{{{
Q={q_gen_10689, q_gen_10691},
Q_f={q_gen_10689},
Delta=
{
<cons>(q_gen_10691, q_gen_10689) -> q_gen_10689
<nil>() -> q_gen_10689
<a>() -> q_gen_10691
<b>() -> q_gen_10691
}

Datatype: <eltlist>
Convolution form: left
}}}

}
--
Equality automata are defined for: {eq_elt, eq_eltlist}
_|

Teacher's answer:
New clause system:
{
() -> append([nil, l2, l2]) -> 11  ;  () -> invsorted([cons(x, nil)]) -> 11  ;  () -> invsorted([nil]) -> 10  ;  () -> leq([a, y]) -> 11  ;  () -> leq([b, b]) -> 10  ;  () -> reverse([nil, nil]) -> 10  ;  () -> sorted([cons(x, nil)]) -> 11  ;  () -> sorted([nil]) -> 10  ;  (append([_yi, cons(h1, nil), _zi]) /\ reverse([t1, _yi])) -> reverse([cons(h1, t1), _zi]) -> 16  ;  (append([t1, l2, _ti])) -> append([cons(h1, t1), l2, cons(h1, _ti)]) -> 16  ;  (leq([b, a])) -> BOT -> 11  ;  (reverse([l, _dj]) /\ sorted([l])) -> invsorted([_dj]) -> 11
}
Sat witness: Yes: ((append([_yi, cons(h1, nil), _zi]) /\ reverse([t1, _yi])) -> reverse([cons(h1, t1), _zi]), {
_yi -> cons(b, nil)  ;  _zi -> cons(b, nil)  ;  h1 -> b  ;  t1 -> cons(b, nil)
})

-------------------------------------------
Step 21, which took 0.012677 s (model generation: 0.009139,  model checking: 0.003538):

Model:
|_
{
append -> 
{{{
Q={q_gen_10698, q_gen_10700, q_gen_10701, q_gen_10717, q_gen_10718, q_gen_10719},
Q_f={q_gen_10698},
Delta=
{
<nil>() -> q_gen_10717
<b>() -> q_gen_10718
<cons, cons>(q_gen_10701, q_gen_10700) -> q_gen_10700
<nil, cons>(q_gen_10718, q_gen_10717) -> q_gen_10700
<nil, nil>() -> q_gen_10700
<a, a>() -> q_gen_10701
<b, b>() -> q_gen_10701
<cons, cons, cons>(q_gen_10719, q_gen_10698) -> q_gen_10698
<cons, nil, cons>(q_gen_10701, q_gen_10700) -> q_gen_10698
<nil, cons, cons>(q_gen_10701, q_gen_10700) -> q_gen_10698
<nil, nil, cons>(q_gen_10718, q_gen_10717) -> q_gen_10698
<nil, nil, nil>() -> q_gen_10698
<a, b, a>() -> q_gen_10719
<b, b, b>() -> q_gen_10719
}

Datatype: <eltlist, eltlist, eltlist>
Convolution form: left
}}}
  ;  invsorted -> 
{{{
Q={q_gen_10695, q_gen_10697},
Q_f={q_gen_10695},
Delta=
{
<cons>(q_gen_10697, q_gen_10695) -> q_gen_10695
<nil>() -> q_gen_10695
<a>() -> q_gen_10697
<b>() -> q_gen_10697
}

Datatype: <eltlist>
Convolution form: left
}}}
  ;  leq -> 
{{{
Q={q_gen_10693},
Q_f={q_gen_10693},
Delta=
{
<a, a>() -> q_gen_10693
<a, b>() -> q_gen_10693
<b, b>() -> q_gen_10693
}

Datatype: <elt, elt>
Convolution form: left
}}}
  ;  reverse -> 
{{{
Q={q_gen_10692, q_gen_10714, q_gen_10727, q_gen_10728},
Q_f={q_gen_10692},
Delta=
{
<nil>() -> q_gen_10727
<b>() -> q_gen_10728
<cons, cons>(q_gen_10714, q_gen_10692) -> q_gen_10692
<cons, nil>(q_gen_10728, q_gen_10727) -> q_gen_10692
<nil, cons>(q_gen_10728, q_gen_10727) -> q_gen_10692
<nil, nil>() -> q_gen_10692
<a, a>() -> q_gen_10714
<b, b>() -> q_gen_10714
}

Datatype: <eltlist, eltlist>
Convolution form: left
}}}
  ;  sorted -> 
{{{
Q={q_gen_10689, q_gen_10691},
Q_f={q_gen_10689},
Delta=
{
<cons>(q_gen_10691, q_gen_10689) -> q_gen_10689
<nil>() -> q_gen_10689
<a>() -> q_gen_10691
<b>() -> q_gen_10691
}

Datatype: <eltlist>
Convolution form: left
}}}

}
--
Equality automata are defined for: {eq_elt, eq_eltlist}
_|

Teacher's answer:
New clause system:
{
() -> append([nil, l2, l2]) -> 12  ;  () -> invsorted([cons(x, nil)]) -> 12  ;  () -> invsorted([nil]) -> 11  ;  () -> leq([a, y]) -> 12  ;  () -> leq([b, b]) -> 11  ;  () -> reverse([nil, nil]) -> 11  ;  () -> sorted([cons(x, nil)]) -> 12  ;  () -> sorted([nil]) -> 11  ;  (append([_yi, cons(h1, nil), _zi]) /\ reverse([t1, _yi])) -> reverse([cons(h1, t1), _zi]) -> 16  ;  (append([t1, l2, _ti])) -> append([cons(h1, t1), l2, cons(h1, _ti)]) -> 19  ;  (leq([b, a])) -> BOT -> 12  ;  (reverse([l, _dj]) /\ sorted([l])) -> invsorted([_dj]) -> 12
}
Sat witness: Yes: ((append([t1, l2, _ti])) -> append([cons(h1, t1), l2, cons(h1, _ti)]), {
_ti -> cons(a, nil)  ;  h1 -> b  ;  l2 -> cons(a, nil)  ;  t1 -> nil
})

-------------------------------------------
Step 22, which took 0.023116 s (model generation: 0.022181,  model checking: 0.000935):

Model:
|_
{
append -> 
{{{
Q={q_gen_10698, q_gen_10700, q_gen_10701, q_gen_10717, q_gen_10718, q_gen_10719},
Q_f={q_gen_10698},
Delta=
{
<nil>() -> q_gen_10717
<a>() -> q_gen_10718
<b>() -> q_gen_10718
<cons, cons>(q_gen_10701, q_gen_10700) -> q_gen_10700
<nil, cons>(q_gen_10718, q_gen_10717) -> q_gen_10700
<nil, nil>() -> q_gen_10700
<a, a>() -> q_gen_10701
<b, b>() -> q_gen_10701
<cons, cons, cons>(q_gen_10719, q_gen_10698) -> q_gen_10698
<cons, nil, cons>(q_gen_10701, q_gen_10700) -> q_gen_10698
<nil, cons, cons>(q_gen_10701, q_gen_10700) -> q_gen_10698
<nil, nil, cons>(q_gen_10718, q_gen_10717) -> q_gen_10698
<nil, nil, nil>() -> q_gen_10698
<a, b, a>() -> q_gen_10719
<b, a, b>() -> q_gen_10719
<b, b, b>() -> q_gen_10719
}

Datatype: <eltlist, eltlist, eltlist>
Convolution form: left
}}}
  ;  invsorted -> 
{{{
Q={q_gen_10695, q_gen_10697},
Q_f={q_gen_10695},
Delta=
{
<cons>(q_gen_10697, q_gen_10695) -> q_gen_10695
<nil>() -> q_gen_10695
<a>() -> q_gen_10697
<b>() -> q_gen_10697
}

Datatype: <eltlist>
Convolution form: left
}}}
  ;  leq -> 
{{{
Q={q_gen_10693},
Q_f={q_gen_10693},
Delta=
{
<a, a>() -> q_gen_10693
<a, b>() -> q_gen_10693
<b, b>() -> q_gen_10693
}

Datatype: <elt, elt>
Convolution form: left
}}}
  ;  reverse -> 
{{{
Q={q_gen_10692, q_gen_10714, q_gen_10727, q_gen_10728},
Q_f={q_gen_10692},
Delta=
{
<nil>() -> q_gen_10727
<b>() -> q_gen_10728
<cons, cons>(q_gen_10714, q_gen_10692) -> q_gen_10692
<cons, nil>(q_gen_10728, q_gen_10727) -> q_gen_10692
<nil, cons>(q_gen_10728, q_gen_10727) -> q_gen_10692
<nil, nil>() -> q_gen_10692
<a, a>() -> q_gen_10714
<b, b>() -> q_gen_10714
}

Datatype: <eltlist, eltlist>
Convolution form: left
}}}
  ;  sorted -> 
{{{
Q={q_gen_10689, q_gen_10691},
Q_f={q_gen_10689},
Delta=
{
<cons>(q_gen_10691, q_gen_10689) -> q_gen_10689
<nil>() -> q_gen_10689
<a>() -> q_gen_10691
<b>() -> q_gen_10691
}

Datatype: <eltlist>
Convolution form: left
}}}

}
--
Equality automata are defined for: {eq_elt, eq_eltlist}
_|

Teacher's answer:
New clause system:
{
() -> append([nil, l2, l2]) -> 13  ;  () -> invsorted([cons(x, nil)]) -> 13  ;  () -> invsorted([nil]) -> 12  ;  () -> leq([a, y]) -> 13  ;  () -> leq([b, b]) -> 12  ;  () -> reverse([nil, nil]) -> 12  ;  () -> sorted([cons(x, nil)]) -> 13  ;  () -> sorted([nil]) -> 12  ;  (append([_yi, cons(h1, nil), _zi]) /\ reverse([t1, _yi])) -> reverse([cons(h1, t1), _zi]) -> 19  ;  (append([t1, l2, _ti])) -> append([cons(h1, t1), l2, cons(h1, _ti)]) -> 19  ;  (leq([b, a])) -> BOT -> 13  ;  (reverse([l, _dj]) /\ sorted([l])) -> invsorted([_dj]) -> 13
}
Sat witness: Yes: ((append([_yi, cons(h1, nil), _zi]) /\ reverse([t1, _yi])) -> reverse([cons(h1, t1), _zi]), {
_yi -> nil  ;  _zi -> cons(b, cons(a, nil))  ;  h1 -> b  ;  t1 -> nil
})

-------------------------------------------
Step 23, which took 0.009937 s (model generation: 0.008830,  model checking: 0.001107):

Model:
|_
{
append -> 
{{{
Q={q_gen_10698, q_gen_10700, q_gen_10701, q_gen_10717, q_gen_10718, q_gen_10719},
Q_f={q_gen_10698},
Delta=
{
<nil>() -> q_gen_10717
<a>() -> q_gen_10718
<b>() -> q_gen_10718
<cons, cons>(q_gen_10701, q_gen_10700) -> q_gen_10700
<nil, cons>(q_gen_10718, q_gen_10717) -> q_gen_10700
<nil, nil>() -> q_gen_10700
<a, a>() -> q_gen_10701
<b, b>() -> q_gen_10701
<cons, cons, cons>(q_gen_10719, q_gen_10698) -> q_gen_10698
<cons, nil, cons>(q_gen_10701, q_gen_10700) -> q_gen_10698
<nil, cons, cons>(q_gen_10701, q_gen_10700) -> q_gen_10698
<nil, nil, cons>(q_gen_10718, q_gen_10717) -> q_gen_10698
<nil, nil, nil>() -> q_gen_10698
<a, b, a>() -> q_gen_10719
<b, a, b>() -> q_gen_10719
<b, b, b>() -> q_gen_10719
}

Datatype: <eltlist, eltlist, eltlist>
Convolution form: left
}}}
  ;  invsorted -> 
{{{
Q={q_gen_10695, q_gen_10697},
Q_f={q_gen_10695},
Delta=
{
<cons>(q_gen_10697, q_gen_10695) -> q_gen_10695
<nil>() -> q_gen_10695
<a>() -> q_gen_10697
<b>() -> q_gen_10697
}

Datatype: <eltlist>
Convolution form: left
}}}
  ;  leq -> 
{{{
Q={q_gen_10693},
Q_f={q_gen_10693},
Delta=
{
<a, a>() -> q_gen_10693
<a, b>() -> q_gen_10693
<b, b>() -> q_gen_10693
}

Datatype: <elt, elt>
Convolution form: left
}}}
  ;  reverse -> 
{{{
Q={q_gen_10692, q_gen_10714, q_gen_10727, q_gen_10728},
Q_f={q_gen_10692},
Delta=
{
<nil>() -> q_gen_10727
<a>() -> q_gen_10728
<b>() -> q_gen_10728
<cons, cons>(q_gen_10714, q_gen_10692) -> q_gen_10692
<cons, nil>(q_gen_10728, q_gen_10727) -> q_gen_10692
<nil, cons>(q_gen_10728, q_gen_10727) -> q_gen_10692
<nil, nil>() -> q_gen_10692
<a, a>() -> q_gen_10714
<b, b>() -> q_gen_10714
}

Datatype: <eltlist, eltlist>
Convolution form: left
}}}
  ;  sorted -> 
{{{
Q={q_gen_10689, q_gen_10691},
Q_f={q_gen_10689},
Delta=
{
<cons>(q_gen_10691, q_gen_10689) -> q_gen_10689
<nil>() -> q_gen_10689
<a>() -> q_gen_10691
<b>() -> q_gen_10691
}

Datatype: <eltlist>
Convolution form: left
}}}

}
--
Equality automata are defined for: {eq_elt, eq_eltlist}
_|

Teacher's answer:
New clause system:
{
() -> append([nil, l2, l2]) -> 14  ;  () -> invsorted([cons(x, nil)]) -> 14  ;  () -> invsorted([nil]) -> 13  ;  () -> leq([a, y]) -> 14  ;  () -> leq([b, b]) -> 13  ;  () -> reverse([nil, nil]) -> 13  ;  () -> sorted([cons(x, nil)]) -> 14  ;  () -> sorted([nil]) -> 13  ;  (append([_yi, cons(h1, nil), _zi]) /\ reverse([t1, _yi])) -> reverse([cons(h1, t1), _zi]) -> 19  ;  (append([t1, l2, _ti])) -> append([cons(h1, t1), l2, cons(h1, _ti)]) -> 22  ;  (leq([b, a])) -> BOT -> 14  ;  (reverse([l, _dj]) /\ sorted([l])) -> invsorted([_dj]) -> 14
}
Sat witness: Yes: ((append([t1, l2, _ti])) -> append([cons(h1, t1), l2, cons(h1, _ti)]), {
_ti -> cons(a, nil)  ;  h1 -> a  ;  l2 -> cons(a, nil)  ;  t1 -> nil
})

-------------------------------------------
Step 24, which took 0.013112 s (model generation: 0.012197,  model checking: 0.000915):

Model:
|_
{
append -> 
{{{
Q={q_gen_10698, q_gen_10700, q_gen_10701, q_gen_10717, q_gen_10718, q_gen_10719},
Q_f={q_gen_10698},
Delta=
{
<nil>() -> q_gen_10717
<a>() -> q_gen_10718
<b>() -> q_gen_10718
<cons, cons>(q_gen_10701, q_gen_10700) -> q_gen_10700
<nil, cons>(q_gen_10718, q_gen_10717) -> q_gen_10700
<nil, nil>() -> q_gen_10700
<a, a>() -> q_gen_10701
<b, b>() -> q_gen_10701
<cons, cons, cons>(q_gen_10719, q_gen_10698) -> q_gen_10698
<cons, nil, cons>(q_gen_10701, q_gen_10700) -> q_gen_10698
<nil, cons, cons>(q_gen_10701, q_gen_10700) -> q_gen_10698
<nil, nil, cons>(q_gen_10718, q_gen_10717) -> q_gen_10698
<nil, nil, nil>() -> q_gen_10698
<a, a, a>() -> q_gen_10719
<a, b, a>() -> q_gen_10719
<b, a, b>() -> q_gen_10719
<b, b, b>() -> q_gen_10719
}

Datatype: <eltlist, eltlist, eltlist>
Convolution form: left
}}}
  ;  invsorted -> 
{{{
Q={q_gen_10695, q_gen_10697},
Q_f={q_gen_10695},
Delta=
{
<cons>(q_gen_10697, q_gen_10695) -> q_gen_10695
<nil>() -> q_gen_10695
<a>() -> q_gen_10697
<b>() -> q_gen_10697
}

Datatype: <eltlist>
Convolution form: left
}}}
  ;  leq -> 
{{{
Q={q_gen_10693},
Q_f={q_gen_10693},
Delta=
{
<a, a>() -> q_gen_10693
<a, b>() -> q_gen_10693
<b, b>() -> q_gen_10693
}

Datatype: <elt, elt>
Convolution form: left
}}}
  ;  reverse -> 
{{{
Q={q_gen_10692, q_gen_10714, q_gen_10727, q_gen_10728},
Q_f={q_gen_10692},
Delta=
{
<nil>() -> q_gen_10727
<a>() -> q_gen_10728
<b>() -> q_gen_10728
<cons, cons>(q_gen_10714, q_gen_10692) -> q_gen_10692
<cons, nil>(q_gen_10728, q_gen_10727) -> q_gen_10692
<nil, cons>(q_gen_10728, q_gen_10727) -> q_gen_10692
<nil, nil>() -> q_gen_10692
<a, a>() -> q_gen_10714
<b, b>() -> q_gen_10714
}

Datatype: <eltlist, eltlist>
Convolution form: left
}}}
  ;  sorted -> 
{{{
Q={q_gen_10689, q_gen_10691},
Q_f={q_gen_10689},
Delta=
{
<cons>(q_gen_10691, q_gen_10689) -> q_gen_10689
<nil>() -> q_gen_10689
<a>() -> q_gen_10691
<b>() -> q_gen_10691
}

Datatype: <eltlist>
Convolution form: left
}}}

}
--
Equality automata are defined for: {eq_elt, eq_eltlist}
_|

Teacher's answer:
New clause system:
{
() -> append([nil, l2, l2]) -> 15  ;  () -> invsorted([cons(x, nil)]) -> 15  ;  () -> invsorted([nil]) -> 14  ;  () -> leq([a, y]) -> 15  ;  () -> leq([b, b]) -> 14  ;  () -> reverse([nil, nil]) -> 14  ;  () -> sorted([cons(x, nil)]) -> 15  ;  () -> sorted([nil]) -> 14  ;  (append([_yi, cons(h1, nil), _zi]) /\ reverse([t1, _yi])) -> reverse([cons(h1, t1), _zi]) -> 22  ;  (append([t1, l2, _ti])) -> append([cons(h1, t1), l2, cons(h1, _ti)]) -> 22  ;  (leq([b, a])) -> BOT -> 15  ;  (reverse([l, _dj]) /\ sorted([l])) -> invsorted([_dj]) -> 15
}
Sat witness: Yes: ((append([_yi, cons(h1, nil), _zi]) /\ reverse([t1, _yi])) -> reverse([cons(h1, t1), _zi]), {
_yi -> cons(a, nil)  ;  _zi -> cons(a, nil)  ;  h1 -> b  ;  t1 -> nil
})

-------------------------------------------
Step 25, which took 0.013682 s (model generation: 0.011660,  model checking: 0.002022):

Model:
|_
{
append -> 
{{{
Q={q_gen_10698, q_gen_10700, q_gen_10701, q_gen_10717, q_gen_10718, q_gen_10719},
Q_f={q_gen_10698},
Delta=
{
<nil>() -> q_gen_10717
<a>() -> q_gen_10718
<b>() -> q_gen_10718
<cons, cons>(q_gen_10701, q_gen_10700) -> q_gen_10700
<nil, cons>(q_gen_10718, q_gen_10717) -> q_gen_10700
<nil, nil>() -> q_gen_10700
<a, a>() -> q_gen_10701
<b, b>() -> q_gen_10701
<cons, cons, cons>(q_gen_10719, q_gen_10698) -> q_gen_10698
<cons, nil, cons>(q_gen_10701, q_gen_10700) -> q_gen_10698
<nil, cons, cons>(q_gen_10701, q_gen_10700) -> q_gen_10698
<nil, nil, cons>(q_gen_10718, q_gen_10717) -> q_gen_10698
<nil, nil, nil>() -> q_gen_10698
<a, a, a>() -> q_gen_10719
<a, b, a>() -> q_gen_10719
<b, a, b>() -> q_gen_10719
<b, b, b>() -> q_gen_10719
}

Datatype: <eltlist, eltlist, eltlist>
Convolution form: left
}}}
  ;  invsorted -> 
{{{
Q={q_gen_10695, q_gen_10697},
Q_f={q_gen_10695},
Delta=
{
<cons>(q_gen_10697, q_gen_10695) -> q_gen_10695
<nil>() -> q_gen_10695
<a>() -> q_gen_10697
<b>() -> q_gen_10697
}

Datatype: <eltlist>
Convolution form: left
}}}
  ;  leq -> 
{{{
Q={q_gen_10693},
Q_f={q_gen_10693},
Delta=
{
<a, a>() -> q_gen_10693
<a, b>() -> q_gen_10693
<b, b>() -> q_gen_10693
}

Datatype: <elt, elt>
Convolution form: left
}}}
  ;  reverse -> 
{{{
Q={q_gen_10692, q_gen_10714, q_gen_10727, q_gen_10728},
Q_f={q_gen_10692},
Delta=
{
<nil>() -> q_gen_10727
<a>() -> q_gen_10728
<b>() -> q_gen_10728
<cons, cons>(q_gen_10714, q_gen_10692) -> q_gen_10692
<cons, nil>(q_gen_10728, q_gen_10727) -> q_gen_10692
<nil, cons>(q_gen_10728, q_gen_10727) -> q_gen_10692
<nil, nil>() -> q_gen_10692
<a, a>() -> q_gen_10714
<b, a>() -> q_gen_10714
<b, b>() -> q_gen_10714
}

Datatype: <eltlist, eltlist>
Convolution form: left
}}}
  ;  sorted -> 
{{{
Q={q_gen_10689, q_gen_10691},
Q_f={q_gen_10689},
Delta=
{
<cons>(q_gen_10691, q_gen_10689) -> q_gen_10689
<nil>() -> q_gen_10689
<a>() -> q_gen_10691
<b>() -> q_gen_10691
}

Datatype: <eltlist>
Convolution form: left
}}}

}
--
Equality automata are defined for: {eq_elt, eq_eltlist}
_|

Teacher's answer:
New clause system:
{
() -> append([nil, l2, l2]) -> 16  ;  () -> invsorted([cons(x, nil)]) -> 16  ;  () -> invsorted([nil]) -> 15  ;  () -> leq([a, y]) -> 16  ;  () -> leq([b, b]) -> 15  ;  () -> reverse([nil, nil]) -> 15  ;  () -> sorted([cons(x, nil)]) -> 16  ;  () -> sorted([nil]) -> 15  ;  (append([_yi, cons(h1, nil), _zi]) /\ reverse([t1, _yi])) -> reverse([cons(h1, t1), _zi]) -> 22  ;  (append([t1, l2, _ti])) -> append([cons(h1, t1), l2, cons(h1, _ti)]) -> 25  ;  (leq([b, a])) -> BOT -> 16  ;  (reverse([l, _dj]) /\ sorted([l])) -> invsorted([_dj]) -> 16
}
Sat witness: Yes: ((append([t1, l2, _ti])) -> append([cons(h1, t1), l2, cons(h1, _ti)]), {
_ti -> cons(b, cons(b, nil))  ;  h1 -> b  ;  l2 -> cons(b, nil)  ;  t1 -> nil
})

-------------------------------------------
Step 26, which took 0.014612 s (model generation: 0.013676,  model checking: 0.000936):

Model:
|_
{
append -> 
{{{
Q={q_gen_10698, q_gen_10700, q_gen_10701, q_gen_10717, q_gen_10718, q_gen_10719},
Q_f={q_gen_10698},
Delta=
{
<cons>(q_gen_10718, q_gen_10717) -> q_gen_10717
<nil>() -> q_gen_10717
<a>() -> q_gen_10718
<b>() -> q_gen_10718
<cons, cons>(q_gen_10701, q_gen_10700) -> q_gen_10700
<nil, cons>(q_gen_10718, q_gen_10717) -> q_gen_10700
<nil, nil>() -> q_gen_10700
<a, a>() -> q_gen_10701
<b, b>() -> q_gen_10701
<cons, cons, cons>(q_gen_10719, q_gen_10698) -> q_gen_10698
<cons, nil, cons>(q_gen_10701, q_gen_10700) -> q_gen_10698
<nil, cons, cons>(q_gen_10701, q_gen_10700) -> q_gen_10698
<nil, nil, cons>(q_gen_10718, q_gen_10717) -> q_gen_10698
<nil, nil, nil>() -> q_gen_10698
<a, a, a>() -> q_gen_10719
<a, b, a>() -> q_gen_10719
<b, a, b>() -> q_gen_10719
<b, b, b>() -> q_gen_10719
}

Datatype: <eltlist, eltlist, eltlist>
Convolution form: left
}}}
  ;  invsorted -> 
{{{
Q={q_gen_10695, q_gen_10697},
Q_f={q_gen_10695},
Delta=
{
<cons>(q_gen_10697, q_gen_10695) -> q_gen_10695
<nil>() -> q_gen_10695
<a>() -> q_gen_10697
<b>() -> q_gen_10697
}

Datatype: <eltlist>
Convolution form: left
}}}
  ;  leq -> 
{{{
Q={q_gen_10693},
Q_f={q_gen_10693},
Delta=
{
<a, a>() -> q_gen_10693
<a, b>() -> q_gen_10693
<b, b>() -> q_gen_10693
}

Datatype: <elt, elt>
Convolution form: left
}}}
  ;  reverse -> 
{{{
Q={q_gen_10692, q_gen_10714, q_gen_10727, q_gen_10728},
Q_f={q_gen_10692},
Delta=
{
<nil>() -> q_gen_10727
<a>() -> q_gen_10728
<b>() -> q_gen_10728
<cons, cons>(q_gen_10714, q_gen_10692) -> q_gen_10692
<cons, nil>(q_gen_10728, q_gen_10727) -> q_gen_10692
<nil, cons>(q_gen_10728, q_gen_10727) -> q_gen_10692
<nil, nil>() -> q_gen_10692
<a, a>() -> q_gen_10714
<b, a>() -> q_gen_10714
<b, b>() -> q_gen_10714
}

Datatype: <eltlist, eltlist>
Convolution form: left
}}}
  ;  sorted -> 
{{{
Q={q_gen_10689, q_gen_10691},
Q_f={q_gen_10689},
Delta=
{
<cons>(q_gen_10691, q_gen_10689) -> q_gen_10689
<nil>() -> q_gen_10689
<a>() -> q_gen_10691
<b>() -> q_gen_10691
}

Datatype: <eltlist>
Convolution form: left
}}}

}
--
Equality automata are defined for: {eq_elt, eq_eltlist}
_|

Teacher's answer:
New clause system:
{
() -> append([nil, l2, l2]) -> 17  ;  () -> invsorted([cons(x, nil)]) -> 17  ;  () -> invsorted([nil]) -> 16  ;  () -> leq([a, y]) -> 17  ;  () -> leq([b, b]) -> 16  ;  () -> reverse([nil, nil]) -> 16  ;  () -> sorted([cons(x, nil)]) -> 17  ;  () -> sorted([nil]) -> 16  ;  (append([_yi, cons(h1, nil), _zi]) /\ reverse([t1, _yi])) -> reverse([cons(h1, t1), _zi]) -> 25  ;  (append([t1, l2, _ti])) -> append([cons(h1, t1), l2, cons(h1, _ti)]) -> 25  ;  (leq([b, a])) -> BOT -> 17  ;  (reverse([l, _dj]) /\ sorted([l])) -> invsorted([_dj]) -> 17
}
Sat witness: Yes: ((append([_yi, cons(h1, nil), _zi]) /\ reverse([t1, _yi])) -> reverse([cons(h1, t1), _zi]), {
_yi -> nil  ;  _zi -> cons(b, cons(b, cons(b, nil)))  ;  h1 -> b  ;  t1 -> nil
})

-------------------------------------------
Step 27, which took 0.019172 s (model generation: 0.015162,  model checking: 0.004010):

Model:
|_
{
append -> 
{{{
Q={q_gen_10698, q_gen_10700, q_gen_10701, q_gen_10717, q_gen_10718, q_gen_10719},
Q_f={q_gen_10698},
Delta=
{
<cons>(q_gen_10718, q_gen_10717) -> q_gen_10717
<nil>() -> q_gen_10717
<a>() -> q_gen_10718
<b>() -> q_gen_10718
<cons, cons>(q_gen_10701, q_gen_10700) -> q_gen_10700
<nil, cons>(q_gen_10718, q_gen_10717) -> q_gen_10700
<nil, nil>() -> q_gen_10700
<a, a>() -> q_gen_10701
<b, b>() -> q_gen_10701
<cons, cons, cons>(q_gen_10719, q_gen_10698) -> q_gen_10698
<cons, nil, cons>(q_gen_10701, q_gen_10700) -> q_gen_10698
<nil, cons, cons>(q_gen_10701, q_gen_10700) -> q_gen_10698
<nil, nil, cons>(q_gen_10718, q_gen_10717) -> q_gen_10698
<nil, nil, nil>() -> q_gen_10698
<a, a, a>() -> q_gen_10719
<a, b, a>() -> q_gen_10719
<b, a, b>() -> q_gen_10719
<b, b, b>() -> q_gen_10719
}

Datatype: <eltlist, eltlist, eltlist>
Convolution form: left
}}}
  ;  invsorted -> 
{{{
Q={q_gen_10695, q_gen_10697},
Q_f={q_gen_10695},
Delta=
{
<cons>(q_gen_10697, q_gen_10695) -> q_gen_10695
<nil>() -> q_gen_10695
<a>() -> q_gen_10697
<b>() -> q_gen_10697
}

Datatype: <eltlist>
Convolution form: left
}}}
  ;  leq -> 
{{{
Q={q_gen_10693},
Q_f={q_gen_10693},
Delta=
{
<a, a>() -> q_gen_10693
<a, b>() -> q_gen_10693
<b, b>() -> q_gen_10693
}

Datatype: <elt, elt>
Convolution form: left
}}}
  ;  reverse -> 
{{{
Q={q_gen_10692, q_gen_10714, q_gen_10727, q_gen_10728},
Q_f={q_gen_10692},
Delta=
{
<cons>(q_gen_10728, q_gen_10727) -> q_gen_10727
<nil>() -> q_gen_10727
<a>() -> q_gen_10728
<b>() -> q_gen_10728
<cons, cons>(q_gen_10714, q_gen_10692) -> q_gen_10692
<cons, nil>(q_gen_10728, q_gen_10727) -> q_gen_10692
<nil, cons>(q_gen_10728, q_gen_10727) -> q_gen_10692
<nil, nil>() -> q_gen_10692
<a, a>() -> q_gen_10714
<b, a>() -> q_gen_10714
<b, b>() -> q_gen_10714
}

Datatype: <eltlist, eltlist>
Convolution form: left
}}}
  ;  sorted -> 
{{{
Q={q_gen_10689, q_gen_10691},
Q_f={q_gen_10689},
Delta=
{
<cons>(q_gen_10691, q_gen_10689) -> q_gen_10689
<nil>() -> q_gen_10689
<a>() -> q_gen_10691
<b>() -> q_gen_10691
}

Datatype: <eltlist>
Convolution form: left
}}}

}
--
Equality automata are defined for: {eq_elt, eq_eltlist}
_|

Teacher's answer:
New clause system:
{
() -> append([nil, l2, l2]) -> 18  ;  () -> invsorted([cons(x, nil)]) -> 18  ;  () -> invsorted([nil]) -> 17  ;  () -> leq([a, y]) -> 18  ;  () -> leq([b, b]) -> 17  ;  () -> reverse([nil, nil]) -> 17  ;  () -> sorted([cons(x, nil)]) -> 18  ;  () -> sorted([nil]) -> 17  ;  (append([_yi, cons(h1, nil), _zi]) /\ reverse([t1, _yi])) -> reverse([cons(h1, t1), _zi]) -> 25  ;  (append([t1, l2, _ti])) -> append([cons(h1, t1), l2, cons(h1, _ti)]) -> 28  ;  (leq([b, a])) -> BOT -> 18  ;  (reverse([l, _dj]) /\ sorted([l])) -> invsorted([_dj]) -> 18
}
Sat witness: Yes: ((append([t1, l2, _ti])) -> append([cons(h1, t1), l2, cons(h1, _ti)]), {
_ti -> cons(a, cons(b, nil))  ;  h1 -> b  ;  l2 -> cons(a, cons(b, nil))  ;  t1 -> nil
})

-------------------------------------------
Step 28, which took 0.019356 s (model generation: 0.018487,  model checking: 0.000869):

Model:
|_
{
append -> 
{{{
Q={q_gen_10698, q_gen_10700, q_gen_10701, q_gen_10717, q_gen_10718, q_gen_10719},
Q_f={q_gen_10698},
Delta=
{
<cons>(q_gen_10718, q_gen_10717) -> q_gen_10717
<nil>() -> q_gen_10717
<a>() -> q_gen_10718
<b>() -> q_gen_10718
<cons, cons>(q_gen_10701, q_gen_10700) -> q_gen_10700
<nil, cons>(q_gen_10718, q_gen_10717) -> q_gen_10700
<nil, nil>() -> q_gen_10700
<a, a>() -> q_gen_10701
<b, a>() -> q_gen_10701
<b, b>() -> q_gen_10701
<cons, cons, cons>(q_gen_10719, q_gen_10698) -> q_gen_10698
<cons, nil, cons>(q_gen_10701, q_gen_10700) -> q_gen_10698
<nil, cons, cons>(q_gen_10701, q_gen_10700) -> q_gen_10698
<nil, nil, cons>(q_gen_10718, q_gen_10717) -> q_gen_10698
<nil, nil, nil>() -> q_gen_10698
<a, a, a>() -> q_gen_10719
<a, b, a>() -> q_gen_10719
<b, a, b>() -> q_gen_10719
<b, b, b>() -> q_gen_10719
}

Datatype: <eltlist, eltlist, eltlist>
Convolution form: left
}}}
  ;  invsorted -> 
{{{
Q={q_gen_10695, q_gen_10697},
Q_f={q_gen_10695},
Delta=
{
<cons>(q_gen_10697, q_gen_10695) -> q_gen_10695
<nil>() -> q_gen_10695
<a>() -> q_gen_10697
<b>() -> q_gen_10697
}

Datatype: <eltlist>
Convolution form: left
}}}
  ;  leq -> 
{{{
Q={q_gen_10693},
Q_f={q_gen_10693},
Delta=
{
<a, a>() -> q_gen_10693
<a, b>() -> q_gen_10693
<b, b>() -> q_gen_10693
}

Datatype: <elt, elt>
Convolution form: left
}}}
  ;  reverse -> 
{{{
Q={q_gen_10692, q_gen_10714, q_gen_10727, q_gen_10728},
Q_f={q_gen_10692},
Delta=
{
<cons>(q_gen_10728, q_gen_10727) -> q_gen_10727
<nil>() -> q_gen_10727
<a>() -> q_gen_10728
<b>() -> q_gen_10728
<cons, cons>(q_gen_10714, q_gen_10692) -> q_gen_10692
<cons, nil>(q_gen_10728, q_gen_10727) -> q_gen_10692
<nil, cons>(q_gen_10728, q_gen_10727) -> q_gen_10692
<nil, nil>() -> q_gen_10692
<a, a>() -> q_gen_10714
<b, a>() -> q_gen_10714
<b, b>() -> q_gen_10714
}

Datatype: <eltlist, eltlist>
Convolution form: left
}}}
  ;  sorted -> 
{{{
Q={q_gen_10689, q_gen_10691},
Q_f={q_gen_10689},
Delta=
{
<cons>(q_gen_10691, q_gen_10689) -> q_gen_10689
<nil>() -> q_gen_10689
<a>() -> q_gen_10691
<b>() -> q_gen_10691
}

Datatype: <eltlist>
Convolution form: left
}}}

}
--
Equality automata are defined for: {eq_elt, eq_eltlist}
_|

Teacher's answer:
New clause system:
{
() -> append([nil, l2, l2]) -> 19  ;  () -> invsorted([cons(x, nil)]) -> 19  ;  () -> invsorted([nil]) -> 18  ;  () -> leq([a, y]) -> 19  ;  () -> leq([b, b]) -> 18  ;  () -> reverse([nil, nil]) -> 18  ;  () -> sorted([cons(x, nil)]) -> 19  ;  () -> sorted([nil]) -> 18  ;  (append([_yi, cons(h1, nil), _zi]) /\ reverse([t1, _yi])) -> reverse([cons(h1, t1), _zi]) -> 28  ;  (append([t1, l2, _ti])) -> append([cons(h1, t1), l2, cons(h1, _ti)]) -> 28  ;  (leq([b, a])) -> BOT -> 19  ;  (reverse([l, _dj]) /\ sorted([l])) -> invsorted([_dj]) -> 19
}
Sat witness: Yes: ((append([_yi, cons(h1, nil), _zi]) /\ reverse([t1, _yi])) -> reverse([cons(h1, t1), _zi]), {
_yi -> cons(b, nil)  ;  _zi -> cons(b, nil)  ;  h1 -> a  ;  t1 -> nil
})

-------------------------------------------
Step 29, which took 0.022974 s (model generation: 0.019524,  model checking: 0.003450):

Model:
|_
{
append -> 
{{{
Q={q_gen_10698, q_gen_10700, q_gen_10701, q_gen_10717, q_gen_10718, q_gen_10719},
Q_f={q_gen_10698},
Delta=
{
<cons>(q_gen_10718, q_gen_10717) -> q_gen_10717
<nil>() -> q_gen_10717
<a>() -> q_gen_10718
<b>() -> q_gen_10718
<cons, cons>(q_gen_10701, q_gen_10700) -> q_gen_10700
<nil, cons>(q_gen_10718, q_gen_10717) -> q_gen_10700
<nil, nil>() -> q_gen_10700
<a, a>() -> q_gen_10701
<b, a>() -> q_gen_10701
<b, b>() -> q_gen_10701
<cons, cons, cons>(q_gen_10719, q_gen_10698) -> q_gen_10698
<cons, nil, cons>(q_gen_10701, q_gen_10700) -> q_gen_10698
<nil, cons, cons>(q_gen_10701, q_gen_10700) -> q_gen_10698
<nil, nil, cons>(q_gen_10718, q_gen_10717) -> q_gen_10698
<nil, nil, nil>() -> q_gen_10698
<a, a, a>() -> q_gen_10719
<a, b, a>() -> q_gen_10719
<b, a, b>() -> q_gen_10719
<b, b, b>() -> q_gen_10719
}

Datatype: <eltlist, eltlist, eltlist>
Convolution form: left
}}}
  ;  invsorted -> 
{{{
Q={q_gen_10695, q_gen_10697},
Q_f={q_gen_10695},
Delta=
{
<cons>(q_gen_10697, q_gen_10695) -> q_gen_10695
<nil>() -> q_gen_10695
<a>() -> q_gen_10697
<b>() -> q_gen_10697
}

Datatype: <eltlist>
Convolution form: left
}}}
  ;  leq -> 
{{{
Q={q_gen_10693},
Q_f={q_gen_10693},
Delta=
{
<a, a>() -> q_gen_10693
<a, b>() -> q_gen_10693
<b, b>() -> q_gen_10693
}

Datatype: <elt, elt>
Convolution form: left
}}}
  ;  reverse -> 
{{{
Q={q_gen_10692, q_gen_10714, q_gen_10727, q_gen_10728},
Q_f={q_gen_10692},
Delta=
{
<cons>(q_gen_10728, q_gen_10727) -> q_gen_10727
<nil>() -> q_gen_10727
<a>() -> q_gen_10728
<b>() -> q_gen_10728
<cons, cons>(q_gen_10714, q_gen_10692) -> q_gen_10692
<cons, nil>(q_gen_10728, q_gen_10727) -> q_gen_10692
<nil, cons>(q_gen_10728, q_gen_10727) -> q_gen_10692
<nil, nil>() -> q_gen_10692
<a, a>() -> q_gen_10714
<a, b>() -> q_gen_10714
<b, a>() -> q_gen_10714
<b, b>() -> q_gen_10714
}

Datatype: <eltlist, eltlist>
Convolution form: left
}}}
  ;  sorted -> 
{{{
Q={q_gen_10689, q_gen_10691},
Q_f={q_gen_10689},
Delta=
{
<cons>(q_gen_10691, q_gen_10689) -> q_gen_10689
<nil>() -> q_gen_10689
<a>() -> q_gen_10691
<b>() -> q_gen_10691
}

Datatype: <eltlist>
Convolution form: left
}}}

}
--
Equality automata are defined for: {eq_elt, eq_eltlist}
_|

Teacher's answer:
New clause system:
{
() -> append([nil, l2, l2]) -> 20  ;  () -> invsorted([cons(x, nil)]) -> 20  ;  () -> invsorted([nil]) -> 19  ;  () -> leq([a, y]) -> 20  ;  () -> leq([b, b]) -> 19  ;  () -> reverse([nil, nil]) -> 19  ;  () -> sorted([cons(x, nil)]) -> 20  ;  () -> sorted([nil]) -> 19  ;  (append([_yi, cons(h1, nil), _zi]) /\ reverse([t1, _yi])) -> reverse([cons(h1, t1), _zi]) -> 28  ;  (append([t1, l2, _ti])) -> append([cons(h1, t1), l2, cons(h1, _ti)]) -> 31  ;  (leq([b, a])) -> BOT -> 20  ;  (reverse([l, _dj]) /\ sorted([l])) -> invsorted([_dj]) -> 20
}
Sat witness: Yes: ((append([t1, l2, _ti])) -> append([cons(h1, t1), l2, cons(h1, _ti)]), {
_ti -> cons(b, cons(a, nil))  ;  h1 -> b  ;  l2 -> cons(b, cons(a, nil))  ;  t1 -> nil
})

Total time: 0.356814
Reason for stopping: Proved

