Solving ../../../../benchmarks/smtlib/true/prefix_append.smt2...

Inference procedure has parameters:
Ice fuel: 200
Timeout: 40s
Convolution: left


Learning problem is:

env: {
elt -> {a, b}  ;  eltlist -> {cons, nil}
}
definition:
{
(prefix, P:
{() -> prefix([nil, y])
(prefix([zs, ys])) -> prefix([cons(y2, zs), cons(y2, ys)])
(prefix([cons(y2, zs), cons(y2, ys)])) -> prefix([zs, ys])
(prefix([cons(z, zs), cons(y2, ys)]) /\ not eq_elt([z, y2])) -> BOT
(prefix([cons(z, zs), nil])) -> BOT}
)
(append, F:
{() -> append([nil, l2, l2])
(append([t1, l2, _taa])) -> append([cons(h1, t1), l2, cons(h1, _taa)])}
(append([_uaa, _vaa, _waa]) /\ append([_uaa, _vaa, _xaa])) -> eq_eltlist([_waa, _xaa])
)
}

properties:
{(append([l1, l2, _yaa])) -> prefix([l1, _yaa])}


over-approximation: {append}
under-approximation: {prefix}

Clause system for inference is:

{
() -> append([nil, l2, l2]) -> 0  ;  () -> prefix([nil, y]) -> 0  ;  (append([l1, l2, _yaa])) -> prefix([l1, _yaa]) -> 0  ;  (append([t1, l2, _taa])) -> append([cons(h1, t1), l2, cons(h1, _taa)]) -> 0  ;  (prefix([zs, ys])) -> prefix([cons(y2, zs), cons(y2, ys)]) -> 0  ;  (prefix([cons(y2, zs), cons(y2, ys)])) -> prefix([zs, ys]) -> 0  ;  (prefix([cons(z, zs), cons(y2, ys)]) /\ not eq_elt([z, y2])) -> BOT -> 0  ;  (prefix([cons(z, zs), nil])) -> BOT -> 0
}


Solving took 21.354658 seconds.
Proved
Model:
|_
{
append -> 
{{{
Q={q_gen_9381, q_gen_9385, q_gen_9386, q_gen_9404, q_gen_9405, q_gen_9406, q_gen_9425, q_gen_9426, q_gen_9441},
Q_f={q_gen_9381},
Delta=
{
<cons>(q_gen_9405, q_gen_9404) -> q_gen_9404
<nil>() -> q_gen_9404
<a>() -> q_gen_9405
<b>() -> q_gen_9405
<cons, cons>(q_gen_9386, q_gen_9385) -> q_gen_9385
<nil, cons>(q_gen_9405, q_gen_9404) -> q_gen_9385
<nil, nil>() -> q_gen_9385
<a, a>() -> q_gen_9386
<b, b>() -> q_gen_9386
<a, b>() -> q_gen_9425
<b, a>() -> q_gen_9425
<cons, cons>(q_gen_9386, q_gen_9441) -> q_gen_9441
<cons, cons>(q_gen_9425, q_gen_9385) -> q_gen_9441
<cons, cons>(q_gen_9425, q_gen_9441) -> q_gen_9441
<cons, cons, cons>(q_gen_9406, q_gen_9381) -> q_gen_9381
<cons, nil, cons>(q_gen_9386, q_gen_9385) -> q_gen_9381
<nil, cons, cons>(q_gen_9386, q_gen_9385) -> q_gen_9381
<nil, cons, cons>(q_gen_9386, q_gen_9441) -> q_gen_9381
<nil, cons, cons>(q_gen_9425, q_gen_9385) -> q_gen_9381
<nil, cons, cons>(q_gen_9425, q_gen_9441) -> q_gen_9381
<nil, nil, cons>(q_gen_9405, q_gen_9404) -> q_gen_9381
<nil, nil, nil>() -> q_gen_9381
<a, a, a>() -> q_gen_9406
<a, b, a>() -> q_gen_9406
<b, a, b>() -> q_gen_9406
<b, b, b>() -> q_gen_9406
<cons, cons, cons>(q_gen_9406, q_gen_9426) -> q_gen_9426
<cons, nil, cons>(q_gen_9386, q_gen_9441) -> q_gen_9426
<cons, nil, cons>(q_gen_9425, q_gen_9385) -> q_gen_9426
}

Datatype: <eltlist, eltlist, eltlist>
Convolution form: left
}}}
  ;  prefix -> 
{{{
Q={q_gen_9380, q_gen_9383, q_gen_9388, q_gen_9389, q_gen_9427, q_gen_9428},
Q_f={q_gen_9380},
Delta=
{
<cons>(q_gen_9389, q_gen_9388) -> q_gen_9388
<nil>() -> q_gen_9388
<a>() -> q_gen_9389
<b>() -> q_gen_9389
<cons, cons>(q_gen_9383, q_gen_9380) -> q_gen_9380
<nil, cons>(q_gen_9389, q_gen_9388) -> q_gen_9380
<nil, nil>() -> q_gen_9380
<a, a>() -> q_gen_9383
<b, b>() -> q_gen_9383
<cons, cons>(q_gen_9383, q_gen_9427) -> q_gen_9427
<cons, cons>(q_gen_9428, q_gen_9380) -> q_gen_9427
<cons, cons>(q_gen_9428, q_gen_9427) -> q_gen_9427
<a, b>() -> q_gen_9428
<b, a>() -> q_gen_9428
}

Datatype: <eltlist, eltlist>
Convolution form: left
}}}

}
--
Equality automata are defined for: {eq_elt, eq_eltlist}
_|

-------------------
STEPS:
-------------------------------------------
Step 0, which took 0.008117 s (model generation: 0.007073,  model checking: 0.001044):

Model:
|_
{
append -> 
{{{
Q={},
Q_f={},
Delta=
{

}

Datatype: <eltlist, eltlist, eltlist>
Convolution form: left
}}}
  ;  prefix -> 
{{{
Q={},
Q_f={},
Delta=
{

}

Datatype: <eltlist, eltlist>
Convolution form: left
}}}

}
--
Equality automata are defined for: {eq_elt, eq_eltlist}
_|

Teacher's answer:
New clause system:
{
() -> append([nil, l2, l2]) -> 0  ;  () -> prefix([nil, y]) -> 3  ;  (append([l1, l2, _yaa])) -> prefix([l1, _yaa]) -> 1  ;  (append([t1, l2, _taa])) -> append([cons(h1, t1), l2, cons(h1, _taa)]) -> 1  ;  (prefix([zs, ys])) -> prefix([cons(y2, zs), cons(y2, ys)]) -> 1  ;  (prefix([cons(y2, zs), cons(y2, ys)])) -> prefix([zs, ys]) -> 1  ;  (prefix([cons(z, zs), cons(y2, ys)]) /\ not eq_elt([z, y2])) -> BOT -> 1  ;  (prefix([cons(z, zs), nil])) -> BOT -> 1
}
Sat witness: Yes: (() -> prefix([nil, y]), {
y -> nil
})

-------------------------------------------
Step 1, which took 0.005949 s (model generation: 0.005782,  model checking: 0.000167):

Model:
|_
{
append -> 
{{{
Q={},
Q_f={},
Delta=
{

}

Datatype: <eltlist, eltlist, eltlist>
Convolution form: left
}}}
  ;  prefix -> 
{{{
Q={q_gen_9380},
Q_f={q_gen_9380},
Delta=
{
<nil, nil>() -> q_gen_9380
}

Datatype: <eltlist, eltlist>
Convolution form: left
}}}

}
--
Equality automata are defined for: {eq_elt, eq_eltlist}
_|

Teacher's answer:
New clause system:
{
() -> append([nil, l2, l2]) -> 3  ;  () -> prefix([nil, y]) -> 3  ;  (append([l1, l2, _yaa])) -> prefix([l1, _yaa]) -> 1  ;  (append([t1, l2, _taa])) -> append([cons(h1, t1), l2, cons(h1, _taa)]) -> 1  ;  (prefix([zs, ys])) -> prefix([cons(y2, zs), cons(y2, ys)]) -> 1  ;  (prefix([cons(y2, zs), cons(y2, ys)])) -> prefix([zs, ys]) -> 1  ;  (prefix([cons(z, zs), cons(y2, ys)]) /\ not eq_elt([z, y2])) -> BOT -> 1  ;  (prefix([cons(z, zs), nil])) -> BOT -> 1
}
Sat witness: Yes: (() -> append([nil, l2, l2]), {
l2 -> nil
})

-------------------------------------------
Step 2, which took 0.005676 s (model generation: 0.005474,  model checking: 0.000202):

Model:
|_
{
append -> 
{{{
Q={q_gen_9381},
Q_f={q_gen_9381},
Delta=
{
<nil, nil, nil>() -> q_gen_9381
}

Datatype: <eltlist, eltlist, eltlist>
Convolution form: left
}}}
  ;  prefix -> 
{{{
Q={q_gen_9380},
Q_f={q_gen_9380},
Delta=
{
<nil, nil>() -> q_gen_9380
}

Datatype: <eltlist, eltlist>
Convolution form: left
}}}

}
--
Equality automata are defined for: {eq_elt, eq_eltlist}
_|

Teacher's answer:
New clause system:
{
() -> append([nil, l2, l2]) -> 3  ;  () -> prefix([nil, y]) -> 3  ;  (append([l1, l2, _yaa])) -> prefix([l1, _yaa]) -> 1  ;  (append([t1, l2, _taa])) -> append([cons(h1, t1), l2, cons(h1, _taa)]) -> 1  ;  (prefix([zs, ys])) -> prefix([cons(y2, zs), cons(y2, ys)]) -> 4  ;  (prefix([cons(y2, zs), cons(y2, ys)])) -> prefix([zs, ys]) -> 2  ;  (prefix([cons(z, zs), cons(y2, ys)]) /\ not eq_elt([z, y2])) -> BOT -> 2  ;  (prefix([cons(z, zs), nil])) -> BOT -> 2
}
Sat witness: Yes: ((prefix([zs, ys])) -> prefix([cons(y2, zs), cons(y2, ys)]), {
y2 -> b  ;  ys -> nil  ;  zs -> nil
})

-------------------------------------------
Step 3, which took 0.004996 s (model generation: 0.004804,  model checking: 0.000192):

Model:
|_
{
append -> 
{{{
Q={q_gen_9381},
Q_f={q_gen_9381},
Delta=
{
<nil, nil, nil>() -> q_gen_9381
}

Datatype: <eltlist, eltlist, eltlist>
Convolution form: left
}}}
  ;  prefix -> 
{{{
Q={q_gen_9380, q_gen_9383},
Q_f={q_gen_9380},
Delta=
{
<cons, cons>(q_gen_9383, q_gen_9380) -> q_gen_9380
<nil, nil>() -> q_gen_9380
<b, b>() -> q_gen_9383
}

Datatype: <eltlist, eltlist>
Convolution form: left
}}}

}
--
Equality automata are defined for: {eq_elt, eq_eltlist}
_|

Teacher's answer:
New clause system:
{
() -> append([nil, l2, l2]) -> 3  ;  () -> prefix([nil, y]) -> 3  ;  (append([l1, l2, _yaa])) -> prefix([l1, _yaa]) -> 1  ;  (append([t1, l2, _taa])) -> append([cons(h1, t1), l2, cons(h1, _taa)]) -> 4  ;  (prefix([zs, ys])) -> prefix([cons(y2, zs), cons(y2, ys)]) -> 4  ;  (prefix([cons(y2, zs), cons(y2, ys)])) -> prefix([zs, ys]) -> 2  ;  (prefix([cons(z, zs), cons(y2, ys)]) /\ not eq_elt([z, y2])) -> BOT -> 2  ;  (prefix([cons(z, zs), nil])) -> BOT -> 2
}
Sat witness: Yes: ((append([t1, l2, _taa])) -> append([cons(h1, t1), l2, cons(h1, _taa)]), {
_taa -> nil  ;  h1 -> b  ;  l2 -> nil  ;  t1 -> nil
})

-------------------------------------------
Step 4, which took 0.007853 s (model generation: 0.005461,  model checking: 0.002392):

Model:
|_
{
append -> 
{{{
Q={q_gen_9381, q_gen_9385, q_gen_9386},
Q_f={q_gen_9381},
Delta=
{
<nil, nil>() -> q_gen_9385
<b, b>() -> q_gen_9386
<cons, nil, cons>(q_gen_9386, q_gen_9385) -> q_gen_9381
<nil, nil, nil>() -> q_gen_9381
}

Datatype: <eltlist, eltlist, eltlist>
Convolution form: left
}}}
  ;  prefix -> 
{{{
Q={q_gen_9380, q_gen_9383},
Q_f={q_gen_9380},
Delta=
{
<cons, cons>(q_gen_9383, q_gen_9380) -> q_gen_9380
<nil, nil>() -> q_gen_9380
<b, b>() -> q_gen_9383
}

Datatype: <eltlist, eltlist>
Convolution form: left
}}}

}
--
Equality automata are defined for: {eq_elt, eq_eltlist}
_|

Teacher's answer:
New clause system:
{
() -> append([nil, l2, l2]) -> 3  ;  () -> prefix([nil, y]) -> 6  ;  (append([l1, l2, _yaa])) -> prefix([l1, _yaa]) -> 2  ;  (append([t1, l2, _taa])) -> append([cons(h1, t1), l2, cons(h1, _taa)]) -> 4  ;  (prefix([zs, ys])) -> prefix([cons(y2, zs), cons(y2, ys)]) -> 4  ;  (prefix([cons(y2, zs), cons(y2, ys)])) -> prefix([zs, ys]) -> 3  ;  (prefix([cons(z, zs), cons(y2, ys)]) /\ not eq_elt([z, y2])) -> BOT -> 3  ;  (prefix([cons(z, zs), nil])) -> BOT -> 3
}
Sat witness: Yes: (() -> prefix([nil, y]), {
y -> cons(b, nil)
})

-------------------------------------------
Step 5, which took 0.006581 s (model generation: 0.004797,  model checking: 0.001784):

Model:
|_
{
append -> 
{{{
Q={q_gen_9381, q_gen_9385, q_gen_9386},
Q_f={q_gen_9381},
Delta=
{
<nil, nil>() -> q_gen_9385
<b, b>() -> q_gen_9386
<cons, nil, cons>(q_gen_9386, q_gen_9385) -> q_gen_9381
<nil, nil, nil>() -> q_gen_9381
}

Datatype: <eltlist, eltlist, eltlist>
Convolution form: left
}}}
  ;  prefix -> 
{{{
Q={q_gen_9380, q_gen_9383, q_gen_9388, q_gen_9389},
Q_f={q_gen_9380},
Delta=
{
<nil>() -> q_gen_9388
<b>() -> q_gen_9389
<cons, cons>(q_gen_9383, q_gen_9380) -> q_gen_9380
<nil, cons>(q_gen_9389, q_gen_9388) -> q_gen_9380
<nil, nil>() -> q_gen_9380
<b, b>() -> q_gen_9383
}

Datatype: <eltlist, eltlist>
Convolution form: left
}}}

}
--
Equality automata are defined for: {eq_elt, eq_eltlist}
_|

Teacher's answer:
New clause system:
{
() -> append([nil, l2, l2]) -> 6  ;  () -> prefix([nil, y]) -> 6  ;  (append([l1, l2, _yaa])) -> prefix([l1, _yaa]) -> 3  ;  (append([t1, l2, _taa])) -> append([cons(h1, t1), l2, cons(h1, _taa)]) -> 4  ;  (prefix([zs, ys])) -> prefix([cons(y2, zs), cons(y2, ys)]) -> 4  ;  (prefix([cons(y2, zs), cons(y2, ys)])) -> prefix([zs, ys]) -> 4  ;  (prefix([cons(z, zs), cons(y2, ys)]) /\ not eq_elt([z, y2])) -> BOT -> 4  ;  (prefix([cons(z, zs), nil])) -> BOT -> 4
}
Sat witness: Yes: (() -> append([nil, l2, l2]), {
l2 -> cons(a, nil)
})

-------------------------------------------
Step 6, which took 0.004451 s (model generation: 0.004267,  model checking: 0.000184):

Model:
|_
{
append -> 
{{{
Q={q_gen_9381, q_gen_9385, q_gen_9386},
Q_f={q_gen_9381},
Delta=
{
<nil, nil>() -> q_gen_9385
<a, a>() -> q_gen_9386
<b, b>() -> q_gen_9386
<cons, nil, cons>(q_gen_9386, q_gen_9385) -> q_gen_9381
<nil, cons, cons>(q_gen_9386, q_gen_9385) -> q_gen_9381
<nil, nil, nil>() -> q_gen_9381
}

Datatype: <eltlist, eltlist, eltlist>
Convolution form: left
}}}
  ;  prefix -> 
{{{
Q={q_gen_9380, q_gen_9383, q_gen_9388, q_gen_9389},
Q_f={q_gen_9380},
Delta=
{
<nil>() -> q_gen_9388
<b>() -> q_gen_9389
<cons, cons>(q_gen_9383, q_gen_9380) -> q_gen_9380
<nil, cons>(q_gen_9389, q_gen_9388) -> q_gen_9380
<nil, nil>() -> q_gen_9380
<b, b>() -> q_gen_9383
}

Datatype: <eltlist, eltlist>
Convolution form: left
}}}

}
--
Equality automata are defined for: {eq_elt, eq_eltlist}
_|

Teacher's answer:
New clause system:
{
() -> append([nil, l2, l2]) -> 6  ;  () -> prefix([nil, y]) -> 6  ;  (append([l1, l2, _yaa])) -> prefix([l1, _yaa]) -> 6  ;  (append([t1, l2, _taa])) -> append([cons(h1, t1), l2, cons(h1, _taa)]) -> 4  ;  (prefix([zs, ys])) -> prefix([cons(y2, zs), cons(y2, ys)]) -> 4  ;  (prefix([cons(y2, zs), cons(y2, ys)])) -> prefix([zs, ys]) -> 4  ;  (prefix([cons(z, zs), cons(y2, ys)]) /\ not eq_elt([z, y2])) -> BOT -> 4  ;  (prefix([cons(z, zs), nil])) -> BOT -> 4
}
Sat witness: Yes: ((append([l1, l2, _yaa])) -> prefix([l1, _yaa]), {
_yaa -> cons(a, nil)  ;  l1 -> cons(a, nil)  ;  l2 -> nil
})

-------------------------------------------
Step 7, which took 0.006127 s (model generation: 0.003900,  model checking: 0.002227):

Model:
|_
{
append -> 
{{{
Q={q_gen_9381, q_gen_9385, q_gen_9386},
Q_f={q_gen_9381},
Delta=
{
<nil, nil>() -> q_gen_9385
<a, a>() -> q_gen_9386
<b, b>() -> q_gen_9386
<cons, nil, cons>(q_gen_9386, q_gen_9385) -> q_gen_9381
<nil, cons, cons>(q_gen_9386, q_gen_9385) -> q_gen_9381
<nil, nil, nil>() -> q_gen_9381
}

Datatype: <eltlist, eltlist, eltlist>
Convolution form: left
}}}
  ;  prefix -> 
{{{
Q={q_gen_9380, q_gen_9383, q_gen_9388, q_gen_9389},
Q_f={q_gen_9380},
Delta=
{
<nil>() -> q_gen_9388
<b>() -> q_gen_9389
<cons, cons>(q_gen_9383, q_gen_9380) -> q_gen_9380
<nil, cons>(q_gen_9389, q_gen_9388) -> q_gen_9380
<nil, nil>() -> q_gen_9380
<a, a>() -> q_gen_9383
<b, b>() -> q_gen_9383
}

Datatype: <eltlist, eltlist>
Convolution form: left
}}}

}
--
Equality automata are defined for: {eq_elt, eq_eltlist}
_|

Teacher's answer:
New clause system:
{
() -> append([nil, l2, l2]) -> 6  ;  () -> prefix([nil, y]) -> 6  ;  (append([l1, l2, _yaa])) -> prefix([l1, _yaa]) -> 6  ;  (append([t1, l2, _taa])) -> append([cons(h1, t1), l2, cons(h1, _taa)]) -> 7  ;  (prefix([zs, ys])) -> prefix([cons(y2, zs), cons(y2, ys)]) -> 5  ;  (prefix([cons(y2, zs), cons(y2, ys)])) -> prefix([zs, ys]) -> 5  ;  (prefix([cons(z, zs), cons(y2, ys)]) /\ not eq_elt([z, y2])) -> BOT -> 5  ;  (prefix([cons(z, zs), nil])) -> BOT -> 5
}
Sat witness: Yes: ((append([t1, l2, _taa])) -> append([cons(h1, t1), l2, cons(h1, _taa)]), {
_taa -> cons(a, nil)  ;  h1 -> b  ;  l2 -> nil  ;  t1 -> cons(a, nil)
})

-------------------------------------------
Step 8, which took 0.005834 s (model generation: 0.004124,  model checking: 0.001710):

Model:
|_
{
append -> 
{{{
Q={q_gen_9381, q_gen_9385, q_gen_9386},
Q_f={q_gen_9381},
Delta=
{
<cons, cons>(q_gen_9386, q_gen_9385) -> q_gen_9385
<nil, nil>() -> q_gen_9385
<a, a>() -> q_gen_9386
<b, b>() -> q_gen_9386
<cons, nil, cons>(q_gen_9386, q_gen_9385) -> q_gen_9381
<nil, cons, cons>(q_gen_9386, q_gen_9385) -> q_gen_9381
<nil, nil, nil>() -> q_gen_9381
}

Datatype: <eltlist, eltlist, eltlist>
Convolution form: left
}}}
  ;  prefix -> 
{{{
Q={q_gen_9380, q_gen_9383, q_gen_9388, q_gen_9389},
Q_f={q_gen_9380},
Delta=
{
<nil>() -> q_gen_9388
<b>() -> q_gen_9389
<cons, cons>(q_gen_9383, q_gen_9380) -> q_gen_9380
<nil, cons>(q_gen_9389, q_gen_9388) -> q_gen_9380
<nil, nil>() -> q_gen_9380
<a, a>() -> q_gen_9383
<b, b>() -> q_gen_9383
}

Datatype: <eltlist, eltlist>
Convolution form: left
}}}

}
--
Equality automata are defined for: {eq_elt, eq_eltlist}
_|

Teacher's answer:
New clause system:
{
() -> append([nil, l2, l2]) -> 6  ;  () -> prefix([nil, y]) -> 6  ;  (append([l1, l2, _yaa])) -> prefix([l1, _yaa]) -> 9  ;  (append([t1, l2, _taa])) -> append([cons(h1, t1), l2, cons(h1, _taa)]) -> 7  ;  (prefix([zs, ys])) -> prefix([cons(y2, zs), cons(y2, ys)]) -> 6  ;  (prefix([cons(y2, zs), cons(y2, ys)])) -> prefix([zs, ys]) -> 6  ;  (prefix([cons(z, zs), cons(y2, ys)]) /\ not eq_elt([z, y2])) -> BOT -> 6  ;  (prefix([cons(z, zs), nil])) -> BOT -> 6
}
Sat witness: Yes: ((append([l1, l2, _yaa])) -> prefix([l1, _yaa]), {
_yaa -> cons(a, nil)  ;  l1 -> nil  ;  l2 -> cons(a, nil)
})

-------------------------------------------
Step 9, which took 0.005452 s (model generation: 0.003990,  model checking: 0.001462):

Model:
|_
{
append -> 
{{{
Q={q_gen_9381, q_gen_9385, q_gen_9386},
Q_f={q_gen_9381},
Delta=
{
<cons, cons>(q_gen_9386, q_gen_9385) -> q_gen_9385
<nil, nil>() -> q_gen_9385
<a, a>() -> q_gen_9386
<b, b>() -> q_gen_9386
<cons, nil, cons>(q_gen_9386, q_gen_9385) -> q_gen_9381
<nil, cons, cons>(q_gen_9386, q_gen_9385) -> q_gen_9381
<nil, nil, nil>() -> q_gen_9381
}

Datatype: <eltlist, eltlist, eltlist>
Convolution form: left
}}}
  ;  prefix -> 
{{{
Q={q_gen_9380, q_gen_9383, q_gen_9388, q_gen_9389},
Q_f={q_gen_9380},
Delta=
{
<nil>() -> q_gen_9388
<a>() -> q_gen_9389
<b>() -> q_gen_9389
<cons, cons>(q_gen_9383, q_gen_9380) -> q_gen_9380
<nil, cons>(q_gen_9389, q_gen_9388) -> q_gen_9380
<nil, nil>() -> q_gen_9380
<a, a>() -> q_gen_9383
<b, b>() -> q_gen_9383
}

Datatype: <eltlist, eltlist>
Convolution form: left
}}}

}
--
Equality automata are defined for: {eq_elt, eq_eltlist}
_|

Teacher's answer:
New clause system:
{
() -> append([nil, l2, l2]) -> 6  ;  () -> prefix([nil, y]) -> 9  ;  (append([l1, l2, _yaa])) -> prefix([l1, _yaa]) -> 9  ;  (append([t1, l2, _taa])) -> append([cons(h1, t1), l2, cons(h1, _taa)]) -> 7  ;  (prefix([zs, ys])) -> prefix([cons(y2, zs), cons(y2, ys)]) -> 7  ;  (prefix([cons(y2, zs), cons(y2, ys)])) -> prefix([zs, ys]) -> 7  ;  (prefix([cons(z, zs), cons(y2, ys)]) /\ not eq_elt([z, y2])) -> BOT -> 7  ;  (prefix([cons(z, zs), nil])) -> BOT -> 7
}
Sat witness: Yes: (() -> prefix([nil, y]), {
y -> cons(b, cons(b, nil))
})

-------------------------------------------
Step 10, which took 0.006280 s (model generation: 0.004205,  model checking: 0.002075):

Model:
|_
{
append -> 
{{{
Q={q_gen_9381, q_gen_9385, q_gen_9386},
Q_f={q_gen_9381},
Delta=
{
<cons, cons>(q_gen_9386, q_gen_9385) -> q_gen_9385
<nil, nil>() -> q_gen_9385
<a, a>() -> q_gen_9386
<b, b>() -> q_gen_9386
<cons, nil, cons>(q_gen_9386, q_gen_9385) -> q_gen_9381
<nil, cons, cons>(q_gen_9386, q_gen_9385) -> q_gen_9381
<nil, nil, nil>() -> q_gen_9381
}

Datatype: <eltlist, eltlist, eltlist>
Convolution form: left
}}}
  ;  prefix -> 
{{{
Q={q_gen_9380, q_gen_9383, q_gen_9388, q_gen_9389},
Q_f={q_gen_9380},
Delta=
{
<cons>(q_gen_9389, q_gen_9388) -> q_gen_9388
<nil>() -> q_gen_9388
<a>() -> q_gen_9389
<b>() -> q_gen_9389
<cons, cons>(q_gen_9383, q_gen_9380) -> q_gen_9380
<nil, cons>(q_gen_9389, q_gen_9388) -> q_gen_9380
<nil, nil>() -> q_gen_9380
<a, a>() -> q_gen_9383
<b, b>() -> q_gen_9383
}

Datatype: <eltlist, eltlist>
Convolution form: left
}}}

}
--
Equality automata are defined for: {eq_elt, eq_eltlist}
_|

Teacher's answer:
New clause system:
{
() -> append([nil, l2, l2]) -> 7  ;  () -> prefix([nil, y]) -> 9  ;  (append([l1, l2, _yaa])) -> prefix([l1, _yaa]) -> 9  ;  (append([t1, l2, _taa])) -> append([cons(h1, t1), l2, cons(h1, _taa)]) -> 10  ;  (prefix([zs, ys])) -> prefix([cons(y2, zs), cons(y2, ys)]) -> 8  ;  (prefix([cons(y2, zs), cons(y2, ys)])) -> prefix([zs, ys]) -> 8  ;  (prefix([cons(z, zs), cons(y2, ys)]) /\ not eq_elt([z, y2])) -> BOT -> 8  ;  (prefix([cons(z, zs), nil])) -> BOT -> 8
}
Sat witness: Yes: ((append([t1, l2, _taa])) -> append([cons(h1, t1), l2, cons(h1, _taa)]), {
_taa -> cons(b, nil)  ;  h1 -> b  ;  l2 -> cons(b, nil)  ;  t1 -> nil
})

-------------------------------------------
Step 11, which took 0.007465 s (model generation: 0.005389,  model checking: 0.002076):

Model:
|_
{
append -> 
{{{
Q={q_gen_9381, q_gen_9385, q_gen_9386, q_gen_9404, q_gen_9405, q_gen_9406},
Q_f={q_gen_9381},
Delta=
{
<nil>() -> q_gen_9404
<b>() -> q_gen_9405
<cons, cons>(q_gen_9386, q_gen_9385) -> q_gen_9385
<nil, nil>() -> q_gen_9385
<a, a>() -> q_gen_9386
<b, b>() -> q_gen_9386
<cons, cons, cons>(q_gen_9406, q_gen_9381) -> q_gen_9381
<cons, nil, cons>(q_gen_9386, q_gen_9385) -> q_gen_9381
<nil, cons, cons>(q_gen_9386, q_gen_9385) -> q_gen_9381
<nil, nil, cons>(q_gen_9405, q_gen_9404) -> q_gen_9381
<nil, nil, nil>() -> q_gen_9381
<b, b, b>() -> q_gen_9406
}

Datatype: <eltlist, eltlist, eltlist>
Convolution form: left
}}}
  ;  prefix -> 
{{{
Q={q_gen_9380, q_gen_9383, q_gen_9388, q_gen_9389},
Q_f={q_gen_9380},
Delta=
{
<cons>(q_gen_9389, q_gen_9388) -> q_gen_9388
<nil>() -> q_gen_9388
<a>() -> q_gen_9389
<b>() -> q_gen_9389
<cons, cons>(q_gen_9383, q_gen_9380) -> q_gen_9380
<nil, cons>(q_gen_9389, q_gen_9388) -> q_gen_9380
<nil, nil>() -> q_gen_9380
<a, a>() -> q_gen_9383
<b, b>() -> q_gen_9383
}

Datatype: <eltlist, eltlist>
Convolution form: left
}}}

}
--
Equality automata are defined for: {eq_elt, eq_eltlist}
_|

Teacher's answer:
New clause system:
{
() -> append([nil, l2, l2]) -> 8  ;  () -> prefix([nil, y]) -> 10  ;  (append([l1, l2, _yaa])) -> prefix([l1, _yaa]) -> 10  ;  (append([t1, l2, _taa])) -> append([cons(h1, t1), l2, cons(h1, _taa)]) -> 13  ;  (prefix([zs, ys])) -> prefix([cons(y2, zs), cons(y2, ys)]) -> 9  ;  (prefix([cons(y2, zs), cons(y2, ys)])) -> prefix([zs, ys]) -> 9  ;  (prefix([cons(z, zs), cons(y2, ys)]) /\ not eq_elt([z, y2])) -> BOT -> 9  ;  (prefix([cons(z, zs), nil])) -> BOT -> 9
}
Sat witness: Yes: ((append([t1, l2, _taa])) -> append([cons(h1, t1), l2, cons(h1, _taa)]), {
_taa -> cons(b, nil)  ;  h1 -> b  ;  l2 -> nil  ;  t1 -> nil
})

-------------------------------------------
Step 12, which took 0.007452 s (model generation: 0.005254,  model checking: 0.002198):

Model:
|_
{
append -> 
{{{
Q={q_gen_9381, q_gen_9385, q_gen_9386, q_gen_9404, q_gen_9405, q_gen_9406},
Q_f={q_gen_9381},
Delta=
{
<nil>() -> q_gen_9404
<b>() -> q_gen_9405
<cons, cons>(q_gen_9386, q_gen_9385) -> q_gen_9385
<nil, cons>(q_gen_9405, q_gen_9404) -> q_gen_9385
<nil, nil>() -> q_gen_9385
<a, a>() -> q_gen_9386
<b, b>() -> q_gen_9386
<cons, cons, cons>(q_gen_9406, q_gen_9381) -> q_gen_9381
<cons, nil, cons>(q_gen_9386, q_gen_9385) -> q_gen_9381
<nil, cons, cons>(q_gen_9386, q_gen_9385) -> q_gen_9381
<nil, nil, cons>(q_gen_9405, q_gen_9404) -> q_gen_9381
<nil, nil, nil>() -> q_gen_9381
<b, b, b>() -> q_gen_9406
}

Datatype: <eltlist, eltlist, eltlist>
Convolution form: left
}}}
  ;  prefix -> 
{{{
Q={q_gen_9380, q_gen_9383, q_gen_9388, q_gen_9389},
Q_f={q_gen_9380},
Delta=
{
<cons>(q_gen_9389, q_gen_9388) -> q_gen_9388
<nil>() -> q_gen_9388
<a>() -> q_gen_9389
<b>() -> q_gen_9389
<cons, cons>(q_gen_9383, q_gen_9380) -> q_gen_9380
<nil, cons>(q_gen_9389, q_gen_9388) -> q_gen_9380
<nil, nil>() -> q_gen_9380
<a, a>() -> q_gen_9383
<b, b>() -> q_gen_9383
}

Datatype: <eltlist, eltlist>
Convolution form: left
}}}

}
--
Equality automata are defined for: {eq_elt, eq_eltlist}
_|

Teacher's answer:
New clause system:
{
() -> append([nil, l2, l2]) -> 9  ;  () -> prefix([nil, y]) -> 11  ;  (append([l1, l2, _yaa])) -> prefix([l1, _yaa]) -> 11  ;  (append([t1, l2, _taa])) -> append([cons(h1, t1), l2, cons(h1, _taa)]) -> 16  ;  (prefix([zs, ys])) -> prefix([cons(y2, zs), cons(y2, ys)]) -> 10  ;  (prefix([cons(y2, zs), cons(y2, ys)])) -> prefix([zs, ys]) -> 10  ;  (prefix([cons(z, zs), cons(y2, ys)]) /\ not eq_elt([z, y2])) -> BOT -> 10  ;  (prefix([cons(z, zs), nil])) -> BOT -> 10
}
Sat witness: Yes: ((append([t1, l2, _taa])) -> append([cons(h1, t1), l2, cons(h1, _taa)]), {
_taa -> cons(b, nil)  ;  h1 -> a  ;  l2 -> cons(b, nil)  ;  t1 -> nil
})

-------------------------------------------
Step 13, which took 0.007977 s (model generation: 0.005560,  model checking: 0.002417):

Model:
|_
{
append -> 
{{{
Q={q_gen_9381, q_gen_9385, q_gen_9386, q_gen_9404, q_gen_9405, q_gen_9406},
Q_f={q_gen_9381},
Delta=
{
<nil>() -> q_gen_9404
<b>() -> q_gen_9405
<cons, cons>(q_gen_9386, q_gen_9385) -> q_gen_9385
<nil, cons>(q_gen_9405, q_gen_9404) -> q_gen_9385
<nil, nil>() -> q_gen_9385
<a, a>() -> q_gen_9386
<b, b>() -> q_gen_9386
<cons, cons, cons>(q_gen_9406, q_gen_9381) -> q_gen_9381
<cons, nil, cons>(q_gen_9386, q_gen_9385) -> q_gen_9381
<nil, cons, cons>(q_gen_9386, q_gen_9385) -> q_gen_9381
<nil, nil, cons>(q_gen_9405, q_gen_9404) -> q_gen_9381
<nil, nil, nil>() -> q_gen_9381
<a, b, a>() -> q_gen_9406
<b, b, b>() -> q_gen_9406
}

Datatype: <eltlist, eltlist, eltlist>
Convolution form: left
}}}
  ;  prefix -> 
{{{
Q={q_gen_9380, q_gen_9383, q_gen_9388, q_gen_9389},
Q_f={q_gen_9380},
Delta=
{
<cons>(q_gen_9389, q_gen_9388) -> q_gen_9388
<nil>() -> q_gen_9388
<a>() -> q_gen_9389
<b>() -> q_gen_9389
<cons, cons>(q_gen_9383, q_gen_9380) -> q_gen_9380
<nil, cons>(q_gen_9389, q_gen_9388) -> q_gen_9380
<nil, nil>() -> q_gen_9380
<a, a>() -> q_gen_9383
<b, b>() -> q_gen_9383
}

Datatype: <eltlist, eltlist>
Convolution form: left
}}}

}
--
Equality automata are defined for: {eq_elt, eq_eltlist}
_|

Teacher's answer:
New clause system:
{
() -> append([nil, l2, l2]) -> 10  ;  () -> prefix([nil, y]) -> 12  ;  (append([l1, l2, _yaa])) -> prefix([l1, _yaa]) -> 12  ;  (append([t1, l2, _taa])) -> append([cons(h1, t1), l2, cons(h1, _taa)]) -> 19  ;  (prefix([zs, ys])) -> prefix([cons(y2, zs), cons(y2, ys)]) -> 11  ;  (prefix([cons(y2, zs), cons(y2, ys)])) -> prefix([zs, ys]) -> 11  ;  (prefix([cons(z, zs), cons(y2, ys)]) /\ not eq_elt([z, y2])) -> BOT -> 11  ;  (prefix([cons(z, zs), nil])) -> BOT -> 11
}
Sat witness: Yes: ((append([t1, l2, _taa])) -> append([cons(h1, t1), l2, cons(h1, _taa)]), {
_taa -> cons(a, nil)  ;  h1 -> b  ;  l2 -> cons(a, nil)  ;  t1 -> nil
})

-------------------------------------------
Step 14, which took 0.009058 s (model generation: 0.006704,  model checking: 0.002354):

Model:
|_
{
append -> 
{{{
Q={q_gen_9381, q_gen_9385, q_gen_9386, q_gen_9404, q_gen_9405, q_gen_9406},
Q_f={q_gen_9381},
Delta=
{
<nil>() -> q_gen_9404
<a>() -> q_gen_9405
<b>() -> q_gen_9405
<cons, cons>(q_gen_9386, q_gen_9385) -> q_gen_9385
<nil, cons>(q_gen_9405, q_gen_9404) -> q_gen_9385
<nil, nil>() -> q_gen_9385
<a, a>() -> q_gen_9386
<b, b>() -> q_gen_9386
<cons, cons, cons>(q_gen_9406, q_gen_9381) -> q_gen_9381
<cons, nil, cons>(q_gen_9386, q_gen_9385) -> q_gen_9381
<nil, cons, cons>(q_gen_9386, q_gen_9385) -> q_gen_9381
<nil, nil, cons>(q_gen_9405, q_gen_9404) -> q_gen_9381
<nil, nil, nil>() -> q_gen_9381
<a, b, a>() -> q_gen_9406
<b, a, b>() -> q_gen_9406
<b, b, b>() -> q_gen_9406
}

Datatype: <eltlist, eltlist, eltlist>
Convolution form: left
}}}
  ;  prefix -> 
{{{
Q={q_gen_9380, q_gen_9383, q_gen_9388, q_gen_9389},
Q_f={q_gen_9380},
Delta=
{
<cons>(q_gen_9389, q_gen_9388) -> q_gen_9388
<nil>() -> q_gen_9388
<a>() -> q_gen_9389
<b>() -> q_gen_9389
<cons, cons>(q_gen_9383, q_gen_9380) -> q_gen_9380
<nil, cons>(q_gen_9389, q_gen_9388) -> q_gen_9380
<nil, nil>() -> q_gen_9380
<a, a>() -> q_gen_9383
<b, b>() -> q_gen_9383
}

Datatype: <eltlist, eltlist>
Convolution form: left
}}}

}
--
Equality automata are defined for: {eq_elt, eq_eltlist}
_|

Teacher's answer:
New clause system:
{
() -> append([nil, l2, l2]) -> 11  ;  () -> prefix([nil, y]) -> 13  ;  (append([l1, l2, _yaa])) -> prefix([l1, _yaa]) -> 13  ;  (append([t1, l2, _taa])) -> append([cons(h1, t1), l2, cons(h1, _taa)]) -> 22  ;  (prefix([zs, ys])) -> prefix([cons(y2, zs), cons(y2, ys)]) -> 12  ;  (prefix([cons(y2, zs), cons(y2, ys)])) -> prefix([zs, ys]) -> 12  ;  (prefix([cons(z, zs), cons(y2, ys)]) /\ not eq_elt([z, y2])) -> BOT -> 12  ;  (prefix([cons(z, zs), nil])) -> BOT -> 12
}
Sat witness: Yes: ((append([t1, l2, _taa])) -> append([cons(h1, t1), l2, cons(h1, _taa)]), {
_taa -> cons(a, nil)  ;  h1 -> a  ;  l2 -> cons(a, nil)  ;  t1 -> nil
})

-------------------------------------------
Step 15, which took 0.010716 s (model generation: 0.007937,  model checking: 0.002779):

Model:
|_
{
append -> 
{{{
Q={q_gen_9381, q_gen_9385, q_gen_9386, q_gen_9404, q_gen_9405, q_gen_9406},
Q_f={q_gen_9381},
Delta=
{
<nil>() -> q_gen_9404
<a>() -> q_gen_9405
<b>() -> q_gen_9405
<cons, cons>(q_gen_9386, q_gen_9385) -> q_gen_9385
<nil, cons>(q_gen_9405, q_gen_9404) -> q_gen_9385
<nil, nil>() -> q_gen_9385
<a, a>() -> q_gen_9386
<b, b>() -> q_gen_9386
<cons, cons, cons>(q_gen_9406, q_gen_9381) -> q_gen_9381
<cons, nil, cons>(q_gen_9386, q_gen_9385) -> q_gen_9381
<nil, cons, cons>(q_gen_9386, q_gen_9385) -> q_gen_9381
<nil, nil, cons>(q_gen_9405, q_gen_9404) -> q_gen_9381
<nil, nil, nil>() -> q_gen_9381
<a, a, a>() -> q_gen_9406
<a, b, a>() -> q_gen_9406
<b, a, b>() -> q_gen_9406
<b, b, b>() -> q_gen_9406
}

Datatype: <eltlist, eltlist, eltlist>
Convolution form: left
}}}
  ;  prefix -> 
{{{
Q={q_gen_9380, q_gen_9383, q_gen_9388, q_gen_9389},
Q_f={q_gen_9380},
Delta=
{
<cons>(q_gen_9389, q_gen_9388) -> q_gen_9388
<nil>() -> q_gen_9388
<a>() -> q_gen_9389
<b>() -> q_gen_9389
<cons, cons>(q_gen_9383, q_gen_9380) -> q_gen_9380
<nil, cons>(q_gen_9389, q_gen_9388) -> q_gen_9380
<nil, nil>() -> q_gen_9380
<a, a>() -> q_gen_9383
<b, b>() -> q_gen_9383
}

Datatype: <eltlist, eltlist>
Convolution form: left
}}}

}
--
Equality automata are defined for: {eq_elt, eq_eltlist}
_|

Teacher's answer:
New clause system:
{
() -> append([nil, l2, l2]) -> 12  ;  () -> prefix([nil, y]) -> 14  ;  (append([l1, l2, _yaa])) -> prefix([l1, _yaa]) -> 14  ;  (append([t1, l2, _taa])) -> append([cons(h1, t1), l2, cons(h1, _taa)]) -> 25  ;  (prefix([zs, ys])) -> prefix([cons(y2, zs), cons(y2, ys)]) -> 13  ;  (prefix([cons(y2, zs), cons(y2, ys)])) -> prefix([zs, ys]) -> 13  ;  (prefix([cons(z, zs), cons(y2, ys)]) /\ not eq_elt([z, y2])) -> BOT -> 13  ;  (prefix([cons(z, zs), nil])) -> BOT -> 13
}
Sat witness: Yes: ((append([t1, l2, _taa])) -> append([cons(h1, t1), l2, cons(h1, _taa)]), {
_taa -> cons(b, cons(b, nil))  ;  h1 -> b  ;  l2 -> cons(b, nil)  ;  t1 -> nil
})

-------------------------------------------
Step 16, which took 0.013680 s (model generation: 0.008808,  model checking: 0.004872):

Model:
|_
{
append -> 
{{{
Q={q_gen_9381, q_gen_9385, q_gen_9386, q_gen_9404, q_gen_9405, q_gen_9406},
Q_f={q_gen_9381},
Delta=
{
<cons>(q_gen_9405, q_gen_9404) -> q_gen_9404
<nil>() -> q_gen_9404
<a>() -> q_gen_9405
<b>() -> q_gen_9405
<cons, cons>(q_gen_9386, q_gen_9385) -> q_gen_9385
<nil, cons>(q_gen_9405, q_gen_9404) -> q_gen_9385
<nil, nil>() -> q_gen_9385
<a, a>() -> q_gen_9386
<b, b>() -> q_gen_9386
<cons, cons, cons>(q_gen_9406, q_gen_9381) -> q_gen_9381
<cons, nil, cons>(q_gen_9386, q_gen_9385) -> q_gen_9381
<nil, cons, cons>(q_gen_9386, q_gen_9385) -> q_gen_9381
<nil, nil, cons>(q_gen_9405, q_gen_9404) -> q_gen_9381
<nil, nil, nil>() -> q_gen_9381
<a, a, a>() -> q_gen_9406
<a, b, a>() -> q_gen_9406
<b, a, b>() -> q_gen_9406
<b, b, b>() -> q_gen_9406
}

Datatype: <eltlist, eltlist, eltlist>
Convolution form: left
}}}
  ;  prefix -> 
{{{
Q={q_gen_9380, q_gen_9383, q_gen_9388, q_gen_9389},
Q_f={q_gen_9380},
Delta=
{
<cons>(q_gen_9389, q_gen_9388) -> q_gen_9388
<nil>() -> q_gen_9388
<a>() -> q_gen_9389
<b>() -> q_gen_9389
<cons, cons>(q_gen_9383, q_gen_9380) -> q_gen_9380
<nil, cons>(q_gen_9389, q_gen_9388) -> q_gen_9380
<nil, nil>() -> q_gen_9380
<a, a>() -> q_gen_9383
<b, b>() -> q_gen_9383
}

Datatype: <eltlist, eltlist>
Convolution form: left
}}}

}
--
Equality automata are defined for: {eq_elt, eq_eltlist}
_|

Teacher's answer:
New clause system:
{
() -> append([nil, l2, l2]) -> 13  ;  () -> prefix([nil, y]) -> 15  ;  (append([l1, l2, _yaa])) -> prefix([l1, _yaa]) -> 15  ;  (append([t1, l2, _taa])) -> append([cons(h1, t1), l2, cons(h1, _taa)]) -> 28  ;  (prefix([zs, ys])) -> prefix([cons(y2, zs), cons(y2, ys)]) -> 14  ;  (prefix([cons(y2, zs), cons(y2, ys)])) -> prefix([zs, ys]) -> 14  ;  (prefix([cons(z, zs), cons(y2, ys)]) /\ not eq_elt([z, y2])) -> BOT -> 14  ;  (prefix([cons(z, zs), nil])) -> BOT -> 14
}
Sat witness: Yes: ((append([t1, l2, _taa])) -> append([cons(h1, t1), l2, cons(h1, _taa)]), {
_taa -> cons(a, cons(b, nil))  ;  h1 -> b  ;  l2 -> cons(a, cons(b, nil))  ;  t1 -> nil
})

-------------------------------------------
Step 17, which took 0.011997 s (model generation: 0.010388,  model checking: 0.001609):

Model:
|_
{
append -> 
{{{
Q={q_gen_9381, q_gen_9385, q_gen_9386, q_gen_9404, q_gen_9405, q_gen_9406},
Q_f={q_gen_9381},
Delta=
{
<cons>(q_gen_9405, q_gen_9404) -> q_gen_9404
<nil>() -> q_gen_9404
<a>() -> q_gen_9405
<b>() -> q_gen_9405
<cons, cons>(q_gen_9386, q_gen_9385) -> q_gen_9385
<nil, cons>(q_gen_9405, q_gen_9404) -> q_gen_9385
<nil, nil>() -> q_gen_9385
<a, a>() -> q_gen_9386
<b, a>() -> q_gen_9386
<b, b>() -> q_gen_9386
<cons, cons, cons>(q_gen_9406, q_gen_9381) -> q_gen_9381
<cons, nil, cons>(q_gen_9386, q_gen_9385) -> q_gen_9381
<nil, cons, cons>(q_gen_9386, q_gen_9385) -> q_gen_9381
<nil, nil, cons>(q_gen_9405, q_gen_9404) -> q_gen_9381
<nil, nil, nil>() -> q_gen_9381
<a, a, a>() -> q_gen_9406
<a, b, a>() -> q_gen_9406
<b, a, b>() -> q_gen_9406
<b, b, b>() -> q_gen_9406
}

Datatype: <eltlist, eltlist, eltlist>
Convolution form: left
}}}
  ;  prefix -> 
{{{
Q={q_gen_9380, q_gen_9383, q_gen_9388, q_gen_9389},
Q_f={q_gen_9380},
Delta=
{
<cons>(q_gen_9389, q_gen_9388) -> q_gen_9388
<nil>() -> q_gen_9388
<a>() -> q_gen_9389
<b>() -> q_gen_9389
<cons, cons>(q_gen_9383, q_gen_9380) -> q_gen_9380
<nil, cons>(q_gen_9389, q_gen_9388) -> q_gen_9380
<nil, nil>() -> q_gen_9380
<a, a>() -> q_gen_9383
<b, b>() -> q_gen_9383
}

Datatype: <eltlist, eltlist>
Convolution form: left
}}}

}
--
Equality automata are defined for: {eq_elt, eq_eltlist}
_|

Teacher's answer:
New clause system:
{
() -> append([nil, l2, l2]) -> 14  ;  () -> prefix([nil, y]) -> 15  ;  (append([l1, l2, _yaa])) -> prefix([l1, _yaa]) -> 18  ;  (append([t1, l2, _taa])) -> append([cons(h1, t1), l2, cons(h1, _taa)]) -> 28  ;  (prefix([zs, ys])) -> prefix([cons(y2, zs), cons(y2, ys)]) -> 15  ;  (prefix([cons(y2, zs), cons(y2, ys)])) -> prefix([zs, ys]) -> 15  ;  (prefix([cons(z, zs), cons(y2, ys)]) /\ not eq_elt([z, y2])) -> BOT -> 15  ;  (prefix([cons(z, zs), nil])) -> BOT -> 15
}
Sat witness: Yes: ((append([l1, l2, _yaa])) -> prefix([l1, _yaa]), {
_yaa -> cons(a, nil)  ;  l1 -> cons(b, nil)  ;  l2 -> nil
})

-------------------------------------------
Step 18, which took 0.011304 s (model generation: 0.011069,  model checking: 0.000235):

Model:
|_
{
append -> 
{{{
Q={q_gen_9381, q_gen_9385, q_gen_9386, q_gen_9404, q_gen_9405, q_gen_9406},
Q_f={q_gen_9381},
Delta=
{
<cons>(q_gen_9405, q_gen_9404) -> q_gen_9404
<nil>() -> q_gen_9404
<a>() -> q_gen_9405
<b>() -> q_gen_9405
<cons, cons>(q_gen_9386, q_gen_9385) -> q_gen_9385
<nil, cons>(q_gen_9405, q_gen_9404) -> q_gen_9385
<nil, nil>() -> q_gen_9385
<a, a>() -> q_gen_9386
<b, a>() -> q_gen_9386
<b, b>() -> q_gen_9386
<cons, cons, cons>(q_gen_9406, q_gen_9381) -> q_gen_9381
<cons, nil, cons>(q_gen_9386, q_gen_9385) -> q_gen_9381
<nil, cons, cons>(q_gen_9386, q_gen_9385) -> q_gen_9381
<nil, nil, cons>(q_gen_9405, q_gen_9404) -> q_gen_9381
<nil, nil, nil>() -> q_gen_9381
<a, a, a>() -> q_gen_9406
<a, b, a>() -> q_gen_9406
<b, a, b>() -> q_gen_9406
<b, b, b>() -> q_gen_9406
}

Datatype: <eltlist, eltlist, eltlist>
Convolution form: left
}}}
  ;  prefix -> 
{{{
Q={q_gen_9380, q_gen_9383, q_gen_9388, q_gen_9389},
Q_f={q_gen_9380},
Delta=
{
<cons>(q_gen_9389, q_gen_9388) -> q_gen_9388
<nil>() -> q_gen_9388
<a>() -> q_gen_9389
<b>() -> q_gen_9389
<cons, cons>(q_gen_9383, q_gen_9380) -> q_gen_9380
<nil, cons>(q_gen_9389, q_gen_9388) -> q_gen_9380
<nil, nil>() -> q_gen_9380
<a, a>() -> q_gen_9383
<b, a>() -> q_gen_9383
<b, b>() -> q_gen_9383
}

Datatype: <eltlist, eltlist>
Convolution form: left
}}}

}
--
Equality automata are defined for: {eq_elt, eq_eltlist}
_|

Teacher's answer:
New clause system:
{
() -> append([nil, l2, l2]) -> 15  ;  () -> prefix([nil, y]) -> 15  ;  (append([l1, l2, _yaa])) -> prefix([l1, _yaa]) -> 18  ;  (append([t1, l2, _taa])) -> append([cons(h1, t1), l2, cons(h1, _taa)]) -> 28  ;  (prefix([zs, ys])) -> prefix([cons(y2, zs), cons(y2, ys)]) -> 15  ;  (prefix([cons(y2, zs), cons(y2, ys)])) -> prefix([zs, ys]) -> 15  ;  (prefix([cons(z, zs), cons(y2, ys)]) /\ not eq_elt([z, y2])) -> BOT -> 18  ;  (prefix([cons(z, zs), nil])) -> BOT -> 16
}
Sat witness: Yes: ((prefix([cons(z, zs), cons(y2, ys)]) /\ not eq_elt([z, y2])) -> BOT, {
y2 -> a  ;  ys -> nil  ;  z -> b  ;  zs -> nil
})

-------------------------------------------
Step 19, which took 0.014273 s (model generation: 0.011141,  model checking: 0.003132):

Model:
|_
{
append -> 
{{{
Q={q_gen_9381, q_gen_9385, q_gen_9386, q_gen_9403, q_gen_9404, q_gen_9405, q_gen_9406, q_gen_9425},
Q_f={q_gen_9381},
Delta=
{
<cons>(q_gen_9405, q_gen_9404) -> q_gen_9404
<nil>() -> q_gen_9404
<a>() -> q_gen_9405
<b>() -> q_gen_9405
<cons, cons>(q_gen_9386, q_gen_9385) -> q_gen_9385
<nil, cons>(q_gen_9405, q_gen_9404) -> q_gen_9385
<nil, nil>() -> q_gen_9385
<a, a>() -> q_gen_9386
<b, b>() -> q_gen_9386
<b, a>() -> q_gen_9425
<cons, cons, cons>(q_gen_9406, q_gen_9403) -> q_gen_9381
<cons, nil, cons>(q_gen_9386, q_gen_9385) -> q_gen_9381
<nil, cons, cons>(q_gen_9386, q_gen_9385) -> q_gen_9381
<nil, nil, nil>() -> q_gen_9381
<cons, nil, cons>(q_gen_9425, q_gen_9385) -> q_gen_9403
<nil, cons, cons>(q_gen_9425, q_gen_9385) -> q_gen_9403
<nil, nil, cons>(q_gen_9405, q_gen_9404) -> q_gen_9403
<a, a, a>() -> q_gen_9406
<a, b, a>() -> q_gen_9406
<b, a, b>() -> q_gen_9406
<b, b, b>() -> q_gen_9406
}

Datatype: <eltlist, eltlist, eltlist>
Convolution form: left
}}}
  ;  prefix -> 
{{{
Q={q_gen_9380, q_gen_9383, q_gen_9388, q_gen_9389, q_gen_9427, q_gen_9428},
Q_f={q_gen_9380},
Delta=
{
<cons>(q_gen_9389, q_gen_9388) -> q_gen_9388
<nil>() -> q_gen_9388
<a>() -> q_gen_9389
<b>() -> q_gen_9389
<cons, cons>(q_gen_9383, q_gen_9380) -> q_gen_9380
<nil, cons>(q_gen_9389, q_gen_9388) -> q_gen_9380
<nil, nil>() -> q_gen_9380
<a, a>() -> q_gen_9383
<b, b>() -> q_gen_9383
<cons, cons>(q_gen_9428, q_gen_9380) -> q_gen_9427
<b, a>() -> q_gen_9428
}

Datatype: <eltlist, eltlist>
Convolution form: left
}}}

}
--
Equality automata are defined for: {eq_elt, eq_eltlist}
_|

Teacher's answer:
New clause system:
{
() -> append([nil, l2, l2]) -> 16  ;  () -> prefix([nil, y]) -> 16  ;  (append([l1, l2, _yaa])) -> prefix([l1, _yaa]) -> 21  ;  (append([t1, l2, _taa])) -> append([cons(h1, t1), l2, cons(h1, _taa)]) -> 28  ;  (prefix([zs, ys])) -> prefix([cons(y2, zs), cons(y2, ys)]) -> 16  ;  (prefix([cons(y2, zs), cons(y2, ys)])) -> prefix([zs, ys]) -> 16  ;  (prefix([cons(z, zs), cons(y2, ys)]) /\ not eq_elt([z, y2])) -> BOT -> 19  ;  (prefix([cons(z, zs), nil])) -> BOT -> 17
}
Sat witness: Yes: ((append([l1, l2, _yaa])) -> prefix([l1, _yaa]), {
_yaa -> cons(b, cons(a, nil))  ;  l1 -> cons(b, cons(b, nil))  ;  l2 -> cons(b, nil)
})

-------------------------------------------
Step 20, which took 0.026837 s (model generation: 0.011854,  model checking: 0.014983):

Model:
|_
{
append -> 
{{{
Q={q_gen_9381, q_gen_9385, q_gen_9386, q_gen_9404, q_gen_9405, q_gen_9406, q_gen_9425, q_gen_9426},
Q_f={q_gen_9381},
Delta=
{
<cons>(q_gen_9405, q_gen_9404) -> q_gen_9404
<nil>() -> q_gen_9404
<a>() -> q_gen_9405
<b>() -> q_gen_9405
<cons, cons>(q_gen_9386, q_gen_9385) -> q_gen_9385
<nil, cons>(q_gen_9405, q_gen_9404) -> q_gen_9385
<nil, nil>() -> q_gen_9385
<a, a>() -> q_gen_9386
<b, b>() -> q_gen_9386
<b, a>() -> q_gen_9425
<cons, cons, cons>(q_gen_9406, q_gen_9381) -> q_gen_9381
<cons, nil, cons>(q_gen_9386, q_gen_9385) -> q_gen_9381
<nil, cons, cons>(q_gen_9386, q_gen_9385) -> q_gen_9381
<nil, cons, cons>(q_gen_9425, q_gen_9385) -> q_gen_9381
<nil, nil, cons>(q_gen_9405, q_gen_9404) -> q_gen_9381
<nil, nil, nil>() -> q_gen_9381
<a, a, a>() -> q_gen_9406
<a, b, a>() -> q_gen_9406
<b, a, b>() -> q_gen_9406
<b, b, b>() -> q_gen_9406
<cons, cons, cons>(q_gen_9406, q_gen_9426) -> q_gen_9426
<cons, nil, cons>(q_gen_9425, q_gen_9385) -> q_gen_9426
}

Datatype: <eltlist, eltlist, eltlist>
Convolution form: left
}}}
  ;  prefix -> 
{{{
Q={q_gen_9380, q_gen_9383, q_gen_9388, q_gen_9389, q_gen_9427, q_gen_9428},
Q_f={q_gen_9380},
Delta=
{
<cons>(q_gen_9389, q_gen_9388) -> q_gen_9388
<nil>() -> q_gen_9388
<a>() -> q_gen_9389
<b>() -> q_gen_9389
<cons, cons>(q_gen_9383, q_gen_9380) -> q_gen_9380
<nil, cons>(q_gen_9389, q_gen_9388) -> q_gen_9380
<nil, nil>() -> q_gen_9380
<a, a>() -> q_gen_9383
<b, b>() -> q_gen_9383
<cons, cons>(q_gen_9383, q_gen_9427) -> q_gen_9427
<cons, cons>(q_gen_9428, q_gen_9380) -> q_gen_9427
<b, a>() -> q_gen_9428
}

Datatype: <eltlist, eltlist>
Convolution form: left
}}}

}
--
Equality automata are defined for: {eq_elt, eq_eltlist}
_|

Teacher's answer:
New clause system:
{
() -> append([nil, l2, l2]) -> 17  ;  () -> prefix([nil, y]) -> 17  ;  (append([l1, l2, _yaa])) -> prefix([l1, _yaa]) -> 22  ;  (append([t1, l2, _taa])) -> append([cons(h1, t1), l2, cons(h1, _taa)]) -> 31  ;  (prefix([zs, ys])) -> prefix([cons(y2, zs), cons(y2, ys)]) -> 17  ;  (prefix([cons(y2, zs), cons(y2, ys)])) -> prefix([zs, ys]) -> 17  ;  (prefix([cons(z, zs), cons(y2, ys)]) /\ not eq_elt([z, y2])) -> BOT -> 20  ;  (prefix([cons(z, zs), nil])) -> BOT -> 18
}
Sat witness: Yes: ((append([t1, l2, _taa])) -> append([cons(h1, t1), l2, cons(h1, _taa)]), {
_taa -> cons(b, cons(a, nil))  ;  h1 -> b  ;  l2 -> cons(b, cons(a, nil))  ;  t1 -> nil
})

-------------------------------------------
Step 21, which took 0.015057 s (model generation: 0.014836,  model checking: 0.000221):

Model:
|_
{
append -> 
{{{
Q={q_gen_9381, q_gen_9385, q_gen_9386, q_gen_9404, q_gen_9405, q_gen_9406, q_gen_9425, q_gen_9426},
Q_f={q_gen_9381},
Delta=
{
<cons>(q_gen_9405, q_gen_9404) -> q_gen_9404
<nil>() -> q_gen_9404
<a>() -> q_gen_9405
<b>() -> q_gen_9405
<cons, cons>(q_gen_9386, q_gen_9385) -> q_gen_9385
<nil, cons>(q_gen_9405, q_gen_9404) -> q_gen_9385
<nil, nil>() -> q_gen_9385
<a, a>() -> q_gen_9386
<a, b>() -> q_gen_9386
<b, b>() -> q_gen_9386
<b, a>() -> q_gen_9425
<cons, cons, cons>(q_gen_9406, q_gen_9381) -> q_gen_9381
<cons, cons, cons>(q_gen_9406, q_gen_9426) -> q_gen_9381
<cons, nil, cons>(q_gen_9386, q_gen_9385) -> q_gen_9381
<nil, cons, cons>(q_gen_9386, q_gen_9385) -> q_gen_9381
<nil, cons, cons>(q_gen_9425, q_gen_9385) -> q_gen_9381
<nil, nil, cons>(q_gen_9405, q_gen_9404) -> q_gen_9381
<nil, nil, nil>() -> q_gen_9381
<a, a, a>() -> q_gen_9406
<a, b, a>() -> q_gen_9406
<b, a, b>() -> q_gen_9406
<b, b, b>() -> q_gen_9406
<cons, nil, cons>(q_gen_9425, q_gen_9385) -> q_gen_9426
}

Datatype: <eltlist, eltlist, eltlist>
Convolution form: left
}}}
  ;  prefix -> 
{{{
Q={q_gen_9380, q_gen_9383, q_gen_9388, q_gen_9389, q_gen_9427, q_gen_9428},
Q_f={q_gen_9380},
Delta=
{
<cons>(q_gen_9389, q_gen_9388) -> q_gen_9388
<nil>() -> q_gen_9388
<a>() -> q_gen_9389
<b>() -> q_gen_9389
<cons, cons>(q_gen_9383, q_gen_9380) -> q_gen_9380
<cons, cons>(q_gen_9383, q_gen_9427) -> q_gen_9380
<nil, cons>(q_gen_9389, q_gen_9388) -> q_gen_9380
<nil, nil>() -> q_gen_9380
<a, a>() -> q_gen_9383
<b, b>() -> q_gen_9383
<cons, cons>(q_gen_9428, q_gen_9380) -> q_gen_9427
<b, a>() -> q_gen_9428
}

Datatype: <eltlist, eltlist>
Convolution form: left
}}}

}
--
Equality automata are defined for: {eq_elt, eq_eltlist}
_|

Teacher's answer:
New clause system:
{
() -> append([nil, l2, l2]) -> 17  ;  () -> prefix([nil, y]) -> 17  ;  (append([l1, l2, _yaa])) -> prefix([l1, _yaa]) -> 22  ;  (append([t1, l2, _taa])) -> append([cons(h1, t1), l2, cons(h1, _taa)]) -> 31  ;  (prefix([zs, ys])) -> prefix([cons(y2, zs), cons(y2, ys)]) -> 17  ;  (prefix([cons(y2, zs), cons(y2, ys)])) -> prefix([zs, ys]) -> 20  ;  (prefix([cons(z, zs), cons(y2, ys)]) /\ not eq_elt([z, y2])) -> BOT -> 20  ;  (prefix([cons(z, zs), nil])) -> BOT -> 18
}
Sat witness: Yes: ((prefix([cons(y2, zs), cons(y2, ys)])) -> prefix([zs, ys]), {
y2 -> b  ;  ys -> cons(a, nil)  ;  zs -> cons(b, nil)
})

-------------------------------------------
Step 22, which took 0.028990 s (model generation: 0.014734,  model checking: 0.014256):

Model:
|_
{
append -> 
{{{
Q={q_gen_9381, q_gen_9385, q_gen_9386, q_gen_9404, q_gen_9405, q_gen_9406, q_gen_9425, q_gen_9426},
Q_f={q_gen_9381},
Delta=
{
<cons>(q_gen_9405, q_gen_9404) -> q_gen_9404
<nil>() -> q_gen_9404
<a>() -> q_gen_9405
<b>() -> q_gen_9405
<cons, cons>(q_gen_9386, q_gen_9385) -> q_gen_9385
<nil, cons>(q_gen_9405, q_gen_9404) -> q_gen_9385
<nil, nil>() -> q_gen_9385
<a, a>() -> q_gen_9386
<b, b>() -> q_gen_9386
<a, b>() -> q_gen_9425
<b, a>() -> q_gen_9425
<cons, cons, cons>(q_gen_9406, q_gen_9381) -> q_gen_9381
<cons, nil, cons>(q_gen_9386, q_gen_9385) -> q_gen_9381
<nil, cons, cons>(q_gen_9386, q_gen_9385) -> q_gen_9381
<nil, cons, cons>(q_gen_9425, q_gen_9385) -> q_gen_9381
<nil, nil, cons>(q_gen_9405, q_gen_9404) -> q_gen_9381
<nil, nil, nil>() -> q_gen_9381
<a, a, a>() -> q_gen_9406
<a, b, a>() -> q_gen_9406
<b, a, b>() -> q_gen_9406
<b, b, b>() -> q_gen_9406
<cons, cons, cons>(q_gen_9406, q_gen_9426) -> q_gen_9426
<cons, nil, cons>(q_gen_9425, q_gen_9385) -> q_gen_9426
}

Datatype: <eltlist, eltlist, eltlist>
Convolution form: left
}}}
  ;  prefix -> 
{{{
Q={q_gen_9380, q_gen_9383, q_gen_9388, q_gen_9389, q_gen_9427, q_gen_9428},
Q_f={q_gen_9380},
Delta=
{
<cons>(q_gen_9389, q_gen_9388) -> q_gen_9388
<nil>() -> q_gen_9388
<a>() -> q_gen_9389
<b>() -> q_gen_9389
<cons, cons>(q_gen_9383, q_gen_9380) -> q_gen_9380
<nil, cons>(q_gen_9389, q_gen_9388) -> q_gen_9380
<nil, nil>() -> q_gen_9380
<a, a>() -> q_gen_9383
<b, b>() -> q_gen_9383
<cons, cons>(q_gen_9383, q_gen_9427) -> q_gen_9427
<cons, cons>(q_gen_9428, q_gen_9380) -> q_gen_9427
<b, a>() -> q_gen_9428
}

Datatype: <eltlist, eltlist>
Convolution form: left
}}}

}
--
Equality automata are defined for: {eq_elt, eq_eltlist}
_|

Teacher's answer:
New clause system:
{
() -> append([nil, l2, l2]) -> 18  ;  () -> prefix([nil, y]) -> 18  ;  (append([l1, l2, _yaa])) -> prefix([l1, _yaa]) -> 23  ;  (append([t1, l2, _taa])) -> append([cons(h1, t1), l2, cons(h1, _taa)]) -> 34  ;  (prefix([zs, ys])) -> prefix([cons(y2, zs), cons(y2, ys)]) -> 18  ;  (prefix([cons(y2, zs), cons(y2, ys)])) -> prefix([zs, ys]) -> 21  ;  (prefix([cons(z, zs), cons(y2, ys)]) /\ not eq_elt([z, y2])) -> BOT -> 21  ;  (prefix([cons(z, zs), nil])) -> BOT -> 19
}
Sat witness: Yes: ((append([t1, l2, _taa])) -> append([cons(h1, t1), l2, cons(h1, _taa)]), {
_taa -> cons(a, cons(a, cons(b, cons(a, nil))))  ;  h1 -> b  ;  l2 -> cons(b, cons(a, cons(b, cons(a, nil))))  ;  t1 -> nil
})

-------------------------------------------
Step 23, which took 0.023234 s (model generation: 0.020106,  model checking: 0.003128):

Model:
|_
{
append -> 
{{{
Q={q_gen_9381, q_gen_9385, q_gen_9386, q_gen_9404, q_gen_9405, q_gen_9406, q_gen_9425, q_gen_9426},
Q_f={q_gen_9381},
Delta=
{
<cons>(q_gen_9405, q_gen_9404) -> q_gen_9404
<nil>() -> q_gen_9404
<a>() -> q_gen_9405
<b>() -> q_gen_9405
<cons, cons>(q_gen_9386, q_gen_9385) -> q_gen_9385
<cons, cons>(q_gen_9425, q_gen_9385) -> q_gen_9385
<nil, cons>(q_gen_9405, q_gen_9404) -> q_gen_9385
<nil, nil>() -> q_gen_9385
<a, a>() -> q_gen_9386
<b, b>() -> q_gen_9386
<a, b>() -> q_gen_9425
<b, a>() -> q_gen_9425
<cons, cons, cons>(q_gen_9406, q_gen_9381) -> q_gen_9381
<cons, nil, cons>(q_gen_9386, q_gen_9385) -> q_gen_9381
<nil, cons, cons>(q_gen_9386, q_gen_9385) -> q_gen_9381
<nil, cons, cons>(q_gen_9425, q_gen_9385) -> q_gen_9381
<nil, nil, cons>(q_gen_9405, q_gen_9404) -> q_gen_9381
<nil, nil, nil>() -> q_gen_9381
<a, a, a>() -> q_gen_9406
<a, b, a>() -> q_gen_9406
<b, a, b>() -> q_gen_9406
<b, b, b>() -> q_gen_9406
<cons, cons, cons>(q_gen_9406, q_gen_9426) -> q_gen_9426
<cons, nil, cons>(q_gen_9425, q_gen_9385) -> q_gen_9426
}

Datatype: <eltlist, eltlist, eltlist>
Convolution form: left
}}}
  ;  prefix -> 
{{{
Q={q_gen_9380, q_gen_9383, q_gen_9388, q_gen_9389, q_gen_9427, q_gen_9428},
Q_f={q_gen_9380},
Delta=
{
<cons>(q_gen_9389, q_gen_9388) -> q_gen_9388
<nil>() -> q_gen_9388
<a>() -> q_gen_9389
<b>() -> q_gen_9389
<cons, cons>(q_gen_9383, q_gen_9380) -> q_gen_9380
<nil, cons>(q_gen_9389, q_gen_9388) -> q_gen_9380
<nil, nil>() -> q_gen_9380
<a, a>() -> q_gen_9383
<b, b>() -> q_gen_9383
<cons, cons>(q_gen_9383, q_gen_9427) -> q_gen_9427
<cons, cons>(q_gen_9428, q_gen_9380) -> q_gen_9427
<b, a>() -> q_gen_9428
}

Datatype: <eltlist, eltlist>
Convolution form: left
}}}

}
--
Equality automata are defined for: {eq_elt, eq_eltlist}
_|

Teacher's answer:
New clause system:
{
() -> append([nil, l2, l2]) -> 19  ;  () -> prefix([nil, y]) -> 19  ;  (append([l1, l2, _yaa])) -> prefix([l1, _yaa]) -> 26  ;  (append([t1, l2, _taa])) -> append([cons(h1, t1), l2, cons(h1, _taa)]) -> 34  ;  (prefix([zs, ys])) -> prefix([cons(y2, zs), cons(y2, ys)]) -> 19  ;  (prefix([cons(y2, zs), cons(y2, ys)])) -> prefix([zs, ys]) -> 22  ;  (prefix([cons(z, zs), cons(y2, ys)]) /\ not eq_elt([z, y2])) -> BOT -> 22  ;  (prefix([cons(z, zs), nil])) -> BOT -> 20
}
Sat witness: Yes: ((append([l1, l2, _yaa])) -> prefix([l1, _yaa]), {
_yaa -> cons(b, cons(a, nil))  ;  l1 -> cons(b, cons(b, nil))  ;  l2 -> nil
})

-------------------------------------------
Step 24, which took 0.025781 s (model generation: 0.024027,  model checking: 0.001754):

Model:
|_
{
append -> 
{{{
Q={q_gen_9381, q_gen_9385, q_gen_9386, q_gen_9391, q_gen_9392, q_gen_9396, q_gen_9404, q_gen_9405, q_gen_9406},
Q_f={q_gen_9381},
Delta=
{
<cons>(q_gen_9405, q_gen_9404) -> q_gen_9404
<nil>() -> q_gen_9404
<a>() -> q_gen_9405
<b>() -> q_gen_9405
<cons, cons>(q_gen_9386, q_gen_9385) -> q_gen_9385
<nil, cons>(q_gen_9405, q_gen_9404) -> q_gen_9385
<nil, nil>() -> q_gen_9385
<a, b>() -> q_gen_9386
<b, b>() -> q_gen_9386
<a, a>() -> q_gen_9391
<b, a>() -> q_gen_9391
<cons, cons>(q_gen_9386, q_gen_9396) -> q_gen_9396
<cons, cons>(q_gen_9391, q_gen_9385) -> q_gen_9396
<cons, cons>(q_gen_9391, q_gen_9396) -> q_gen_9396
<cons, cons, cons>(q_gen_9406, q_gen_9381) -> q_gen_9381
<cons, nil, cons>(q_gen_9386, q_gen_9385) -> q_gen_9381
<nil, cons, cons>(q_gen_9391, q_gen_9385) -> q_gen_9381
<nil, nil, cons>(q_gen_9405, q_gen_9404) -> q_gen_9381
<nil, nil, nil>() -> q_gen_9381
<cons, cons, cons>(q_gen_9406, q_gen_9392) -> q_gen_9392
<cons, nil, cons>(q_gen_9386, q_gen_9396) -> q_gen_9392
<cons, nil, cons>(q_gen_9391, q_gen_9385) -> q_gen_9392
<nil, cons, cons>(q_gen_9386, q_gen_9385) -> q_gen_9392
<nil, cons, cons>(q_gen_9386, q_gen_9396) -> q_gen_9392
<nil, cons, cons>(q_gen_9391, q_gen_9396) -> q_gen_9392
<a, a, a>() -> q_gen_9406
<a, b, a>() -> q_gen_9406
<b, a, b>() -> q_gen_9406
<b, b, b>() -> q_gen_9406
}

Datatype: <eltlist, eltlist, eltlist>
Convolution form: left
}}}
  ;  prefix -> 
{{{
Q={q_gen_9380, q_gen_9383, q_gen_9388, q_gen_9389, q_gen_9427, q_gen_9428},
Q_f={q_gen_9380},
Delta=
{
<cons>(q_gen_9389, q_gen_9388) -> q_gen_9388
<nil>() -> q_gen_9388
<a>() -> q_gen_9389
<b>() -> q_gen_9389
<cons, cons>(q_gen_9383, q_gen_9380) -> q_gen_9380
<nil, cons>(q_gen_9389, q_gen_9388) -> q_gen_9380
<nil, nil>() -> q_gen_9380
<a, a>() -> q_gen_9383
<b, b>() -> q_gen_9383
<cons, cons>(q_gen_9383, q_gen_9427) -> q_gen_9427
<cons, cons>(q_gen_9428, q_gen_9380) -> q_gen_9427
<b, a>() -> q_gen_9428
}

Datatype: <eltlist, eltlist>
Convolution form: left
}}}

}
--
Equality automata are defined for: {eq_elt, eq_eltlist}
_|

Teacher's answer:
New clause system:
{
() -> append([nil, l2, l2]) -> 22  ;  () -> prefix([nil, y]) -> 20  ;  (append([l1, l2, _yaa])) -> prefix([l1, _yaa]) -> 26  ;  (append([t1, l2, _taa])) -> append([cons(h1, t1), l2, cons(h1, _taa)]) -> 34  ;  (prefix([zs, ys])) -> prefix([cons(y2, zs), cons(y2, ys)]) -> 20  ;  (prefix([cons(y2, zs), cons(y2, ys)])) -> prefix([zs, ys]) -> 22  ;  (prefix([cons(z, zs), cons(y2, ys)]) /\ not eq_elt([z, y2])) -> BOT -> 22  ;  (prefix([cons(z, zs), nil])) -> BOT -> 20
}
Sat witness: Yes: (() -> append([nil, l2, l2]), {
l2 -> cons(b, nil)
})

-------------------------------------------
Step 25, which took 0.027595 s (model generation: 0.024735,  model checking: 0.002860):

Model:
|_
{
append -> 
{{{
Q={q_gen_9381, q_gen_9385, q_gen_9386, q_gen_9391, q_gen_9392, q_gen_9396, q_gen_9404, q_gen_9405, q_gen_9406},
Q_f={q_gen_9381},
Delta=
{
<cons>(q_gen_9405, q_gen_9404) -> q_gen_9404
<nil>() -> q_gen_9404
<a>() -> q_gen_9405
<b>() -> q_gen_9405
<cons, cons>(q_gen_9386, q_gen_9396) -> q_gen_9385
<nil, cons>(q_gen_9405, q_gen_9404) -> q_gen_9385
<nil, nil>() -> q_gen_9385
<a, b>() -> q_gen_9386
<b, b>() -> q_gen_9386
<a, a>() -> q_gen_9391
<b, a>() -> q_gen_9391
<cons, cons>(q_gen_9386, q_gen_9385) -> q_gen_9396
<cons, cons>(q_gen_9391, q_gen_9385) -> q_gen_9396
<cons, cons>(q_gen_9391, q_gen_9396) -> q_gen_9396
<cons, cons, cons>(q_gen_9406, q_gen_9381) -> q_gen_9381
<cons, nil, cons>(q_gen_9386, q_gen_9385) -> q_gen_9381
<nil, cons, cons>(q_gen_9386, q_gen_9385) -> q_gen_9381
<nil, cons, cons>(q_gen_9391, q_gen_9385) -> q_gen_9381
<nil, nil, cons>(q_gen_9405, q_gen_9404) -> q_gen_9381
<nil, nil, nil>() -> q_gen_9381
<cons, cons, cons>(q_gen_9406, q_gen_9392) -> q_gen_9392
<cons, nil, cons>(q_gen_9386, q_gen_9396) -> q_gen_9392
<cons, nil, cons>(q_gen_9391, q_gen_9385) -> q_gen_9392
<nil, cons, cons>(q_gen_9386, q_gen_9396) -> q_gen_9392
<nil, cons, cons>(q_gen_9391, q_gen_9396) -> q_gen_9392
<a, a, a>() -> q_gen_9406
<a, b, a>() -> q_gen_9406
<b, a, b>() -> q_gen_9406
<b, b, b>() -> q_gen_9406
}

Datatype: <eltlist, eltlist, eltlist>
Convolution form: left
}}}
  ;  prefix -> 
{{{
Q={q_gen_9380, q_gen_9383, q_gen_9388, q_gen_9389, q_gen_9427, q_gen_9428},
Q_f={q_gen_9380},
Delta=
{
<cons>(q_gen_9389, q_gen_9388) -> q_gen_9388
<nil>() -> q_gen_9388
<a>() -> q_gen_9389
<b>() -> q_gen_9389
<cons, cons>(q_gen_9383, q_gen_9380) -> q_gen_9380
<nil, cons>(q_gen_9389, q_gen_9388) -> q_gen_9380
<nil, nil>() -> q_gen_9380
<a, a>() -> q_gen_9383
<b, b>() -> q_gen_9383
<cons, cons>(q_gen_9383, q_gen_9427) -> q_gen_9427
<cons, cons>(q_gen_9428, q_gen_9380) -> q_gen_9427
<b, a>() -> q_gen_9428
}

Datatype: <eltlist, eltlist>
Convolution form: left
}}}

}
--
Equality automata are defined for: {eq_elt, eq_eltlist}
_|

Teacher's answer:
New clause system:
{
() -> append([nil, l2, l2]) -> 25  ;  () -> prefix([nil, y]) -> 21  ;  (append([l1, l2, _yaa])) -> prefix([l1, _yaa]) -> 26  ;  (append([t1, l2, _taa])) -> append([cons(h1, t1), l2, cons(h1, _taa)]) -> 34  ;  (prefix([zs, ys])) -> prefix([cons(y2, zs), cons(y2, ys)]) -> 21  ;  (prefix([cons(y2, zs), cons(y2, ys)])) -> prefix([zs, ys]) -> 23  ;  (prefix([cons(z, zs), cons(y2, ys)]) /\ not eq_elt([z, y2])) -> BOT -> 23  ;  (prefix([cons(z, zs), nil])) -> BOT -> 21
}
Sat witness: Yes: (() -> append([nil, l2, l2]), {
l2 -> cons(a, cons(a, nil))
})

-------------------------------------------
Step 26, which took 0.026479 s (model generation: 0.023232,  model checking: 0.003247):

Model:
|_
{
append -> 
{{{
Q={q_gen_9381, q_gen_9385, q_gen_9386, q_gen_9404, q_gen_9405, q_gen_9406, q_gen_9425, q_gen_9426, q_gen_9442},
Q_f={q_gen_9381},
Delta=
{
<cons>(q_gen_9405, q_gen_9404) -> q_gen_9404
<nil>() -> q_gen_9404
<a>() -> q_gen_9405
<b>() -> q_gen_9405
<cons, cons>(q_gen_9386, q_gen_9385) -> q_gen_9385
<cons, cons>(q_gen_9425, q_gen_9442) -> q_gen_9385
<nil, cons>(q_gen_9405, q_gen_9404) -> q_gen_9385
<nil, nil>() -> q_gen_9385
<a, a>() -> q_gen_9386
<b, b>() -> q_gen_9386
<a, b>() -> q_gen_9425
<b, a>() -> q_gen_9425
<cons, cons>(q_gen_9425, q_gen_9385) -> q_gen_9442
<cons, cons, cons>(q_gen_9406, q_gen_9381) -> q_gen_9381
<cons, nil, cons>(q_gen_9386, q_gen_9385) -> q_gen_9381
<nil, cons, cons>(q_gen_9386, q_gen_9385) -> q_gen_9381
<nil, cons, cons>(q_gen_9425, q_gen_9385) -> q_gen_9381
<nil, nil, cons>(q_gen_9405, q_gen_9404) -> q_gen_9381
<nil, nil, nil>() -> q_gen_9381
<a, a, a>() -> q_gen_9406
<a, b, a>() -> q_gen_9406
<b, a, b>() -> q_gen_9406
<b, b, b>() -> q_gen_9406
<cons, cons, cons>(q_gen_9406, q_gen_9426) -> q_gen_9426
<cons, nil, cons>(q_gen_9386, q_gen_9442) -> q_gen_9426
<cons, nil, cons>(q_gen_9425, q_gen_9385) -> q_gen_9426
}

Datatype: <eltlist, eltlist, eltlist>
Convolution form: left
}}}
  ;  prefix -> 
{{{
Q={q_gen_9380, q_gen_9383, q_gen_9388, q_gen_9389, q_gen_9427, q_gen_9428},
Q_f={q_gen_9380},
Delta=
{
<cons>(q_gen_9389, q_gen_9388) -> q_gen_9388
<nil>() -> q_gen_9388
<a>() -> q_gen_9389
<b>() -> q_gen_9389
<cons, cons>(q_gen_9383, q_gen_9380) -> q_gen_9380
<nil, cons>(q_gen_9389, q_gen_9388) -> q_gen_9380
<nil, nil>() -> q_gen_9380
<a, a>() -> q_gen_9383
<b, b>() -> q_gen_9383
<cons, cons>(q_gen_9383, q_gen_9427) -> q_gen_9427
<cons, cons>(q_gen_9428, q_gen_9380) -> q_gen_9427
<b, a>() -> q_gen_9428
}

Datatype: <eltlist, eltlist>
Convolution form: left
}}}

}
--
Equality automata are defined for: {eq_elt, eq_eltlist}
_|

Teacher's answer:
New clause system:
{
() -> append([nil, l2, l2]) -> 26  ;  () -> prefix([nil, y]) -> 22  ;  (append([l1, l2, _yaa])) -> prefix([l1, _yaa]) -> 29  ;  (append([t1, l2, _taa])) -> append([cons(h1, t1), l2, cons(h1, _taa)]) -> 34  ;  (prefix([zs, ys])) -> prefix([cons(y2, zs), cons(y2, ys)]) -> 22  ;  (prefix([cons(y2, zs), cons(y2, ys)])) -> prefix([zs, ys]) -> 24  ;  (prefix([cons(z, zs), cons(y2, ys)]) /\ not eq_elt([z, y2])) -> BOT -> 24  ;  (prefix([cons(z, zs), nil])) -> BOT -> 22
}
Sat witness: Yes: ((append([l1, l2, _yaa])) -> prefix([l1, _yaa]), {
_yaa -> cons(b, cons(a, cons(a, nil)))  ;  l1 -> cons(b, cons(b, cons(b, nil)))  ;  l2 -> nil
})

-------------------------------------------
Step 27, which took 0.030313 s (model generation: 0.023440,  model checking: 0.006873):

Model:
|_
{
append -> 
{{{
Q={q_gen_9381, q_gen_9385, q_gen_9386, q_gen_9404, q_gen_9405, q_gen_9406, q_gen_9425, q_gen_9426, q_gen_9441},
Q_f={q_gen_9381},
Delta=
{
<cons>(q_gen_9405, q_gen_9404) -> q_gen_9404
<nil>() -> q_gen_9404
<a>() -> q_gen_9405
<b>() -> q_gen_9405
<cons, cons>(q_gen_9386, q_gen_9385) -> q_gen_9385
<nil, cons>(q_gen_9405, q_gen_9404) -> q_gen_9385
<nil, nil>() -> q_gen_9385
<a, a>() -> q_gen_9386
<a, b>() -> q_gen_9386
<b, b>() -> q_gen_9386
<b, a>() -> q_gen_9425
<cons, cons>(q_gen_9425, q_gen_9385) -> q_gen_9441
<cons, cons>(q_gen_9425, q_gen_9441) -> q_gen_9441
<cons, cons, cons>(q_gen_9406, q_gen_9381) -> q_gen_9381
<cons, nil, cons>(q_gen_9386, q_gen_9385) -> q_gen_9381
<nil, cons, cons>(q_gen_9386, q_gen_9385) -> q_gen_9381
<nil, cons, cons>(q_gen_9386, q_gen_9441) -> q_gen_9381
<nil, cons, cons>(q_gen_9425, q_gen_9385) -> q_gen_9381
<nil, nil, cons>(q_gen_9405, q_gen_9404) -> q_gen_9381
<nil, nil, nil>() -> q_gen_9381
<a, a, a>() -> q_gen_9406
<a, b, a>() -> q_gen_9406
<b, a, b>() -> q_gen_9406
<b, b, b>() -> q_gen_9406
<cons, cons, cons>(q_gen_9406, q_gen_9426) -> q_gen_9426
<cons, nil, cons>(q_gen_9386, q_gen_9441) -> q_gen_9426
<cons, nil, cons>(q_gen_9425, q_gen_9385) -> q_gen_9426
}

Datatype: <eltlist, eltlist, eltlist>
Convolution form: left
}}}
  ;  prefix -> 
{{{
Q={q_gen_9380, q_gen_9383, q_gen_9388, q_gen_9389, q_gen_9427, q_gen_9428},
Q_f={q_gen_9380},
Delta=
{
<cons>(q_gen_9389, q_gen_9388) -> q_gen_9388
<nil>() -> q_gen_9388
<a>() -> q_gen_9389
<b>() -> q_gen_9389
<cons, cons>(q_gen_9383, q_gen_9380) -> q_gen_9380
<cons, cons>(q_gen_9428, q_gen_9427) -> q_gen_9380
<nil, cons>(q_gen_9389, q_gen_9388) -> q_gen_9380
<nil, nil>() -> q_gen_9380
<a, a>() -> q_gen_9383
<b, b>() -> q_gen_9383
<cons, cons>(q_gen_9383, q_gen_9427) -> q_gen_9427
<cons, cons>(q_gen_9428, q_gen_9380) -> q_gen_9427
<b, a>() -> q_gen_9428
}

Datatype: <eltlist, eltlist>
Convolution form: left
}}}

}
--
Equality automata are defined for: {eq_elt, eq_eltlist}
_|

Teacher's answer:
New clause system:
{
() -> append([nil, l2, l2]) -> 26  ;  () -> prefix([nil, y]) -> 23  ;  (append([l1, l2, _yaa])) -> prefix([l1, _yaa]) -> 29  ;  (append([t1, l2, _taa])) -> append([cons(h1, t1), l2, cons(h1, _taa)]) -> 34  ;  (prefix([zs, ys])) -> prefix([cons(y2, zs), cons(y2, ys)]) -> 23  ;  (prefix([cons(y2, zs), cons(y2, ys)])) -> prefix([zs, ys]) -> 24  ;  (prefix([cons(z, zs), cons(y2, ys)]) /\ not eq_elt([z, y2])) -> BOT -> 27  ;  (prefix([cons(z, zs), nil])) -> BOT -> 23
}
Sat witness: Yes: ((prefix([cons(z, zs), cons(y2, ys)]) /\ not eq_elt([z, y2])) -> BOT, {
y2 -> a  ;  ys -> cons(a, nil)  ;  z -> b  ;  zs -> cons(b, nil)
})

-------------------------------------------
Step 28, which took 0.027408 s (model generation: 0.024361,  model checking: 0.003047):

Model:
|_
{
append -> 
{{{
Q={q_gen_9381, q_gen_9385, q_gen_9386, q_gen_9404, q_gen_9405, q_gen_9406, q_gen_9425, q_gen_9426, q_gen_9441},
Q_f={q_gen_9381},
Delta=
{
<cons>(q_gen_9405, q_gen_9404) -> q_gen_9404
<nil>() -> q_gen_9404
<a>() -> q_gen_9405
<b>() -> q_gen_9405
<cons, cons>(q_gen_9386, q_gen_9385) -> q_gen_9385
<nil, cons>(q_gen_9405, q_gen_9404) -> q_gen_9385
<nil, nil>() -> q_gen_9385
<a, a>() -> q_gen_9386
<a, b>() -> q_gen_9386
<b, b>() -> q_gen_9386
<b, a>() -> q_gen_9425
<cons, cons>(q_gen_9425, q_gen_9385) -> q_gen_9441
<cons, cons>(q_gen_9425, q_gen_9441) -> q_gen_9441
<cons, cons, cons>(q_gen_9406, q_gen_9381) -> q_gen_9381
<cons, nil, cons>(q_gen_9386, q_gen_9385) -> q_gen_9381
<nil, cons, cons>(q_gen_9386, q_gen_9385) -> q_gen_9381
<nil, cons, cons>(q_gen_9386, q_gen_9441) -> q_gen_9381
<nil, cons, cons>(q_gen_9425, q_gen_9385) -> q_gen_9381
<nil, nil, cons>(q_gen_9405, q_gen_9404) -> q_gen_9381
<nil, nil, nil>() -> q_gen_9381
<a, a, a>() -> q_gen_9406
<a, b, a>() -> q_gen_9406
<b, a, b>() -> q_gen_9406
<b, b, b>() -> q_gen_9406
<cons, cons, cons>(q_gen_9406, q_gen_9426) -> q_gen_9426
<cons, nil, cons>(q_gen_9386, q_gen_9441) -> q_gen_9426
<cons, nil, cons>(q_gen_9425, q_gen_9385) -> q_gen_9426
}

Datatype: <eltlist, eltlist, eltlist>
Convolution form: left
}}}
  ;  prefix -> 
{{{
Q={q_gen_9380, q_gen_9383, q_gen_9388, q_gen_9389, q_gen_9427, q_gen_9428},
Q_f={q_gen_9380},
Delta=
{
<cons>(q_gen_9389, q_gen_9388) -> q_gen_9388
<nil>() -> q_gen_9388
<a>() -> q_gen_9389
<b>() -> q_gen_9389
<cons, cons>(q_gen_9383, q_gen_9380) -> q_gen_9380
<nil, cons>(q_gen_9389, q_gen_9388) -> q_gen_9380
<nil, nil>() -> q_gen_9380
<a, a>() -> q_gen_9383
<b, b>() -> q_gen_9383
<cons, cons>(q_gen_9383, q_gen_9427) -> q_gen_9427
<cons, cons>(q_gen_9428, q_gen_9380) -> q_gen_9427
<cons, cons>(q_gen_9428, q_gen_9427) -> q_gen_9427
<b, a>() -> q_gen_9428
}

Datatype: <eltlist, eltlist>
Convolution form: left
}}}

}
--
Equality automata are defined for: {eq_elt, eq_eltlist}
_|

Teacher's answer:
New clause system:
{
() -> append([nil, l2, l2]) -> 27  ;  () -> prefix([nil, y]) -> 24  ;  (append([l1, l2, _yaa])) -> prefix([l1, _yaa]) -> 32  ;  (append([t1, l2, _taa])) -> append([cons(h1, t1), l2, cons(h1, _taa)]) -> 34  ;  (prefix([zs, ys])) -> prefix([cons(y2, zs), cons(y2, ys)]) -> 24  ;  (prefix([cons(y2, zs), cons(y2, ys)])) -> prefix([zs, ys]) -> 25  ;  (prefix([cons(z, zs), cons(y2, ys)]) /\ not eq_elt([z, y2])) -> BOT -> 28  ;  (prefix([cons(z, zs), nil])) -> BOT -> 24
}
Sat witness: Yes: ((append([l1, l2, _yaa])) -> prefix([l1, _yaa]), {
_yaa -> cons(b, nil)  ;  l1 -> cons(a, nil)  ;  l2 -> nil
})

-------------------------------------------
Step 29, which took 0.027053 s (model generation: 0.024778,  model checking: 0.002275):

Model:
|_
{
append -> 
{{{
Q={q_gen_9381, q_gen_9385, q_gen_9386, q_gen_9404, q_gen_9405, q_gen_9406, q_gen_9425, q_gen_9426, q_gen_9441},
Q_f={q_gen_9381},
Delta=
{
<cons>(q_gen_9405, q_gen_9404) -> q_gen_9404
<nil>() -> q_gen_9404
<a>() -> q_gen_9405
<b>() -> q_gen_9405
<cons, cons>(q_gen_9386, q_gen_9385) -> q_gen_9385
<nil, cons>(q_gen_9405, q_gen_9404) -> q_gen_9385
<nil, nil>() -> q_gen_9385
<a, a>() -> q_gen_9386
<a, b>() -> q_gen_9386
<b, b>() -> q_gen_9386
<b, a>() -> q_gen_9425
<cons, cons>(q_gen_9425, q_gen_9385) -> q_gen_9441
<cons, cons>(q_gen_9425, q_gen_9441) -> q_gen_9441
<cons, cons, cons>(q_gen_9406, q_gen_9381) -> q_gen_9381
<cons, nil, cons>(q_gen_9386, q_gen_9385) -> q_gen_9381
<nil, cons, cons>(q_gen_9386, q_gen_9385) -> q_gen_9381
<nil, cons, cons>(q_gen_9386, q_gen_9441) -> q_gen_9381
<nil, cons, cons>(q_gen_9425, q_gen_9385) -> q_gen_9381
<nil, nil, cons>(q_gen_9405, q_gen_9404) -> q_gen_9381
<nil, nil, nil>() -> q_gen_9381
<a, a, a>() -> q_gen_9406
<a, b, a>() -> q_gen_9406
<b, a, b>() -> q_gen_9406
<b, b, b>() -> q_gen_9406
<cons, cons, cons>(q_gen_9406, q_gen_9426) -> q_gen_9426
<cons, nil, cons>(q_gen_9386, q_gen_9441) -> q_gen_9426
<cons, nil, cons>(q_gen_9425, q_gen_9385) -> q_gen_9426
}

Datatype: <eltlist, eltlist, eltlist>
Convolution form: left
}}}
  ;  prefix -> 
{{{
Q={q_gen_9380, q_gen_9383, q_gen_9388, q_gen_9389, q_gen_9427, q_gen_9428},
Q_f={q_gen_9380},
Delta=
{
<cons>(q_gen_9389, q_gen_9388) -> q_gen_9388
<nil>() -> q_gen_9388
<a>() -> q_gen_9389
<b>() -> q_gen_9389
<cons, cons>(q_gen_9383, q_gen_9380) -> q_gen_9380
<nil, cons>(q_gen_9389, q_gen_9388) -> q_gen_9380
<nil, nil>() -> q_gen_9380
<a, a>() -> q_gen_9383
<a, b>() -> q_gen_9383
<b, b>() -> q_gen_9383
<cons, cons>(q_gen_9383, q_gen_9427) -> q_gen_9427
<cons, cons>(q_gen_9428, q_gen_9380) -> q_gen_9427
<cons, cons>(q_gen_9428, q_gen_9427) -> q_gen_9427
<b, a>() -> q_gen_9428
}

Datatype: <eltlist, eltlist>
Convolution form: left
}}}

}
--
Equality automata are defined for: {eq_elt, eq_eltlist}
_|

Teacher's answer:
New clause system:
{
() -> append([nil, l2, l2]) -> 28  ;  () -> prefix([nil, y]) -> 25  ;  (append([l1, l2, _yaa])) -> prefix([l1, _yaa]) -> 32  ;  (append([t1, l2, _taa])) -> append([cons(h1, t1), l2, cons(h1, _taa)]) -> 34  ;  (prefix([zs, ys])) -> prefix([cons(y2, zs), cons(y2, ys)]) -> 25  ;  (prefix([cons(y2, zs), cons(y2, ys)])) -> prefix([zs, ys]) -> 26  ;  (prefix([cons(z, zs), cons(y2, ys)]) /\ not eq_elt([z, y2])) -> BOT -> 31  ;  (prefix([cons(z, zs), nil])) -> BOT -> 25
}
Sat witness: Yes: ((prefix([cons(z, zs), cons(y2, ys)]) /\ not eq_elt([z, y2])) -> BOT, {
y2 -> b  ;  ys -> nil  ;  z -> a  ;  zs -> nil
})

-------------------------------------------
Step 30, which took 0.048605 s (model generation: 0.025497,  model checking: 0.023108):

Model:
|_
{
append -> 
{{{
Q={q_gen_9381, q_gen_9385, q_gen_9386, q_gen_9404, q_gen_9405, q_gen_9406, q_gen_9425, q_gen_9426, q_gen_9441},
Q_f={q_gen_9381},
Delta=
{
<cons>(q_gen_9405, q_gen_9404) -> q_gen_9404
<nil>() -> q_gen_9404
<a>() -> q_gen_9405
<b>() -> q_gen_9405
<cons, cons>(q_gen_9386, q_gen_9385) -> q_gen_9385
<nil, cons>(q_gen_9405, q_gen_9404) -> q_gen_9385
<nil, nil>() -> q_gen_9385
<a, a>() -> q_gen_9386
<b, b>() -> q_gen_9386
<a, b>() -> q_gen_9425
<b, a>() -> q_gen_9425
<cons, cons>(q_gen_9425, q_gen_9385) -> q_gen_9441
<cons, cons>(q_gen_9425, q_gen_9441) -> q_gen_9441
<cons, cons, cons>(q_gen_9406, q_gen_9381) -> q_gen_9381
<cons, nil, cons>(q_gen_9386, q_gen_9385) -> q_gen_9381
<nil, cons, cons>(q_gen_9386, q_gen_9385) -> q_gen_9381
<nil, cons, cons>(q_gen_9386, q_gen_9441) -> q_gen_9381
<nil, cons, cons>(q_gen_9425, q_gen_9385) -> q_gen_9381
<nil, nil, cons>(q_gen_9405, q_gen_9404) -> q_gen_9381
<nil, nil, nil>() -> q_gen_9381
<a, a, a>() -> q_gen_9406
<a, b, a>() -> q_gen_9406
<b, a, b>() -> q_gen_9406
<b, b, b>() -> q_gen_9406
<cons, cons, cons>(q_gen_9406, q_gen_9426) -> q_gen_9426
<cons, nil, cons>(q_gen_9386, q_gen_9441) -> q_gen_9426
<cons, nil, cons>(q_gen_9425, q_gen_9385) -> q_gen_9426
}

Datatype: <eltlist, eltlist, eltlist>
Convolution form: left
}}}
  ;  prefix -> 
{{{
Q={q_gen_9380, q_gen_9383, q_gen_9388, q_gen_9389, q_gen_9427, q_gen_9428},
Q_f={q_gen_9380},
Delta=
{
<cons>(q_gen_9389, q_gen_9388) -> q_gen_9388
<nil>() -> q_gen_9388
<a>() -> q_gen_9389
<b>() -> q_gen_9389
<cons, cons>(q_gen_9383, q_gen_9380) -> q_gen_9380
<nil, cons>(q_gen_9389, q_gen_9388) -> q_gen_9380
<nil, nil>() -> q_gen_9380
<a, a>() -> q_gen_9383
<b, b>() -> q_gen_9383
<cons, cons>(q_gen_9383, q_gen_9427) -> q_gen_9427
<cons, cons>(q_gen_9428, q_gen_9380) -> q_gen_9427
<cons, cons>(q_gen_9428, q_gen_9427) -> q_gen_9427
<a, b>() -> q_gen_9428
<b, a>() -> q_gen_9428
}

Datatype: <eltlist, eltlist>
Convolution form: left
}}}

}
--
Equality automata are defined for: {eq_elt, eq_eltlist}
_|

Teacher's answer:
New clause system:
{
() -> append([nil, l2, l2]) -> 29  ;  () -> prefix([nil, y]) -> 26  ;  (append([l1, l2, _yaa])) -> prefix([l1, _yaa]) -> 33  ;  (append([t1, l2, _taa])) -> append([cons(h1, t1), l2, cons(h1, _taa)]) -> 37  ;  (prefix([zs, ys])) -> prefix([cons(y2, zs), cons(y2, ys)]) -> 26  ;  (prefix([cons(y2, zs), cons(y2, ys)])) -> prefix([zs, ys]) -> 27  ;  (prefix([cons(z, zs), cons(y2, ys)]) /\ not eq_elt([z, y2])) -> BOT -> 32  ;  (prefix([cons(z, zs), nil])) -> BOT -> 26
}
Sat witness: Yes: ((append([t1, l2, _taa])) -> append([cons(h1, t1), l2, cons(h1, _taa)]), {
_taa -> cons(b, cons(b, cons(b, nil)))  ;  h1 -> b  ;  l2 -> cons(b, cons(a, cons(a, nil)))  ;  t1 -> nil
})

-------------------------------------------
Step 31, which took 0.049539 s (model generation: 0.047439,  model checking: 0.002100):

Model:
|_
{
append -> 
{{{
Q={q_gen_9381, q_gen_9385, q_gen_9386, q_gen_9391, q_gen_9392, q_gen_9396, q_gen_9404, q_gen_9405, q_gen_9406},
Q_f={q_gen_9381},
Delta=
{
<cons>(q_gen_9405, q_gen_9404) -> q_gen_9404
<nil>() -> q_gen_9404
<a>() -> q_gen_9405
<b>() -> q_gen_9405
<cons, cons>(q_gen_9386, q_gen_9385) -> q_gen_9385
<nil, cons>(q_gen_9405, q_gen_9404) -> q_gen_9385
<nil, nil>() -> q_gen_9385
<b, b>() -> q_gen_9386
<a, a>() -> q_gen_9391
<a, b>() -> q_gen_9391
<b, a>() -> q_gen_9391
<cons, cons>(q_gen_9386, q_gen_9396) -> q_gen_9396
<cons, cons>(q_gen_9391, q_gen_9385) -> q_gen_9396
<cons, cons>(q_gen_9391, q_gen_9396) -> q_gen_9396
<cons, cons, cons>(q_gen_9406, q_gen_9381) -> q_gen_9381
<cons, nil, cons>(q_gen_9386, q_gen_9385) -> q_gen_9381
<nil, cons, cons>(q_gen_9386, q_gen_9385) -> q_gen_9381
<nil, cons, cons>(q_gen_9391, q_gen_9385) -> q_gen_9381
<nil, cons, cons>(q_gen_9391, q_gen_9396) -> q_gen_9381
<nil, nil, cons>(q_gen_9405, q_gen_9404) -> q_gen_9381
<nil, nil, nil>() -> q_gen_9381
<cons, cons, cons>(q_gen_9406, q_gen_9392) -> q_gen_9392
<cons, nil, cons>(q_gen_9386, q_gen_9396) -> q_gen_9392
<cons, nil, cons>(q_gen_9391, q_gen_9385) -> q_gen_9392
<nil, cons, cons>(q_gen_9386, q_gen_9396) -> q_gen_9392
<a, a, a>() -> q_gen_9406
<a, b, a>() -> q_gen_9406
<b, a, b>() -> q_gen_9406
<b, b, b>() -> q_gen_9406
}

Datatype: <eltlist, eltlist, eltlist>
Convolution form: left
}}}
  ;  prefix -> 
{{{
Q={q_gen_9380, q_gen_9383, q_gen_9388, q_gen_9389, q_gen_9427, q_gen_9428},
Q_f={q_gen_9380},
Delta=
{
<cons>(q_gen_9389, q_gen_9388) -> q_gen_9388
<nil>() -> q_gen_9388
<a>() -> q_gen_9389
<b>() -> q_gen_9389
<cons, cons>(q_gen_9383, q_gen_9380) -> q_gen_9380
<nil, cons>(q_gen_9389, q_gen_9388) -> q_gen_9380
<nil, nil>() -> q_gen_9380
<a, a>() -> q_gen_9383
<b, b>() -> q_gen_9383
<cons, cons>(q_gen_9383, q_gen_9427) -> q_gen_9427
<cons, cons>(q_gen_9428, q_gen_9380) -> q_gen_9427
<cons, cons>(q_gen_9428, q_gen_9427) -> q_gen_9427
<a, b>() -> q_gen_9428
<b, a>() -> q_gen_9428
}

Datatype: <eltlist, eltlist>
Convolution form: left
}}}

}
--
Equality automata are defined for: {eq_elt, eq_eltlist}
_|

Teacher's answer:
New clause system:
{
() -> append([nil, l2, l2]) -> 32  ;  () -> prefix([nil, y]) -> 27  ;  (append([l1, l2, _yaa])) -> prefix([l1, _yaa]) -> 33  ;  (append([t1, l2, _taa])) -> append([cons(h1, t1), l2, cons(h1, _taa)]) -> 37  ;  (prefix([zs, ys])) -> prefix([cons(y2, zs), cons(y2, ys)]) -> 27  ;  (prefix([cons(y2, zs), cons(y2, ys)])) -> prefix([zs, ys]) -> 28  ;  (prefix([cons(z, zs), cons(y2, ys)]) /\ not eq_elt([z, y2])) -> BOT -> 32  ;  (prefix([cons(z, zs), nil])) -> BOT -> 27
}
Sat witness: Yes: (() -> append([nil, l2, l2]), {
l2 -> cons(b, cons(a, nil))
})

-------------------------------------------
Step 32, which took 0.039181 s (model generation: 0.036790,  model checking: 0.002391):

Model:
|_
{
append -> 
{{{
Q={q_gen_9381, q_gen_9385, q_gen_9386, q_gen_9391, q_gen_9392, q_gen_9396, q_gen_9404, q_gen_9405, q_gen_9406},
Q_f={q_gen_9381},
Delta=
{
<cons>(q_gen_9405, q_gen_9404) -> q_gen_9404
<nil>() -> q_gen_9404
<a>() -> q_gen_9405
<b>() -> q_gen_9405
<cons, cons>(q_gen_9386, q_gen_9396) -> q_gen_9385
<nil, cons>(q_gen_9405, q_gen_9404) -> q_gen_9385
<nil, nil>() -> q_gen_9385
<b, b>() -> q_gen_9386
<a, a>() -> q_gen_9391
<a, b>() -> q_gen_9391
<b, a>() -> q_gen_9391
<cons, cons>(q_gen_9386, q_gen_9385) -> q_gen_9396
<cons, cons>(q_gen_9391, q_gen_9385) -> q_gen_9396
<cons, cons>(q_gen_9391, q_gen_9396) -> q_gen_9396
<cons, cons, cons>(q_gen_9406, q_gen_9381) -> q_gen_9381
<cons, nil, cons>(q_gen_9386, q_gen_9385) -> q_gen_9381
<nil, cons, cons>(q_gen_9386, q_gen_9385) -> q_gen_9381
<nil, cons, cons>(q_gen_9386, q_gen_9396) -> q_gen_9381
<nil, cons, cons>(q_gen_9391, q_gen_9385) -> q_gen_9381
<nil, cons, cons>(q_gen_9391, q_gen_9396) -> q_gen_9381
<nil, nil, cons>(q_gen_9405, q_gen_9404) -> q_gen_9381
<nil, nil, nil>() -> q_gen_9381
<cons, cons, cons>(q_gen_9406, q_gen_9392) -> q_gen_9392
<cons, nil, cons>(q_gen_9386, q_gen_9396) -> q_gen_9392
<cons, nil, cons>(q_gen_9391, q_gen_9385) -> q_gen_9392
<a, a, a>() -> q_gen_9406
<a, b, a>() -> q_gen_9406
<b, a, b>() -> q_gen_9406
<b, b, b>() -> q_gen_9406
}

Datatype: <eltlist, eltlist, eltlist>
Convolution form: left
}}}
  ;  prefix -> 
{{{
Q={q_gen_9380, q_gen_9383, q_gen_9388, q_gen_9389, q_gen_9427, q_gen_9428},
Q_f={q_gen_9380},
Delta=
{
<cons>(q_gen_9389, q_gen_9388) -> q_gen_9388
<nil>() -> q_gen_9388
<a>() -> q_gen_9389
<b>() -> q_gen_9389
<cons, cons>(q_gen_9383, q_gen_9380) -> q_gen_9380
<nil, cons>(q_gen_9389, q_gen_9388) -> q_gen_9380
<nil, nil>() -> q_gen_9380
<a, a>() -> q_gen_9383
<b, b>() -> q_gen_9383
<cons, cons>(q_gen_9383, q_gen_9427) -> q_gen_9427
<cons, cons>(q_gen_9428, q_gen_9380) -> q_gen_9427
<cons, cons>(q_gen_9428, q_gen_9427) -> q_gen_9427
<a, b>() -> q_gen_9428
<b, a>() -> q_gen_9428
}

Datatype: <eltlist, eltlist>
Convolution form: left
}}}

}
--
Equality automata are defined for: {eq_elt, eq_eltlist}
_|

Teacher's answer:
New clause system:
{
() -> append([nil, l2, l2]) -> 33  ;  () -> prefix([nil, y]) -> 28  ;  (append([l1, l2, _yaa])) -> prefix([l1, _yaa]) -> 36  ;  (append([t1, l2, _taa])) -> append([cons(h1, t1), l2, cons(h1, _taa)]) -> 37  ;  (prefix([zs, ys])) -> prefix([cons(y2, zs), cons(y2, ys)]) -> 28  ;  (prefix([cons(y2, zs), cons(y2, ys)])) -> prefix([zs, ys]) -> 29  ;  (prefix([cons(z, zs), cons(y2, ys)]) /\ not eq_elt([z, y2])) -> BOT -> 33  ;  (prefix([cons(z, zs), nil])) -> BOT -> 28
}
Sat witness: Yes: ((append([l1, l2, _yaa])) -> prefix([l1, _yaa]), {
_yaa -> cons(b, cons(b, cons(a, nil)))  ;  l1 -> cons(b, cons(b, cons(b, nil)))  ;  l2 -> nil
})

-------------------------------------------
Step 33, which took 0.044229 s (model generation: 0.041459,  model checking: 0.002770):

Model:
|_
{
append -> 
{{{
Q={q_gen_9381, q_gen_9385, q_gen_9386, q_gen_9391, q_gen_9392, q_gen_9396, q_gen_9404, q_gen_9405, q_gen_9406},
Q_f={q_gen_9381},
Delta=
{
<cons>(q_gen_9405, q_gen_9404) -> q_gen_9404
<nil>() -> q_gen_9404
<a>() -> q_gen_9405
<b>() -> q_gen_9405
<nil, cons>(q_gen_9405, q_gen_9404) -> q_gen_9385
<nil, nil>() -> q_gen_9385
<b, b>() -> q_gen_9386
<a, a>() -> q_gen_9391
<a, b>() -> q_gen_9391
<b, a>() -> q_gen_9391
<cons, cons>(q_gen_9386, q_gen_9385) -> q_gen_9396
<cons, cons>(q_gen_9386, q_gen_9396) -> q_gen_9396
<cons, cons>(q_gen_9391, q_gen_9385) -> q_gen_9396
<cons, cons>(q_gen_9391, q_gen_9396) -> q_gen_9396
<cons, cons, cons>(q_gen_9406, q_gen_9381) -> q_gen_9381
<cons, nil, cons>(q_gen_9386, q_gen_9385) -> q_gen_9381
<nil, cons, cons>(q_gen_9386, q_gen_9385) -> q_gen_9381
<nil, cons, cons>(q_gen_9386, q_gen_9396) -> q_gen_9381
<nil, cons, cons>(q_gen_9391, q_gen_9385) -> q_gen_9381
<nil, cons, cons>(q_gen_9391, q_gen_9396) -> q_gen_9381
<nil, nil, cons>(q_gen_9405, q_gen_9404) -> q_gen_9381
<nil, nil, nil>() -> q_gen_9381
<cons, cons, cons>(q_gen_9406, q_gen_9392) -> q_gen_9392
<cons, nil, cons>(q_gen_9386, q_gen_9396) -> q_gen_9392
<cons, nil, cons>(q_gen_9391, q_gen_9385) -> q_gen_9392
<a, a, a>() -> q_gen_9406
<a, b, a>() -> q_gen_9406
<b, a, b>() -> q_gen_9406
<b, b, b>() -> q_gen_9406
}

Datatype: <eltlist, eltlist, eltlist>
Convolution form: left
}}}
  ;  prefix -> 
{{{
Q={q_gen_9380, q_gen_9383, q_gen_9388, q_gen_9389, q_gen_9427, q_gen_9428},
Q_f={q_gen_9380},
Delta=
{
<cons>(q_gen_9389, q_gen_9388) -> q_gen_9388
<nil>() -> q_gen_9388
<a>() -> q_gen_9389
<b>() -> q_gen_9389
<cons, cons>(q_gen_9383, q_gen_9380) -> q_gen_9380
<nil, cons>(q_gen_9389, q_gen_9388) -> q_gen_9380
<nil, nil>() -> q_gen_9380
<a, a>() -> q_gen_9383
<b, b>() -> q_gen_9383
<cons, cons>(q_gen_9383, q_gen_9427) -> q_gen_9427
<cons, cons>(q_gen_9428, q_gen_9380) -> q_gen_9427
<cons, cons>(q_gen_9428, q_gen_9427) -> q_gen_9427
<a, b>() -> q_gen_9428
<b, a>() -> q_gen_9428
}

Datatype: <eltlist, eltlist>
Convolution form: left
}}}

}
--
Equality automata are defined for: {eq_elt, eq_eltlist}
_|

Teacher's answer:
New clause system:
{
() -> append([nil, l2, l2]) -> 34  ;  () -> prefix([nil, y]) -> 29  ;  (append([l1, l2, _yaa])) -> prefix([l1, _yaa]) -> 37  ;  (append([t1, l2, _taa])) -> append([cons(h1, t1), l2, cons(h1, _taa)]) -> 40  ;  (prefix([zs, ys])) -> prefix([cons(y2, zs), cons(y2, ys)]) -> 29  ;  (prefix([cons(y2, zs), cons(y2, ys)])) -> prefix([zs, ys]) -> 30  ;  (prefix([cons(z, zs), cons(y2, ys)]) /\ not eq_elt([z, y2])) -> BOT -> 34  ;  (prefix([cons(z, zs), nil])) -> BOT -> 29
}
Sat witness: Yes: ((append([t1, l2, _taa])) -> append([cons(h1, t1), l2, cons(h1, _taa)]), {
_taa -> nil  ;  h1 -> a  ;  l2 -> nil  ;  t1 -> nil
})

Total time: 21.354658
Reason for stopping: Proved

