Solving ../../../../benchmarks/smtlib/true/sort_length_eq.smt2...

Inference procedure has parameters:
Ice fuel: 200
Timeout: 20s
Convolution: complete


Learning problem is:

env: {
elt -> {a, b}  ;  eltlist -> {cons, nil}  ;  nat -> {s, z}
}
definition:
{
(leq, P:
{() -> leq([a, y])
() -> leq([b, b])
(leq([b, a])) -> BOT}
)
(insert, F:
{() -> insert([x, nil, cons(x, nil)])
(insert([x, z, _ms]) /\ not leq([x, y])) -> insert([x, cons(y, z), cons(y, _ms)])
(leq([x, y])) -> insert([x, cons(y, z), cons(x, cons(y, z))])}
(insert([_ns, _os, _ps]) /\ insert([_ns, _os, _qs])) -> eq_eltlist([_ps, _qs])
)
(sort, F:
{() -> sort([nil, nil])
(insert([y, _rs, _ss]) /\ sort([z, _rs])) -> sort([cons(y, z), _ss])}
(sort([_ts, _us]) /\ sort([_ts, _vs])) -> eq_eltlist([_us, _vs])
)
(length, F:
{() -> length([nil, z])
(length([ll, _ws])) -> length([cons(x, ll), s(_ws)])}
(length([_xs, _ys]) /\ length([_xs, _zs])) -> eq_nat([_ys, _zs])
)
}

properties:
{(length([_bt, _ct]) /\ length([l, _at]) /\ sort([l, _bt])) -> eq_nat([_at, _ct])}


over-approximation: {insert, length, sort}
under-approximation: {leq}

Clause system for inference is:

{
() -> insert([x, nil, cons(x, nil)]) -> 0  ;  () -> length([nil, z]) -> 0  ;  () -> leq([a, y]) -> 0  ;  () -> leq([b, b]) -> 0  ;  () -> sort([nil, nil]) -> 0  ;  (insert([x, z, _ms]) /\ not leq([x, y])) -> insert([x, cons(y, z), cons(y, _ms)]) -> 0  ;  (insert([y, _rs, _ss]) /\ sort([z, _rs])) -> sort([cons(y, z), _ss]) -> 0  ;  (length([_bt, _ct]) /\ length([l, _at]) /\ sort([l, _bt])) -> eq_nat([_at, _ct]) -> 0  ;  (length([ll, _ws])) -> length([cons(x, ll), s(_ws)]) -> 0  ;  (leq([x, y])) -> insert([x, cons(y, z), cons(x, cons(y, z))]) -> 0  ;  (leq([b, a])) -> BOT -> 0
}


Solving took 20.006765 seconds.
DontKnow. Stopped because: timeout
Working model:
|_
{
insert -> 
{{{
Q={q_gen_8035, q_gen_8036, q_gen_8037, q_gen_8038, q_gen_8039, q_gen_8040, q_gen_8041, q_gen_8042, q_gen_8050, q_gen_8051, q_gen_8052, q_gen_8054, q_gen_8055, q_gen_8056, q_gen_8057, q_gen_8058, q_gen_8061, q_gen_8065, q_gen_8066, q_gen_8067, q_gen_8068, q_gen_8069, q_gen_8070, q_gen_8071, q_gen_8072, q_gen_8076, q_gen_8084, q_gen_8085, q_gen_8086, q_gen_8087, q_gen_8088, q_gen_8089, q_gen_8090, q_gen_8091, q_gen_8094, q_gen_8102, q_gen_8103, q_gen_8104, q_gen_8105, q_gen_8106, q_gen_8107, q_gen_8108, q_gen_8109, q_gen_8114, q_gen_8116, q_gen_8117, q_gen_8118, q_gen_8119},
Q_f={},
Delta=
{
<nil>() -> q_gen_8036
<b>() -> q_gen_8037
<a>() -> q_gen_8055
<cons>(q_gen_8037, q_gen_8036) -> q_gen_8069
<cons>(q_gen_8055, q_gen_8036) -> q_gen_8091
<cons>(q_gen_8037, q_gen_8069) -> q_gen_8109
<nil, cons>(q_gen_8037, q_gen_8036) -> q_gen_8039
<nil, a>() -> q_gen_8040
<b, cons>(q_gen_8037, q_gen_8036) -> q_gen_8041
<b, a>() -> q_gen_8042
<a, cons>(q_gen_8037, q_gen_8036) -> q_gen_8051
<a, a>() -> q_gen_8052
<nil, b>() -> q_gen_8057
<b, b>() -> q_gen_8058
<cons, cons>(q_gen_8058, q_gen_8041, q_gen_8057, q_gen_8039) -> q_gen_8066
<cons, a>(q_gen_8037, q_gen_8036) -> q_gen_8067
<a, cons>(q_gen_8037, q_gen_8069) -> q_gen_8068
<cons, b>(q_gen_8037, q_gen_8036) -> q_gen_8071
<b, cons>(q_gen_8037, q_gen_8069) -> q_gen_8072
<cons, cons>(q_gen_8088, q_gen_8087, q_gen_8057, q_gen_8086) -> q_gen_8085
<nil, cons>(q_gen_8055, q_gen_8036) -> q_gen_8086
<a, cons>(q_gen_8055, q_gen_8036) -> q_gen_8087
<a, b>() -> q_gen_8088
<cons, b>(q_gen_8055, q_gen_8036) -> q_gen_8089
<b, cons>(q_gen_8037, q_gen_8091) -> q_gen_8090
<cons, cons>(q_gen_8088, q_gen_8051, q_gen_8057, q_gen_8039) -> q_gen_8103
<cons, a>(q_gen_8055, q_gen_8036) -> q_gen_8104
<cons, cons>(q_gen_8052, q_gen_8068, q_gen_8104, q_gen_8103) -> q_gen_8106
<cons, a>(q_gen_8055, q_gen_8091) -> q_gen_8107
<a, cons>(q_gen_8055, q_gen_8109) -> q_gen_8108
<cons, cons>(q_gen_8058, q_gen_8072, q_gen_8071, q_gen_8066) -> q_gen_8117
<cons, b>(q_gen_8037, q_gen_8069) -> q_gen_8118
<b, cons>(q_gen_8037, q_gen_8109) -> q_gen_8119
<b, nil, cons>(q_gen_8037, q_gen_8036) -> q_gen_8035
<a, cons, cons>(q_gen_8042, q_gen_8041, q_gen_8040, q_gen_8039) -> q_gen_8038
<b, cons, cons>(q_gen_8052, q_gen_8051, q_gen_8040, q_gen_8039) -> q_gen_8050
<a, nil, cons>(q_gen_8055, q_gen_8036) -> q_gen_8054
<b, cons, cons>(q_gen_8058, q_gen_8041, q_gen_8057, q_gen_8039) -> q_gen_8056
<a, nil, cons>(q_gen_8037, q_gen_8036) -> q_gen_8061
<b, cons, cons>(q_gen_8052, q_gen_8068, q_gen_8067, q_gen_8066) -> q_gen_8065
<b, cons, cons>(q_gen_8058, q_gen_8072, q_gen_8071, q_gen_8066) -> q_gen_8070
<a, nil, cons>(q_gen_8055, q_gen_8069) -> q_gen_8076
<b, cons, cons>(q_gen_8058, q_gen_8090, q_gen_8089, q_gen_8085) -> q_gen_8084
<b, nil, cons>(q_gen_8055, q_gen_8091) -> q_gen_8094
<b, cons, cons>(q_gen_8052, q_gen_8068, q_gen_8104, q_gen_8103) -> q_gen_8102
<b, cons, cons>(q_gen_8052, q_gen_8108, q_gen_8107, q_gen_8106) -> q_gen_8105
<b, nil, cons>(q_gen_8037, q_gen_8069) -> q_gen_8114
<b, cons, cons>(q_gen_8058, q_gen_8119, q_gen_8118, q_gen_8117) -> q_gen_8116
}

Datatype: <elt, eltlist, eltlist>
Convolution form: complete
}}}
  ;  length -> 
{{{
Q={q_gen_8034, q_gen_8043, q_gen_8044, q_gen_8059, q_gen_8060, q_gen_8073, q_gen_8074, q_gen_8075, q_gen_8092, q_gen_8093, q_gen_8110, q_gen_8111, q_gen_8112, q_gen_8113},
Q_f={},
Delta=
{
<z>() -> q_gen_8075
<s>(q_gen_8075) -> q_gen_8113
<nil, z>() -> q_gen_8034
<cons, s>(q_gen_8044, q_gen_8034) -> q_gen_8043
<b, z>() -> q_gen_8044
<cons, s>(q_gen_8060, q_gen_8034) -> q_gen_8059
<a, z>() -> q_gen_8060
<cons, s>(q_gen_8074, q_gen_8059) -> q_gen_8073
<b, s>(q_gen_8075) -> q_gen_8074
<cons, s>(q_gen_8093, q_gen_8043) -> q_gen_8092
<a, s>(q_gen_8075) -> q_gen_8093
<cons, s>(q_gen_8074, q_gen_8043) -> q_gen_8110
<cons, s>(q_gen_8112, q_gen_8110) -> q_gen_8111
<b, s>(q_gen_8113) -> q_gen_8112
}

Datatype: <eltlist, nat>
Convolution form: complete
}}}
  ;  leq -> 
{{{
Q={q_gen_8032, q_gen_8033, q_gen_8049, q_gen_8053},
Q_f={},
Delta=
{
<b, b>() -> q_gen_8032
<a, b>() -> q_gen_8033
<b, a>() -> q_gen_8049
<a, a>() -> q_gen_8053
}

Datatype: <elt, elt>
Convolution form: complete
}}}
  ;  sort -> 
{{{
Q={q_gen_8031, q_gen_8045, q_gen_8046, q_gen_8047, q_gen_8048, q_gen_8062, q_gen_8063, q_gen_8064, q_gen_8077, q_gen_8078, q_gen_8079, q_gen_8080, q_gen_8081, q_gen_8082, q_gen_8083, q_gen_8095, q_gen_8096, q_gen_8097, q_gen_8098, q_gen_8099, q_gen_8100, q_gen_8101, q_gen_8115},
Q_f={},
Delta=
{
<nil>() -> q_gen_8079
<b>() -> q_gen_8080
<a>() -> q_gen_8097
<nil, nil>() -> q_gen_8031
<cons, cons>(q_gen_8048, q_gen_8047, q_gen_8046, q_gen_8031) -> q_gen_8045
<nil, b>() -> q_gen_8046
<b, nil>() -> q_gen_8047
<b, b>() -> q_gen_8048
<cons, cons>(q_gen_8064, q_gen_8063, q_gen_8046, q_gen_8031) -> q_gen_8062
<a, nil>() -> q_gen_8063
<a, b>() -> q_gen_8064
<cons, cons>(q_gen_8083, q_gen_8082, q_gen_8081, q_gen_8078) -> q_gen_8077
<nil, cons>(q_gen_8080, q_gen_8079) -> q_gen_8078
<nil, a>() -> q_gen_8081
<a, cons>(q_gen_8080, q_gen_8079) -> q_gen_8082
<a, a>() -> q_gen_8083
<cons, cons>(q_gen_8099, q_gen_8098, q_gen_8081, q_gen_8096) -> q_gen_8095
<nil, cons>(q_gen_8097, q_gen_8079) -> q_gen_8096
<b, cons>(q_gen_8097, q_gen_8079) -> q_gen_8098
<b, a>() -> q_gen_8099
<cons, cons>(q_gen_8099, q_gen_8101, q_gen_8081, q_gen_8078) -> q_gen_8100
<b, cons>(q_gen_8080, q_gen_8079) -> q_gen_8101
<cons, cons>(q_gen_8048, q_gen_8101, q_gen_8046, q_gen_8078) -> q_gen_8115
}

Datatype: <eltlist, eltlist>
Convolution form: complete
}}}

}
--
Equality automata are defined for: {eq_elt, eq_eltlist, eq_nat}
_|

-------------------
STEPS:
-------------------------------------------
Step 0, which took 0.004238 s (model generation: 0.003835,  model checking: 0.000403):

Model:
|_
{
insert -> 
{{{
Q={},
Q_f={},
Delta=
{

}

Datatype: <elt, eltlist, eltlist>
Convolution form: complete
}}}
  ;  length -> 
{{{
Q={},
Q_f={},
Delta=
{

}

Datatype: <eltlist, nat>
Convolution form: complete
}}}
  ;  leq -> 
{{{
Q={},
Q_f={},
Delta=
{

}

Datatype: <elt, elt>
Convolution form: complete
}}}
  ;  sort -> 
{{{
Q={},
Q_f={},
Delta=
{

}

Datatype: <eltlist, eltlist>
Convolution form: complete
}}}

}
--
Equality automata are defined for: {eq_elt, eq_eltlist, eq_nat}
_|

Teacher's answer:
New clause system:
{
() -> insert([x, nil, cons(x, nil)]) -> 0  ;  () -> length([nil, z]) -> 0  ;  () -> leq([a, y]) -> 0  ;  () -> leq([b, b]) -> 0  ;  () -> sort([nil, nil]) -> 3  ;  (insert([x, z, _ms]) /\ not leq([x, y])) -> insert([x, cons(y, z), cons(y, _ms)]) -> 1  ;  (insert([y, _rs, _ss]) /\ sort([z, _rs])) -> sort([cons(y, z), _ss]) -> 1  ;  (length([_bt, _ct]) /\ length([l, _at]) /\ sort([l, _bt])) -> eq_nat([_at, _ct]) -> 1  ;  (length([ll, _ws])) -> length([cons(x, ll), s(_ws)]) -> 1  ;  (leq([x, y])) -> insert([x, cons(y, z), cons(x, cons(y, z))]) -> 1  ;  (leq([b, a])) -> BOT -> 1
}
Sat witness: Yes: (() -> sort([nil, nil]), {

})

-------------------------------------------
Step 1, which took 0.003304 s (model generation: 0.003281,  model checking: 0.000023):

Model:
|_
{
insert -> 
{{{
Q={},
Q_f={},
Delta=
{

}

Datatype: <elt, eltlist, eltlist>
Convolution form: complete
}}}
  ;  length -> 
{{{
Q={},
Q_f={},
Delta=
{

}

Datatype: <eltlist, nat>
Convolution form: complete
}}}
  ;  leq -> 
{{{
Q={},
Q_f={},
Delta=
{

}

Datatype: <elt, elt>
Convolution form: complete
}}}
  ;  sort -> 
{{{
Q={q_gen_8031},
Q_f={q_gen_8031},
Delta=
{
<nil, nil>() -> q_gen_8031
}

Datatype: <eltlist, eltlist>
Convolution form: complete
}}}

}
--
Equality automata are defined for: {eq_elt, eq_eltlist, eq_nat}
_|

Teacher's answer:
New clause system:
{
() -> insert([x, nil, cons(x, nil)]) -> 0  ;  () -> length([nil, z]) -> 0  ;  () -> leq([a, y]) -> 0  ;  () -> leq([b, b]) -> 3  ;  () -> sort([nil, nil]) -> 3  ;  (insert([x, z, _ms]) /\ not leq([x, y])) -> insert([x, cons(y, z), cons(y, _ms)]) -> 1  ;  (insert([y, _rs, _ss]) /\ sort([z, _rs])) -> sort([cons(y, z), _ss]) -> 1  ;  (length([_bt, _ct]) /\ length([l, _at]) /\ sort([l, _bt])) -> eq_nat([_at, _ct]) -> 1  ;  (length([ll, _ws])) -> length([cons(x, ll), s(_ws)]) -> 1  ;  (leq([x, y])) -> insert([x, cons(y, z), cons(x, cons(y, z))]) -> 1  ;  (leq([b, a])) -> BOT -> 1
}
Sat witness: Yes: (() -> leq([b, b]), {

})

-------------------------------------------
Step 2, which took 0.003111 s (model generation: 0.003082,  model checking: 0.000029):

Model:
|_
{
insert -> 
{{{
Q={},
Q_f={},
Delta=
{

}

Datatype: <elt, eltlist, eltlist>
Convolution form: complete
}}}
  ;  length -> 
{{{
Q={},
Q_f={},
Delta=
{

}

Datatype: <eltlist, nat>
Convolution form: complete
}}}
  ;  leq -> 
{{{
Q={q_gen_8032},
Q_f={q_gen_8032},
Delta=
{
<b, b>() -> q_gen_8032
}

Datatype: <elt, elt>
Convolution form: complete
}}}
  ;  sort -> 
{{{
Q={q_gen_8031},
Q_f={q_gen_8031},
Delta=
{
<nil, nil>() -> q_gen_8031
}

Datatype: <eltlist, eltlist>
Convolution form: complete
}}}

}
--
Equality automata are defined for: {eq_elt, eq_eltlist, eq_nat}
_|

Teacher's answer:
New clause system:
{
() -> insert([x, nil, cons(x, nil)]) -> 0  ;  () -> length([nil, z]) -> 0  ;  () -> leq([a, y]) -> 3  ;  () -> leq([b, b]) -> 3  ;  () -> sort([nil, nil]) -> 3  ;  (insert([x, z, _ms]) /\ not leq([x, y])) -> insert([x, cons(y, z), cons(y, _ms)]) -> 1  ;  (insert([y, _rs, _ss]) /\ sort([z, _rs])) -> sort([cons(y, z), _ss]) -> 1  ;  (length([_bt, _ct]) /\ length([l, _at]) /\ sort([l, _bt])) -> eq_nat([_at, _ct]) -> 1  ;  (length([ll, _ws])) -> length([cons(x, ll), s(_ws)]) -> 1  ;  (leq([x, y])) -> insert([x, cons(y, z), cons(x, cons(y, z))]) -> 1  ;  (leq([b, a])) -> BOT -> 1
}
Sat witness: Yes: (() -> leq([a, y]), {
y -> b
})

-------------------------------------------
Step 3, which took 0.003055 s (model generation: 0.002980,  model checking: 0.000075):

Model:
|_
{
insert -> 
{{{
Q={},
Q_f={},
Delta=
{

}

Datatype: <elt, eltlist, eltlist>
Convolution form: complete
}}}
  ;  length -> 
{{{
Q={},
Q_f={},
Delta=
{

}

Datatype: <eltlist, nat>
Convolution form: complete
}}}
  ;  leq -> 
{{{
Q={q_gen_8032},
Q_f={q_gen_8032},
Delta=
{
<a, b>() -> q_gen_8032
<b, b>() -> q_gen_8032
}

Datatype: <elt, elt>
Convolution form: complete
}}}
  ;  sort -> 
{{{
Q={q_gen_8031},
Q_f={q_gen_8031},
Delta=
{
<nil, nil>() -> q_gen_8031
}

Datatype: <eltlist, eltlist>
Convolution form: complete
}}}

}
--
Equality automata are defined for: {eq_elt, eq_eltlist, eq_nat}
_|

Teacher's answer:
New clause system:
{
() -> insert([x, nil, cons(x, nil)]) -> 0  ;  () -> length([nil, z]) -> 3  ;  () -> leq([a, y]) -> 3  ;  () -> leq([b, b]) -> 3  ;  () -> sort([nil, nil]) -> 3  ;  (insert([x, z, _ms]) /\ not leq([x, y])) -> insert([x, cons(y, z), cons(y, _ms)]) -> 1  ;  (insert([y, _rs, _ss]) /\ sort([z, _rs])) -> sort([cons(y, z), _ss]) -> 1  ;  (length([_bt, _ct]) /\ length([l, _at]) /\ sort([l, _bt])) -> eq_nat([_at, _ct]) -> 1  ;  (length([ll, _ws])) -> length([cons(x, ll), s(_ws)]) -> 1  ;  (leq([x, y])) -> insert([x, cons(y, z), cons(x, cons(y, z))]) -> 1  ;  (leq([b, a])) -> BOT -> 1
}
Sat witness: Yes: (() -> length([nil, z]), {

})

-------------------------------------------
Step 4, which took 0.003379 s (model generation: 0.003252,  model checking: 0.000127):

Model:
|_
{
insert -> 
{{{
Q={},
Q_f={},
Delta=
{

}

Datatype: <elt, eltlist, eltlist>
Convolution form: complete
}}}
  ;  length -> 
{{{
Q={q_gen_8034},
Q_f={q_gen_8034},
Delta=
{
<nil, z>() -> q_gen_8034
}

Datatype: <eltlist, nat>
Convolution form: complete
}}}
  ;  leq -> 
{{{
Q={q_gen_8032},
Q_f={q_gen_8032},
Delta=
{
<a, b>() -> q_gen_8032
<b, b>() -> q_gen_8032
}

Datatype: <elt, elt>
Convolution form: complete
}}}
  ;  sort -> 
{{{
Q={q_gen_8031},
Q_f={q_gen_8031},
Delta=
{
<nil, nil>() -> q_gen_8031
}

Datatype: <eltlist, eltlist>
Convolution form: complete
}}}

}
--
Equality automata are defined for: {eq_elt, eq_eltlist, eq_nat}
_|

Teacher's answer:
New clause system:
{
() -> insert([x, nil, cons(x, nil)]) -> 3  ;  () -> length([nil, z]) -> 3  ;  () -> leq([a, y]) -> 3  ;  () -> leq([b, b]) -> 3  ;  () -> sort([nil, nil]) -> 3  ;  (insert([x, z, _ms]) /\ not leq([x, y])) -> insert([x, cons(y, z), cons(y, _ms)]) -> 1  ;  (insert([y, _rs, _ss]) /\ sort([z, _rs])) -> sort([cons(y, z), _ss]) -> 1  ;  (length([_bt, _ct]) /\ length([l, _at]) /\ sort([l, _bt])) -> eq_nat([_at, _ct]) -> 1  ;  (length([ll, _ws])) -> length([cons(x, ll), s(_ws)]) -> 1  ;  (leq([x, y])) -> insert([x, cons(y, z), cons(x, cons(y, z))]) -> 1  ;  (leq([b, a])) -> BOT -> 1
}
Sat witness: Yes: (() -> insert([x, nil, cons(x, nil)]), {
x -> b
})

-------------------------------------------
Step 5, which took 0.004139 s (model generation: 0.003252,  model checking: 0.000887):

Model:
|_
{
insert -> 
{{{
Q={q_gen_8035, q_gen_8036, q_gen_8037},
Q_f={q_gen_8035},
Delta=
{
<nil>() -> q_gen_8036
<b>() -> q_gen_8037
<b, nil, cons>(q_gen_8037, q_gen_8036) -> q_gen_8035
}

Datatype: <elt, eltlist, eltlist>
Convolution form: complete
}}}
  ;  length -> 
{{{
Q={q_gen_8034},
Q_f={q_gen_8034},
Delta=
{
<nil, z>() -> q_gen_8034
}

Datatype: <eltlist, nat>
Convolution form: complete
}}}
  ;  leq -> 
{{{
Q={q_gen_8032},
Q_f={q_gen_8032},
Delta=
{
<a, b>() -> q_gen_8032
<b, b>() -> q_gen_8032
}

Datatype: <elt, elt>
Convolution form: complete
}}}
  ;  sort -> 
{{{
Q={q_gen_8031},
Q_f={q_gen_8031},
Delta=
{
<nil, nil>() -> q_gen_8031
}

Datatype: <eltlist, eltlist>
Convolution form: complete
}}}

}
--
Equality automata are defined for: {eq_elt, eq_eltlist, eq_nat}
_|

Teacher's answer:
New clause system:
{
() -> insert([x, nil, cons(x, nil)]) -> 3  ;  () -> length([nil, z]) -> 3  ;  () -> leq([a, y]) -> 3  ;  () -> leq([b, b]) -> 3  ;  () -> sort([nil, nil]) -> 3  ;  (insert([x, z, _ms]) /\ not leq([x, y])) -> insert([x, cons(y, z), cons(y, _ms)]) -> 1  ;  (insert([y, _rs, _ss]) /\ sort([z, _rs])) -> sort([cons(y, z), _ss]) -> 1  ;  (length([_bt, _ct]) /\ length([l, _at]) /\ sort([l, _bt])) -> eq_nat([_at, _ct]) -> 1  ;  (length([ll, _ws])) -> length([cons(x, ll), s(_ws)]) -> 1  ;  (leq([x, y])) -> insert([x, cons(y, z), cons(x, cons(y, z))]) -> 4  ;  (leq([b, a])) -> BOT -> 2
}
Sat witness: Yes: ((leq([x, y])) -> insert([x, cons(y, z), cons(x, cons(y, z))]), {
x -> a  ;  y -> b  ;  z -> nil
})

-------------------------------------------
Step 6, which took 0.004140 s (model generation: 0.004038,  model checking: 0.000102):

Model:
|_
{
insert -> 
{{{
Q={q_gen_8035, q_gen_8036, q_gen_8037, q_gen_8039, q_gen_8040, q_gen_8041, q_gen_8042},
Q_f={q_gen_8035},
Delta=
{
<nil>() -> q_gen_8036
<b>() -> q_gen_8037
<nil, cons>(q_gen_8037, q_gen_8036) -> q_gen_8039
<nil, a>() -> q_gen_8040
<b, cons>(q_gen_8037, q_gen_8036) -> q_gen_8041
<b, a>() -> q_gen_8042
<a, cons, cons>(q_gen_8042, q_gen_8041, q_gen_8040, q_gen_8039) -> q_gen_8035
<b, nil, cons>(q_gen_8037, q_gen_8036) -> q_gen_8035
}

Datatype: <elt, eltlist, eltlist>
Convolution form: complete
}}}
  ;  length -> 
{{{
Q={q_gen_8034},
Q_f={q_gen_8034},
Delta=
{
<nil, z>() -> q_gen_8034
}

Datatype: <eltlist, nat>
Convolution form: complete
}}}
  ;  leq -> 
{{{
Q={q_gen_8032},
Q_f={q_gen_8032},
Delta=
{
<a, b>() -> q_gen_8032
<b, b>() -> q_gen_8032
}

Datatype: <elt, elt>
Convolution form: complete
}}}
  ;  sort -> 
{{{
Q={q_gen_8031},
Q_f={q_gen_8031},
Delta=
{
<nil, nil>() -> q_gen_8031
}

Datatype: <eltlist, eltlist>
Convolution form: complete
}}}

}
--
Equality automata are defined for: {eq_elt, eq_eltlist, eq_nat}
_|

Teacher's answer:
New clause system:
{
() -> insert([x, nil, cons(x, nil)]) -> 3  ;  () -> length([nil, z]) -> 3  ;  () -> leq([a, y]) -> 3  ;  () -> leq([b, b]) -> 3  ;  () -> sort([nil, nil]) -> 3  ;  (insert([x, z, _ms]) /\ not leq([x, y])) -> insert([x, cons(y, z), cons(y, _ms)]) -> 1  ;  (insert([y, _rs, _ss]) /\ sort([z, _rs])) -> sort([cons(y, z), _ss]) -> 1  ;  (length([_bt, _ct]) /\ length([l, _at]) /\ sort([l, _bt])) -> eq_nat([_at, _ct]) -> 1  ;  (length([ll, _ws])) -> length([cons(x, ll), s(_ws)]) -> 4  ;  (leq([x, y])) -> insert([x, cons(y, z), cons(x, cons(y, z))]) -> 4  ;  (leq([b, a])) -> BOT -> 2
}
Sat witness: Yes: ((length([ll, _ws])) -> length([cons(x, ll), s(_ws)]), {
_ws -> z  ;  ll -> nil  ;  x -> b
})

-------------------------------------------
Step 7, which took 0.005612 s (model generation: 0.005317,  model checking: 0.000295):

Model:
|_
{
insert -> 
{{{
Q={q_gen_8035, q_gen_8036, q_gen_8037, q_gen_8039, q_gen_8040, q_gen_8041, q_gen_8042},
Q_f={q_gen_8035},
Delta=
{
<nil>() -> q_gen_8036
<b>() -> q_gen_8037
<nil, cons>(q_gen_8037, q_gen_8036) -> q_gen_8039
<nil, a>() -> q_gen_8040
<b, cons>(q_gen_8037, q_gen_8036) -> q_gen_8041
<b, a>() -> q_gen_8042
<a, cons, cons>(q_gen_8042, q_gen_8041, q_gen_8040, q_gen_8039) -> q_gen_8035
<b, nil, cons>(q_gen_8037, q_gen_8036) -> q_gen_8035
}

Datatype: <elt, eltlist, eltlist>
Convolution form: complete
}}}
  ;  length -> 
{{{
Q={q_gen_8034, q_gen_8044},
Q_f={q_gen_8034},
Delta=
{
<cons, s>(q_gen_8044, q_gen_8034) -> q_gen_8034
<nil, z>() -> q_gen_8034
<b, z>() -> q_gen_8044
}

Datatype: <eltlist, nat>
Convolution form: complete
}}}
  ;  leq -> 
{{{
Q={q_gen_8032},
Q_f={q_gen_8032},
Delta=
{
<a, b>() -> q_gen_8032
<b, b>() -> q_gen_8032
}

Datatype: <elt, elt>
Convolution form: complete
}}}
  ;  sort -> 
{{{
Q={q_gen_8031},
Q_f={q_gen_8031},
Delta=
{
<nil, nil>() -> q_gen_8031
}

Datatype: <eltlist, eltlist>
Convolution form: complete
}}}

}
--
Equality automata are defined for: {eq_elt, eq_eltlist, eq_nat}
_|

Teacher's answer:
New clause system:
{
() -> insert([x, nil, cons(x, nil)]) -> 3  ;  () -> length([nil, z]) -> 3  ;  () -> leq([a, y]) -> 3  ;  () -> leq([b, b]) -> 3  ;  () -> sort([nil, nil]) -> 3  ;  (insert([x, z, _ms]) /\ not leq([x, y])) -> insert([x, cons(y, z), cons(y, _ms)]) -> 1  ;  (insert([y, _rs, _ss]) /\ sort([z, _rs])) -> sort([cons(y, z), _ss]) -> 4  ;  (length([_bt, _ct]) /\ length([l, _at]) /\ sort([l, _bt])) -> eq_nat([_at, _ct]) -> 2  ;  (length([ll, _ws])) -> length([cons(x, ll), s(_ws)]) -> 4  ;  (leq([x, y])) -> insert([x, cons(y, z), cons(x, cons(y, z))]) -> 4  ;  (leq([b, a])) -> BOT -> 2
}
Sat witness: Yes: ((insert([y, _rs, _ss]) /\ sort([z, _rs])) -> sort([cons(y, z), _ss]), {
_rs -> nil  ;  _ss -> cons(b, nil)  ;  y -> b  ;  z -> nil
})

-------------------------------------------
Step 8, which took 0.011114 s (model generation: 0.008544,  model checking: 0.002570):

Model:
|_
{
insert -> 
{{{
Q={q_gen_8035, q_gen_8036, q_gen_8037, q_gen_8039, q_gen_8040, q_gen_8041, q_gen_8042},
Q_f={q_gen_8035},
Delta=
{
<nil>() -> q_gen_8036
<b>() -> q_gen_8037
<nil, cons>(q_gen_8037, q_gen_8036) -> q_gen_8039
<nil, a>() -> q_gen_8040
<b, cons>(q_gen_8037, q_gen_8036) -> q_gen_8041
<b, a>() -> q_gen_8042
<a, cons, cons>(q_gen_8042, q_gen_8041, q_gen_8040, q_gen_8039) -> q_gen_8035
<b, nil, cons>(q_gen_8037, q_gen_8036) -> q_gen_8035
}

Datatype: <elt, eltlist, eltlist>
Convolution form: complete
}}}
  ;  length -> 
{{{
Q={q_gen_8034, q_gen_8044},
Q_f={q_gen_8034},
Delta=
{
<cons, s>(q_gen_8044, q_gen_8034) -> q_gen_8034
<nil, z>() -> q_gen_8034
<b, z>() -> q_gen_8044
}

Datatype: <eltlist, nat>
Convolution form: complete
}}}
  ;  leq -> 
{{{
Q={q_gen_8032},
Q_f={q_gen_8032},
Delta=
{
<a, b>() -> q_gen_8032
<b, b>() -> q_gen_8032
}

Datatype: <elt, elt>
Convolution form: complete
}}}
  ;  sort -> 
{{{
Q={q_gen_8031, q_gen_8046, q_gen_8047, q_gen_8048},
Q_f={q_gen_8031},
Delta=
{
<cons, cons>(q_gen_8048, q_gen_8047, q_gen_8046, q_gen_8031) -> q_gen_8031
<nil, nil>() -> q_gen_8031
<nil, b>() -> q_gen_8046
<b, nil>() -> q_gen_8047
<b, b>() -> q_gen_8048
}

Datatype: <eltlist, eltlist>
Convolution form: complete
}}}

}
--
Equality automata are defined for: {eq_elt, eq_eltlist, eq_nat}
_|

Teacher's answer:
New clause system:
{
() -> insert([x, nil, cons(x, nil)]) -> 3  ;  () -> length([nil, z]) -> 3  ;  () -> leq([a, y]) -> 3  ;  () -> leq([b, b]) -> 3  ;  () -> sort([nil, nil]) -> 3  ;  (insert([x, z, _ms]) /\ not leq([x, y])) -> insert([x, cons(y, z), cons(y, _ms)]) -> 4  ;  (insert([y, _rs, _ss]) /\ sort([z, _rs])) -> sort([cons(y, z), _ss]) -> 4  ;  (length([_bt, _ct]) /\ length([l, _at]) /\ sort([l, _bt])) -> eq_nat([_at, _ct]) -> 2  ;  (length([ll, _ws])) -> length([cons(x, ll), s(_ws)]) -> 4  ;  (leq([x, y])) -> insert([x, cons(y, z), cons(x, cons(y, z))]) -> 4  ;  (leq([b, a])) -> BOT -> 2
}
Sat witness: Yes: ((insert([x, z, _ms]) /\ not leq([x, y])) -> insert([x, cons(y, z), cons(y, _ms)]), {
_ms -> cons(b, nil)  ;  x -> b  ;  y -> a  ;  z -> nil
})

-------------------------------------------
Step 9, which took 0.008265 s (model generation: 0.008255,  model checking: 0.000010):

Model:
|_
{
insert -> 
{{{
Q={q_gen_8035, q_gen_8036, q_gen_8037, q_gen_8039, q_gen_8040, q_gen_8041, q_gen_8042},
Q_f={q_gen_8035},
Delta=
{
<nil>() -> q_gen_8036
<b>() -> q_gen_8037
<nil, cons>(q_gen_8037, q_gen_8036) -> q_gen_8039
<nil, a>() -> q_gen_8040
<a, cons>(q_gen_8037, q_gen_8036) -> q_gen_8041
<b, cons>(q_gen_8037, q_gen_8036) -> q_gen_8041
<a, a>() -> q_gen_8042
<b, a>() -> q_gen_8042
<a, cons, cons>(q_gen_8042, q_gen_8041, q_gen_8040, q_gen_8039) -> q_gen_8035
<b, cons, cons>(q_gen_8042, q_gen_8041, q_gen_8040, q_gen_8039) -> q_gen_8035
<b, nil, cons>(q_gen_8037, q_gen_8036) -> q_gen_8035
}

Datatype: <elt, eltlist, eltlist>
Convolution form: complete
}}}
  ;  length -> 
{{{
Q={q_gen_8034, q_gen_8044},
Q_f={q_gen_8034},
Delta=
{
<cons, s>(q_gen_8044, q_gen_8034) -> q_gen_8034
<nil, z>() -> q_gen_8034
<b, z>() -> q_gen_8044
}

Datatype: <eltlist, nat>
Convolution form: complete
}}}
  ;  leq -> 
{{{
Q={q_gen_8032},
Q_f={q_gen_8032},
Delta=
{
<a, b>() -> q_gen_8032
<b, a>() -> q_gen_8032
<b, b>() -> q_gen_8032
}

Datatype: <elt, elt>
Convolution form: complete
}}}
  ;  sort -> 
{{{
Q={q_gen_8031, q_gen_8046, q_gen_8047, q_gen_8048},
Q_f={q_gen_8031},
Delta=
{
<cons, cons>(q_gen_8048, q_gen_8047, q_gen_8046, q_gen_8031) -> q_gen_8031
<nil, nil>() -> q_gen_8031
<nil, b>() -> q_gen_8046
<b, nil>() -> q_gen_8047
<b, b>() -> q_gen_8048
}

Datatype: <eltlist, eltlist>
Convolution form: complete
}}}

}
--
Equality automata are defined for: {eq_elt, eq_eltlist, eq_nat}
_|

Teacher's answer:
New clause system:
{
() -> insert([x, nil, cons(x, nil)]) -> 3  ;  () -> length([nil, z]) -> 3  ;  () -> leq([a, y]) -> 3  ;  () -> leq([b, b]) -> 3  ;  () -> sort([nil, nil]) -> 3  ;  (insert([x, z, _ms]) /\ not leq([x, y])) -> insert([x, cons(y, z), cons(y, _ms)]) -> 4  ;  (insert([y, _rs, _ss]) /\ sort([z, _rs])) -> sort([cons(y, z), _ss]) -> 4  ;  (length([_bt, _ct]) /\ length([l, _at]) /\ sort([l, _bt])) -> eq_nat([_at, _ct]) -> 2  ;  (length([ll, _ws])) -> length([cons(x, ll), s(_ws)]) -> 4  ;  (leq([x, y])) -> insert([x, cons(y, z), cons(x, cons(y, z))]) -> 4  ;  (leq([b, a])) -> BOT -> 5
}
Sat witness: Yes: ((leq([b, a])) -> BOT, {

})

-------------------------------------------
Step 10, which took 0.007237 s (model generation: 0.006305,  model checking: 0.000932):

Model:
|_
{
insert -> 
{{{
Q={q_gen_8035, q_gen_8036, q_gen_8037, q_gen_8039, q_gen_8040, q_gen_8041, q_gen_8042},
Q_f={q_gen_8035},
Delta=
{
<nil>() -> q_gen_8036
<b>() -> q_gen_8037
<nil, cons>(q_gen_8037, q_gen_8036) -> q_gen_8039
<nil, a>() -> q_gen_8040
<a, cons>(q_gen_8037, q_gen_8036) -> q_gen_8041
<b, cons>(q_gen_8037, q_gen_8036) -> q_gen_8041
<a, a>() -> q_gen_8042
<b, a>() -> q_gen_8042
<a, cons, cons>(q_gen_8042, q_gen_8041, q_gen_8040, q_gen_8039) -> q_gen_8035
<b, cons, cons>(q_gen_8042, q_gen_8041, q_gen_8040, q_gen_8039) -> q_gen_8035
<b, nil, cons>(q_gen_8037, q_gen_8036) -> q_gen_8035
}

Datatype: <elt, eltlist, eltlist>
Convolution form: complete
}}}
  ;  length -> 
{{{
Q={q_gen_8034, q_gen_8044},
Q_f={q_gen_8034},
Delta=
{
<cons, s>(q_gen_8044, q_gen_8034) -> q_gen_8034
<nil, z>() -> q_gen_8034
<b, z>() -> q_gen_8044
}

Datatype: <eltlist, nat>
Convolution form: complete
}}}
  ;  leq -> 
{{{
Q={q_gen_8032, q_gen_8049},
Q_f={q_gen_8032},
Delta=
{
<a, b>() -> q_gen_8032
<b, b>() -> q_gen_8032
<b, a>() -> q_gen_8049
}

Datatype: <elt, elt>
Convolution form: complete
}}}
  ;  sort -> 
{{{
Q={q_gen_8031, q_gen_8046, q_gen_8047, q_gen_8048},
Q_f={q_gen_8031},
Delta=
{
<cons, cons>(q_gen_8048, q_gen_8047, q_gen_8046, q_gen_8031) -> q_gen_8031
<nil, nil>() -> q_gen_8031
<nil, b>() -> q_gen_8046
<b, nil>() -> q_gen_8047
<b, b>() -> q_gen_8048
}

Datatype: <eltlist, eltlist>
Convolution form: complete
}}}

}
--
Equality automata are defined for: {eq_elt, eq_eltlist, eq_nat}
_|

Teacher's answer:
New clause system:
{
() -> insert([x, nil, cons(x, nil)]) -> 3  ;  () -> length([nil, z]) -> 3  ;  () -> leq([a, y]) -> 6  ;  () -> leq([b, b]) -> 4  ;  () -> sort([nil, nil]) -> 4  ;  (insert([x, z, _ms]) /\ not leq([x, y])) -> insert([x, cons(y, z), cons(y, _ms)]) -> 4  ;  (insert([y, _rs, _ss]) /\ sort([z, _rs])) -> sort([cons(y, z), _ss]) -> 4  ;  (length([_bt, _ct]) /\ length([l, _at]) /\ sort([l, _bt])) -> eq_nat([_at, _ct]) -> 3  ;  (length([ll, _ws])) -> length([cons(x, ll), s(_ws)]) -> 4  ;  (leq([x, y])) -> insert([x, cons(y, z), cons(x, cons(y, z))]) -> 4  ;  (leq([b, a])) -> BOT -> 5
}
Sat witness: Yes: (() -> leq([a, y]), {
y -> a
})

-------------------------------------------
Step 11, which took 0.012506 s (model generation: 0.011457,  model checking: 0.001049):

Model:
|_
{
insert -> 
{{{
Q={q_gen_8035, q_gen_8036, q_gen_8037, q_gen_8039, q_gen_8040, q_gen_8041, q_gen_8042},
Q_f={q_gen_8035},
Delta=
{
<nil>() -> q_gen_8036
<b>() -> q_gen_8037
<nil, cons>(q_gen_8037, q_gen_8036) -> q_gen_8039
<nil, a>() -> q_gen_8040
<a, cons>(q_gen_8037, q_gen_8036) -> q_gen_8041
<b, cons>(q_gen_8037, q_gen_8036) -> q_gen_8041
<a, a>() -> q_gen_8042
<b, a>() -> q_gen_8042
<a, cons, cons>(q_gen_8042, q_gen_8041, q_gen_8040, q_gen_8039) -> q_gen_8035
<b, cons, cons>(q_gen_8042, q_gen_8041, q_gen_8040, q_gen_8039) -> q_gen_8035
<b, nil, cons>(q_gen_8037, q_gen_8036) -> q_gen_8035
}

Datatype: <elt, eltlist, eltlist>
Convolution form: complete
}}}
  ;  length -> 
{{{
Q={q_gen_8034, q_gen_8044},
Q_f={q_gen_8034},
Delta=
{
<cons, s>(q_gen_8044, q_gen_8034) -> q_gen_8034
<nil, z>() -> q_gen_8034
<b, z>() -> q_gen_8044
}

Datatype: <eltlist, nat>
Convolution form: complete
}}}
  ;  leq -> 
{{{
Q={q_gen_8032, q_gen_8049},
Q_f={q_gen_8032},
Delta=
{
<a, a>() -> q_gen_8032
<a, b>() -> q_gen_8032
<b, b>() -> q_gen_8032
<b, a>() -> q_gen_8049
}

Datatype: <elt, elt>
Convolution form: complete
}}}
  ;  sort -> 
{{{
Q={q_gen_8031, q_gen_8046, q_gen_8047, q_gen_8048},
Q_f={q_gen_8031},
Delta=
{
<cons, cons>(q_gen_8048, q_gen_8047, q_gen_8046, q_gen_8031) -> q_gen_8031
<nil, nil>() -> q_gen_8031
<nil, b>() -> q_gen_8046
<b, nil>() -> q_gen_8047
<b, b>() -> q_gen_8048
}

Datatype: <eltlist, eltlist>
Convolution form: complete
}}}

}
--
Equality automata are defined for: {eq_elt, eq_eltlist, eq_nat}
_|

Teacher's answer:
New clause system:
{
() -> insert([x, nil, cons(x, nil)]) -> 6  ;  () -> length([nil, z]) -> 4  ;  () -> leq([a, y]) -> 6  ;  () -> leq([b, b]) -> 4  ;  () -> sort([nil, nil]) -> 4  ;  (insert([x, z, _ms]) /\ not leq([x, y])) -> insert([x, cons(y, z), cons(y, _ms)]) -> 4  ;  (insert([y, _rs, _ss]) /\ sort([z, _rs])) -> sort([cons(y, z), _ss]) -> 4  ;  (length([_bt, _ct]) /\ length([l, _at]) /\ sort([l, _bt])) -> eq_nat([_at, _ct]) -> 4  ;  (length([ll, _ws])) -> length([cons(x, ll), s(_ws)]) -> 4  ;  (leq([x, y])) -> insert([x, cons(y, z), cons(x, cons(y, z))]) -> 4  ;  (leq([b, a])) -> BOT -> 5
}
Sat witness: Yes: (() -> insert([x, nil, cons(x, nil)]), {
x -> a
})

-------------------------------------------
Step 12, which took 0.018961 s (model generation: 0.011551,  model checking: 0.007410):

Model:
|_
{
insert -> 
{{{
Q={q_gen_8035, q_gen_8036, q_gen_8037, q_gen_8039, q_gen_8040, q_gen_8041, q_gen_8042},
Q_f={q_gen_8035},
Delta=
{
<nil>() -> q_gen_8036
<a>() -> q_gen_8037
<b>() -> q_gen_8037
<nil, cons>(q_gen_8037, q_gen_8036) -> q_gen_8039
<nil, a>() -> q_gen_8040
<a, cons>(q_gen_8037, q_gen_8036) -> q_gen_8041
<b, cons>(q_gen_8037, q_gen_8036) -> q_gen_8041
<a, a>() -> q_gen_8042
<b, a>() -> q_gen_8042
<a, cons, cons>(q_gen_8042, q_gen_8041, q_gen_8040, q_gen_8039) -> q_gen_8035
<a, nil, cons>(q_gen_8037, q_gen_8036) -> q_gen_8035
<b, cons, cons>(q_gen_8042, q_gen_8041, q_gen_8040, q_gen_8039) -> q_gen_8035
<b, nil, cons>(q_gen_8037, q_gen_8036) -> q_gen_8035
}

Datatype: <elt, eltlist, eltlist>
Convolution form: complete
}}}
  ;  length -> 
{{{
Q={q_gen_8034, q_gen_8044},
Q_f={q_gen_8034},
Delta=
{
<cons, s>(q_gen_8044, q_gen_8034) -> q_gen_8034
<nil, z>() -> q_gen_8034
<b, z>() -> q_gen_8044
}

Datatype: <eltlist, nat>
Convolution form: complete
}}}
  ;  leq -> 
{{{
Q={q_gen_8032, q_gen_8049},
Q_f={q_gen_8032},
Delta=
{
<a, a>() -> q_gen_8032
<a, b>() -> q_gen_8032
<b, b>() -> q_gen_8032
<b, a>() -> q_gen_8049
}

Datatype: <elt, elt>
Convolution form: complete
}}}
  ;  sort -> 
{{{
Q={q_gen_8031, q_gen_8046, q_gen_8047, q_gen_8048},
Q_f={q_gen_8031},
Delta=
{
<cons, cons>(q_gen_8048, q_gen_8047, q_gen_8046, q_gen_8031) -> q_gen_8031
<nil, nil>() -> q_gen_8031
<nil, b>() -> q_gen_8046
<b, nil>() -> q_gen_8047
<b, b>() -> q_gen_8048
}

Datatype: <eltlist, eltlist>
Convolution form: complete
}}}

}
--
Equality automata are defined for: {eq_elt, eq_eltlist, eq_nat}
_|

Teacher's answer:
New clause system:
{
() -> insert([x, nil, cons(x, nil)]) -> 6  ;  () -> length([nil, z]) -> 4  ;  () -> leq([a, y]) -> 6  ;  () -> leq([b, b]) -> 4  ;  () -> sort([nil, nil]) -> 4  ;  (insert([x, z, _ms]) /\ not leq([x, y])) -> insert([x, cons(y, z), cons(y, _ms)]) -> 4  ;  (insert([y, _rs, _ss]) /\ sort([z, _rs])) -> sort([cons(y, z), _ss]) -> 4  ;  (length([_bt, _ct]) /\ length([l, _at]) /\ sort([l, _bt])) -> eq_nat([_at, _ct]) -> 4  ;  (length([ll, _ws])) -> length([cons(x, ll), s(_ws)]) -> 4  ;  (leq([x, y])) -> insert([x, cons(y, z), cons(x, cons(y, z))]) -> 7  ;  (leq([b, a])) -> BOT -> 5
}
Sat witness: Yes: ((leq([x, y])) -> insert([x, cons(y, z), cons(x, cons(y, z))]), {
x -> b  ;  y -> b  ;  z -> nil
})

-------------------------------------------
Step 13, which took 0.004365 s (model generation: 0.004205,  model checking: 0.000160):

Model:
|_
{
insert -> 
{{{
Q={q_gen_8035, q_gen_8036, q_gen_8037, q_gen_8039, q_gen_8040, q_gen_8041, q_gen_8042},
Q_f={q_gen_8035},
Delta=
{
<nil>() -> q_gen_8036
<a>() -> q_gen_8037
<b>() -> q_gen_8037
<nil, cons>(q_gen_8037, q_gen_8036) -> q_gen_8039
<nil, a>() -> q_gen_8040
<nil, b>() -> q_gen_8040
<a, cons>(q_gen_8037, q_gen_8036) -> q_gen_8041
<b, cons>(q_gen_8037, q_gen_8036) -> q_gen_8041
<a, a>() -> q_gen_8042
<b, a>() -> q_gen_8042
<b, b>() -> q_gen_8042
<a, cons, cons>(q_gen_8042, q_gen_8041, q_gen_8040, q_gen_8039) -> q_gen_8035
<a, nil, cons>(q_gen_8037, q_gen_8036) -> q_gen_8035
<b, cons, cons>(q_gen_8042, q_gen_8041, q_gen_8040, q_gen_8039) -> q_gen_8035
<b, nil, cons>(q_gen_8037, q_gen_8036) -> q_gen_8035
}

Datatype: <elt, eltlist, eltlist>
Convolution form: complete
}}}
  ;  length -> 
{{{
Q={q_gen_8034, q_gen_8044},
Q_f={q_gen_8034},
Delta=
{
<cons, s>(q_gen_8044, q_gen_8034) -> q_gen_8034
<nil, z>() -> q_gen_8034
<b, z>() -> q_gen_8044
}

Datatype: <eltlist, nat>
Convolution form: complete
}}}
  ;  leq -> 
{{{
Q={q_gen_8032, q_gen_8049},
Q_f={q_gen_8032},
Delta=
{
<a, a>() -> q_gen_8032
<a, b>() -> q_gen_8032
<b, b>() -> q_gen_8032
<b, a>() -> q_gen_8049
}

Datatype: <elt, elt>
Convolution form: complete
}}}
  ;  sort -> 
{{{
Q={q_gen_8031, q_gen_8046, q_gen_8047, q_gen_8048},
Q_f={q_gen_8031},
Delta=
{
<cons, cons>(q_gen_8048, q_gen_8047, q_gen_8046, q_gen_8031) -> q_gen_8031
<nil, nil>() -> q_gen_8031
<nil, b>() -> q_gen_8046
<b, nil>() -> q_gen_8047
<b, b>() -> q_gen_8048
}

Datatype: <eltlist, eltlist>
Convolution form: complete
}}}

}
--
Equality automata are defined for: {eq_elt, eq_eltlist, eq_nat}
_|

Teacher's answer:
New clause system:
{
() -> insert([x, nil, cons(x, nil)]) -> 6  ;  () -> length([nil, z]) -> 4  ;  () -> leq([a, y]) -> 6  ;  () -> leq([b, b]) -> 4  ;  () -> sort([nil, nil]) -> 4  ;  (insert([x, z, _ms]) /\ not leq([x, y])) -> insert([x, cons(y, z), cons(y, _ms)]) -> 4  ;  (insert([y, _rs, _ss]) /\ sort([z, _rs])) -> sort([cons(y, z), _ss]) -> 4  ;  (length([_bt, _ct]) /\ length([l, _at]) /\ sort([l, _bt])) -> eq_nat([_at, _ct]) -> 4  ;  (length([ll, _ws])) -> length([cons(x, ll), s(_ws)]) -> 7  ;  (leq([x, y])) -> insert([x, cons(y, z), cons(x, cons(y, z))]) -> 7  ;  (leq([b, a])) -> BOT -> 5
}
Sat witness: Yes: ((length([ll, _ws])) -> length([cons(x, ll), s(_ws)]), {
_ws -> z  ;  ll -> nil  ;  x -> a
})

-------------------------------------------
Step 14, which took 0.010608 s (model generation: 0.008498,  model checking: 0.002110):

Model:
|_
{
insert -> 
{{{
Q={q_gen_8035, q_gen_8036, q_gen_8037, q_gen_8039, q_gen_8040, q_gen_8041, q_gen_8042},
Q_f={q_gen_8035},
Delta=
{
<nil>() -> q_gen_8036
<a>() -> q_gen_8037
<b>() -> q_gen_8037
<nil, cons>(q_gen_8037, q_gen_8036) -> q_gen_8039
<nil, a>() -> q_gen_8040
<nil, b>() -> q_gen_8040
<a, cons>(q_gen_8037, q_gen_8036) -> q_gen_8041
<b, cons>(q_gen_8037, q_gen_8036) -> q_gen_8041
<a, a>() -> q_gen_8042
<b, a>() -> q_gen_8042
<b, b>() -> q_gen_8042
<a, cons, cons>(q_gen_8042, q_gen_8041, q_gen_8040, q_gen_8039) -> q_gen_8035
<a, nil, cons>(q_gen_8037, q_gen_8036) -> q_gen_8035
<b, cons, cons>(q_gen_8042, q_gen_8041, q_gen_8040, q_gen_8039) -> q_gen_8035
<b, nil, cons>(q_gen_8037, q_gen_8036) -> q_gen_8035
}

Datatype: <elt, eltlist, eltlist>
Convolution form: complete
}}}
  ;  length -> 
{{{
Q={q_gen_8034, q_gen_8044},
Q_f={q_gen_8034},
Delta=
{
<cons, s>(q_gen_8044, q_gen_8034) -> q_gen_8034
<nil, z>() -> q_gen_8034
<a, z>() -> q_gen_8044
<b, z>() -> q_gen_8044
}

Datatype: <eltlist, nat>
Convolution form: complete
}}}
  ;  leq -> 
{{{
Q={q_gen_8032, q_gen_8049},
Q_f={q_gen_8032},
Delta=
{
<a, a>() -> q_gen_8032
<a, b>() -> q_gen_8032
<b, b>() -> q_gen_8032
<b, a>() -> q_gen_8049
}

Datatype: <elt, elt>
Convolution form: complete
}}}
  ;  sort -> 
{{{
Q={q_gen_8031, q_gen_8046, q_gen_8047, q_gen_8048},
Q_f={q_gen_8031},
Delta=
{
<cons, cons>(q_gen_8048, q_gen_8047, q_gen_8046, q_gen_8031) -> q_gen_8031
<nil, nil>() -> q_gen_8031
<nil, b>() -> q_gen_8046
<b, nil>() -> q_gen_8047
<b, b>() -> q_gen_8048
}

Datatype: <eltlist, eltlist>
Convolution form: complete
}}}

}
--
Equality automata are defined for: {eq_elt, eq_eltlist, eq_nat}
_|

Teacher's answer:
New clause system:
{
() -> insert([x, nil, cons(x, nil)]) -> 6  ;  () -> length([nil, z]) -> 4  ;  () -> leq([a, y]) -> 6  ;  () -> leq([b, b]) -> 4  ;  () -> sort([nil, nil]) -> 4  ;  (insert([x, z, _ms]) /\ not leq([x, y])) -> insert([x, cons(y, z), cons(y, _ms)]) -> 4  ;  (insert([y, _rs, _ss]) /\ sort([z, _rs])) -> sort([cons(y, z), _ss]) -> 7  ;  (length([_bt, _ct]) /\ length([l, _at]) /\ sort([l, _bt])) -> eq_nat([_at, _ct]) -> 5  ;  (length([ll, _ws])) -> length([cons(x, ll), s(_ws)]) -> 7  ;  (leq([x, y])) -> insert([x, cons(y, z), cons(x, cons(y, z))]) -> 7  ;  (leq([b, a])) -> BOT -> 5
}
Sat witness: Yes: ((insert([y, _rs, _ss]) /\ sort([z, _rs])) -> sort([cons(y, z), _ss]), {
_rs -> nil  ;  _ss -> cons(b, nil)  ;  y -> a  ;  z -> nil
})

-------------------------------------------
Step 15, which took 0.019591 s (model generation: 0.007222,  model checking: 0.012369):

Model:
|_
{
insert -> 
{{{
Q={q_gen_8035, q_gen_8036, q_gen_8037, q_gen_8039, q_gen_8040, q_gen_8041, q_gen_8042},
Q_f={q_gen_8035},
Delta=
{
<nil>() -> q_gen_8036
<a>() -> q_gen_8037
<b>() -> q_gen_8037
<nil, cons>(q_gen_8037, q_gen_8036) -> q_gen_8039
<nil, a>() -> q_gen_8040
<nil, b>() -> q_gen_8040
<a, cons>(q_gen_8037, q_gen_8036) -> q_gen_8041
<b, cons>(q_gen_8037, q_gen_8036) -> q_gen_8041
<a, a>() -> q_gen_8042
<b, a>() -> q_gen_8042
<b, b>() -> q_gen_8042
<a, cons, cons>(q_gen_8042, q_gen_8041, q_gen_8040, q_gen_8039) -> q_gen_8035
<a, nil, cons>(q_gen_8037, q_gen_8036) -> q_gen_8035
<b, cons, cons>(q_gen_8042, q_gen_8041, q_gen_8040, q_gen_8039) -> q_gen_8035
<b, nil, cons>(q_gen_8037, q_gen_8036) -> q_gen_8035
}

Datatype: <elt, eltlist, eltlist>
Convolution form: complete
}}}
  ;  length -> 
{{{
Q={q_gen_8034, q_gen_8044},
Q_f={q_gen_8034},
Delta=
{
<cons, s>(q_gen_8044, q_gen_8034) -> q_gen_8034
<nil, z>() -> q_gen_8034
<a, z>() -> q_gen_8044
<b, z>() -> q_gen_8044
}

Datatype: <eltlist, nat>
Convolution form: complete
}}}
  ;  leq -> 
{{{
Q={q_gen_8032, q_gen_8049},
Q_f={q_gen_8032},
Delta=
{
<a, a>() -> q_gen_8032
<a, b>() -> q_gen_8032
<b, b>() -> q_gen_8032
<b, a>() -> q_gen_8049
}

Datatype: <elt, elt>
Convolution form: complete
}}}
  ;  sort -> 
{{{
Q={q_gen_8031, q_gen_8046, q_gen_8047, q_gen_8048},
Q_f={q_gen_8031},
Delta=
{
<cons, cons>(q_gen_8048, q_gen_8047, q_gen_8046, q_gen_8031) -> q_gen_8031
<nil, nil>() -> q_gen_8031
<nil, b>() -> q_gen_8046
<a, nil>() -> q_gen_8047
<b, nil>() -> q_gen_8047
<a, b>() -> q_gen_8048
<b, b>() -> q_gen_8048
}

Datatype: <eltlist, eltlist>
Convolution form: complete
}}}

}
--
Equality automata are defined for: {eq_elt, eq_eltlist, eq_nat}
_|

Teacher's answer:
New clause system:
{
() -> insert([x, nil, cons(x, nil)]) -> 6  ;  () -> length([nil, z]) -> 4  ;  () -> leq([a, y]) -> 6  ;  () -> leq([b, b]) -> 4  ;  () -> sort([nil, nil]) -> 4  ;  (insert([x, z, _ms]) /\ not leq([x, y])) -> insert([x, cons(y, z), cons(y, _ms)]) -> 7  ;  (insert([y, _rs, _ss]) /\ sort([z, _rs])) -> sort([cons(y, z), _ss]) -> 7  ;  (length([_bt, _ct]) /\ length([l, _at]) /\ sort([l, _bt])) -> eq_nat([_at, _ct]) -> 5  ;  (length([ll, _ws])) -> length([cons(x, ll), s(_ws)]) -> 7  ;  (leq([x, y])) -> insert([x, cons(y, z), cons(x, cons(y, z))]) -> 7  ;  (leq([b, a])) -> BOT -> 5
}
Sat witness: Yes: ((insert([x, z, _ms]) /\ not leq([x, y])) -> insert([x, cons(y, z), cons(y, _ms)]), {
_ms -> cons(b, cons(b, nil))  ;  x -> b  ;  y -> a  ;  z -> cons(b, nil)
})

-------------------------------------------
Step 16, which took 0.014169 s (model generation: 0.009686,  model checking: 0.004483):

Model:
|_
{
insert -> 
{{{
Q={q_gen_8035, q_gen_8036, q_gen_8037, q_gen_8039, q_gen_8040, q_gen_8041, q_gen_8042},
Q_f={q_gen_8035},
Delta=
{
<cons>(q_gen_8037, q_gen_8036) -> q_gen_8036
<nil>() -> q_gen_8036
<a>() -> q_gen_8037
<b>() -> q_gen_8037
<cons, cons>(q_gen_8042, q_gen_8041, q_gen_8040, q_gen_8039) -> q_gen_8039
<nil, cons>(q_gen_8037, q_gen_8036) -> q_gen_8039
<cons, a>(q_gen_8037, q_gen_8036) -> q_gen_8040
<nil, a>() -> q_gen_8040
<nil, b>() -> q_gen_8040
<a, cons>(q_gen_8037, q_gen_8036) -> q_gen_8041
<b, cons>(q_gen_8037, q_gen_8036) -> q_gen_8041
<a, a>() -> q_gen_8042
<b, a>() -> q_gen_8042
<b, b>() -> q_gen_8042
<a, cons, cons>(q_gen_8042, q_gen_8041, q_gen_8040, q_gen_8039) -> q_gen_8035
<a, nil, cons>(q_gen_8037, q_gen_8036) -> q_gen_8035
<b, cons, cons>(q_gen_8042, q_gen_8041, q_gen_8040, q_gen_8039) -> q_gen_8035
<b, nil, cons>(q_gen_8037, q_gen_8036) -> q_gen_8035
}

Datatype: <elt, eltlist, eltlist>
Convolution form: complete
}}}
  ;  length -> 
{{{
Q={q_gen_8034, q_gen_8044},
Q_f={q_gen_8034},
Delta=
{
<cons, s>(q_gen_8044, q_gen_8034) -> q_gen_8034
<nil, z>() -> q_gen_8034
<a, z>() -> q_gen_8044
<b, z>() -> q_gen_8044
}

Datatype: <eltlist, nat>
Convolution form: complete
}}}
  ;  leq -> 
{{{
Q={q_gen_8032, q_gen_8049},
Q_f={q_gen_8032},
Delta=
{
<a, a>() -> q_gen_8032
<a, b>() -> q_gen_8032
<b, b>() -> q_gen_8032
<b, a>() -> q_gen_8049
}

Datatype: <elt, elt>
Convolution form: complete
}}}
  ;  sort -> 
{{{
Q={q_gen_8031, q_gen_8046, q_gen_8047, q_gen_8048},
Q_f={q_gen_8031},
Delta=
{
<cons, cons>(q_gen_8048, q_gen_8047, q_gen_8046, q_gen_8031) -> q_gen_8031
<nil, nil>() -> q_gen_8031
<nil, b>() -> q_gen_8046
<a, nil>() -> q_gen_8047
<b, nil>() -> q_gen_8047
<a, b>() -> q_gen_8048
<b, b>() -> q_gen_8048
}

Datatype: <eltlist, eltlist>
Convolution form: complete
}}}

}
--
Equality automata are defined for: {eq_elt, eq_eltlist, eq_nat}
_|

Teacher's answer:
New clause system:
{
() -> insert([x, nil, cons(x, nil)]) -> 7  ;  () -> length([nil, z]) -> 5  ;  () -> leq([a, y]) -> 7  ;  () -> leq([b, b]) -> 5  ;  () -> sort([nil, nil]) -> 5  ;  (insert([x, z, _ms]) /\ not leq([x, y])) -> insert([x, cons(y, z), cons(y, _ms)]) -> 7  ;  (insert([y, _rs, _ss]) /\ sort([z, _rs])) -> sort([cons(y, z), _ss]) -> 7  ;  (length([_bt, _ct]) /\ length([l, _at]) /\ sort([l, _bt])) -> eq_nat([_at, _ct]) -> 6  ;  (length([ll, _ws])) -> length([cons(x, ll), s(_ws)]) -> 7  ;  (leq([x, y])) -> insert([x, cons(y, z), cons(x, cons(y, z))]) -> 10  ;  (leq([b, a])) -> BOT -> 6
}
Sat witness: Yes: ((leq([x, y])) -> insert([x, cons(y, z), cons(x, cons(y, z))]), {
x -> b  ;  y -> b  ;  z -> cons(b, nil)
})

-------------------------------------------
Step 17, which took 0.013750 s (model generation: 0.012888,  model checking: 0.000862):

Model:
|_
{
insert -> 
{{{
Q={q_gen_8035, q_gen_8036, q_gen_8037, q_gen_8039, q_gen_8040, q_gen_8041, q_gen_8042},
Q_f={q_gen_8035},
Delta=
{
<cons>(q_gen_8037, q_gen_8036) -> q_gen_8036
<nil>() -> q_gen_8036
<a>() -> q_gen_8037
<b>() -> q_gen_8037
<cons, cons>(q_gen_8042, q_gen_8041, q_gen_8040, q_gen_8039) -> q_gen_8039
<nil, cons>(q_gen_8037, q_gen_8036) -> q_gen_8039
<cons, a>(q_gen_8037, q_gen_8036) -> q_gen_8040
<cons, b>(q_gen_8037, q_gen_8036) -> q_gen_8040
<nil, a>() -> q_gen_8040
<nil, b>() -> q_gen_8040
<a, cons>(q_gen_8037, q_gen_8036) -> q_gen_8041
<b, cons>(q_gen_8037, q_gen_8036) -> q_gen_8041
<a, a>() -> q_gen_8042
<b, a>() -> q_gen_8042
<b, b>() -> q_gen_8042
<a, cons, cons>(q_gen_8042, q_gen_8041, q_gen_8040, q_gen_8039) -> q_gen_8035
<a, nil, cons>(q_gen_8037, q_gen_8036) -> q_gen_8035
<b, cons, cons>(q_gen_8042, q_gen_8041, q_gen_8040, q_gen_8039) -> q_gen_8035
<b, nil, cons>(q_gen_8037, q_gen_8036) -> q_gen_8035
}

Datatype: <elt, eltlist, eltlist>
Convolution form: complete
}}}
  ;  length -> 
{{{
Q={q_gen_8034, q_gen_8044},
Q_f={q_gen_8034},
Delta=
{
<cons, s>(q_gen_8044, q_gen_8034) -> q_gen_8034
<nil, z>() -> q_gen_8034
<a, z>() -> q_gen_8044
<b, z>() -> q_gen_8044
}

Datatype: <eltlist, nat>
Convolution form: complete
}}}
  ;  leq -> 
{{{
Q={q_gen_8032, q_gen_8049},
Q_f={q_gen_8032},
Delta=
{
<a, a>() -> q_gen_8032
<a, b>() -> q_gen_8032
<b, b>() -> q_gen_8032
<b, a>() -> q_gen_8049
}

Datatype: <elt, elt>
Convolution form: complete
}}}
  ;  sort -> 
{{{
Q={q_gen_8031, q_gen_8046, q_gen_8047, q_gen_8048},
Q_f={q_gen_8031},
Delta=
{
<cons, cons>(q_gen_8048, q_gen_8047, q_gen_8046, q_gen_8031) -> q_gen_8031
<nil, nil>() -> q_gen_8031
<nil, b>() -> q_gen_8046
<a, nil>() -> q_gen_8047
<b, nil>() -> q_gen_8047
<a, b>() -> q_gen_8048
<b, b>() -> q_gen_8048
}

Datatype: <eltlist, eltlist>
Convolution form: complete
}}}

}
--
Equality automata are defined for: {eq_elt, eq_eltlist, eq_nat}
_|

Teacher's answer:
New clause system:
{
() -> insert([x, nil, cons(x, nil)]) -> 7  ;  () -> length([nil, z]) -> 6  ;  () -> leq([a, y]) -> 7  ;  () -> leq([b, b]) -> 6  ;  () -> sort([nil, nil]) -> 6  ;  (insert([x, z, _ms]) /\ not leq([x, y])) -> insert([x, cons(y, z), cons(y, _ms)]) -> 7  ;  (insert([y, _rs, _ss]) /\ sort([z, _rs])) -> sort([cons(y, z), _ss]) -> 7  ;  (length([_bt, _ct]) /\ length([l, _at]) /\ sort([l, _bt])) -> eq_nat([_at, _ct]) -> 7  ;  (length([ll, _ws])) -> length([cons(x, ll), s(_ws)]) -> 10  ;  (leq([x, y])) -> insert([x, cons(y, z), cons(x, cons(y, z))]) -> 10  ;  (leq([b, a])) -> BOT -> 7
}
Sat witness: Yes: ((length([ll, _ws])) -> length([cons(x, ll), s(_ws)]), {
_ws -> s(z)  ;  ll -> cons(a, nil)  ;  x -> b
})

-------------------------------------------
Step 18, which took 0.016303 s (model generation: 0.013714,  model checking: 0.002589):

Model:
|_
{
insert -> 
{{{
Q={q_gen_8035, q_gen_8036, q_gen_8037, q_gen_8039, q_gen_8040, q_gen_8041, q_gen_8042},
Q_f={q_gen_8035},
Delta=
{
<cons>(q_gen_8037, q_gen_8036) -> q_gen_8036
<nil>() -> q_gen_8036
<a>() -> q_gen_8037
<b>() -> q_gen_8037
<cons, cons>(q_gen_8042, q_gen_8041, q_gen_8040, q_gen_8039) -> q_gen_8039
<nil, cons>(q_gen_8037, q_gen_8036) -> q_gen_8039
<cons, a>(q_gen_8037, q_gen_8036) -> q_gen_8040
<cons, b>(q_gen_8037, q_gen_8036) -> q_gen_8040
<nil, a>() -> q_gen_8040
<nil, b>() -> q_gen_8040
<a, cons>(q_gen_8037, q_gen_8036) -> q_gen_8041
<b, cons>(q_gen_8037, q_gen_8036) -> q_gen_8041
<a, a>() -> q_gen_8042
<b, a>() -> q_gen_8042
<b, b>() -> q_gen_8042
<a, cons, cons>(q_gen_8042, q_gen_8041, q_gen_8040, q_gen_8039) -> q_gen_8035
<a, nil, cons>(q_gen_8037, q_gen_8036) -> q_gen_8035
<b, cons, cons>(q_gen_8042, q_gen_8041, q_gen_8040, q_gen_8039) -> q_gen_8035
<b, nil, cons>(q_gen_8037, q_gen_8036) -> q_gen_8035
}

Datatype: <elt, eltlist, eltlist>
Convolution form: complete
}}}
  ;  length -> 
{{{
Q={q_gen_8034, q_gen_8044, q_gen_8075},
Q_f={q_gen_8034},
Delta=
{
<z>() -> q_gen_8075
<cons, s>(q_gen_8044, q_gen_8034) -> q_gen_8034
<nil, z>() -> q_gen_8034
<a, z>() -> q_gen_8044
<b, s>(q_gen_8075) -> q_gen_8044
<b, z>() -> q_gen_8044
}

Datatype: <eltlist, nat>
Convolution form: complete
}}}
  ;  leq -> 
{{{
Q={q_gen_8032, q_gen_8049},
Q_f={q_gen_8032},
Delta=
{
<a, a>() -> q_gen_8032
<a, b>() -> q_gen_8032
<b, b>() -> q_gen_8032
<b, a>() -> q_gen_8049
}

Datatype: <elt, elt>
Convolution form: complete
}}}
  ;  sort -> 
{{{
Q={q_gen_8031, q_gen_8046, q_gen_8047, q_gen_8048},
Q_f={q_gen_8031},
Delta=
{
<cons, cons>(q_gen_8048, q_gen_8047, q_gen_8046, q_gen_8031) -> q_gen_8031
<nil, nil>() -> q_gen_8031
<nil, b>() -> q_gen_8046
<a, nil>() -> q_gen_8047
<b, nil>() -> q_gen_8047
<a, b>() -> q_gen_8048
<b, b>() -> q_gen_8048
}

Datatype: <eltlist, eltlist>
Convolution form: complete
}}}

}
--
Equality automata are defined for: {eq_elt, eq_eltlist, eq_nat}
_|

Teacher's answer:
New clause system:
{
() -> insert([x, nil, cons(x, nil)]) -> 7  ;  () -> length([nil, z]) -> 7  ;  () -> leq([a, y]) -> 7  ;  () -> leq([b, b]) -> 7  ;  () -> sort([nil, nil]) -> 7  ;  (insert([x, z, _ms]) /\ not leq([x, y])) -> insert([x, cons(y, z), cons(y, _ms)]) -> 7  ;  (insert([y, _rs, _ss]) /\ sort([z, _rs])) -> sort([cons(y, z), _ss]) -> 10  ;  (length([_bt, _ct]) /\ length([l, _at]) /\ sort([l, _bt])) -> eq_nat([_at, _ct]) -> 8  ;  (length([ll, _ws])) -> length([cons(x, ll), s(_ws)]) -> 10  ;  (leq([x, y])) -> insert([x, cons(y, z), cons(x, cons(y, z))]) -> 10  ;  (leq([b, a])) -> BOT -> 8
}
Sat witness: Yes: ((insert([y, _rs, _ss]) /\ sort([z, _rs])) -> sort([cons(y, z), _ss]), {
_rs -> nil  ;  _ss -> cons(a, cons(b, nil))  ;  y -> a  ;  z -> nil
})

-------------------------------------------
Step 19, which took 0.022932 s (model generation: 0.011494,  model checking: 0.011438):

Model:
|_
{
insert -> 
{{{
Q={q_gen_8035, q_gen_8036, q_gen_8037, q_gen_8039, q_gen_8040, q_gen_8041, q_gen_8042},
Q_f={q_gen_8035},
Delta=
{
<cons>(q_gen_8037, q_gen_8036) -> q_gen_8036
<nil>() -> q_gen_8036
<a>() -> q_gen_8037
<b>() -> q_gen_8037
<cons, cons>(q_gen_8042, q_gen_8041, q_gen_8040, q_gen_8039) -> q_gen_8039
<nil, cons>(q_gen_8037, q_gen_8036) -> q_gen_8039
<cons, a>(q_gen_8037, q_gen_8036) -> q_gen_8040
<cons, b>(q_gen_8037, q_gen_8036) -> q_gen_8040
<nil, a>() -> q_gen_8040
<nil, b>() -> q_gen_8040
<a, cons>(q_gen_8037, q_gen_8036) -> q_gen_8041
<b, cons>(q_gen_8037, q_gen_8036) -> q_gen_8041
<a, a>() -> q_gen_8042
<b, a>() -> q_gen_8042
<b, b>() -> q_gen_8042
<a, cons, cons>(q_gen_8042, q_gen_8041, q_gen_8040, q_gen_8039) -> q_gen_8035
<a, nil, cons>(q_gen_8037, q_gen_8036) -> q_gen_8035
<b, cons, cons>(q_gen_8042, q_gen_8041, q_gen_8040, q_gen_8039) -> q_gen_8035
<b, nil, cons>(q_gen_8037, q_gen_8036) -> q_gen_8035
}

Datatype: <elt, eltlist, eltlist>
Convolution form: complete
}}}
  ;  length -> 
{{{
Q={q_gen_8034, q_gen_8044, q_gen_8075},
Q_f={q_gen_8034},
Delta=
{
<z>() -> q_gen_8075
<cons, s>(q_gen_8044, q_gen_8034) -> q_gen_8034
<nil, z>() -> q_gen_8034
<a, z>() -> q_gen_8044
<b, s>(q_gen_8075) -> q_gen_8044
<b, z>() -> q_gen_8044
}

Datatype: <eltlist, nat>
Convolution form: complete
}}}
  ;  leq -> 
{{{
Q={q_gen_8032, q_gen_8049},
Q_f={q_gen_8032},
Delta=
{
<a, a>() -> q_gen_8032
<a, b>() -> q_gen_8032
<b, b>() -> q_gen_8032
<b, a>() -> q_gen_8049
}

Datatype: <elt, elt>
Convolution form: complete
}}}
  ;  sort -> 
{{{
Q={q_gen_8031, q_gen_8046, q_gen_8047, q_gen_8048, q_gen_8079, q_gen_8080},
Q_f={q_gen_8031},
Delta=
{
<nil>() -> q_gen_8079
<b>() -> q_gen_8080
<cons, cons>(q_gen_8048, q_gen_8047, q_gen_8046, q_gen_8031) -> q_gen_8031
<nil, cons>(q_gen_8080, q_gen_8079) -> q_gen_8031
<nil, nil>() -> q_gen_8031
<nil, a>() -> q_gen_8046
<nil, b>() -> q_gen_8046
<a, cons>(q_gen_8080, q_gen_8079) -> q_gen_8047
<a, nil>() -> q_gen_8047
<b, nil>() -> q_gen_8047
<a, a>() -> q_gen_8048
<a, b>() -> q_gen_8048
<b, b>() -> q_gen_8048
}

Datatype: <eltlist, eltlist>
Convolution form: complete
}}}

}
--
Equality automata are defined for: {eq_elt, eq_eltlist, eq_nat}
_|

Teacher's answer:
New clause system:
{
() -> insert([x, nil, cons(x, nil)]) -> 8  ;  () -> length([nil, z]) -> 8  ;  () -> leq([a, y]) -> 8  ;  () -> leq([b, b]) -> 8  ;  () -> sort([nil, nil]) -> 8  ;  (insert([x, z, _ms]) /\ not leq([x, y])) -> insert([x, cons(y, z), cons(y, _ms)]) -> 8  ;  (insert([y, _rs, _ss]) /\ sort([z, _rs])) -> sort([cons(y, z), _ss]) -> 10  ;  (length([_bt, _ct]) /\ length([l, _at]) /\ sort([l, _bt])) -> eq_nat([_at, _ct]) -> 11  ;  (length([ll, _ws])) -> length([cons(x, ll), s(_ws)]) -> 10  ;  (leq([x, y])) -> insert([x, cons(y, z), cons(x, cons(y, z))]) -> 10  ;  (leq([b, a])) -> BOT -> 9
}
Sat witness: Yes: ((length([_bt, _ct]) /\ length([l, _at]) /\ sort([l, _bt])) -> eq_nat([_at, _ct]), {
_at -> z  ;  _bt -> cons(b, nil)  ;  _ct -> s(z)  ;  l -> nil
})

-------------------------------------------
Step 20, which took 0.021212 s (model generation: 0.009791,  model checking: 0.011421):

Model:
|_
{
insert -> 
{{{
Q={q_gen_8035, q_gen_8036, q_gen_8037, q_gen_8039, q_gen_8040, q_gen_8041, q_gen_8042},
Q_f={q_gen_8035},
Delta=
{
<cons>(q_gen_8037, q_gen_8036) -> q_gen_8036
<nil>() -> q_gen_8036
<a>() -> q_gen_8037
<b>() -> q_gen_8037
<cons, cons>(q_gen_8042, q_gen_8041, q_gen_8040, q_gen_8039) -> q_gen_8039
<nil, cons>(q_gen_8037, q_gen_8036) -> q_gen_8039
<cons, a>(q_gen_8037, q_gen_8036) -> q_gen_8040
<cons, b>(q_gen_8037, q_gen_8036) -> q_gen_8040
<nil, a>() -> q_gen_8040
<nil, b>() -> q_gen_8040
<a, cons>(q_gen_8037, q_gen_8036) -> q_gen_8041
<b, cons>(q_gen_8037, q_gen_8036) -> q_gen_8041
<a, a>() -> q_gen_8042
<b, a>() -> q_gen_8042
<b, b>() -> q_gen_8042
<a, cons, cons>(q_gen_8042, q_gen_8041, q_gen_8040, q_gen_8039) -> q_gen_8035
<a, nil, cons>(q_gen_8037, q_gen_8036) -> q_gen_8035
<b, cons, cons>(q_gen_8042, q_gen_8041, q_gen_8040, q_gen_8039) -> q_gen_8035
<b, nil, cons>(q_gen_8037, q_gen_8036) -> q_gen_8035
}

Datatype: <elt, eltlist, eltlist>
Convolution form: complete
}}}
  ;  length -> 
{{{
Q={q_gen_8034, q_gen_8044, q_gen_8075},
Q_f={q_gen_8034},
Delta=
{
<z>() -> q_gen_8075
<cons, s>(q_gen_8044, q_gen_8034) -> q_gen_8034
<nil, z>() -> q_gen_8034
<a, z>() -> q_gen_8044
<b, s>(q_gen_8075) -> q_gen_8044
<b, z>() -> q_gen_8044
}

Datatype: <eltlist, nat>
Convolution form: complete
}}}
  ;  leq -> 
{{{
Q={q_gen_8032, q_gen_8049},
Q_f={q_gen_8032},
Delta=
{
<a, a>() -> q_gen_8032
<a, b>() -> q_gen_8032
<b, b>() -> q_gen_8032
<b, a>() -> q_gen_8049
}

Datatype: <elt, elt>
Convolution form: complete
}}}
  ;  sort -> 
{{{
Q={q_gen_8031, q_gen_8046, q_gen_8047, q_gen_8048, q_gen_8078, q_gen_8079, q_gen_8080},
Q_f={q_gen_8031},
Delta=
{
<nil>() -> q_gen_8079
<b>() -> q_gen_8080
<cons, cons>(q_gen_8048, q_gen_8047, q_gen_8046, q_gen_8031) -> q_gen_8031
<cons, cons>(q_gen_8048, q_gen_8047, q_gen_8046, q_gen_8078) -> q_gen_8031
<nil, nil>() -> q_gen_8031
<nil, a>() -> q_gen_8046
<nil, b>() -> q_gen_8046
<a, cons>(q_gen_8080, q_gen_8079) -> q_gen_8047
<a, nil>() -> q_gen_8047
<b, nil>() -> q_gen_8047
<a, a>() -> q_gen_8048
<a, b>() -> q_gen_8048
<b, b>() -> q_gen_8048
<nil, cons>(q_gen_8080, q_gen_8079) -> q_gen_8078
}

Datatype: <eltlist, eltlist>
Convolution form: complete
}}}

}
--
Equality automata are defined for: {eq_elt, eq_eltlist, eq_nat}
_|

Teacher's answer:
New clause system:
{
() -> insert([x, nil, cons(x, nil)]) -> 9  ;  () -> length([nil, z]) -> 9  ;  () -> leq([a, y]) -> 9  ;  () -> leq([b, b]) -> 9  ;  () -> sort([nil, nil]) -> 9  ;  (insert([x, z, _ms]) /\ not leq([x, y])) -> insert([x, cons(y, z), cons(y, _ms)]) -> 9  ;  (insert([y, _rs, _ss]) /\ sort([z, _rs])) -> sort([cons(y, z), _ss]) -> 10  ;  (length([_bt, _ct]) /\ length([l, _at]) /\ sort([l, _bt])) -> eq_nat([_at, _ct]) -> 11  ;  (length([ll, _ws])) -> length([cons(x, ll), s(_ws)]) -> 10  ;  (leq([x, y])) -> insert([x, cons(y, z), cons(x, cons(y, z))]) -> 13  ;  (leq([b, a])) -> BOT -> 10
}
Sat witness: Yes: ((leq([x, y])) -> insert([x, cons(y, z), cons(x, cons(y, z))]), {
x -> b  ;  y -> b  ;  z -> cons(a, nil)
})

-------------------------------------------
Step 21, which took 0.015500 s (model generation: 0.007576,  model checking: 0.007924):

Model:
|_
{
insert -> 
{{{
Q={q_gen_8035, q_gen_8036, q_gen_8037, q_gen_8039, q_gen_8040, q_gen_8041, q_gen_8042},
Q_f={q_gen_8035},
Delta=
{
<cons>(q_gen_8037, q_gen_8036) -> q_gen_8036
<nil>() -> q_gen_8036
<a>() -> q_gen_8037
<b>() -> q_gen_8037
<cons, cons>(q_gen_8042, q_gen_8041, q_gen_8040, q_gen_8039) -> q_gen_8039
<nil, cons>(q_gen_8037, q_gen_8036) -> q_gen_8039
<cons, a>(q_gen_8037, q_gen_8036) -> q_gen_8040
<cons, b>(q_gen_8037, q_gen_8036) -> q_gen_8040
<nil, a>() -> q_gen_8040
<nil, b>() -> q_gen_8040
<a, cons>(q_gen_8037, q_gen_8036) -> q_gen_8041
<b, cons>(q_gen_8037, q_gen_8036) -> q_gen_8041
<a, a>() -> q_gen_8042
<a, b>() -> q_gen_8042
<b, a>() -> q_gen_8042
<b, b>() -> q_gen_8042
<a, cons, cons>(q_gen_8042, q_gen_8041, q_gen_8040, q_gen_8039) -> q_gen_8035
<a, nil, cons>(q_gen_8037, q_gen_8036) -> q_gen_8035
<b, cons, cons>(q_gen_8042, q_gen_8041, q_gen_8040, q_gen_8039) -> q_gen_8035
<b, nil, cons>(q_gen_8037, q_gen_8036) -> q_gen_8035
}

Datatype: <elt, eltlist, eltlist>
Convolution form: complete
}}}
  ;  length -> 
{{{
Q={q_gen_8034, q_gen_8044, q_gen_8075},
Q_f={q_gen_8034},
Delta=
{
<z>() -> q_gen_8075
<cons, s>(q_gen_8044, q_gen_8034) -> q_gen_8034
<nil, z>() -> q_gen_8034
<a, z>() -> q_gen_8044
<b, s>(q_gen_8075) -> q_gen_8044
<b, z>() -> q_gen_8044
}

Datatype: <eltlist, nat>
Convolution form: complete
}}}
  ;  leq -> 
{{{
Q={q_gen_8032, q_gen_8049},
Q_f={q_gen_8032},
Delta=
{
<a, a>() -> q_gen_8032
<a, b>() -> q_gen_8032
<b, b>() -> q_gen_8032
<b, a>() -> q_gen_8049
}

Datatype: <elt, elt>
Convolution form: complete
}}}
  ;  sort -> 
{{{
Q={q_gen_8031, q_gen_8046, q_gen_8047, q_gen_8048, q_gen_8078, q_gen_8079, q_gen_8080},
Q_f={q_gen_8031},
Delta=
{
<nil>() -> q_gen_8079
<b>() -> q_gen_8080
<cons, cons>(q_gen_8048, q_gen_8047, q_gen_8046, q_gen_8031) -> q_gen_8031
<cons, cons>(q_gen_8048, q_gen_8047, q_gen_8046, q_gen_8078) -> q_gen_8031
<nil, nil>() -> q_gen_8031
<nil, a>() -> q_gen_8046
<nil, b>() -> q_gen_8046
<a, cons>(q_gen_8080, q_gen_8079) -> q_gen_8047
<a, nil>() -> q_gen_8047
<b, nil>() -> q_gen_8047
<a, a>() -> q_gen_8048
<a, b>() -> q_gen_8048
<b, b>() -> q_gen_8048
<nil, cons>(q_gen_8080, q_gen_8079) -> q_gen_8078
}

Datatype: <eltlist, eltlist>
Convolution form: complete
}}}

}
--
Equality automata are defined for: {eq_elt, eq_eltlist, eq_nat}
_|

Teacher's answer:
New clause system:
{
() -> insert([x, nil, cons(x, nil)]) -> 10  ;  () -> length([nil, z]) -> 10  ;  () -> leq([a, y]) -> 10  ;  () -> leq([b, b]) -> 10  ;  () -> sort([nil, nil]) -> 10  ;  (insert([x, z, _ms]) /\ not leq([x, y])) -> insert([x, cons(y, z), cons(y, _ms)]) -> 10  ;  (insert([y, _rs, _ss]) /\ sort([z, _rs])) -> sort([cons(y, z), _ss]) -> 10  ;  (length([_bt, _ct]) /\ length([l, _at]) /\ sort([l, _bt])) -> eq_nat([_at, _ct]) -> 11  ;  (length([ll, _ws])) -> length([cons(x, ll), s(_ws)]) -> 13  ;  (leq([x, y])) -> insert([x, cons(y, z), cons(x, cons(y, z))]) -> 13  ;  (leq([b, a])) -> BOT -> 11
}
Sat witness: Yes: ((length([ll, _ws])) -> length([cons(x, ll), s(_ws)]), {
_ws -> s(z)  ;  ll -> cons(b, nil)  ;  x -> a
})

-------------------------------------------
Step 22, which took 0.011941 s (model generation: 0.007965,  model checking: 0.003976):

Model:
|_
{
insert -> 
{{{
Q={q_gen_8035, q_gen_8036, q_gen_8037, q_gen_8039, q_gen_8040, q_gen_8041, q_gen_8042},
Q_f={q_gen_8035},
Delta=
{
<cons>(q_gen_8037, q_gen_8036) -> q_gen_8036
<nil>() -> q_gen_8036
<a>() -> q_gen_8037
<b>() -> q_gen_8037
<cons, cons>(q_gen_8042, q_gen_8041, q_gen_8040, q_gen_8039) -> q_gen_8039
<nil, cons>(q_gen_8037, q_gen_8036) -> q_gen_8039
<cons, a>(q_gen_8037, q_gen_8036) -> q_gen_8040
<cons, b>(q_gen_8037, q_gen_8036) -> q_gen_8040
<nil, a>() -> q_gen_8040
<nil, b>() -> q_gen_8040
<a, cons>(q_gen_8037, q_gen_8036) -> q_gen_8041
<b, cons>(q_gen_8037, q_gen_8036) -> q_gen_8041
<a, a>() -> q_gen_8042
<a, b>() -> q_gen_8042
<b, a>() -> q_gen_8042
<b, b>() -> q_gen_8042
<a, cons, cons>(q_gen_8042, q_gen_8041, q_gen_8040, q_gen_8039) -> q_gen_8035
<a, nil, cons>(q_gen_8037, q_gen_8036) -> q_gen_8035
<b, cons, cons>(q_gen_8042, q_gen_8041, q_gen_8040, q_gen_8039) -> q_gen_8035
<b, nil, cons>(q_gen_8037, q_gen_8036) -> q_gen_8035
}

Datatype: <elt, eltlist, eltlist>
Convolution form: complete
}}}
  ;  length -> 
{{{
Q={q_gen_8034, q_gen_8044, q_gen_8075},
Q_f={q_gen_8034},
Delta=
{
<z>() -> q_gen_8075
<cons, s>(q_gen_8044, q_gen_8034) -> q_gen_8034
<nil, z>() -> q_gen_8034
<a, s>(q_gen_8075) -> q_gen_8044
<a, z>() -> q_gen_8044
<b, s>(q_gen_8075) -> q_gen_8044
<b, z>() -> q_gen_8044
}

Datatype: <eltlist, nat>
Convolution form: complete
}}}
  ;  leq -> 
{{{
Q={q_gen_8032, q_gen_8049},
Q_f={q_gen_8032},
Delta=
{
<a, a>() -> q_gen_8032
<a, b>() -> q_gen_8032
<b, b>() -> q_gen_8032
<b, a>() -> q_gen_8049
}

Datatype: <elt, elt>
Convolution form: complete
}}}
  ;  sort -> 
{{{
Q={q_gen_8031, q_gen_8046, q_gen_8047, q_gen_8048, q_gen_8078, q_gen_8079, q_gen_8080},
Q_f={q_gen_8031},
Delta=
{
<nil>() -> q_gen_8079
<b>() -> q_gen_8080
<cons, cons>(q_gen_8048, q_gen_8047, q_gen_8046, q_gen_8031) -> q_gen_8031
<cons, cons>(q_gen_8048, q_gen_8047, q_gen_8046, q_gen_8078) -> q_gen_8031
<nil, nil>() -> q_gen_8031
<nil, a>() -> q_gen_8046
<nil, b>() -> q_gen_8046
<a, cons>(q_gen_8080, q_gen_8079) -> q_gen_8047
<a, nil>() -> q_gen_8047
<b, nil>() -> q_gen_8047
<a, a>() -> q_gen_8048
<a, b>() -> q_gen_8048
<b, b>() -> q_gen_8048
<nil, cons>(q_gen_8080, q_gen_8079) -> q_gen_8078
}

Datatype: <eltlist, eltlist>
Convolution form: complete
}}}

}
--
Equality automata are defined for: {eq_elt, eq_eltlist, eq_nat}
_|

Teacher's answer:
New clause system:
{
() -> insert([x, nil, cons(x, nil)]) -> 10  ;  () -> length([nil, z]) -> 10  ;  () -> leq([a, y]) -> 10  ;  () -> leq([b, b]) -> 10  ;  () -> sort([nil, nil]) -> 10  ;  (insert([x, z, _ms]) /\ not leq([x, y])) -> insert([x, cons(y, z), cons(y, _ms)]) -> 10  ;  (insert([y, _rs, _ss]) /\ sort([z, _rs])) -> sort([cons(y, z), _ss]) -> 13  ;  (length([_bt, _ct]) /\ length([l, _at]) /\ sort([l, _bt])) -> eq_nat([_at, _ct]) -> 11  ;  (length([ll, _ws])) -> length([cons(x, ll), s(_ws)]) -> 13  ;  (leq([x, y])) -> insert([x, cons(y, z), cons(x, cons(y, z))]) -> 13  ;  (leq([b, a])) -> BOT -> 11
}
Sat witness: Yes: ((insert([y, _rs, _ss]) /\ sort([z, _rs])) -> sort([cons(y, z), _ss]), {
_rs -> nil  ;  _ss -> cons(a, cons(a, nil))  ;  y -> b  ;  z -> nil
})

-------------------------------------------
Step 23, which took 0.020572 s (model generation: 0.010133,  model checking: 0.010439):

Model:
|_
{
insert -> 
{{{
Q={q_gen_8035, q_gen_8036, q_gen_8037, q_gen_8039, q_gen_8040, q_gen_8041, q_gen_8042},
Q_f={q_gen_8035},
Delta=
{
<cons>(q_gen_8037, q_gen_8036) -> q_gen_8036
<nil>() -> q_gen_8036
<a>() -> q_gen_8037
<b>() -> q_gen_8037
<cons, cons>(q_gen_8042, q_gen_8041, q_gen_8040, q_gen_8039) -> q_gen_8039
<nil, cons>(q_gen_8037, q_gen_8036) -> q_gen_8039
<cons, a>(q_gen_8037, q_gen_8036) -> q_gen_8040
<cons, b>(q_gen_8037, q_gen_8036) -> q_gen_8040
<nil, a>() -> q_gen_8040
<nil, b>() -> q_gen_8040
<a, cons>(q_gen_8037, q_gen_8036) -> q_gen_8041
<b, cons>(q_gen_8037, q_gen_8036) -> q_gen_8041
<a, a>() -> q_gen_8042
<a, b>() -> q_gen_8042
<b, a>() -> q_gen_8042
<b, b>() -> q_gen_8042
<a, cons, cons>(q_gen_8042, q_gen_8041, q_gen_8040, q_gen_8039) -> q_gen_8035
<a, nil, cons>(q_gen_8037, q_gen_8036) -> q_gen_8035
<b, cons, cons>(q_gen_8042, q_gen_8041, q_gen_8040, q_gen_8039) -> q_gen_8035
<b, nil, cons>(q_gen_8037, q_gen_8036) -> q_gen_8035
}

Datatype: <elt, eltlist, eltlist>
Convolution form: complete
}}}
  ;  length -> 
{{{
Q={q_gen_8034, q_gen_8044, q_gen_8075},
Q_f={q_gen_8034},
Delta=
{
<z>() -> q_gen_8075
<cons, s>(q_gen_8044, q_gen_8034) -> q_gen_8034
<nil, z>() -> q_gen_8034
<a, s>(q_gen_8075) -> q_gen_8044
<a, z>() -> q_gen_8044
<b, s>(q_gen_8075) -> q_gen_8044
<b, z>() -> q_gen_8044
}

Datatype: <eltlist, nat>
Convolution form: complete
}}}
  ;  leq -> 
{{{
Q={q_gen_8032, q_gen_8049},
Q_f={q_gen_8032},
Delta=
{
<a, a>() -> q_gen_8032
<a, b>() -> q_gen_8032
<b, b>() -> q_gen_8032
<b, a>() -> q_gen_8049
}

Datatype: <elt, elt>
Convolution form: complete
}}}
  ;  sort -> 
{{{
Q={q_gen_8031, q_gen_8046, q_gen_8047, q_gen_8048, q_gen_8078, q_gen_8079, q_gen_8080},
Q_f={q_gen_8031},
Delta=
{
<nil>() -> q_gen_8079
<a>() -> q_gen_8080
<b>() -> q_gen_8080
<cons, cons>(q_gen_8048, q_gen_8047, q_gen_8046, q_gen_8031) -> q_gen_8031
<cons, cons>(q_gen_8048, q_gen_8047, q_gen_8046, q_gen_8078) -> q_gen_8031
<nil, nil>() -> q_gen_8031
<nil, a>() -> q_gen_8046
<nil, b>() -> q_gen_8046
<a, cons>(q_gen_8080, q_gen_8079) -> q_gen_8047
<a, nil>() -> q_gen_8047
<b, cons>(q_gen_8080, q_gen_8079) -> q_gen_8047
<b, nil>() -> q_gen_8047
<a, a>() -> q_gen_8048
<a, b>() -> q_gen_8048
<b, a>() -> q_gen_8048
<b, b>() -> q_gen_8048
<nil, cons>(q_gen_8080, q_gen_8079) -> q_gen_8078
}

Datatype: <eltlist, eltlist>
Convolution form: complete
}}}

}
--
Equality automata are defined for: {eq_elt, eq_eltlist, eq_nat}
_|

Teacher's answer:
New clause system:
{
() -> insert([x, nil, cons(x, nil)]) -> 11  ;  () -> length([nil, z]) -> 11  ;  () -> leq([a, y]) -> 11  ;  () -> leq([b, b]) -> 11  ;  () -> sort([nil, nil]) -> 11  ;  (insert([x, z, _ms]) /\ not leq([x, y])) -> insert([x, cons(y, z), cons(y, _ms)]) -> 11  ;  (insert([y, _rs, _ss]) /\ sort([z, _rs])) -> sort([cons(y, z), _ss]) -> 13  ;  (length([_bt, _ct]) /\ length([l, _at]) /\ sort([l, _bt])) -> eq_nat([_at, _ct]) -> 14  ;  (length([ll, _ws])) -> length([cons(x, ll), s(_ws)]) -> 13  ;  (leq([x, y])) -> insert([x, cons(y, z), cons(x, cons(y, z))]) -> 13  ;  (leq([b, a])) -> BOT -> 12
}
Sat witness: Yes: ((length([_bt, _ct]) /\ length([l, _at]) /\ sort([l, _bt])) -> eq_nat([_at, _ct]), {
_at -> s(z)  ;  _bt -> cons(a, cons(b, nil))  ;  _ct -> s(s(z))  ;  l -> cons(b, nil)
})

-------------------------------------------
Step 24, which took 0.642736 s (model generation: 0.009761,  model checking: 0.632975):

Model:
|_
{
insert -> 
{{{
Q={q_gen_8035, q_gen_8036, q_gen_8037, q_gen_8039, q_gen_8040, q_gen_8041, q_gen_8042, q_gen_8069, q_gen_8076},
Q_f={q_gen_8035},
Delta=
{
<nil>() -> q_gen_8036
<a>() -> q_gen_8037
<b>() -> q_gen_8037
<cons>(q_gen_8037, q_gen_8036) -> q_gen_8069
<cons, cons>(q_gen_8042, q_gen_8041, q_gen_8040, q_gen_8039) -> q_gen_8039
<nil, cons>(q_gen_8037, q_gen_8036) -> q_gen_8039
<cons, a>(q_gen_8037, q_gen_8036) -> q_gen_8040
<cons, b>(q_gen_8037, q_gen_8036) -> q_gen_8040
<nil, a>() -> q_gen_8040
<nil, b>() -> q_gen_8040
<a, cons>(q_gen_8037, q_gen_8036) -> q_gen_8041
<a, cons>(q_gen_8037, q_gen_8069) -> q_gen_8041
<b, cons>(q_gen_8037, q_gen_8036) -> q_gen_8041
<b, cons>(q_gen_8037, q_gen_8069) -> q_gen_8041
<a, a>() -> q_gen_8042
<a, b>() -> q_gen_8042
<b, a>() -> q_gen_8042
<b, b>() -> q_gen_8042
<a, cons, cons>(q_gen_8042, q_gen_8041, q_gen_8040, q_gen_8039) -> q_gen_8035
<a, nil, cons>(q_gen_8037, q_gen_8036) -> q_gen_8035
<b, cons, cons>(q_gen_8042, q_gen_8041, q_gen_8040, q_gen_8039) -> q_gen_8035
<b, nil, cons>(q_gen_8037, q_gen_8036) -> q_gen_8035
<a, nil, cons>(q_gen_8037, q_gen_8069) -> q_gen_8076
<b, nil, cons>(q_gen_8037, q_gen_8069) -> q_gen_8076
}

Datatype: <elt, eltlist, eltlist>
Convolution form: complete
}}}
  ;  length -> 
{{{
Q={q_gen_8034, q_gen_8044, q_gen_8075},
Q_f={q_gen_8034},
Delta=
{
<z>() -> q_gen_8075
<cons, s>(q_gen_8044, q_gen_8034) -> q_gen_8034
<nil, z>() -> q_gen_8034
<a, s>(q_gen_8075) -> q_gen_8044
<a, z>() -> q_gen_8044
<b, s>(q_gen_8075) -> q_gen_8044
<b, z>() -> q_gen_8044
}

Datatype: <eltlist, nat>
Convolution form: complete
}}}
  ;  leq -> 
{{{
Q={q_gen_8032, q_gen_8049},
Q_f={q_gen_8032},
Delta=
{
<a, a>() -> q_gen_8032
<a, b>() -> q_gen_8032
<b, b>() -> q_gen_8032
<b, a>() -> q_gen_8049
}

Datatype: <elt, elt>
Convolution form: complete
}}}
  ;  sort -> 
{{{
Q={q_gen_8031, q_gen_8046, q_gen_8047, q_gen_8048, q_gen_8077, q_gen_8079, q_gen_8080},
Q_f={q_gen_8031},
Delta=
{
<nil>() -> q_gen_8079
<a>() -> q_gen_8080
<b>() -> q_gen_8080
<cons, cons>(q_gen_8048, q_gen_8047, q_gen_8046, q_gen_8031) -> q_gen_8031
<nil, nil>() -> q_gen_8031
<nil, a>() -> q_gen_8046
<nil, b>() -> q_gen_8046
<a, cons>(q_gen_8080, q_gen_8079) -> q_gen_8047
<a, nil>() -> q_gen_8047
<b, cons>(q_gen_8080, q_gen_8079) -> q_gen_8047
<b, nil>() -> q_gen_8047
<a, a>() -> q_gen_8048
<a, b>() -> q_gen_8048
<b, a>() -> q_gen_8048
<b, b>() -> q_gen_8048
<cons, cons>(q_gen_8048, q_gen_8047, q_gen_8046, q_gen_8077) -> q_gen_8077
<nil, cons>(q_gen_8080, q_gen_8079) -> q_gen_8077
}

Datatype: <eltlist, eltlist>
Convolution form: complete
}}}

}
--
Equality automata are defined for: {eq_elt, eq_eltlist, eq_nat}
_|

Teacher's answer:
New clause system:
{
() -> insert([x, nil, cons(x, nil)]) -> 11  ;  () -> length([nil, z]) -> 11  ;  () -> leq([a, y]) -> 11  ;  () -> leq([b, b]) -> 11  ;  () -> sort([nil, nil]) -> 11  ;  (insert([x, z, _ms]) /\ not leq([x, y])) -> insert([x, cons(y, z), cons(y, _ms)]) -> 14  ;  (insert([y, _rs, _ss]) /\ sort([z, _rs])) -> sort([cons(y, z), _ss]) -> 13  ;  (length([_bt, _ct]) /\ length([l, _at]) /\ sort([l, _bt])) -> eq_nat([_at, _ct]) -> 14  ;  (length([ll, _ws])) -> length([cons(x, ll), s(_ws)]) -> 13  ;  (leq([x, y])) -> insert([x, cons(y, z), cons(x, cons(y, z))]) -> 13  ;  (leq([b, a])) -> BOT -> 12
}
Sat witness: Yes: ((insert([x, z, _ms]) /\ not leq([x, y])) -> insert([x, cons(y, z), cons(y, _ms)]), {
_ms -> cons(a, cons(b, cons(b, nil)))  ;  x -> b  ;  y -> a  ;  z -> cons(a, cons(a, nil))
})

-------------------------------------------
Step 25, which took 0.013781 s (model generation: 0.012226,  model checking: 0.001555):

Model:
|_
{
insert -> 
{{{
Q={q_gen_8035, q_gen_8036, q_gen_8037, q_gen_8039, q_gen_8040, q_gen_8041, q_gen_8042},
Q_f={q_gen_8035},
Delta=
{
<cons>(q_gen_8037, q_gen_8036) -> q_gen_8036
<nil>() -> q_gen_8036
<a>() -> q_gen_8037
<b>() -> q_gen_8037
<cons, cons>(q_gen_8042, q_gen_8041, q_gen_8040, q_gen_8039) -> q_gen_8039
<nil, cons>(q_gen_8037, q_gen_8036) -> q_gen_8039
<cons, a>(q_gen_8037, q_gen_8036) -> q_gen_8040
<cons, b>(q_gen_8037, q_gen_8036) -> q_gen_8040
<nil, a>() -> q_gen_8040
<nil, b>() -> q_gen_8040
<a, cons>(q_gen_8037, q_gen_8036) -> q_gen_8041
<b, cons>(q_gen_8037, q_gen_8036) -> q_gen_8041
<a, a>() -> q_gen_8042
<a, b>() -> q_gen_8042
<b, a>() -> q_gen_8042
<b, b>() -> q_gen_8042
<a, cons, cons>(q_gen_8042, q_gen_8041, q_gen_8040, q_gen_8039) -> q_gen_8035
<a, nil, cons>(q_gen_8037, q_gen_8036) -> q_gen_8035
<b, cons, cons>(q_gen_8042, q_gen_8041, q_gen_8040, q_gen_8039) -> q_gen_8035
<b, nil, cons>(q_gen_8037, q_gen_8036) -> q_gen_8035
}

Datatype: <elt, eltlist, eltlist>
Convolution form: complete
}}}
  ;  length -> 
{{{
Q={q_gen_8034, q_gen_8044, q_gen_8075},
Q_f={q_gen_8034},
Delta=
{
<z>() -> q_gen_8075
<cons, s>(q_gen_8044, q_gen_8034) -> q_gen_8034
<nil, z>() -> q_gen_8034
<a, s>(q_gen_8075) -> q_gen_8044
<a, z>() -> q_gen_8044
<b, s>(q_gen_8075) -> q_gen_8044
<b, z>() -> q_gen_8044
}

Datatype: <eltlist, nat>
Convolution form: complete
}}}
  ;  leq -> 
{{{
Q={q_gen_8032, q_gen_8049},
Q_f={q_gen_8032},
Delta=
{
<a, a>() -> q_gen_8032
<a, b>() -> q_gen_8032
<b, b>() -> q_gen_8032
<b, a>() -> q_gen_8049
}

Datatype: <elt, elt>
Convolution form: complete
}}}
  ;  sort -> 
{{{
Q={q_gen_8031, q_gen_8046, q_gen_8047, q_gen_8048, q_gen_8078, q_gen_8079, q_gen_8080, q_gen_8082, q_gen_8097},
Q_f={q_gen_8031},
Delta=
{
<nil>() -> q_gen_8079
<b>() -> q_gen_8080
<a>() -> q_gen_8097
<cons, cons>(q_gen_8048, q_gen_8047, q_gen_8046, q_gen_8031) -> q_gen_8031
<cons, cons>(q_gen_8048, q_gen_8082, q_gen_8046, q_gen_8078) -> q_gen_8031
<nil, nil>() -> q_gen_8031
<nil, a>() -> q_gen_8046
<nil, b>() -> q_gen_8046
<a, nil>() -> q_gen_8047
<b, cons>(q_gen_8080, q_gen_8079) -> q_gen_8047
<b, nil>() -> q_gen_8047
<a, a>() -> q_gen_8048
<a, b>() -> q_gen_8048
<b, a>() -> q_gen_8048
<b, b>() -> q_gen_8048
<cons, cons>(q_gen_8048, q_gen_8047, q_gen_8046, q_gen_8078) -> q_gen_8078
<nil, cons>(q_gen_8080, q_gen_8079) -> q_gen_8078
<nil, cons>(q_gen_8097, q_gen_8079) -> q_gen_8078
<a, cons>(q_gen_8080, q_gen_8079) -> q_gen_8082
<b, cons>(q_gen_8097, q_gen_8079) -> q_gen_8082
}

Datatype: <eltlist, eltlist>
Convolution form: complete
}}}

}
--
Equality automata are defined for: {eq_elt, eq_eltlist, eq_nat}
_|

Teacher's answer:
New clause system:
{
() -> insert([x, nil, cons(x, nil)]) -> 12  ;  () -> length([nil, z]) -> 12  ;  () -> leq([a, y]) -> 12  ;  () -> leq([b, b]) -> 12  ;  () -> sort([nil, nil]) -> 12  ;  (insert([x, z, _ms]) /\ not leq([x, y])) -> insert([x, cons(y, z), cons(y, _ms)]) -> 14  ;  (insert([y, _rs, _ss]) /\ sort([z, _rs])) -> sort([cons(y, z), _ss]) -> 13  ;  (length([_bt, _ct]) /\ length([l, _at]) /\ sort([l, _bt])) -> eq_nat([_at, _ct]) -> 14  ;  (length([ll, _ws])) -> length([cons(x, ll), s(_ws)]) -> 16  ;  (leq([x, y])) -> insert([x, cons(y, z), cons(x, cons(y, z))]) -> 14  ;  (leq([b, a])) -> BOT -> 13
}
Sat witness: Yes: ((length([ll, _ws])) -> length([cons(x, ll), s(_ws)]), {
_ws -> s(s(z))  ;  ll -> cons(b, cons(b, nil))  ;  x -> b
})

-------------------------------------------
Step 26, which took 0.014084 s (model generation: 0.012829,  model checking: 0.001255):

Model:
|_
{
insert -> 
{{{
Q={q_gen_8035, q_gen_8036, q_gen_8037, q_gen_8039, q_gen_8040, q_gen_8041, q_gen_8042},
Q_f={q_gen_8035},
Delta=
{
<cons>(q_gen_8037, q_gen_8036) -> q_gen_8036
<nil>() -> q_gen_8036
<a>() -> q_gen_8037
<b>() -> q_gen_8037
<cons, cons>(q_gen_8042, q_gen_8041, q_gen_8040, q_gen_8039) -> q_gen_8039
<nil, cons>(q_gen_8037, q_gen_8036) -> q_gen_8039
<cons, a>(q_gen_8037, q_gen_8036) -> q_gen_8040
<cons, b>(q_gen_8037, q_gen_8036) -> q_gen_8040
<nil, a>() -> q_gen_8040
<nil, b>() -> q_gen_8040
<a, cons>(q_gen_8037, q_gen_8036) -> q_gen_8041
<b, cons>(q_gen_8037, q_gen_8036) -> q_gen_8041
<a, a>() -> q_gen_8042
<a, b>() -> q_gen_8042
<b, a>() -> q_gen_8042
<b, b>() -> q_gen_8042
<a, cons, cons>(q_gen_8042, q_gen_8041, q_gen_8040, q_gen_8039) -> q_gen_8035
<a, nil, cons>(q_gen_8037, q_gen_8036) -> q_gen_8035
<b, cons, cons>(q_gen_8042, q_gen_8041, q_gen_8040, q_gen_8039) -> q_gen_8035
<b, nil, cons>(q_gen_8037, q_gen_8036) -> q_gen_8035
}

Datatype: <elt, eltlist, eltlist>
Convolution form: complete
}}}
  ;  length -> 
{{{
Q={q_gen_8034, q_gen_8044, q_gen_8075},
Q_f={q_gen_8034},
Delta=
{
<s>(q_gen_8075) -> q_gen_8075
<z>() -> q_gen_8075
<cons, s>(q_gen_8044, q_gen_8034) -> q_gen_8034
<nil, z>() -> q_gen_8034
<a, s>(q_gen_8075) -> q_gen_8044
<a, z>() -> q_gen_8044
<b, s>(q_gen_8075) -> q_gen_8044
<b, z>() -> q_gen_8044
}

Datatype: <eltlist, nat>
Convolution form: complete
}}}
  ;  leq -> 
{{{
Q={q_gen_8032, q_gen_8049},
Q_f={q_gen_8032},
Delta=
{
<a, a>() -> q_gen_8032
<a, b>() -> q_gen_8032
<b, b>() -> q_gen_8032
<b, a>() -> q_gen_8049
}

Datatype: <elt, elt>
Convolution form: complete
}}}
  ;  sort -> 
{{{
Q={q_gen_8031, q_gen_8046, q_gen_8047, q_gen_8048, q_gen_8064, q_gen_8078, q_gen_8079, q_gen_8080, q_gen_8097},
Q_f={q_gen_8031},
Delta=
{
<nil>() -> q_gen_8079
<b>() -> q_gen_8080
<a>() -> q_gen_8097
<cons, cons>(q_gen_8048, q_gen_8047, q_gen_8046, q_gen_8031) -> q_gen_8031
<cons, cons>(q_gen_8064, q_gen_8047, q_gen_8046, q_gen_8031) -> q_gen_8031
<cons, cons>(q_gen_8064, q_gen_8047, q_gen_8046, q_gen_8078) -> q_gen_8031
<nil, cons>(q_gen_8097, q_gen_8079) -> q_gen_8031
<nil, nil>() -> q_gen_8031
<nil, a>() -> q_gen_8046
<nil, b>() -> q_gen_8046
<a, cons>(q_gen_8080, q_gen_8079) -> q_gen_8047
<a, nil>() -> q_gen_8047
<b, cons>(q_gen_8080, q_gen_8079) -> q_gen_8047
<b, cons>(q_gen_8097, q_gen_8079) -> q_gen_8047
<b, nil>() -> q_gen_8047
<b, a>() -> q_gen_8048
<b, b>() -> q_gen_8048
<a, a>() -> q_gen_8064
<a, b>() -> q_gen_8064
<cons, cons>(q_gen_8048, q_gen_8047, q_gen_8046, q_gen_8078) -> q_gen_8078
<nil, cons>(q_gen_8080, q_gen_8079) -> q_gen_8078
}

Datatype: <eltlist, eltlist>
Convolution form: complete
}}}

}
--
Equality automata are defined for: {eq_elt, eq_eltlist, eq_nat}
_|

Teacher's answer:
New clause system:
{
() -> insert([x, nil, cons(x, nil)]) -> 13  ;  () -> length([nil, z]) -> 13  ;  () -> leq([a, y]) -> 13  ;  () -> leq([b, b]) -> 13  ;  () -> sort([nil, nil]) -> 13  ;  (insert([x, z, _ms]) /\ not leq([x, y])) -> insert([x, cons(y, z), cons(y, _ms)]) -> 14  ;  (insert([y, _rs, _ss]) /\ sort([z, _rs])) -> sort([cons(y, z), _ss]) -> 16  ;  (length([_bt, _ct]) /\ length([l, _at]) /\ sort([l, _bt])) -> eq_nat([_at, _ct]) -> 14  ;  (length([ll, _ws])) -> length([cons(x, ll), s(_ws)]) -> 16  ;  (leq([x, y])) -> insert([x, cons(y, z), cons(x, cons(y, z))]) -> 14  ;  (leq([b, a])) -> BOT -> 14
}
Sat witness: Yes: ((insert([y, _rs, _ss]) /\ sort([z, _rs])) -> sort([cons(y, z), _ss]), {
_rs -> nil  ;  _ss -> cons(b, cons(b, nil))  ;  y -> b  ;  z -> nil
})

-------------------------------------------
Step 27, which took 0.092779 s (model generation: 0.015321,  model checking: 0.077458):

Model:
|_
{
insert -> 
{{{
Q={q_gen_8035, q_gen_8036, q_gen_8037, q_gen_8039, q_gen_8040, q_gen_8041, q_gen_8042, q_gen_8069, q_gen_8076},
Q_f={q_gen_8035},
Delta=
{
<nil>() -> q_gen_8036
<a>() -> q_gen_8037
<b>() -> q_gen_8037
<cons>(q_gen_8037, q_gen_8036) -> q_gen_8069
<cons>(q_gen_8037, q_gen_8069) -> q_gen_8069
<cons, cons>(q_gen_8042, q_gen_8041, q_gen_8040, q_gen_8039) -> q_gen_8039
<nil, cons>(q_gen_8037, q_gen_8036) -> q_gen_8039
<cons, a>(q_gen_8037, q_gen_8036) -> q_gen_8040
<cons, a>(q_gen_8037, q_gen_8069) -> q_gen_8040
<cons, b>(q_gen_8037, q_gen_8036) -> q_gen_8040
<nil, a>() -> q_gen_8040
<nil, b>() -> q_gen_8040
<a, cons>(q_gen_8037, q_gen_8036) -> q_gen_8041
<a, cons>(q_gen_8037, q_gen_8069) -> q_gen_8041
<b, cons>(q_gen_8037, q_gen_8036) -> q_gen_8041
<b, cons>(q_gen_8037, q_gen_8069) -> q_gen_8041
<a, a>() -> q_gen_8042
<a, b>() -> q_gen_8042
<b, a>() -> q_gen_8042
<b, b>() -> q_gen_8042
<a, cons, cons>(q_gen_8042, q_gen_8041, q_gen_8040, q_gen_8039) -> q_gen_8035
<a, nil, cons>(q_gen_8037, q_gen_8036) -> q_gen_8035
<b, cons, cons>(q_gen_8042, q_gen_8041, q_gen_8040, q_gen_8039) -> q_gen_8035
<b, nil, cons>(q_gen_8037, q_gen_8036) -> q_gen_8035
<a, nil, cons>(q_gen_8037, q_gen_8069) -> q_gen_8076
<b, nil, cons>(q_gen_8037, q_gen_8069) -> q_gen_8076
}

Datatype: <elt, eltlist, eltlist>
Convolution form: complete
}}}
  ;  length -> 
{{{
Q={q_gen_8034, q_gen_8044, q_gen_8075},
Q_f={q_gen_8034},
Delta=
{
<s>(q_gen_8075) -> q_gen_8075
<z>() -> q_gen_8075
<cons, s>(q_gen_8044, q_gen_8034) -> q_gen_8034
<nil, z>() -> q_gen_8034
<a, s>(q_gen_8075) -> q_gen_8044
<a, z>() -> q_gen_8044
<b, s>(q_gen_8075) -> q_gen_8044
<b, z>() -> q_gen_8044
}

Datatype: <eltlist, nat>
Convolution form: complete
}}}
  ;  leq -> 
{{{
Q={q_gen_8032, q_gen_8049},
Q_f={q_gen_8032},
Delta=
{
<a, a>() -> q_gen_8032
<a, b>() -> q_gen_8032
<b, b>() -> q_gen_8032
<b, a>() -> q_gen_8049
}

Datatype: <elt, elt>
Convolution form: complete
}}}
  ;  sort -> 
{{{
Q={q_gen_8031, q_gen_8046, q_gen_8047, q_gen_8048, q_gen_8077, q_gen_8079, q_gen_8080},
Q_f={q_gen_8031},
Delta=
{
<nil>() -> q_gen_8079
<a>() -> q_gen_8080
<b>() -> q_gen_8080
<cons, cons>(q_gen_8048, q_gen_8047, q_gen_8046, q_gen_8031) -> q_gen_8031
<nil, nil>() -> q_gen_8031
<nil, a>() -> q_gen_8046
<nil, b>() -> q_gen_8046
<a, cons>(q_gen_8080, q_gen_8079) -> q_gen_8047
<a, nil>() -> q_gen_8047
<b, cons>(q_gen_8080, q_gen_8079) -> q_gen_8047
<b, nil>() -> q_gen_8047
<a, a>() -> q_gen_8048
<a, b>() -> q_gen_8048
<b, a>() -> q_gen_8048
<b, b>() -> q_gen_8048
<cons, cons>(q_gen_8048, q_gen_8047, q_gen_8046, q_gen_8077) -> q_gen_8077
<nil, cons>(q_gen_8080, q_gen_8079) -> q_gen_8077
}

Datatype: <eltlist, eltlist>
Convolution form: complete
}}}

}
--
Equality automata are defined for: {eq_elt, eq_eltlist, eq_nat}
_|

Teacher's answer:
New clause system:
{
() -> insert([x, nil, cons(x, nil)]) -> 14  ;  () -> length([nil, z]) -> 14  ;  () -> leq([a, y]) -> 14  ;  () -> leq([b, b]) -> 14  ;  () -> sort([nil, nil]) -> 14  ;  (insert([x, z, _ms]) /\ not leq([x, y])) -> insert([x, cons(y, z), cons(y, _ms)]) -> 14  ;  (insert([y, _rs, _ss]) /\ sort([z, _rs])) -> sort([cons(y, z), _ss]) -> 16  ;  (length([_bt, _ct]) /\ length([l, _at]) /\ sort([l, _bt])) -> eq_nat([_at, _ct]) -> 14  ;  (length([ll, _ws])) -> length([cons(x, ll), s(_ws)]) -> 16  ;  (leq([x, y])) -> insert([x, cons(y, z), cons(x, cons(y, z))]) -> 17  ;  (leq([b, a])) -> BOT -> 15
}
Sat witness: Yes: ((leq([x, y])) -> insert([x, cons(y, z), cons(x, cons(y, z))]), {
x -> b  ;  y -> b  ;  z -> cons(b, cons(b, nil))
})

Total time: 20.006765
Reason for stopping: DontKnow. Stopped because: timeout

