Solving ../../../../benchmarks/smtlib/true/insert_length_leq.smt2...

Inference procedure has parameters:
Ice fuel: 200
Timeout: 20s
Convolution: complete


Learning problem is:

env: {
elt -> {a, b}  ;  eltlist -> {cons, nil}  ;  nat -> {s, z}
}
definition:
{
(leq, P:
{() -> leq([a, y])
() -> leq([b, b])
(leq([b, a])) -> BOT}
)
(insert, F:
{() -> insert([x, nil, cons(x, nil)])
(insert([x, z, _db]) /\ not leq([x, y])) -> insert([x, cons(y, z), cons(y, _db)])
(leq([x, y])) -> insert([x, cons(y, z), cons(x, cons(y, z))])}
(insert([_eb, _fb, _gb]) /\ insert([_eb, _fb, _hb])) -> eq_eltlist([_gb, _hb])
)
(length, F:
{() -> length([nil, z])
(length([ll, _ib])) -> length([cons(x, ll), s(_ib)])}
(length([_jb, _kb]) /\ length([_jb, _lb])) -> eq_nat([_kb, _lb])
)
(leqnat, P:
{() -> leqnat([z, s(nn2)])
() -> leqnat([z, z])
(leqnat([nn1, nn2])) -> leqnat([s(nn1), s(nn2)])
(leqnat([s(nn1), s(nn2)])) -> leqnat([nn1, nn2])
(leqnat([s(nn1), z])) -> BOT}
)
}

properties:
{(insert([x, l, _nb]) /\ length([_nb, _ob]) /\ length([l, _mb])) -> leqnat([_mb, _ob])}


over-approximation: {insert, length}
under-approximation: {leq, leqnat}

Clause system for inference is:

{
() -> insert([x, nil, cons(x, nil)]) -> 0  ;  () -> length([nil, z]) -> 0  ;  () -> leq([a, y]) -> 0  ;  () -> leq([b, b]) -> 0  ;  () -> leqnat([z, s(nn2)]) -> 0  ;  () -> leqnat([z, z]) -> 0  ;  (insert([x, l, _nb]) /\ length([_nb, _ob]) /\ length([l, _mb])) -> leqnat([_mb, _ob]) -> 0  ;  (insert([x, z, _db]) /\ not leq([x, y])) -> insert([x, cons(y, z), cons(y, _db)]) -> 0  ;  (length([ll, _ib])) -> length([cons(x, ll), s(_ib)]) -> 0  ;  (leq([x, y])) -> insert([x, cons(y, z), cons(x, cons(y, z))]) -> 0  ;  (leq([b, a])) -> BOT -> 0  ;  (leqnat([nn1, nn2])) -> leqnat([s(nn1), s(nn2)]) -> 0  ;  (leqnat([s(nn1), s(nn2)])) -> leqnat([nn1, nn2]) -> 0  ;  (leqnat([s(nn1), z])) -> BOT -> 0
}


Solving took 0.260385 seconds.
Proved
Model:
|_
{
insert -> 
{{{
Q={q_gen_1589, q_gen_1590, q_gen_1591, q_gen_1594, q_gen_1595, q_gen_1596, q_gen_1597},
Q_f={q_gen_1589},
Delta=
{
<cons>(q_gen_1591, q_gen_1590) -> q_gen_1590
<nil>() -> q_gen_1590
<a>() -> q_gen_1591
<b>() -> q_gen_1591
<cons, cons>(q_gen_1597, q_gen_1596, q_gen_1595, q_gen_1594) -> q_gen_1594
<nil, cons>(q_gen_1591, q_gen_1590) -> q_gen_1594
<cons, a>(q_gen_1591, q_gen_1590) -> q_gen_1595
<cons, b>(q_gen_1591, q_gen_1590) -> q_gen_1595
<nil, a>() -> q_gen_1595
<nil, b>() -> q_gen_1595
<a, cons>(q_gen_1591, q_gen_1590) -> q_gen_1596
<b, cons>(q_gen_1591, q_gen_1590) -> q_gen_1596
<a, a>() -> q_gen_1597
<a, b>() -> q_gen_1597
<b, a>() -> q_gen_1597
<b, b>() -> q_gen_1597
<a, cons, cons>(q_gen_1597, q_gen_1596, q_gen_1595, q_gen_1594) -> q_gen_1589
<a, nil, cons>(q_gen_1591, q_gen_1590) -> q_gen_1589
<b, cons, cons>(q_gen_1597, q_gen_1596, q_gen_1595, q_gen_1594) -> q_gen_1589
<b, nil, cons>(q_gen_1591, q_gen_1590) -> q_gen_1589
}

Datatype: <elt, eltlist, eltlist>
Convolution form: complete
}}}
  ;  length -> 
{{{
Q={q_gen_1588, q_gen_1599, q_gen_1624},
Q_f={q_gen_1588},
Delta=
{
<s>(q_gen_1624) -> q_gen_1624
<z>() -> q_gen_1624
<cons, s>(q_gen_1599, q_gen_1588) -> q_gen_1588
<nil, z>() -> q_gen_1588
<a, s>(q_gen_1624) -> q_gen_1599
<a, z>() -> q_gen_1599
<b, s>(q_gen_1624) -> q_gen_1599
<b, z>() -> q_gen_1599
}

Datatype: <eltlist, nat>
Convolution form: complete
}}}
  ;  leq -> 
{{{
Q={q_gen_1586, q_gen_1600},
Q_f={q_gen_1586},
Delta=
{
<a, a>() -> q_gen_1586
<a, b>() -> q_gen_1586
<b, b>() -> q_gen_1586
<b, a>() -> q_gen_1600
}

Datatype: <elt, elt>
Convolution form: complete
}}}
  ;  leqnat -> 
{{{
Q={q_gen_1583, q_gen_1585},
Q_f={q_gen_1583},
Delta=
{
<s>(q_gen_1585) -> q_gen_1585
<z>() -> q_gen_1585
<s, s>(q_gen_1583) -> q_gen_1583
<z, s>(q_gen_1585) -> q_gen_1583
<z, z>() -> q_gen_1583
}

Datatype: <nat, nat>
Convolution form: complete
}}}

}
--
Equality automata are defined for: {eq_elt, eq_eltlist, eq_nat}
_|

-------------------
STEPS:
-------------------------------------------
Step 0, which took 0.004362 s (model generation: 0.003883,  model checking: 0.000479):

Model:
|_
{
insert -> 
{{{
Q={},
Q_f={},
Delta=
{

}

Datatype: <elt, eltlist, eltlist>
Convolution form: complete
}}}
  ;  length -> 
{{{
Q={},
Q_f={},
Delta=
{

}

Datatype: <eltlist, nat>
Convolution form: complete
}}}
  ;  leq -> 
{{{
Q={},
Q_f={},
Delta=
{

}

Datatype: <elt, elt>
Convolution form: complete
}}}
  ;  leqnat -> 
{{{
Q={},
Q_f={},
Delta=
{

}

Datatype: <nat, nat>
Convolution form: complete
}}}

}
--
Equality automata are defined for: {eq_elt, eq_eltlist, eq_nat}
_|

Teacher's answer:
New clause system:
{
() -> insert([x, nil, cons(x, nil)]) -> 0  ;  () -> length([nil, z]) -> 0  ;  () -> leq([a, y]) -> 0  ;  () -> leq([b, b]) -> 0  ;  () -> leqnat([z, s(nn2)]) -> 0  ;  () -> leqnat([z, z]) -> 3  ;  (insert([x, l, _nb]) /\ length([_nb, _ob]) /\ length([l, _mb])) -> leqnat([_mb, _ob]) -> 1  ;  (insert([x, z, _db]) /\ not leq([x, y])) -> insert([x, cons(y, z), cons(y, _db)]) -> 1  ;  (length([ll, _ib])) -> length([cons(x, ll), s(_ib)]) -> 1  ;  (leq([x, y])) -> insert([x, cons(y, z), cons(x, cons(y, z))]) -> 1  ;  (leq([b, a])) -> BOT -> 1  ;  (leqnat([nn1, nn2])) -> leqnat([s(nn1), s(nn2)]) -> 1  ;  (leqnat([s(nn1), s(nn2)])) -> leqnat([nn1, nn2]) -> 1  ;  (leqnat([s(nn1), z])) -> BOT -> 1
}
Sat witness: Yes: (() -> leqnat([z, z]), {

})

-------------------------------------------
Step 1, which took 0.003273 s (model generation: 0.003225,  model checking: 0.000048):

Model:
|_
{
insert -> 
{{{
Q={},
Q_f={},
Delta=
{

}

Datatype: <elt, eltlist, eltlist>
Convolution form: complete
}}}
  ;  length -> 
{{{
Q={},
Q_f={},
Delta=
{

}

Datatype: <eltlist, nat>
Convolution form: complete
}}}
  ;  leq -> 
{{{
Q={},
Q_f={},
Delta=
{

}

Datatype: <elt, elt>
Convolution form: complete
}}}
  ;  leqnat -> 
{{{
Q={q_gen_1583},
Q_f={q_gen_1583},
Delta=
{
<z, z>() -> q_gen_1583
}

Datatype: <nat, nat>
Convolution form: complete
}}}

}
--
Equality automata are defined for: {eq_elt, eq_eltlist, eq_nat}
_|

Teacher's answer:
New clause system:
{
() -> insert([x, nil, cons(x, nil)]) -> 0  ;  () -> length([nil, z]) -> 0  ;  () -> leq([a, y]) -> 0  ;  () -> leq([b, b]) -> 0  ;  () -> leqnat([z, s(nn2)]) -> 3  ;  () -> leqnat([z, z]) -> 3  ;  (insert([x, l, _nb]) /\ length([_nb, _ob]) /\ length([l, _mb])) -> leqnat([_mb, _ob]) -> 1  ;  (insert([x, z, _db]) /\ not leq([x, y])) -> insert([x, cons(y, z), cons(y, _db)]) -> 1  ;  (length([ll, _ib])) -> length([cons(x, ll), s(_ib)]) -> 1  ;  (leq([x, y])) -> insert([x, cons(y, z), cons(x, cons(y, z))]) -> 1  ;  (leq([b, a])) -> BOT -> 1  ;  (leqnat([nn1, nn2])) -> leqnat([s(nn1), s(nn2)]) -> 1  ;  (leqnat([s(nn1), s(nn2)])) -> leqnat([nn1, nn2]) -> 1  ;  (leqnat([s(nn1), z])) -> BOT -> 1
}
Sat witness: Yes: (() -> leqnat([z, s(nn2)]), {
nn2 -> z
})

-------------------------------------------
Step 2, which took 0.003112 s (model generation: 0.003091,  model checking: 0.000021):

Model:
|_
{
insert -> 
{{{
Q={},
Q_f={},
Delta=
{

}

Datatype: <elt, eltlist, eltlist>
Convolution form: complete
}}}
  ;  length -> 
{{{
Q={},
Q_f={},
Delta=
{

}

Datatype: <eltlist, nat>
Convolution form: complete
}}}
  ;  leq -> 
{{{
Q={},
Q_f={},
Delta=
{

}

Datatype: <elt, elt>
Convolution form: complete
}}}
  ;  leqnat -> 
{{{
Q={q_gen_1583, q_gen_1585},
Q_f={q_gen_1583},
Delta=
{
<z>() -> q_gen_1585
<z, s>(q_gen_1585) -> q_gen_1583
<z, z>() -> q_gen_1583
}

Datatype: <nat, nat>
Convolution form: complete
}}}

}
--
Equality automata are defined for: {eq_elt, eq_eltlist, eq_nat}
_|

Teacher's answer:
New clause system:
{
() -> insert([x, nil, cons(x, nil)]) -> 0  ;  () -> length([nil, z]) -> 0  ;  () -> leq([a, y]) -> 0  ;  () -> leq([b, b]) -> 3  ;  () -> leqnat([z, s(nn2)]) -> 3  ;  () -> leqnat([z, z]) -> 3  ;  (insert([x, l, _nb]) /\ length([_nb, _ob]) /\ length([l, _mb])) -> leqnat([_mb, _ob]) -> 1  ;  (insert([x, z, _db]) /\ not leq([x, y])) -> insert([x, cons(y, z), cons(y, _db)]) -> 1  ;  (length([ll, _ib])) -> length([cons(x, ll), s(_ib)]) -> 1  ;  (leq([x, y])) -> insert([x, cons(y, z), cons(x, cons(y, z))]) -> 1  ;  (leq([b, a])) -> BOT -> 1  ;  (leqnat([nn1, nn2])) -> leqnat([s(nn1), s(nn2)]) -> 1  ;  (leqnat([s(nn1), s(nn2)])) -> leqnat([nn1, nn2]) -> 1  ;  (leqnat([s(nn1), z])) -> BOT -> 1
}
Sat witness: Yes: (() -> leq([b, b]), {

})

-------------------------------------------
Step 3, which took 0.003135 s (model generation: 0.003109,  model checking: 0.000026):

Model:
|_
{
insert -> 
{{{
Q={},
Q_f={},
Delta=
{

}

Datatype: <elt, eltlist, eltlist>
Convolution form: complete
}}}
  ;  length -> 
{{{
Q={},
Q_f={},
Delta=
{

}

Datatype: <eltlist, nat>
Convolution form: complete
}}}
  ;  leq -> 
{{{
Q={q_gen_1586},
Q_f={q_gen_1586},
Delta=
{
<b, b>() -> q_gen_1586
}

Datatype: <elt, elt>
Convolution form: complete
}}}
  ;  leqnat -> 
{{{
Q={q_gen_1583, q_gen_1585},
Q_f={q_gen_1583},
Delta=
{
<z>() -> q_gen_1585
<z, s>(q_gen_1585) -> q_gen_1583
<z, z>() -> q_gen_1583
}

Datatype: <nat, nat>
Convolution form: complete
}}}

}
--
Equality automata are defined for: {eq_elt, eq_eltlist, eq_nat}
_|

Teacher's answer:
New clause system:
{
() -> insert([x, nil, cons(x, nil)]) -> 0  ;  () -> length([nil, z]) -> 0  ;  () -> leq([a, y]) -> 3  ;  () -> leq([b, b]) -> 3  ;  () -> leqnat([z, s(nn2)]) -> 3  ;  () -> leqnat([z, z]) -> 3  ;  (insert([x, l, _nb]) /\ length([_nb, _ob]) /\ length([l, _mb])) -> leqnat([_mb, _ob]) -> 1  ;  (insert([x, z, _db]) /\ not leq([x, y])) -> insert([x, cons(y, z), cons(y, _db)]) -> 1  ;  (length([ll, _ib])) -> length([cons(x, ll), s(_ib)]) -> 1  ;  (leq([x, y])) -> insert([x, cons(y, z), cons(x, cons(y, z))]) -> 1  ;  (leq([b, a])) -> BOT -> 1  ;  (leqnat([nn1, nn2])) -> leqnat([s(nn1), s(nn2)]) -> 1  ;  (leqnat([s(nn1), s(nn2)])) -> leqnat([nn1, nn2]) -> 1  ;  (leqnat([s(nn1), z])) -> BOT -> 1
}
Sat witness: Yes: (() -> leq([a, y]), {
y -> b
})

-------------------------------------------
Step 4, which took 0.003287 s (model generation: 0.003192,  model checking: 0.000095):

Model:
|_
{
insert -> 
{{{
Q={},
Q_f={},
Delta=
{

}

Datatype: <elt, eltlist, eltlist>
Convolution form: complete
}}}
  ;  length -> 
{{{
Q={},
Q_f={},
Delta=
{

}

Datatype: <eltlist, nat>
Convolution form: complete
}}}
  ;  leq -> 
{{{
Q={q_gen_1586},
Q_f={q_gen_1586},
Delta=
{
<a, b>() -> q_gen_1586
<b, b>() -> q_gen_1586
}

Datatype: <elt, elt>
Convolution form: complete
}}}
  ;  leqnat -> 
{{{
Q={q_gen_1583, q_gen_1585},
Q_f={q_gen_1583},
Delta=
{
<z>() -> q_gen_1585
<z, s>(q_gen_1585) -> q_gen_1583
<z, z>() -> q_gen_1583
}

Datatype: <nat, nat>
Convolution form: complete
}}}

}
--
Equality automata are defined for: {eq_elt, eq_eltlist, eq_nat}
_|

Teacher's answer:
New clause system:
{
() -> insert([x, nil, cons(x, nil)]) -> 0  ;  () -> length([nil, z]) -> 3  ;  () -> leq([a, y]) -> 3  ;  () -> leq([b, b]) -> 3  ;  () -> leqnat([z, s(nn2)]) -> 3  ;  () -> leqnat([z, z]) -> 3  ;  (insert([x, l, _nb]) /\ length([_nb, _ob]) /\ length([l, _mb])) -> leqnat([_mb, _ob]) -> 1  ;  (insert([x, z, _db]) /\ not leq([x, y])) -> insert([x, cons(y, z), cons(y, _db)]) -> 1  ;  (length([ll, _ib])) -> length([cons(x, ll), s(_ib)]) -> 1  ;  (leq([x, y])) -> insert([x, cons(y, z), cons(x, cons(y, z))]) -> 1  ;  (leq([b, a])) -> BOT -> 1  ;  (leqnat([nn1, nn2])) -> leqnat([s(nn1), s(nn2)]) -> 1  ;  (leqnat([s(nn1), s(nn2)])) -> leqnat([nn1, nn2]) -> 1  ;  (leqnat([s(nn1), z])) -> BOT -> 1
}
Sat witness: Yes: (() -> length([nil, z]), {

})

-------------------------------------------
Step 5, which took 0.003911 s (model generation: 0.003777,  model checking: 0.000134):

Model:
|_
{
insert -> 
{{{
Q={},
Q_f={},
Delta=
{

}

Datatype: <elt, eltlist, eltlist>
Convolution form: complete
}}}
  ;  length -> 
{{{
Q={q_gen_1588},
Q_f={q_gen_1588},
Delta=
{
<nil, z>() -> q_gen_1588
}

Datatype: <eltlist, nat>
Convolution form: complete
}}}
  ;  leq -> 
{{{
Q={q_gen_1586},
Q_f={q_gen_1586},
Delta=
{
<a, b>() -> q_gen_1586
<b, b>() -> q_gen_1586
}

Datatype: <elt, elt>
Convolution form: complete
}}}
  ;  leqnat -> 
{{{
Q={q_gen_1583, q_gen_1585},
Q_f={q_gen_1583},
Delta=
{
<z>() -> q_gen_1585
<z, s>(q_gen_1585) -> q_gen_1583
<z, z>() -> q_gen_1583
}

Datatype: <nat, nat>
Convolution form: complete
}}}

}
--
Equality automata are defined for: {eq_elt, eq_eltlist, eq_nat}
_|

Teacher's answer:
New clause system:
{
() -> insert([x, nil, cons(x, nil)]) -> 3  ;  () -> length([nil, z]) -> 3  ;  () -> leq([a, y]) -> 3  ;  () -> leq([b, b]) -> 3  ;  () -> leqnat([z, s(nn2)]) -> 3  ;  () -> leqnat([z, z]) -> 3  ;  (insert([x, l, _nb]) /\ length([_nb, _ob]) /\ length([l, _mb])) -> leqnat([_mb, _ob]) -> 1  ;  (insert([x, z, _db]) /\ not leq([x, y])) -> insert([x, cons(y, z), cons(y, _db)]) -> 1  ;  (length([ll, _ib])) -> length([cons(x, ll), s(_ib)]) -> 1  ;  (leq([x, y])) -> insert([x, cons(y, z), cons(x, cons(y, z))]) -> 1  ;  (leq([b, a])) -> BOT -> 1  ;  (leqnat([nn1, nn2])) -> leqnat([s(nn1), s(nn2)]) -> 1  ;  (leqnat([s(nn1), s(nn2)])) -> leqnat([nn1, nn2]) -> 1  ;  (leqnat([s(nn1), z])) -> BOT -> 1
}
Sat witness: Yes: (() -> insert([x, nil, cons(x, nil)]), {
x -> b
})

-------------------------------------------
Step 6, which took 0.005852 s (model generation: 0.004642,  model checking: 0.001210):

Model:
|_
{
insert -> 
{{{
Q={q_gen_1589, q_gen_1590, q_gen_1591},
Q_f={q_gen_1589},
Delta=
{
<nil>() -> q_gen_1590
<b>() -> q_gen_1591
<b, nil, cons>(q_gen_1591, q_gen_1590) -> q_gen_1589
}

Datatype: <elt, eltlist, eltlist>
Convolution form: complete
}}}
  ;  length -> 
{{{
Q={q_gen_1588},
Q_f={q_gen_1588},
Delta=
{
<nil, z>() -> q_gen_1588
}

Datatype: <eltlist, nat>
Convolution form: complete
}}}
  ;  leq -> 
{{{
Q={q_gen_1586},
Q_f={q_gen_1586},
Delta=
{
<a, b>() -> q_gen_1586
<b, b>() -> q_gen_1586
}

Datatype: <elt, elt>
Convolution form: complete
}}}
  ;  leqnat -> 
{{{
Q={q_gen_1583, q_gen_1585},
Q_f={q_gen_1583},
Delta=
{
<z>() -> q_gen_1585
<z, s>(q_gen_1585) -> q_gen_1583
<z, z>() -> q_gen_1583
}

Datatype: <nat, nat>
Convolution form: complete
}}}

}
--
Equality automata are defined for: {eq_elt, eq_eltlist, eq_nat}
_|

Teacher's answer:
New clause system:
{
() -> insert([x, nil, cons(x, nil)]) -> 3  ;  () -> length([nil, z]) -> 3  ;  () -> leq([a, y]) -> 3  ;  () -> leq([b, b]) -> 3  ;  () -> leqnat([z, s(nn2)]) -> 3  ;  () -> leqnat([z, z]) -> 3  ;  (insert([x, l, _nb]) /\ length([_nb, _ob]) /\ length([l, _mb])) -> leqnat([_mb, _ob]) -> 1  ;  (insert([x, z, _db]) /\ not leq([x, y])) -> insert([x, cons(y, z), cons(y, _db)]) -> 1  ;  (length([ll, _ib])) -> length([cons(x, ll), s(_ib)]) -> 1  ;  (leq([x, y])) -> insert([x, cons(y, z), cons(x, cons(y, z))]) -> 1  ;  (leq([b, a])) -> BOT -> 1  ;  (leqnat([nn1, nn2])) -> leqnat([s(nn1), s(nn2)]) -> 4  ;  (leqnat([s(nn1), s(nn2)])) -> leqnat([nn1, nn2]) -> 2  ;  (leqnat([s(nn1), z])) -> BOT -> 2
}
Sat witness: Yes: ((leqnat([nn1, nn2])) -> leqnat([s(nn1), s(nn2)]), {
nn1 -> z  ;  nn2 -> z
})

-------------------------------------------
Step 7, which took 0.008200 s (model generation: 0.006753,  model checking: 0.001447):

Model:
|_
{
insert -> 
{{{
Q={q_gen_1589, q_gen_1590, q_gen_1591},
Q_f={q_gen_1589},
Delta=
{
<nil>() -> q_gen_1590
<b>() -> q_gen_1591
<b, nil, cons>(q_gen_1591, q_gen_1590) -> q_gen_1589
}

Datatype: <elt, eltlist, eltlist>
Convolution form: complete
}}}
  ;  length -> 
{{{
Q={q_gen_1588},
Q_f={q_gen_1588},
Delta=
{
<nil, z>() -> q_gen_1588
}

Datatype: <eltlist, nat>
Convolution form: complete
}}}
  ;  leq -> 
{{{
Q={q_gen_1586},
Q_f={q_gen_1586},
Delta=
{
<a, b>() -> q_gen_1586
<b, b>() -> q_gen_1586
}

Datatype: <elt, elt>
Convolution form: complete
}}}
  ;  leqnat -> 
{{{
Q={q_gen_1583, q_gen_1585},
Q_f={q_gen_1583},
Delta=
{
<z>() -> q_gen_1585
<s, s>(q_gen_1583) -> q_gen_1583
<z, s>(q_gen_1585) -> q_gen_1583
<z, z>() -> q_gen_1583
}

Datatype: <nat, nat>
Convolution form: complete
}}}

}
--
Equality automata are defined for: {eq_elt, eq_eltlist, eq_nat}
_|

Teacher's answer:
New clause system:
{
() -> insert([x, nil, cons(x, nil)]) -> 3  ;  () -> length([nil, z]) -> 3  ;  () -> leq([a, y]) -> 3  ;  () -> leq([b, b]) -> 3  ;  () -> leqnat([z, s(nn2)]) -> 3  ;  () -> leqnat([z, z]) -> 3  ;  (insert([x, l, _nb]) /\ length([_nb, _ob]) /\ length([l, _mb])) -> leqnat([_mb, _ob]) -> 1  ;  (insert([x, z, _db]) /\ not leq([x, y])) -> insert([x, cons(y, z), cons(y, _db)]) -> 1  ;  (length([ll, _ib])) -> length([cons(x, ll), s(_ib)]) -> 1  ;  (leq([x, y])) -> insert([x, cons(y, z), cons(x, cons(y, z))]) -> 4  ;  (leq([b, a])) -> BOT -> 2  ;  (leqnat([nn1, nn2])) -> leqnat([s(nn1), s(nn2)]) -> 4  ;  (leqnat([s(nn1), s(nn2)])) -> leqnat([nn1, nn2]) -> 2  ;  (leqnat([s(nn1), z])) -> BOT -> 2
}
Sat witness: Yes: ((leq([x, y])) -> insert([x, cons(y, z), cons(x, cons(y, z))]), {
x -> a  ;  y -> b  ;  z -> nil
})

-------------------------------------------
Step 8, which took 0.008946 s (model generation: 0.008874,  model checking: 0.000072):

Model:
|_
{
insert -> 
{{{
Q={q_gen_1589, q_gen_1590, q_gen_1591, q_gen_1594, q_gen_1595, q_gen_1596, q_gen_1597},
Q_f={q_gen_1589},
Delta=
{
<nil>() -> q_gen_1590
<b>() -> q_gen_1591
<nil, cons>(q_gen_1591, q_gen_1590) -> q_gen_1594
<nil, a>() -> q_gen_1595
<b, cons>(q_gen_1591, q_gen_1590) -> q_gen_1596
<b, a>() -> q_gen_1597
<a, cons, cons>(q_gen_1597, q_gen_1596, q_gen_1595, q_gen_1594) -> q_gen_1589
<b, nil, cons>(q_gen_1591, q_gen_1590) -> q_gen_1589
}

Datatype: <elt, eltlist, eltlist>
Convolution form: complete
}}}
  ;  length -> 
{{{
Q={q_gen_1588},
Q_f={q_gen_1588},
Delta=
{
<nil, z>() -> q_gen_1588
}

Datatype: <eltlist, nat>
Convolution form: complete
}}}
  ;  leq -> 
{{{
Q={q_gen_1586},
Q_f={q_gen_1586},
Delta=
{
<a, b>() -> q_gen_1586
<b, b>() -> q_gen_1586
}

Datatype: <elt, elt>
Convolution form: complete
}}}
  ;  leqnat -> 
{{{
Q={q_gen_1583, q_gen_1585},
Q_f={q_gen_1583},
Delta=
{
<z>() -> q_gen_1585
<s, s>(q_gen_1583) -> q_gen_1583
<z, s>(q_gen_1585) -> q_gen_1583
<z, z>() -> q_gen_1583
}

Datatype: <nat, nat>
Convolution form: complete
}}}

}
--
Equality automata are defined for: {eq_elt, eq_eltlist, eq_nat}
_|

Teacher's answer:
New clause system:
{
() -> insert([x, nil, cons(x, nil)]) -> 3  ;  () -> length([nil, z]) -> 3  ;  () -> leq([a, y]) -> 3  ;  () -> leq([b, b]) -> 3  ;  () -> leqnat([z, s(nn2)]) -> 3  ;  () -> leqnat([z, z]) -> 3  ;  (insert([x, l, _nb]) /\ length([_nb, _ob]) /\ length([l, _mb])) -> leqnat([_mb, _ob]) -> 1  ;  (insert([x, z, _db]) /\ not leq([x, y])) -> insert([x, cons(y, z), cons(y, _db)]) -> 1  ;  (length([ll, _ib])) -> length([cons(x, ll), s(_ib)]) -> 4  ;  (leq([x, y])) -> insert([x, cons(y, z), cons(x, cons(y, z))]) -> 4  ;  (leq([b, a])) -> BOT -> 2  ;  (leqnat([nn1, nn2])) -> leqnat([s(nn1), s(nn2)]) -> 4  ;  (leqnat([s(nn1), s(nn2)])) -> leqnat([nn1, nn2]) -> 2  ;  (leqnat([s(nn1), z])) -> BOT -> 2
}
Sat witness: Yes: ((length([ll, _ib])) -> length([cons(x, ll), s(_ib)]), {
_ib -> z  ;  ll -> nil  ;  x -> b
})

-------------------------------------------
Step 9, which took 0.007895 s (model generation: 0.006672,  model checking: 0.001223):

Model:
|_
{
insert -> 
{{{
Q={q_gen_1589, q_gen_1590, q_gen_1591, q_gen_1594, q_gen_1595, q_gen_1596, q_gen_1597},
Q_f={q_gen_1589},
Delta=
{
<nil>() -> q_gen_1590
<b>() -> q_gen_1591
<nil, cons>(q_gen_1591, q_gen_1590) -> q_gen_1594
<nil, a>() -> q_gen_1595
<b, cons>(q_gen_1591, q_gen_1590) -> q_gen_1596
<b, a>() -> q_gen_1597
<a, cons, cons>(q_gen_1597, q_gen_1596, q_gen_1595, q_gen_1594) -> q_gen_1589
<b, nil, cons>(q_gen_1591, q_gen_1590) -> q_gen_1589
}

Datatype: <elt, eltlist, eltlist>
Convolution form: complete
}}}
  ;  length -> 
{{{
Q={q_gen_1588, q_gen_1599},
Q_f={q_gen_1588},
Delta=
{
<cons, s>(q_gen_1599, q_gen_1588) -> q_gen_1588
<nil, z>() -> q_gen_1588
<b, z>() -> q_gen_1599
}

Datatype: <eltlist, nat>
Convolution form: complete
}}}
  ;  leq -> 
{{{
Q={q_gen_1586},
Q_f={q_gen_1586},
Delta=
{
<a, b>() -> q_gen_1586
<b, b>() -> q_gen_1586
}

Datatype: <elt, elt>
Convolution form: complete
}}}
  ;  leqnat -> 
{{{
Q={q_gen_1583, q_gen_1585},
Q_f={q_gen_1583},
Delta=
{
<z>() -> q_gen_1585
<s, s>(q_gen_1583) -> q_gen_1583
<z, s>(q_gen_1585) -> q_gen_1583
<z, z>() -> q_gen_1583
}

Datatype: <nat, nat>
Convolution form: complete
}}}

}
--
Equality automata are defined for: {eq_elt, eq_eltlist, eq_nat}
_|

Teacher's answer:
New clause system:
{
() -> insert([x, nil, cons(x, nil)]) -> 3  ;  () -> length([nil, z]) -> 3  ;  () -> leq([a, y]) -> 3  ;  () -> leq([b, b]) -> 3  ;  () -> leqnat([z, s(nn2)]) -> 3  ;  () -> leqnat([z, z]) -> 3  ;  (insert([x, l, _nb]) /\ length([_nb, _ob]) /\ length([l, _mb])) -> leqnat([_mb, _ob]) -> 1  ;  (insert([x, z, _db]) /\ not leq([x, y])) -> insert([x, cons(y, z), cons(y, _db)]) -> 4  ;  (length([ll, _ib])) -> length([cons(x, ll), s(_ib)]) -> 4  ;  (leq([x, y])) -> insert([x, cons(y, z), cons(x, cons(y, z))]) -> 4  ;  (leq([b, a])) -> BOT -> 2  ;  (leqnat([nn1, nn2])) -> leqnat([s(nn1), s(nn2)]) -> 4  ;  (leqnat([s(nn1), s(nn2)])) -> leqnat([nn1, nn2]) -> 2  ;  (leqnat([s(nn1), z])) -> BOT -> 2
}
Sat witness: Yes: ((insert([x, z, _db]) /\ not leq([x, y])) -> insert([x, cons(y, z), cons(y, _db)]), {
_db -> cons(b, nil)  ;  x -> b  ;  y -> a  ;  z -> nil
})

-------------------------------------------
Step 10, which took 0.009814 s (model generation: 0.009590,  model checking: 0.000224):

Model:
|_
{
insert -> 
{{{
Q={q_gen_1589, q_gen_1590, q_gen_1591, q_gen_1594, q_gen_1595, q_gen_1596, q_gen_1597},
Q_f={q_gen_1589},
Delta=
{
<nil>() -> q_gen_1590
<b>() -> q_gen_1591
<nil, cons>(q_gen_1591, q_gen_1590) -> q_gen_1594
<nil, a>() -> q_gen_1595
<a, cons>(q_gen_1591, q_gen_1590) -> q_gen_1596
<b, cons>(q_gen_1591, q_gen_1590) -> q_gen_1596
<a, a>() -> q_gen_1597
<b, a>() -> q_gen_1597
<a, cons, cons>(q_gen_1597, q_gen_1596, q_gen_1595, q_gen_1594) -> q_gen_1589
<b, cons, cons>(q_gen_1597, q_gen_1596, q_gen_1595, q_gen_1594) -> q_gen_1589
<b, nil, cons>(q_gen_1591, q_gen_1590) -> q_gen_1589
}

Datatype: <elt, eltlist, eltlist>
Convolution form: complete
}}}
  ;  length -> 
{{{
Q={q_gen_1588, q_gen_1599},
Q_f={q_gen_1588},
Delta=
{
<cons, s>(q_gen_1599, q_gen_1588) -> q_gen_1588
<nil, z>() -> q_gen_1588
<b, z>() -> q_gen_1599
}

Datatype: <eltlist, nat>
Convolution form: complete
}}}
  ;  leq -> 
{{{
Q={q_gen_1586},
Q_f={q_gen_1586},
Delta=
{
<a, b>() -> q_gen_1586
<b, a>() -> q_gen_1586
<b, b>() -> q_gen_1586
}

Datatype: <elt, elt>
Convolution form: complete
}}}
  ;  leqnat -> 
{{{
Q={q_gen_1583, q_gen_1585},
Q_f={q_gen_1583},
Delta=
{
<z>() -> q_gen_1585
<s, s>(q_gen_1583) -> q_gen_1583
<z, s>(q_gen_1585) -> q_gen_1583
<z, z>() -> q_gen_1583
}

Datatype: <nat, nat>
Convolution form: complete
}}}

}
--
Equality automata are defined for: {eq_elt, eq_eltlist, eq_nat}
_|

Teacher's answer:
New clause system:
{
() -> insert([x, nil, cons(x, nil)]) -> 3  ;  () -> length([nil, z]) -> 3  ;  () -> leq([a, y]) -> 3  ;  () -> leq([b, b]) -> 3  ;  () -> leqnat([z, s(nn2)]) -> 3  ;  () -> leqnat([z, z]) -> 3  ;  (insert([x, l, _nb]) /\ length([_nb, _ob]) /\ length([l, _mb])) -> leqnat([_mb, _ob]) -> 2  ;  (insert([x, z, _db]) /\ not leq([x, y])) -> insert([x, cons(y, z), cons(y, _db)]) -> 4  ;  (length([ll, _ib])) -> length([cons(x, ll), s(_ib)]) -> 4  ;  (leq([x, y])) -> insert([x, cons(y, z), cons(x, cons(y, z))]) -> 4  ;  (leq([b, a])) -> BOT -> 5  ;  (leqnat([nn1, nn2])) -> leqnat([s(nn1), s(nn2)]) -> 4  ;  (leqnat([s(nn1), s(nn2)])) -> leqnat([nn1, nn2]) -> 3  ;  (leqnat([s(nn1), z])) -> BOT -> 3
}
Sat witness: Yes: ((leq([b, a])) -> BOT, {

})

-------------------------------------------
Step 11, which took 0.006412 s (model generation: 0.005722,  model checking: 0.000690):

Model:
|_
{
insert -> 
{{{
Q={q_gen_1589, q_gen_1590, q_gen_1591, q_gen_1594, q_gen_1595, q_gen_1596, q_gen_1597},
Q_f={q_gen_1589},
Delta=
{
<nil>() -> q_gen_1590
<b>() -> q_gen_1591
<nil, cons>(q_gen_1591, q_gen_1590) -> q_gen_1594
<nil, a>() -> q_gen_1595
<a, cons>(q_gen_1591, q_gen_1590) -> q_gen_1596
<b, cons>(q_gen_1591, q_gen_1590) -> q_gen_1596
<a, a>() -> q_gen_1597
<b, a>() -> q_gen_1597
<a, cons, cons>(q_gen_1597, q_gen_1596, q_gen_1595, q_gen_1594) -> q_gen_1589
<b, cons, cons>(q_gen_1597, q_gen_1596, q_gen_1595, q_gen_1594) -> q_gen_1589
<b, nil, cons>(q_gen_1591, q_gen_1590) -> q_gen_1589
}

Datatype: <elt, eltlist, eltlist>
Convolution form: complete
}}}
  ;  length -> 
{{{
Q={q_gen_1588, q_gen_1599},
Q_f={q_gen_1588},
Delta=
{
<cons, s>(q_gen_1599, q_gen_1588) -> q_gen_1588
<nil, z>() -> q_gen_1588
<b, z>() -> q_gen_1599
}

Datatype: <eltlist, nat>
Convolution form: complete
}}}
  ;  leq -> 
{{{
Q={q_gen_1586, q_gen_1600},
Q_f={q_gen_1586},
Delta=
{
<a, b>() -> q_gen_1586
<b, b>() -> q_gen_1586
<b, a>() -> q_gen_1600
}

Datatype: <elt, elt>
Convolution form: complete
}}}
  ;  leqnat -> 
{{{
Q={q_gen_1583, q_gen_1585},
Q_f={q_gen_1583},
Delta=
{
<z>() -> q_gen_1585
<s, s>(q_gen_1583) -> q_gen_1583
<z, s>(q_gen_1585) -> q_gen_1583
<z, z>() -> q_gen_1583
}

Datatype: <nat, nat>
Convolution form: complete
}}}

}
--
Equality automata are defined for: {eq_elt, eq_eltlist, eq_nat}
_|

Teacher's answer:
New clause system:
{
() -> insert([x, nil, cons(x, nil)]) -> 3  ;  () -> length([nil, z]) -> 3  ;  () -> leq([a, y]) -> 3  ;  () -> leq([b, b]) -> 3  ;  () -> leqnat([z, s(nn2)]) -> 6  ;  () -> leqnat([z, z]) -> 4  ;  (insert([x, l, _nb]) /\ length([_nb, _ob]) /\ length([l, _mb])) -> leqnat([_mb, _ob]) -> 3  ;  (insert([x, z, _db]) /\ not leq([x, y])) -> insert([x, cons(y, z), cons(y, _db)]) -> 4  ;  (length([ll, _ib])) -> length([cons(x, ll), s(_ib)]) -> 4  ;  (leq([x, y])) -> insert([x, cons(y, z), cons(x, cons(y, z))]) -> 4  ;  (leq([b, a])) -> BOT -> 5  ;  (leqnat([nn1, nn2])) -> leqnat([s(nn1), s(nn2)]) -> 4  ;  (leqnat([s(nn1), s(nn2)])) -> leqnat([nn1, nn2]) -> 4  ;  (leqnat([s(nn1), z])) -> BOT -> 4
}
Sat witness: Yes: (() -> leqnat([z, s(nn2)]), {
nn2 -> s(z)
})

-------------------------------------------
Step 12, which took 0.008785 s (model generation: 0.008565,  model checking: 0.000220):

Model:
|_
{
insert -> 
{{{
Q={q_gen_1589, q_gen_1590, q_gen_1591, q_gen_1594, q_gen_1595, q_gen_1596, q_gen_1597},
Q_f={q_gen_1589},
Delta=
{
<nil>() -> q_gen_1590
<b>() -> q_gen_1591
<nil, cons>(q_gen_1591, q_gen_1590) -> q_gen_1594
<nil, a>() -> q_gen_1595
<a, cons>(q_gen_1591, q_gen_1590) -> q_gen_1596
<b, cons>(q_gen_1591, q_gen_1590) -> q_gen_1596
<a, a>() -> q_gen_1597
<b, a>() -> q_gen_1597
<a, cons, cons>(q_gen_1597, q_gen_1596, q_gen_1595, q_gen_1594) -> q_gen_1589
<b, cons, cons>(q_gen_1597, q_gen_1596, q_gen_1595, q_gen_1594) -> q_gen_1589
<b, nil, cons>(q_gen_1591, q_gen_1590) -> q_gen_1589
}

Datatype: <elt, eltlist, eltlist>
Convolution form: complete
}}}
  ;  length -> 
{{{
Q={q_gen_1588, q_gen_1599},
Q_f={q_gen_1588},
Delta=
{
<cons, s>(q_gen_1599, q_gen_1588) -> q_gen_1588
<nil, z>() -> q_gen_1588
<b, z>() -> q_gen_1599
}

Datatype: <eltlist, nat>
Convolution form: complete
}}}
  ;  leq -> 
{{{
Q={q_gen_1586, q_gen_1600},
Q_f={q_gen_1586},
Delta=
{
<a, b>() -> q_gen_1586
<b, b>() -> q_gen_1586
<b, a>() -> q_gen_1600
}

Datatype: <elt, elt>
Convolution form: complete
}}}
  ;  leqnat -> 
{{{
Q={q_gen_1583, q_gen_1585},
Q_f={q_gen_1583},
Delta=
{
<s>(q_gen_1585) -> q_gen_1585
<z>() -> q_gen_1585
<s, s>(q_gen_1583) -> q_gen_1583
<z, s>(q_gen_1585) -> q_gen_1583
<z, z>() -> q_gen_1583
}

Datatype: <nat, nat>
Convolution form: complete
}}}

}
--
Equality automata are defined for: {eq_elt, eq_eltlist, eq_nat}
_|

Teacher's answer:
New clause system:
{
() -> insert([x, nil, cons(x, nil)]) -> 3  ;  () -> length([nil, z]) -> 3  ;  () -> leq([a, y]) -> 6  ;  () -> leq([b, b]) -> 4  ;  () -> leqnat([z, s(nn2)]) -> 6  ;  () -> leqnat([z, z]) -> 4  ;  (insert([x, l, _nb]) /\ length([_nb, _ob]) /\ length([l, _mb])) -> leqnat([_mb, _ob]) -> 4  ;  (insert([x, z, _db]) /\ not leq([x, y])) -> insert([x, cons(y, z), cons(y, _db)]) -> 4  ;  (length([ll, _ib])) -> length([cons(x, ll), s(_ib)]) -> 4  ;  (leq([x, y])) -> insert([x, cons(y, z), cons(x, cons(y, z))]) -> 4  ;  (leq([b, a])) -> BOT -> 5  ;  (leqnat([nn1, nn2])) -> leqnat([s(nn1), s(nn2)]) -> 4  ;  (leqnat([s(nn1), s(nn2)])) -> leqnat([nn1, nn2]) -> 4  ;  (leqnat([s(nn1), z])) -> BOT -> 4
}
Sat witness: Yes: (() -> leq([a, y]), {
y -> a
})

-------------------------------------------
Step 13, which took 0.010849 s (model generation: 0.009484,  model checking: 0.001365):

Model:
|_
{
insert -> 
{{{
Q={q_gen_1589, q_gen_1590, q_gen_1591, q_gen_1594, q_gen_1595, q_gen_1596, q_gen_1597},
Q_f={q_gen_1589},
Delta=
{
<nil>() -> q_gen_1590
<b>() -> q_gen_1591
<nil, cons>(q_gen_1591, q_gen_1590) -> q_gen_1594
<nil, a>() -> q_gen_1595
<a, cons>(q_gen_1591, q_gen_1590) -> q_gen_1596
<b, cons>(q_gen_1591, q_gen_1590) -> q_gen_1596
<a, a>() -> q_gen_1597
<b, a>() -> q_gen_1597
<a, cons, cons>(q_gen_1597, q_gen_1596, q_gen_1595, q_gen_1594) -> q_gen_1589
<b, cons, cons>(q_gen_1597, q_gen_1596, q_gen_1595, q_gen_1594) -> q_gen_1589
<b, nil, cons>(q_gen_1591, q_gen_1590) -> q_gen_1589
}

Datatype: <elt, eltlist, eltlist>
Convolution form: complete
}}}
  ;  length -> 
{{{
Q={q_gen_1588, q_gen_1599},
Q_f={q_gen_1588},
Delta=
{
<cons, s>(q_gen_1599, q_gen_1588) -> q_gen_1588
<nil, z>() -> q_gen_1588
<b, z>() -> q_gen_1599
}

Datatype: <eltlist, nat>
Convolution form: complete
}}}
  ;  leq -> 
{{{
Q={q_gen_1586, q_gen_1600},
Q_f={q_gen_1586},
Delta=
{
<a, a>() -> q_gen_1586
<a, b>() -> q_gen_1586
<b, b>() -> q_gen_1586
<b, a>() -> q_gen_1600
}

Datatype: <elt, elt>
Convolution form: complete
}}}
  ;  leqnat -> 
{{{
Q={q_gen_1583, q_gen_1585},
Q_f={q_gen_1583},
Delta=
{
<s>(q_gen_1585) -> q_gen_1585
<z>() -> q_gen_1585
<s, s>(q_gen_1583) -> q_gen_1583
<z, s>(q_gen_1585) -> q_gen_1583
<z, z>() -> q_gen_1583
}

Datatype: <nat, nat>
Convolution form: complete
}}}

}
--
Equality automata are defined for: {eq_elt, eq_eltlist, eq_nat}
_|

Teacher's answer:
New clause system:
{
() -> insert([x, nil, cons(x, nil)]) -> 6  ;  () -> length([nil, z]) -> 4  ;  () -> leq([a, y]) -> 6  ;  () -> leq([b, b]) -> 4  ;  () -> leqnat([z, s(nn2)]) -> 6  ;  () -> leqnat([z, z]) -> 4  ;  (insert([x, l, _nb]) /\ length([_nb, _ob]) /\ length([l, _mb])) -> leqnat([_mb, _ob]) -> 4  ;  (insert([x, z, _db]) /\ not leq([x, y])) -> insert([x, cons(y, z), cons(y, _db)]) -> 4  ;  (length([ll, _ib])) -> length([cons(x, ll), s(_ib)]) -> 4  ;  (leq([x, y])) -> insert([x, cons(y, z), cons(x, cons(y, z))]) -> 4  ;  (leq([b, a])) -> BOT -> 5  ;  (leqnat([nn1, nn2])) -> leqnat([s(nn1), s(nn2)]) -> 4  ;  (leqnat([s(nn1), s(nn2)])) -> leqnat([nn1, nn2]) -> 4  ;  (leqnat([s(nn1), z])) -> BOT -> 4
}
Sat witness: Yes: (() -> insert([x, nil, cons(x, nil)]), {
x -> a
})

-------------------------------------------
Step 14, which took 0.023477 s (model generation: 0.012492,  model checking: 0.010985):

Model:
|_
{
insert -> 
{{{
Q={q_gen_1589, q_gen_1590, q_gen_1591, q_gen_1594, q_gen_1595, q_gen_1596, q_gen_1597},
Q_f={q_gen_1589},
Delta=
{
<nil>() -> q_gen_1590
<a>() -> q_gen_1591
<b>() -> q_gen_1591
<nil, cons>(q_gen_1591, q_gen_1590) -> q_gen_1594
<nil, a>() -> q_gen_1595
<a, cons>(q_gen_1591, q_gen_1590) -> q_gen_1596
<b, cons>(q_gen_1591, q_gen_1590) -> q_gen_1596
<a, a>() -> q_gen_1597
<b, a>() -> q_gen_1597
<a, cons, cons>(q_gen_1597, q_gen_1596, q_gen_1595, q_gen_1594) -> q_gen_1589
<a, nil, cons>(q_gen_1591, q_gen_1590) -> q_gen_1589
<b, cons, cons>(q_gen_1597, q_gen_1596, q_gen_1595, q_gen_1594) -> q_gen_1589
<b, nil, cons>(q_gen_1591, q_gen_1590) -> q_gen_1589
}

Datatype: <elt, eltlist, eltlist>
Convolution form: complete
}}}
  ;  length -> 
{{{
Q={q_gen_1588, q_gen_1599},
Q_f={q_gen_1588},
Delta=
{
<cons, s>(q_gen_1599, q_gen_1588) -> q_gen_1588
<nil, z>() -> q_gen_1588
<b, z>() -> q_gen_1599
}

Datatype: <eltlist, nat>
Convolution form: complete
}}}
  ;  leq -> 
{{{
Q={q_gen_1586, q_gen_1600},
Q_f={q_gen_1586},
Delta=
{
<a, a>() -> q_gen_1586
<a, b>() -> q_gen_1586
<b, b>() -> q_gen_1586
<b, a>() -> q_gen_1600
}

Datatype: <elt, elt>
Convolution form: complete
}}}
  ;  leqnat -> 
{{{
Q={q_gen_1583, q_gen_1585},
Q_f={q_gen_1583},
Delta=
{
<s>(q_gen_1585) -> q_gen_1585
<z>() -> q_gen_1585
<s, s>(q_gen_1583) -> q_gen_1583
<z, s>(q_gen_1585) -> q_gen_1583
<z, z>() -> q_gen_1583
}

Datatype: <nat, nat>
Convolution form: complete
}}}

}
--
Equality automata are defined for: {eq_elt, eq_eltlist, eq_nat}
_|

Teacher's answer:
New clause system:
{
() -> insert([x, nil, cons(x, nil)]) -> 6  ;  () -> length([nil, z]) -> 4  ;  () -> leq([a, y]) -> 6  ;  () -> leq([b, b]) -> 4  ;  () -> leqnat([z, s(nn2)]) -> 6  ;  () -> leqnat([z, z]) -> 4  ;  (insert([x, l, _nb]) /\ length([_nb, _ob]) /\ length([l, _mb])) -> leqnat([_mb, _ob]) -> 4  ;  (insert([x, z, _db]) /\ not leq([x, y])) -> insert([x, cons(y, z), cons(y, _db)]) -> 4  ;  (length([ll, _ib])) -> length([cons(x, ll), s(_ib)]) -> 4  ;  (leq([x, y])) -> insert([x, cons(y, z), cons(x, cons(y, z))]) -> 7  ;  (leq([b, a])) -> BOT -> 5  ;  (leqnat([nn1, nn2])) -> leqnat([s(nn1), s(nn2)]) -> 5  ;  (leqnat([s(nn1), s(nn2)])) -> leqnat([nn1, nn2]) -> 5  ;  (leqnat([s(nn1), z])) -> BOT -> 5
}
Sat witness: Yes: ((leq([x, y])) -> insert([x, cons(y, z), cons(x, cons(y, z))]), {
x -> b  ;  y -> b  ;  z -> nil
})

-------------------------------------------
Step 15, which took 0.013303 s (model generation: 0.012960,  model checking: 0.000343):

Model:
|_
{
insert -> 
{{{
Q={q_gen_1589, q_gen_1590, q_gen_1591, q_gen_1594, q_gen_1595, q_gen_1596, q_gen_1597},
Q_f={q_gen_1589},
Delta=
{
<nil>() -> q_gen_1590
<a>() -> q_gen_1591
<b>() -> q_gen_1591
<nil, cons>(q_gen_1591, q_gen_1590) -> q_gen_1594
<nil, a>() -> q_gen_1595
<nil, b>() -> q_gen_1595
<a, cons>(q_gen_1591, q_gen_1590) -> q_gen_1596
<b, cons>(q_gen_1591, q_gen_1590) -> q_gen_1596
<a, a>() -> q_gen_1597
<b, a>() -> q_gen_1597
<b, b>() -> q_gen_1597
<a, cons, cons>(q_gen_1597, q_gen_1596, q_gen_1595, q_gen_1594) -> q_gen_1589
<a, nil, cons>(q_gen_1591, q_gen_1590) -> q_gen_1589
<b, cons, cons>(q_gen_1597, q_gen_1596, q_gen_1595, q_gen_1594) -> q_gen_1589
<b, nil, cons>(q_gen_1591, q_gen_1590) -> q_gen_1589
}

Datatype: <elt, eltlist, eltlist>
Convolution form: complete
}}}
  ;  length -> 
{{{
Q={q_gen_1588, q_gen_1599},
Q_f={q_gen_1588},
Delta=
{
<cons, s>(q_gen_1599, q_gen_1588) -> q_gen_1588
<nil, z>() -> q_gen_1588
<b, z>() -> q_gen_1599
}

Datatype: <eltlist, nat>
Convolution form: complete
}}}
  ;  leq -> 
{{{
Q={q_gen_1586, q_gen_1600},
Q_f={q_gen_1586},
Delta=
{
<a, a>() -> q_gen_1586
<a, b>() -> q_gen_1586
<b, b>() -> q_gen_1586
<b, a>() -> q_gen_1600
}

Datatype: <elt, elt>
Convolution form: complete
}}}
  ;  leqnat -> 
{{{
Q={q_gen_1583, q_gen_1585},
Q_f={q_gen_1583},
Delta=
{
<s>(q_gen_1585) -> q_gen_1585
<z>() -> q_gen_1585
<s, s>(q_gen_1583) -> q_gen_1583
<z, s>(q_gen_1585) -> q_gen_1583
<z, z>() -> q_gen_1583
}

Datatype: <nat, nat>
Convolution form: complete
}}}

}
--
Equality automata are defined for: {eq_elt, eq_eltlist, eq_nat}
_|

Teacher's answer:
New clause system:
{
() -> insert([x, nil, cons(x, nil)]) -> 6  ;  () -> length([nil, z]) -> 4  ;  () -> leq([a, y]) -> 6  ;  () -> leq([b, b]) -> 4  ;  () -> leqnat([z, s(nn2)]) -> 6  ;  () -> leqnat([z, z]) -> 4  ;  (insert([x, l, _nb]) /\ length([_nb, _ob]) /\ length([l, _mb])) -> leqnat([_mb, _ob]) -> 4  ;  (insert([x, z, _db]) /\ not leq([x, y])) -> insert([x, cons(y, z), cons(y, _db)]) -> 4  ;  (length([ll, _ib])) -> length([cons(x, ll), s(_ib)]) -> 7  ;  (leq([x, y])) -> insert([x, cons(y, z), cons(x, cons(y, z))]) -> 7  ;  (leq([b, a])) -> BOT -> 5  ;  (leqnat([nn1, nn2])) -> leqnat([s(nn1), s(nn2)]) -> 5  ;  (leqnat([s(nn1), s(nn2)])) -> leqnat([nn1, nn2]) -> 5  ;  (leqnat([s(nn1), z])) -> BOT -> 5
}
Sat witness: Yes: ((length([ll, _ib])) -> length([cons(x, ll), s(_ib)]), {
_ib -> z  ;  ll -> nil  ;  x -> a
})

-------------------------------------------
Step 16, which took 0.029035 s (model generation: 0.013988,  model checking: 0.015047):

Model:
|_
{
insert -> 
{{{
Q={q_gen_1589, q_gen_1590, q_gen_1591, q_gen_1594, q_gen_1595, q_gen_1596, q_gen_1597},
Q_f={q_gen_1589},
Delta=
{
<nil>() -> q_gen_1590
<a>() -> q_gen_1591
<b>() -> q_gen_1591
<nil, cons>(q_gen_1591, q_gen_1590) -> q_gen_1594
<nil, a>() -> q_gen_1595
<nil, b>() -> q_gen_1595
<a, cons>(q_gen_1591, q_gen_1590) -> q_gen_1596
<b, cons>(q_gen_1591, q_gen_1590) -> q_gen_1596
<a, a>() -> q_gen_1597
<b, a>() -> q_gen_1597
<b, b>() -> q_gen_1597
<a, cons, cons>(q_gen_1597, q_gen_1596, q_gen_1595, q_gen_1594) -> q_gen_1589
<a, nil, cons>(q_gen_1591, q_gen_1590) -> q_gen_1589
<b, cons, cons>(q_gen_1597, q_gen_1596, q_gen_1595, q_gen_1594) -> q_gen_1589
<b, nil, cons>(q_gen_1591, q_gen_1590) -> q_gen_1589
}

Datatype: <elt, eltlist, eltlist>
Convolution form: complete
}}}
  ;  length -> 
{{{
Q={q_gen_1588, q_gen_1599},
Q_f={q_gen_1588},
Delta=
{
<cons, s>(q_gen_1599, q_gen_1588) -> q_gen_1588
<nil, z>() -> q_gen_1588
<a, z>() -> q_gen_1599
<b, z>() -> q_gen_1599
}

Datatype: <eltlist, nat>
Convolution form: complete
}}}
  ;  leq -> 
{{{
Q={q_gen_1586, q_gen_1600},
Q_f={q_gen_1586},
Delta=
{
<a, a>() -> q_gen_1586
<a, b>() -> q_gen_1586
<b, b>() -> q_gen_1586
<b, a>() -> q_gen_1600
}

Datatype: <elt, elt>
Convolution form: complete
}}}
  ;  leqnat -> 
{{{
Q={q_gen_1583, q_gen_1585},
Q_f={q_gen_1583},
Delta=
{
<s>(q_gen_1585) -> q_gen_1585
<z>() -> q_gen_1585
<s, s>(q_gen_1583) -> q_gen_1583
<z, s>(q_gen_1585) -> q_gen_1583
<z, z>() -> q_gen_1583
}

Datatype: <nat, nat>
Convolution form: complete
}}}

}
--
Equality automata are defined for: {eq_elt, eq_eltlist, eq_nat}
_|

Teacher's answer:
New clause system:
{
() -> insert([x, nil, cons(x, nil)]) -> 6  ;  () -> length([nil, z]) -> 4  ;  () -> leq([a, y]) -> 6  ;  () -> leq([b, b]) -> 4  ;  () -> leqnat([z, s(nn2)]) -> 6  ;  () -> leqnat([z, z]) -> 4  ;  (insert([x, l, _nb]) /\ length([_nb, _ob]) /\ length([l, _mb])) -> leqnat([_mb, _ob]) -> 4  ;  (insert([x, z, _db]) /\ not leq([x, y])) -> insert([x, cons(y, z), cons(y, _db)]) -> 7  ;  (length([ll, _ib])) -> length([cons(x, ll), s(_ib)]) -> 7  ;  (leq([x, y])) -> insert([x, cons(y, z), cons(x, cons(y, z))]) -> 7  ;  (leq([b, a])) -> BOT -> 5  ;  (leqnat([nn1, nn2])) -> leqnat([s(nn1), s(nn2)]) -> 5  ;  (leqnat([s(nn1), s(nn2)])) -> leqnat([nn1, nn2]) -> 5  ;  (leqnat([s(nn1), z])) -> BOT -> 5
}
Sat witness: Yes: ((insert([x, z, _db]) /\ not leq([x, y])) -> insert([x, cons(y, z), cons(y, _db)]), {
_db -> cons(b, cons(b, nil))  ;  x -> b  ;  y -> a  ;  z -> cons(b, nil)
})

-------------------------------------------
Step 17, which took 0.017817 s (model generation: 0.010877,  model checking: 0.006940):

Model:
|_
{
insert -> 
{{{
Q={q_gen_1589, q_gen_1590, q_gen_1591, q_gen_1594, q_gen_1595, q_gen_1596, q_gen_1597},
Q_f={q_gen_1589},
Delta=
{
<cons>(q_gen_1591, q_gen_1590) -> q_gen_1590
<nil>() -> q_gen_1590
<a>() -> q_gen_1591
<b>() -> q_gen_1591
<cons, cons>(q_gen_1597, q_gen_1596, q_gen_1595, q_gen_1594) -> q_gen_1594
<nil, cons>(q_gen_1591, q_gen_1590) -> q_gen_1594
<cons, a>(q_gen_1591, q_gen_1590) -> q_gen_1595
<nil, a>() -> q_gen_1595
<nil, b>() -> q_gen_1595
<a, cons>(q_gen_1591, q_gen_1590) -> q_gen_1596
<b, cons>(q_gen_1591, q_gen_1590) -> q_gen_1596
<a, a>() -> q_gen_1597
<b, a>() -> q_gen_1597
<b, b>() -> q_gen_1597
<a, cons, cons>(q_gen_1597, q_gen_1596, q_gen_1595, q_gen_1594) -> q_gen_1589
<a, nil, cons>(q_gen_1591, q_gen_1590) -> q_gen_1589
<b, cons, cons>(q_gen_1597, q_gen_1596, q_gen_1595, q_gen_1594) -> q_gen_1589
<b, nil, cons>(q_gen_1591, q_gen_1590) -> q_gen_1589
}

Datatype: <elt, eltlist, eltlist>
Convolution form: complete
}}}
  ;  length -> 
{{{
Q={q_gen_1588, q_gen_1599},
Q_f={q_gen_1588},
Delta=
{
<cons, s>(q_gen_1599, q_gen_1588) -> q_gen_1588
<nil, z>() -> q_gen_1588
<a, z>() -> q_gen_1599
<b, z>() -> q_gen_1599
}

Datatype: <eltlist, nat>
Convolution form: complete
}}}
  ;  leq -> 
{{{
Q={q_gen_1586, q_gen_1600},
Q_f={q_gen_1586},
Delta=
{
<a, a>() -> q_gen_1586
<a, b>() -> q_gen_1586
<b, b>() -> q_gen_1586
<b, a>() -> q_gen_1600
}

Datatype: <elt, elt>
Convolution form: complete
}}}
  ;  leqnat -> 
{{{
Q={q_gen_1583, q_gen_1585},
Q_f={q_gen_1583},
Delta=
{
<s>(q_gen_1585) -> q_gen_1585
<z>() -> q_gen_1585
<s, s>(q_gen_1583) -> q_gen_1583
<z, s>(q_gen_1585) -> q_gen_1583
<z, z>() -> q_gen_1583
}

Datatype: <nat, nat>
Convolution form: complete
}}}

}
--
Equality automata are defined for: {eq_elt, eq_eltlist, eq_nat}
_|

Teacher's answer:
New clause system:
{
() -> insert([x, nil, cons(x, nil)]) -> 7  ;  () -> length([nil, z]) -> 5  ;  () -> leq([a, y]) -> 7  ;  () -> leq([b, b]) -> 5  ;  () -> leqnat([z, s(nn2)]) -> 7  ;  () -> leqnat([z, z]) -> 5  ;  (insert([x, l, _nb]) /\ length([_nb, _ob]) /\ length([l, _mb])) -> leqnat([_mb, _ob]) -> 5  ;  (insert([x, z, _db]) /\ not leq([x, y])) -> insert([x, cons(y, z), cons(y, _db)]) -> 7  ;  (length([ll, _ib])) -> length([cons(x, ll), s(_ib)]) -> 7  ;  (leq([x, y])) -> insert([x, cons(y, z), cons(x, cons(y, z))]) -> 10  ;  (leq([b, a])) -> BOT -> 6  ;  (leqnat([nn1, nn2])) -> leqnat([s(nn1), s(nn2)]) -> 6  ;  (leqnat([s(nn1), s(nn2)])) -> leqnat([nn1, nn2]) -> 6  ;  (leqnat([s(nn1), z])) -> BOT -> 6
}
Sat witness: Yes: ((leq([x, y])) -> insert([x, cons(y, z), cons(x, cons(y, z))]), {
x -> b  ;  y -> b  ;  z -> cons(b, nil)
})

-------------------------------------------
Step 18, which took 0.015407 s (model generation: 0.014348,  model checking: 0.001059):

Model:
|_
{
insert -> 
{{{
Q={q_gen_1589, q_gen_1590, q_gen_1591, q_gen_1594, q_gen_1595, q_gen_1596, q_gen_1597},
Q_f={q_gen_1589},
Delta=
{
<cons>(q_gen_1591, q_gen_1590) -> q_gen_1590
<nil>() -> q_gen_1590
<a>() -> q_gen_1591
<b>() -> q_gen_1591
<cons, cons>(q_gen_1597, q_gen_1596, q_gen_1595, q_gen_1594) -> q_gen_1594
<nil, cons>(q_gen_1591, q_gen_1590) -> q_gen_1594
<cons, a>(q_gen_1591, q_gen_1590) -> q_gen_1595
<cons, b>(q_gen_1591, q_gen_1590) -> q_gen_1595
<nil, a>() -> q_gen_1595
<nil, b>() -> q_gen_1595
<a, cons>(q_gen_1591, q_gen_1590) -> q_gen_1596
<b, cons>(q_gen_1591, q_gen_1590) -> q_gen_1596
<a, a>() -> q_gen_1597
<b, a>() -> q_gen_1597
<b, b>() -> q_gen_1597
<a, cons, cons>(q_gen_1597, q_gen_1596, q_gen_1595, q_gen_1594) -> q_gen_1589
<a, nil, cons>(q_gen_1591, q_gen_1590) -> q_gen_1589
<b, cons, cons>(q_gen_1597, q_gen_1596, q_gen_1595, q_gen_1594) -> q_gen_1589
<b, nil, cons>(q_gen_1591, q_gen_1590) -> q_gen_1589
}

Datatype: <elt, eltlist, eltlist>
Convolution form: complete
}}}
  ;  length -> 
{{{
Q={q_gen_1588, q_gen_1599},
Q_f={q_gen_1588},
Delta=
{
<cons, s>(q_gen_1599, q_gen_1588) -> q_gen_1588
<nil, z>() -> q_gen_1588
<a, z>() -> q_gen_1599
<b, z>() -> q_gen_1599
}

Datatype: <eltlist, nat>
Convolution form: complete
}}}
  ;  leq -> 
{{{
Q={q_gen_1586, q_gen_1600},
Q_f={q_gen_1586},
Delta=
{
<a, a>() -> q_gen_1586
<a, b>() -> q_gen_1586
<b, b>() -> q_gen_1586
<b, a>() -> q_gen_1600
}

Datatype: <elt, elt>
Convolution form: complete
}}}
  ;  leqnat -> 
{{{
Q={q_gen_1583, q_gen_1585},
Q_f={q_gen_1583},
Delta=
{
<s>(q_gen_1585) -> q_gen_1585
<z>() -> q_gen_1585
<s, s>(q_gen_1583) -> q_gen_1583
<z, s>(q_gen_1585) -> q_gen_1583
<z, z>() -> q_gen_1583
}

Datatype: <nat, nat>
Convolution form: complete
}}}

}
--
Equality automata are defined for: {eq_elt, eq_eltlist, eq_nat}
_|

Teacher's answer:
New clause system:
{
() -> insert([x, nil, cons(x, nil)]) -> 7  ;  () -> length([nil, z]) -> 6  ;  () -> leq([a, y]) -> 7  ;  () -> leq([b, b]) -> 6  ;  () -> leqnat([z, s(nn2)]) -> 7  ;  () -> leqnat([z, z]) -> 6  ;  (insert([x, l, _nb]) /\ length([_nb, _ob]) /\ length([l, _mb])) -> leqnat([_mb, _ob]) -> 6  ;  (insert([x, z, _db]) /\ not leq([x, y])) -> insert([x, cons(y, z), cons(y, _db)]) -> 7  ;  (length([ll, _ib])) -> length([cons(x, ll), s(_ib)]) -> 10  ;  (leq([x, y])) -> insert([x, cons(y, z), cons(x, cons(y, z))]) -> 10  ;  (leq([b, a])) -> BOT -> 7  ;  (leqnat([nn1, nn2])) -> leqnat([s(nn1), s(nn2)]) -> 7  ;  (leqnat([s(nn1), s(nn2)])) -> leqnat([nn1, nn2]) -> 7  ;  (leqnat([s(nn1), z])) -> BOT -> 7
}
Sat witness: Yes: ((length([ll, _ib])) -> length([cons(x, ll), s(_ib)]), {
_ib -> s(z)  ;  ll -> cons(a, nil)  ;  x -> b
})

-------------------------------------------
Step 19, which took 0.025769 s (model generation: 0.010885,  model checking: 0.014884):

Model:
|_
{
insert -> 
{{{
Q={q_gen_1589, q_gen_1590, q_gen_1591, q_gen_1594, q_gen_1595, q_gen_1596, q_gen_1597},
Q_f={q_gen_1589},
Delta=
{
<cons>(q_gen_1591, q_gen_1590) -> q_gen_1590
<nil>() -> q_gen_1590
<a>() -> q_gen_1591
<b>() -> q_gen_1591
<cons, cons>(q_gen_1597, q_gen_1596, q_gen_1595, q_gen_1594) -> q_gen_1594
<nil, cons>(q_gen_1591, q_gen_1590) -> q_gen_1594
<cons, a>(q_gen_1591, q_gen_1590) -> q_gen_1595
<cons, b>(q_gen_1591, q_gen_1590) -> q_gen_1595
<nil, a>() -> q_gen_1595
<nil, b>() -> q_gen_1595
<a, cons>(q_gen_1591, q_gen_1590) -> q_gen_1596
<b, cons>(q_gen_1591, q_gen_1590) -> q_gen_1596
<a, a>() -> q_gen_1597
<b, a>() -> q_gen_1597
<b, b>() -> q_gen_1597
<a, cons, cons>(q_gen_1597, q_gen_1596, q_gen_1595, q_gen_1594) -> q_gen_1589
<a, nil, cons>(q_gen_1591, q_gen_1590) -> q_gen_1589
<b, cons, cons>(q_gen_1597, q_gen_1596, q_gen_1595, q_gen_1594) -> q_gen_1589
<b, nil, cons>(q_gen_1591, q_gen_1590) -> q_gen_1589
}

Datatype: <elt, eltlist, eltlist>
Convolution form: complete
}}}
  ;  length -> 
{{{
Q={q_gen_1588, q_gen_1599, q_gen_1624},
Q_f={q_gen_1588},
Delta=
{
<z>() -> q_gen_1624
<cons, s>(q_gen_1599, q_gen_1588) -> q_gen_1588
<nil, z>() -> q_gen_1588
<a, z>() -> q_gen_1599
<b, s>(q_gen_1624) -> q_gen_1599
<b, z>() -> q_gen_1599
}

Datatype: <eltlist, nat>
Convolution form: complete
}}}
  ;  leq -> 
{{{
Q={q_gen_1586, q_gen_1600},
Q_f={q_gen_1586},
Delta=
{
<a, a>() -> q_gen_1586
<a, b>() -> q_gen_1586
<b, b>() -> q_gen_1586
<b, a>() -> q_gen_1600
}

Datatype: <elt, elt>
Convolution form: complete
}}}
  ;  leqnat -> 
{{{
Q={q_gen_1583, q_gen_1585},
Q_f={q_gen_1583},
Delta=
{
<s>(q_gen_1585) -> q_gen_1585
<z>() -> q_gen_1585
<s, s>(q_gen_1583) -> q_gen_1583
<z, s>(q_gen_1585) -> q_gen_1583
<z, z>() -> q_gen_1583
}

Datatype: <nat, nat>
Convolution form: complete
}}}

}
--
Equality automata are defined for: {eq_elt, eq_eltlist, eq_nat}
_|

Teacher's answer:
New clause system:
{
() -> insert([x, nil, cons(x, nil)]) -> 8  ;  () -> length([nil, z]) -> 7  ;  () -> leq([a, y]) -> 8  ;  () -> leq([b, b]) -> 7  ;  () -> leqnat([z, s(nn2)]) -> 8  ;  () -> leqnat([z, z]) -> 7  ;  (insert([x, l, _nb]) /\ length([_nb, _ob]) /\ length([l, _mb])) -> leqnat([_mb, _ob]) -> 7  ;  (insert([x, z, _db]) /\ not leq([x, y])) -> insert([x, cons(y, z), cons(y, _db)]) -> 8  ;  (length([ll, _ib])) -> length([cons(x, ll), s(_ib)]) -> 10  ;  (leq([x, y])) -> insert([x, cons(y, z), cons(x, cons(y, z))]) -> 13  ;  (leq([b, a])) -> BOT -> 8  ;  (leqnat([nn1, nn2])) -> leqnat([s(nn1), s(nn2)]) -> 8  ;  (leqnat([s(nn1), s(nn2)])) -> leqnat([nn1, nn2]) -> 8  ;  (leqnat([s(nn1), z])) -> BOT -> 8
}
Sat witness: Yes: ((leq([x, y])) -> insert([x, cons(y, z), cons(x, cons(y, z))]), {
x -> b  ;  y -> b  ;  z -> cons(a, nil)
})

-------------------------------------------
Step 20, which took 0.016832 s (model generation: 0.007494,  model checking: 0.009338):

Model:
|_
{
insert -> 
{{{
Q={q_gen_1589, q_gen_1590, q_gen_1591, q_gen_1594, q_gen_1595, q_gen_1596, q_gen_1597},
Q_f={q_gen_1589},
Delta=
{
<cons>(q_gen_1591, q_gen_1590) -> q_gen_1590
<nil>() -> q_gen_1590
<a>() -> q_gen_1591
<b>() -> q_gen_1591
<cons, cons>(q_gen_1597, q_gen_1596, q_gen_1595, q_gen_1594) -> q_gen_1594
<nil, cons>(q_gen_1591, q_gen_1590) -> q_gen_1594
<cons, a>(q_gen_1591, q_gen_1590) -> q_gen_1595
<cons, b>(q_gen_1591, q_gen_1590) -> q_gen_1595
<nil, a>() -> q_gen_1595
<nil, b>() -> q_gen_1595
<a, cons>(q_gen_1591, q_gen_1590) -> q_gen_1596
<b, cons>(q_gen_1591, q_gen_1590) -> q_gen_1596
<a, a>() -> q_gen_1597
<a, b>() -> q_gen_1597
<b, a>() -> q_gen_1597
<b, b>() -> q_gen_1597
<a, cons, cons>(q_gen_1597, q_gen_1596, q_gen_1595, q_gen_1594) -> q_gen_1589
<a, nil, cons>(q_gen_1591, q_gen_1590) -> q_gen_1589
<b, cons, cons>(q_gen_1597, q_gen_1596, q_gen_1595, q_gen_1594) -> q_gen_1589
<b, nil, cons>(q_gen_1591, q_gen_1590) -> q_gen_1589
}

Datatype: <elt, eltlist, eltlist>
Convolution form: complete
}}}
  ;  length -> 
{{{
Q={q_gen_1588, q_gen_1599, q_gen_1624},
Q_f={q_gen_1588},
Delta=
{
<z>() -> q_gen_1624
<cons, s>(q_gen_1599, q_gen_1588) -> q_gen_1588
<nil, z>() -> q_gen_1588
<a, z>() -> q_gen_1599
<b, s>(q_gen_1624) -> q_gen_1599
<b, z>() -> q_gen_1599
}

Datatype: <eltlist, nat>
Convolution form: complete
}}}
  ;  leq -> 
{{{
Q={q_gen_1586, q_gen_1600},
Q_f={q_gen_1586},
Delta=
{
<a, a>() -> q_gen_1586
<a, b>() -> q_gen_1586
<b, b>() -> q_gen_1586
<b, a>() -> q_gen_1600
}

Datatype: <elt, elt>
Convolution form: complete
}}}
  ;  leqnat -> 
{{{
Q={q_gen_1583, q_gen_1585},
Q_f={q_gen_1583},
Delta=
{
<s>(q_gen_1585) -> q_gen_1585
<z>() -> q_gen_1585
<s, s>(q_gen_1583) -> q_gen_1583
<z, s>(q_gen_1585) -> q_gen_1583
<z, z>() -> q_gen_1583
}

Datatype: <nat, nat>
Convolution form: complete
}}}

}
--
Equality automata are defined for: {eq_elt, eq_eltlist, eq_nat}
_|

Teacher's answer:
New clause system:
{
() -> insert([x, nil, cons(x, nil)]) -> 9  ;  () -> length([nil, z]) -> 8  ;  () -> leq([a, y]) -> 9  ;  () -> leq([b, b]) -> 8  ;  () -> leqnat([z, s(nn2)]) -> 9  ;  () -> leqnat([z, z]) -> 8  ;  (insert([x, l, _nb]) /\ length([_nb, _ob]) /\ length([l, _mb])) -> leqnat([_mb, _ob]) -> 8  ;  (insert([x, z, _db]) /\ not leq([x, y])) -> insert([x, cons(y, z), cons(y, _db)]) -> 9  ;  (length([ll, _ib])) -> length([cons(x, ll), s(_ib)]) -> 13  ;  (leq([x, y])) -> insert([x, cons(y, z), cons(x, cons(y, z))]) -> 13  ;  (leq([b, a])) -> BOT -> 9  ;  (leqnat([nn1, nn2])) -> leqnat([s(nn1), s(nn2)]) -> 9  ;  (leqnat([s(nn1), s(nn2)])) -> leqnat([nn1, nn2]) -> 9  ;  (leqnat([s(nn1), z])) -> BOT -> 9
}
Sat witness: Yes: ((length([ll, _ib])) -> length([cons(x, ll), s(_ib)]), {
_ib -> s(z)  ;  ll -> cons(b, nil)  ;  x -> a
})

-------------------------------------------
Step 21, which took 0.014999 s (model generation: 0.006494,  model checking: 0.008505):

Model:
|_
{
insert -> 
{{{
Q={q_gen_1589, q_gen_1590, q_gen_1591, q_gen_1594, q_gen_1595, q_gen_1596, q_gen_1597},
Q_f={q_gen_1589},
Delta=
{
<cons>(q_gen_1591, q_gen_1590) -> q_gen_1590
<nil>() -> q_gen_1590
<a>() -> q_gen_1591
<b>() -> q_gen_1591
<cons, cons>(q_gen_1597, q_gen_1596, q_gen_1595, q_gen_1594) -> q_gen_1594
<nil, cons>(q_gen_1591, q_gen_1590) -> q_gen_1594
<cons, a>(q_gen_1591, q_gen_1590) -> q_gen_1595
<cons, b>(q_gen_1591, q_gen_1590) -> q_gen_1595
<nil, a>() -> q_gen_1595
<nil, b>() -> q_gen_1595
<a, cons>(q_gen_1591, q_gen_1590) -> q_gen_1596
<b, cons>(q_gen_1591, q_gen_1590) -> q_gen_1596
<a, a>() -> q_gen_1597
<a, b>() -> q_gen_1597
<b, a>() -> q_gen_1597
<b, b>() -> q_gen_1597
<a, cons, cons>(q_gen_1597, q_gen_1596, q_gen_1595, q_gen_1594) -> q_gen_1589
<a, nil, cons>(q_gen_1591, q_gen_1590) -> q_gen_1589
<b, cons, cons>(q_gen_1597, q_gen_1596, q_gen_1595, q_gen_1594) -> q_gen_1589
<b, nil, cons>(q_gen_1591, q_gen_1590) -> q_gen_1589
}

Datatype: <elt, eltlist, eltlist>
Convolution form: complete
}}}
  ;  length -> 
{{{
Q={q_gen_1588, q_gen_1599, q_gen_1624},
Q_f={q_gen_1588},
Delta=
{
<z>() -> q_gen_1624
<cons, s>(q_gen_1599, q_gen_1588) -> q_gen_1588
<nil, z>() -> q_gen_1588
<a, s>(q_gen_1624) -> q_gen_1599
<a, z>() -> q_gen_1599
<b, s>(q_gen_1624) -> q_gen_1599
<b, z>() -> q_gen_1599
}

Datatype: <eltlist, nat>
Convolution form: complete
}}}
  ;  leq -> 
{{{
Q={q_gen_1586, q_gen_1600},
Q_f={q_gen_1586},
Delta=
{
<a, a>() -> q_gen_1586
<a, b>() -> q_gen_1586
<b, b>() -> q_gen_1586
<b, a>() -> q_gen_1600
}

Datatype: <elt, elt>
Convolution form: complete
}}}
  ;  leqnat -> 
{{{
Q={q_gen_1583, q_gen_1585},
Q_f={q_gen_1583},
Delta=
{
<s>(q_gen_1585) -> q_gen_1585
<z>() -> q_gen_1585
<s, s>(q_gen_1583) -> q_gen_1583
<z, s>(q_gen_1585) -> q_gen_1583
<z, z>() -> q_gen_1583
}

Datatype: <nat, nat>
Convolution form: complete
}}}

}
--
Equality automata are defined for: {eq_elt, eq_eltlist, eq_nat}
_|

Teacher's answer:
New clause system:
{
() -> insert([x, nil, cons(x, nil)]) -> 10  ;  () -> length([nil, z]) -> 9  ;  () -> leq([a, y]) -> 10  ;  () -> leq([b, b]) -> 9  ;  () -> leqnat([z, s(nn2)]) -> 10  ;  () -> leqnat([z, z]) -> 9  ;  (insert([x, l, _nb]) /\ length([_nb, _ob]) /\ length([l, _mb])) -> leqnat([_mb, _ob]) -> 9  ;  (insert([x, z, _db]) /\ not leq([x, y])) -> insert([x, cons(y, z), cons(y, _db)]) -> 10  ;  (length([ll, _ib])) -> length([cons(x, ll), s(_ib)]) -> 16  ;  (leq([x, y])) -> insert([x, cons(y, z), cons(x, cons(y, z))]) -> 14  ;  (leq([b, a])) -> BOT -> 10  ;  (leqnat([nn1, nn2])) -> leqnat([s(nn1), s(nn2)]) -> 10  ;  (leqnat([s(nn1), s(nn2)])) -> leqnat([nn1, nn2]) -> 10  ;  (leqnat([s(nn1), z])) -> BOT -> 10
}
Sat witness: Yes: ((length([ll, _ib])) -> length([cons(x, ll), s(_ib)]), {
_ib -> s(s(z))  ;  ll -> cons(b, cons(b, nil))  ;  x -> b
})

Total time: 0.260385
Reason for stopping: Proved

