Solving ../../../../benchmarks/smtlib/true/isaplanner_prop15.smt2...

Inference procedure has parameters:
Ice fuel: 200
Timeout: 20s
Convolution: complete


Learning problem is:

env: {
elt -> {a, b}  ;  eltlist -> {cons, nil}  ;  nat -> {s, z}
}
definition:
{
(leq, P:
{() -> leq([a, y])
() -> leq([b, b])
(leq([b, a])) -> BOT}
)
(insert, F:
{() -> insert([x, nil, cons(x, nil)])
(insert([x, z, _wh]) /\ not leq([x, y])) -> insert([x, cons(y, z), cons(y, _wh)])
(leq([x, y])) -> insert([x, cons(y, z), cons(x, cons(y, z))])}
(insert([_xh, _yh, _ai]) /\ insert([_xh, _yh, _zh])) -> eq_eltlist([_zh, _ai])
)
(length, F:
{() -> length([nil, z])
(length([ll, _bi])) -> length([cons(x, ll), s(_bi)])}
(length([_ci, _di]) /\ length([_ci, _ei])) -> eq_nat([_di, _ei])
)
(leqnat, P:
{() -> leqnat([z, s(nn2)])
() -> leqnat([z, z])
(leqnat([nn1, nn2])) -> leqnat([s(nn1), s(nn2)])
(leqnat([s(nn1), s(nn2)])) -> leqnat([nn1, nn2])
(leqnat([s(nn1), z])) -> BOT}
)
(le_nat, P:
{() -> le_nat([z, s(nn2)])
(le_nat([nn1, nn2])) -> le_nat([s(nn1), s(nn2)])
(le_nat([s(nn1), s(nn2)])) -> le_nat([nn1, nn2])
(le_nat([s(nn1), z])) -> BOT
(le_nat([z, z])) -> BOT}
)
}

properties:
{(insert([x, l, _gi]) /\ length([_gi, _hi]) /\ length([l, _fi])) -> le_nat([_fi, _hi])}


over-approximation: {insert, length, leqnat}
under-approximation: {le_nat, leq, leqnat}

Clause system for inference is:

{
() -> insert([x, nil, cons(x, nil)]) -> 0  ;  () -> le_nat([z, s(nn2)]) -> 0  ;  () -> length([nil, z]) -> 0  ;  () -> leq([a, y]) -> 0  ;  () -> leq([b, b]) -> 0  ;  () -> leqnat([z, s(nn2)]) -> 0  ;  () -> leqnat([z, z]) -> 0  ;  (insert([x, l, _gi]) /\ length([_gi, _hi]) /\ length([l, _fi])) -> le_nat([_fi, _hi]) -> 0  ;  (insert([x, z, _wh]) /\ not leq([x, y])) -> insert([x, cons(y, z), cons(y, _wh)]) -> 0  ;  (le_nat([nn1, nn2])) -> le_nat([s(nn1), s(nn2)]) -> 0  ;  (le_nat([s(nn1), s(nn2)])) -> le_nat([nn1, nn2]) -> 0  ;  (le_nat([s(nn1), z])) -> BOT -> 0  ;  (le_nat([z, z])) -> BOT -> 0  ;  (length([ll, _bi])) -> length([cons(x, ll), s(_bi)]) -> 0  ;  (leq([x, y])) -> insert([x, cons(y, z), cons(x, cons(y, z))]) -> 0  ;  (leq([b, a])) -> BOT -> 0  ;  (leqnat([nn1, nn2])) -> leqnat([s(nn1), s(nn2)]) -> 0  ;  (leqnat([s(nn1), s(nn2)])) -> leqnat([nn1, nn2]) -> 0  ;  (leqnat([s(nn1), z])) -> BOT -> 0
}


Solving took 0.279429 seconds.
Proved
Model:
|_
{
insert -> 
{{{
Q={q_gen_1999, q_gen_2000, q_gen_2001, q_gen_2004, q_gen_2005, q_gen_2006, q_gen_2007},
Q_f={q_gen_1999},
Delta=
{
<cons>(q_gen_2001, q_gen_2000) -> q_gen_2000
<nil>() -> q_gen_2000
<a>() -> q_gen_2001
<b>() -> q_gen_2001
<cons, cons>(q_gen_2007, q_gen_2006, q_gen_2005, q_gen_2004) -> q_gen_2004
<nil, cons>(q_gen_2001, q_gen_2000) -> q_gen_2004
<cons, a>(q_gen_2001, q_gen_2000) -> q_gen_2005
<cons, b>(q_gen_2001, q_gen_2000) -> q_gen_2005
<nil, a>() -> q_gen_2005
<nil, b>() -> q_gen_2005
<a, cons>(q_gen_2001, q_gen_2000) -> q_gen_2006
<b, cons>(q_gen_2001, q_gen_2000) -> q_gen_2006
<a, a>() -> q_gen_2007
<a, b>() -> q_gen_2007
<b, a>() -> q_gen_2007
<b, b>() -> q_gen_2007
<a, cons, cons>(q_gen_2007, q_gen_2006, q_gen_2005, q_gen_2004) -> q_gen_1999
<a, nil, cons>(q_gen_2001, q_gen_2000) -> q_gen_1999
<b, cons, cons>(q_gen_2007, q_gen_2006, q_gen_2005, q_gen_2004) -> q_gen_1999
<b, nil, cons>(q_gen_2001, q_gen_2000) -> q_gen_1999
}

Datatype: <elt, eltlist, eltlist>
Convolution form: complete
}}}
  ;  le_nat -> 
{{{
Q={q_gen_1997, q_gen_1998},
Q_f={q_gen_1997},
Delta=
{
<s>(q_gen_1998) -> q_gen_1998
<z>() -> q_gen_1998
<s, s>(q_gen_1997) -> q_gen_1997
<z, s>(q_gen_1998) -> q_gen_1997
}

Datatype: <nat, nat>
Convolution form: complete
}}}
  ;  length -> 
{{{
Q={q_gen_1996, q_gen_2009, q_gen_2037},
Q_f={q_gen_1996},
Delta=
{
<s>(q_gen_2037) -> q_gen_2037
<z>() -> q_gen_2037
<cons, s>(q_gen_2009, q_gen_1996) -> q_gen_1996
<nil, z>() -> q_gen_1996
<a, s>(q_gen_2037) -> q_gen_2009
<a, z>() -> q_gen_2009
<b, s>(q_gen_2037) -> q_gen_2009
<b, z>() -> q_gen_2009
}

Datatype: <eltlist, nat>
Convolution form: complete
}}}
  ;  leq -> 
{{{
Q={q_gen_1994, q_gen_2011},
Q_f={q_gen_1994},
Delta=
{
<a, a>() -> q_gen_1994
<a, b>() -> q_gen_1994
<b, b>() -> q_gen_1994
<b, a>() -> q_gen_2011
}

Datatype: <elt, elt>
Convolution form: complete
}}}
  ;  leqnat -> 
{{{
Q={q_gen_1991, q_gen_1993},
Q_f={q_gen_1991},
Delta=
{
<s>(q_gen_1993) -> q_gen_1993
<z>() -> q_gen_1993
<s, s>(q_gen_1991) -> q_gen_1991
<z, s>(q_gen_1993) -> q_gen_1991
<z, z>() -> q_gen_1991
}

Datatype: <nat, nat>
Convolution form: complete
}}}

}
--
Equality automata are defined for: {eq_elt, eq_eltlist, eq_nat}
_|

-------------------
STEPS:
-------------------------------------------
Step 0, which took 0.004065 s (model generation: 0.003626,  model checking: 0.000439):

Model:
|_
{
insert -> 
{{{
Q={},
Q_f={},
Delta=
{

}

Datatype: <elt, eltlist, eltlist>
Convolution form: complete
}}}
  ;  le_nat -> 
{{{
Q={},
Q_f={},
Delta=
{

}

Datatype: <nat, nat>
Convolution form: complete
}}}
  ;  length -> 
{{{
Q={},
Q_f={},
Delta=
{

}

Datatype: <eltlist, nat>
Convolution form: complete
}}}
  ;  leq -> 
{{{
Q={},
Q_f={},
Delta=
{

}

Datatype: <elt, elt>
Convolution form: complete
}}}
  ;  leqnat -> 
{{{
Q={},
Q_f={},
Delta=
{

}

Datatype: <nat, nat>
Convolution form: complete
}}}

}
--
Equality automata are defined for: {eq_elt, eq_eltlist, eq_nat}
_|

Teacher's answer:
New clause system:
{
() -> insert([x, nil, cons(x, nil)]) -> 0  ;  () -> le_nat([z, s(nn2)]) -> 0  ;  () -> length([nil, z]) -> 0  ;  () -> leq([a, y]) -> 0  ;  () -> leq([b, b]) -> 0  ;  () -> leqnat([z, s(nn2)]) -> 0  ;  () -> leqnat([z, z]) -> 3  ;  (insert([x, l, _gi]) /\ length([_gi, _hi]) /\ length([l, _fi])) -> le_nat([_fi, _hi]) -> 1  ;  (insert([x, z, _wh]) /\ not leq([x, y])) -> insert([x, cons(y, z), cons(y, _wh)]) -> 1  ;  (le_nat([nn1, nn2])) -> le_nat([s(nn1), s(nn2)]) -> 1  ;  (le_nat([s(nn1), s(nn2)])) -> le_nat([nn1, nn2]) -> 1  ;  (le_nat([s(nn1), z])) -> BOT -> 1  ;  (le_nat([z, z])) -> BOT -> 1  ;  (length([ll, _bi])) -> length([cons(x, ll), s(_bi)]) -> 1  ;  (leq([x, y])) -> insert([x, cons(y, z), cons(x, cons(y, z))]) -> 1  ;  (leq([b, a])) -> BOT -> 1  ;  (leqnat([nn1, nn2])) -> leqnat([s(nn1), s(nn2)]) -> 1  ;  (leqnat([s(nn1), s(nn2)])) -> leqnat([nn1, nn2]) -> 1  ;  (leqnat([s(nn1), z])) -> BOT -> 1
}
Sat witness: Yes: (() -> leqnat([z, z]), {

})

-------------------------------------------
Step 1, which took 0.003277 s (model generation: 0.003229,  model checking: 0.000048):

Model:
|_
{
insert -> 
{{{
Q={},
Q_f={},
Delta=
{

}

Datatype: <elt, eltlist, eltlist>
Convolution form: complete
}}}
  ;  le_nat -> 
{{{
Q={},
Q_f={},
Delta=
{

}

Datatype: <nat, nat>
Convolution form: complete
}}}
  ;  length -> 
{{{
Q={},
Q_f={},
Delta=
{

}

Datatype: <eltlist, nat>
Convolution form: complete
}}}
  ;  leq -> 
{{{
Q={},
Q_f={},
Delta=
{

}

Datatype: <elt, elt>
Convolution form: complete
}}}
  ;  leqnat -> 
{{{
Q={q_gen_1991},
Q_f={q_gen_1991},
Delta=
{
<z, z>() -> q_gen_1991
}

Datatype: <nat, nat>
Convolution form: complete
}}}

}
--
Equality automata are defined for: {eq_elt, eq_eltlist, eq_nat}
_|

Teacher's answer:
New clause system:
{
() -> insert([x, nil, cons(x, nil)]) -> 0  ;  () -> le_nat([z, s(nn2)]) -> 0  ;  () -> length([nil, z]) -> 0  ;  () -> leq([a, y]) -> 0  ;  () -> leq([b, b]) -> 0  ;  () -> leqnat([z, s(nn2)]) -> 3  ;  () -> leqnat([z, z]) -> 3  ;  (insert([x, l, _gi]) /\ length([_gi, _hi]) /\ length([l, _fi])) -> le_nat([_fi, _hi]) -> 1  ;  (insert([x, z, _wh]) /\ not leq([x, y])) -> insert([x, cons(y, z), cons(y, _wh)]) -> 1  ;  (le_nat([nn1, nn2])) -> le_nat([s(nn1), s(nn2)]) -> 1  ;  (le_nat([s(nn1), s(nn2)])) -> le_nat([nn1, nn2]) -> 1  ;  (le_nat([s(nn1), z])) -> BOT -> 1  ;  (le_nat([z, z])) -> BOT -> 1  ;  (length([ll, _bi])) -> length([cons(x, ll), s(_bi)]) -> 1  ;  (leq([x, y])) -> insert([x, cons(y, z), cons(x, cons(y, z))]) -> 1  ;  (leq([b, a])) -> BOT -> 1  ;  (leqnat([nn1, nn2])) -> leqnat([s(nn1), s(nn2)]) -> 1  ;  (leqnat([s(nn1), s(nn2)])) -> leqnat([nn1, nn2]) -> 1  ;  (leqnat([s(nn1), z])) -> BOT -> 1
}
Sat witness: Yes: (() -> leqnat([z, s(nn2)]), {
nn2 -> z
})

-------------------------------------------
Step 2, which took 0.003162 s (model generation: 0.003141,  model checking: 0.000021):

Model:
|_
{
insert -> 
{{{
Q={},
Q_f={},
Delta=
{

}

Datatype: <elt, eltlist, eltlist>
Convolution form: complete
}}}
  ;  le_nat -> 
{{{
Q={},
Q_f={},
Delta=
{

}

Datatype: <nat, nat>
Convolution form: complete
}}}
  ;  length -> 
{{{
Q={},
Q_f={},
Delta=
{

}

Datatype: <eltlist, nat>
Convolution form: complete
}}}
  ;  leq -> 
{{{
Q={},
Q_f={},
Delta=
{

}

Datatype: <elt, elt>
Convolution form: complete
}}}
  ;  leqnat -> 
{{{
Q={q_gen_1991, q_gen_1993},
Q_f={q_gen_1991},
Delta=
{
<z>() -> q_gen_1993
<z, s>(q_gen_1993) -> q_gen_1991
<z, z>() -> q_gen_1991
}

Datatype: <nat, nat>
Convolution form: complete
}}}

}
--
Equality automata are defined for: {eq_elt, eq_eltlist, eq_nat}
_|

Teacher's answer:
New clause system:
{
() -> insert([x, nil, cons(x, nil)]) -> 0  ;  () -> le_nat([z, s(nn2)]) -> 0  ;  () -> length([nil, z]) -> 0  ;  () -> leq([a, y]) -> 0  ;  () -> leq([b, b]) -> 3  ;  () -> leqnat([z, s(nn2)]) -> 3  ;  () -> leqnat([z, z]) -> 3  ;  (insert([x, l, _gi]) /\ length([_gi, _hi]) /\ length([l, _fi])) -> le_nat([_fi, _hi]) -> 1  ;  (insert([x, z, _wh]) /\ not leq([x, y])) -> insert([x, cons(y, z), cons(y, _wh)]) -> 1  ;  (le_nat([nn1, nn2])) -> le_nat([s(nn1), s(nn2)]) -> 1  ;  (le_nat([s(nn1), s(nn2)])) -> le_nat([nn1, nn2]) -> 1  ;  (le_nat([s(nn1), z])) -> BOT -> 1  ;  (le_nat([z, z])) -> BOT -> 1  ;  (length([ll, _bi])) -> length([cons(x, ll), s(_bi)]) -> 1  ;  (leq([x, y])) -> insert([x, cons(y, z), cons(x, cons(y, z))]) -> 1  ;  (leq([b, a])) -> BOT -> 1  ;  (leqnat([nn1, nn2])) -> leqnat([s(nn1), s(nn2)]) -> 1  ;  (leqnat([s(nn1), s(nn2)])) -> leqnat([nn1, nn2]) -> 1  ;  (leqnat([s(nn1), z])) -> BOT -> 1
}
Sat witness: Yes: (() -> leq([b, b]), {

})

-------------------------------------------
Step 3, which took 0.003089 s (model generation: 0.003058,  model checking: 0.000031):

Model:
|_
{
insert -> 
{{{
Q={},
Q_f={},
Delta=
{

}

Datatype: <elt, eltlist, eltlist>
Convolution form: complete
}}}
  ;  le_nat -> 
{{{
Q={},
Q_f={},
Delta=
{

}

Datatype: <nat, nat>
Convolution form: complete
}}}
  ;  length -> 
{{{
Q={},
Q_f={},
Delta=
{

}

Datatype: <eltlist, nat>
Convolution form: complete
}}}
  ;  leq -> 
{{{
Q={q_gen_1994},
Q_f={q_gen_1994},
Delta=
{
<b, b>() -> q_gen_1994
}

Datatype: <elt, elt>
Convolution form: complete
}}}
  ;  leqnat -> 
{{{
Q={q_gen_1991, q_gen_1993},
Q_f={q_gen_1991},
Delta=
{
<z>() -> q_gen_1993
<z, s>(q_gen_1993) -> q_gen_1991
<z, z>() -> q_gen_1991
}

Datatype: <nat, nat>
Convolution form: complete
}}}

}
--
Equality automata are defined for: {eq_elt, eq_eltlist, eq_nat}
_|

Teacher's answer:
New clause system:
{
() -> insert([x, nil, cons(x, nil)]) -> 0  ;  () -> le_nat([z, s(nn2)]) -> 0  ;  () -> length([nil, z]) -> 0  ;  () -> leq([a, y]) -> 3  ;  () -> leq([b, b]) -> 3  ;  () -> leqnat([z, s(nn2)]) -> 3  ;  () -> leqnat([z, z]) -> 3  ;  (insert([x, l, _gi]) /\ length([_gi, _hi]) /\ length([l, _fi])) -> le_nat([_fi, _hi]) -> 1  ;  (insert([x, z, _wh]) /\ not leq([x, y])) -> insert([x, cons(y, z), cons(y, _wh)]) -> 1  ;  (le_nat([nn1, nn2])) -> le_nat([s(nn1), s(nn2)]) -> 1  ;  (le_nat([s(nn1), s(nn2)])) -> le_nat([nn1, nn2]) -> 1  ;  (le_nat([s(nn1), z])) -> BOT -> 1  ;  (le_nat([z, z])) -> BOT -> 1  ;  (length([ll, _bi])) -> length([cons(x, ll), s(_bi)]) -> 1  ;  (leq([x, y])) -> insert([x, cons(y, z), cons(x, cons(y, z))]) -> 1  ;  (leq([b, a])) -> BOT -> 1  ;  (leqnat([nn1, nn2])) -> leqnat([s(nn1), s(nn2)]) -> 1  ;  (leqnat([s(nn1), s(nn2)])) -> leqnat([nn1, nn2]) -> 1  ;  (leqnat([s(nn1), z])) -> BOT -> 1
}
Sat witness: Yes: (() -> leq([a, y]), {
y -> b
})

-------------------------------------------
Step 4, which took 0.003672 s (model generation: 0.003390,  model checking: 0.000282):

Model:
|_
{
insert -> 
{{{
Q={},
Q_f={},
Delta=
{

}

Datatype: <elt, eltlist, eltlist>
Convolution form: complete
}}}
  ;  le_nat -> 
{{{
Q={},
Q_f={},
Delta=
{

}

Datatype: <nat, nat>
Convolution form: complete
}}}
  ;  length -> 
{{{
Q={},
Q_f={},
Delta=
{

}

Datatype: <eltlist, nat>
Convolution form: complete
}}}
  ;  leq -> 
{{{
Q={q_gen_1994},
Q_f={q_gen_1994},
Delta=
{
<a, b>() -> q_gen_1994
<b, b>() -> q_gen_1994
}

Datatype: <elt, elt>
Convolution form: complete
}}}
  ;  leqnat -> 
{{{
Q={q_gen_1991, q_gen_1993},
Q_f={q_gen_1991},
Delta=
{
<z>() -> q_gen_1993
<z, s>(q_gen_1993) -> q_gen_1991
<z, z>() -> q_gen_1991
}

Datatype: <nat, nat>
Convolution form: complete
}}}

}
--
Equality automata are defined for: {eq_elt, eq_eltlist, eq_nat}
_|

Teacher's answer:
New clause system:
{
() -> insert([x, nil, cons(x, nil)]) -> 0  ;  () -> le_nat([z, s(nn2)]) -> 0  ;  () -> length([nil, z]) -> 3  ;  () -> leq([a, y]) -> 3  ;  () -> leq([b, b]) -> 3  ;  () -> leqnat([z, s(nn2)]) -> 3  ;  () -> leqnat([z, z]) -> 3  ;  (insert([x, l, _gi]) /\ length([_gi, _hi]) /\ length([l, _fi])) -> le_nat([_fi, _hi]) -> 1  ;  (insert([x, z, _wh]) /\ not leq([x, y])) -> insert([x, cons(y, z), cons(y, _wh)]) -> 1  ;  (le_nat([nn1, nn2])) -> le_nat([s(nn1), s(nn2)]) -> 1  ;  (le_nat([s(nn1), s(nn2)])) -> le_nat([nn1, nn2]) -> 1  ;  (le_nat([s(nn1), z])) -> BOT -> 1  ;  (le_nat([z, z])) -> BOT -> 1  ;  (length([ll, _bi])) -> length([cons(x, ll), s(_bi)]) -> 1  ;  (leq([x, y])) -> insert([x, cons(y, z), cons(x, cons(y, z))]) -> 1  ;  (leq([b, a])) -> BOT -> 1  ;  (leqnat([nn1, nn2])) -> leqnat([s(nn1), s(nn2)]) -> 1  ;  (leqnat([s(nn1), s(nn2)])) -> leqnat([nn1, nn2]) -> 1  ;  (leqnat([s(nn1), z])) -> BOT -> 1
}
Sat witness: Yes: (() -> length([nil, z]), {

})

-------------------------------------------
Step 5, which took 0.003352 s (model generation: 0.003309,  model checking: 0.000043):

Model:
|_
{
insert -> 
{{{
Q={},
Q_f={},
Delta=
{

}

Datatype: <elt, eltlist, eltlist>
Convolution form: complete
}}}
  ;  le_nat -> 
{{{
Q={},
Q_f={},
Delta=
{

}

Datatype: <nat, nat>
Convolution form: complete
}}}
  ;  length -> 
{{{
Q={q_gen_1996},
Q_f={q_gen_1996},
Delta=
{
<nil, z>() -> q_gen_1996
}

Datatype: <eltlist, nat>
Convolution form: complete
}}}
  ;  leq -> 
{{{
Q={q_gen_1994},
Q_f={q_gen_1994},
Delta=
{
<a, b>() -> q_gen_1994
<b, b>() -> q_gen_1994
}

Datatype: <elt, elt>
Convolution form: complete
}}}
  ;  leqnat -> 
{{{
Q={q_gen_1991, q_gen_1993},
Q_f={q_gen_1991},
Delta=
{
<z>() -> q_gen_1993
<z, s>(q_gen_1993) -> q_gen_1991
<z, z>() -> q_gen_1991
}

Datatype: <nat, nat>
Convolution form: complete
}}}

}
--
Equality automata are defined for: {eq_elt, eq_eltlist, eq_nat}
_|

Teacher's answer:
New clause system:
{
() -> insert([x, nil, cons(x, nil)]) -> 0  ;  () -> le_nat([z, s(nn2)]) -> 3  ;  () -> length([nil, z]) -> 3  ;  () -> leq([a, y]) -> 3  ;  () -> leq([b, b]) -> 3  ;  () -> leqnat([z, s(nn2)]) -> 3  ;  () -> leqnat([z, z]) -> 3  ;  (insert([x, l, _gi]) /\ length([_gi, _hi]) /\ length([l, _fi])) -> le_nat([_fi, _hi]) -> 1  ;  (insert([x, z, _wh]) /\ not leq([x, y])) -> insert([x, cons(y, z), cons(y, _wh)]) -> 1  ;  (le_nat([nn1, nn2])) -> le_nat([s(nn1), s(nn2)]) -> 1  ;  (le_nat([s(nn1), s(nn2)])) -> le_nat([nn1, nn2]) -> 1  ;  (le_nat([s(nn1), z])) -> BOT -> 1  ;  (le_nat([z, z])) -> BOT -> 1  ;  (length([ll, _bi])) -> length([cons(x, ll), s(_bi)]) -> 1  ;  (leq([x, y])) -> insert([x, cons(y, z), cons(x, cons(y, z))]) -> 1  ;  (leq([b, a])) -> BOT -> 1  ;  (leqnat([nn1, nn2])) -> leqnat([s(nn1), s(nn2)]) -> 1  ;  (leqnat([s(nn1), s(nn2)])) -> leqnat([nn1, nn2]) -> 1  ;  (leqnat([s(nn1), z])) -> BOT -> 1
}
Sat witness: Yes: (() -> le_nat([z, s(nn2)]), {
nn2 -> z
})

-------------------------------------------
Step 6, which took 0.004522 s (model generation: 0.004238,  model checking: 0.000284):

Model:
|_
{
insert -> 
{{{
Q={},
Q_f={},
Delta=
{

}

Datatype: <elt, eltlist, eltlist>
Convolution form: complete
}}}
  ;  le_nat -> 
{{{
Q={q_gen_1997, q_gen_1998},
Q_f={q_gen_1997},
Delta=
{
<z>() -> q_gen_1998
<z, s>(q_gen_1998) -> q_gen_1997
}

Datatype: <nat, nat>
Convolution form: complete
}}}
  ;  length -> 
{{{
Q={q_gen_1996},
Q_f={q_gen_1996},
Delta=
{
<nil, z>() -> q_gen_1996
}

Datatype: <eltlist, nat>
Convolution form: complete
}}}
  ;  leq -> 
{{{
Q={q_gen_1994},
Q_f={q_gen_1994},
Delta=
{
<a, b>() -> q_gen_1994
<b, b>() -> q_gen_1994
}

Datatype: <elt, elt>
Convolution form: complete
}}}
  ;  leqnat -> 
{{{
Q={q_gen_1991, q_gen_1993},
Q_f={q_gen_1991},
Delta=
{
<z>() -> q_gen_1993
<z, s>(q_gen_1993) -> q_gen_1991
<z, z>() -> q_gen_1991
}

Datatype: <nat, nat>
Convolution form: complete
}}}

}
--
Equality automata are defined for: {eq_elt, eq_eltlist, eq_nat}
_|

Teacher's answer:
New clause system:
{
() -> insert([x, nil, cons(x, nil)]) -> 3  ;  () -> le_nat([z, s(nn2)]) -> 3  ;  () -> length([nil, z]) -> 3  ;  () -> leq([a, y]) -> 3  ;  () -> leq([b, b]) -> 3  ;  () -> leqnat([z, s(nn2)]) -> 3  ;  () -> leqnat([z, z]) -> 3  ;  (insert([x, l, _gi]) /\ length([_gi, _hi]) /\ length([l, _fi])) -> le_nat([_fi, _hi]) -> 1  ;  (insert([x, z, _wh]) /\ not leq([x, y])) -> insert([x, cons(y, z), cons(y, _wh)]) -> 1  ;  (le_nat([nn1, nn2])) -> le_nat([s(nn1), s(nn2)]) -> 1  ;  (le_nat([s(nn1), s(nn2)])) -> le_nat([nn1, nn2]) -> 1  ;  (le_nat([s(nn1), z])) -> BOT -> 1  ;  (le_nat([z, z])) -> BOT -> 1  ;  (length([ll, _bi])) -> length([cons(x, ll), s(_bi)]) -> 1  ;  (leq([x, y])) -> insert([x, cons(y, z), cons(x, cons(y, z))]) -> 1  ;  (leq([b, a])) -> BOT -> 1  ;  (leqnat([nn1, nn2])) -> leqnat([s(nn1), s(nn2)]) -> 1  ;  (leqnat([s(nn1), s(nn2)])) -> leqnat([nn1, nn2]) -> 1  ;  (leqnat([s(nn1), z])) -> BOT -> 1
}
Sat witness: Yes: (() -> insert([x, nil, cons(x, nil)]), {
x -> b
})

-------------------------------------------
Step 7, which took 0.006345 s (model generation: 0.006147,  model checking: 0.000198):

Model:
|_
{
insert -> 
{{{
Q={q_gen_1999, q_gen_2000, q_gen_2001},
Q_f={q_gen_1999},
Delta=
{
<nil>() -> q_gen_2000
<b>() -> q_gen_2001
<b, nil, cons>(q_gen_2001, q_gen_2000) -> q_gen_1999
}

Datatype: <elt, eltlist, eltlist>
Convolution form: complete
}}}
  ;  le_nat -> 
{{{
Q={q_gen_1997, q_gen_1998},
Q_f={q_gen_1997},
Delta=
{
<z>() -> q_gen_1998
<z, s>(q_gen_1998) -> q_gen_1997
}

Datatype: <nat, nat>
Convolution form: complete
}}}
  ;  length -> 
{{{
Q={q_gen_1996},
Q_f={q_gen_1996},
Delta=
{
<nil, z>() -> q_gen_1996
}

Datatype: <eltlist, nat>
Convolution form: complete
}}}
  ;  leq -> 
{{{
Q={q_gen_1994},
Q_f={q_gen_1994},
Delta=
{
<a, b>() -> q_gen_1994
<b, b>() -> q_gen_1994
}

Datatype: <elt, elt>
Convolution form: complete
}}}
  ;  leqnat -> 
{{{
Q={q_gen_1991, q_gen_1993},
Q_f={q_gen_1991},
Delta=
{
<z>() -> q_gen_1993
<z, s>(q_gen_1993) -> q_gen_1991
<z, z>() -> q_gen_1991
}

Datatype: <nat, nat>
Convolution form: complete
}}}

}
--
Equality automata are defined for: {eq_elt, eq_eltlist, eq_nat}
_|

Teacher's answer:
New clause system:
{
() -> insert([x, nil, cons(x, nil)]) -> 3  ;  () -> le_nat([z, s(nn2)]) -> 3  ;  () -> length([nil, z]) -> 3  ;  () -> leq([a, y]) -> 3  ;  () -> leq([b, b]) -> 3  ;  () -> leqnat([z, s(nn2)]) -> 3  ;  () -> leqnat([z, z]) -> 3  ;  (insert([x, l, _gi]) /\ length([_gi, _hi]) /\ length([l, _fi])) -> le_nat([_fi, _hi]) -> 1  ;  (insert([x, z, _wh]) /\ not leq([x, y])) -> insert([x, cons(y, z), cons(y, _wh)]) -> 1  ;  (le_nat([nn1, nn2])) -> le_nat([s(nn1), s(nn2)]) -> 1  ;  (le_nat([s(nn1), s(nn2)])) -> le_nat([nn1, nn2]) -> 1  ;  (le_nat([s(nn1), z])) -> BOT -> 1  ;  (le_nat([z, z])) -> BOT -> 1  ;  (length([ll, _bi])) -> length([cons(x, ll), s(_bi)]) -> 1  ;  (leq([x, y])) -> insert([x, cons(y, z), cons(x, cons(y, z))]) -> 1  ;  (leq([b, a])) -> BOT -> 1  ;  (leqnat([nn1, nn2])) -> leqnat([s(nn1), s(nn2)]) -> 4  ;  (leqnat([s(nn1), s(nn2)])) -> leqnat([nn1, nn2]) -> 2  ;  (leqnat([s(nn1), z])) -> BOT -> 2
}
Sat witness: Yes: ((leqnat([nn1, nn2])) -> leqnat([s(nn1), s(nn2)]), {
nn1 -> z  ;  nn2 -> z
})

-------------------------------------------
Step 8, which took 0.009199 s (model generation: 0.008475,  model checking: 0.000724):

Model:
|_
{
insert -> 
{{{
Q={q_gen_1999, q_gen_2000, q_gen_2001},
Q_f={q_gen_1999},
Delta=
{
<nil>() -> q_gen_2000
<b>() -> q_gen_2001
<b, nil, cons>(q_gen_2001, q_gen_2000) -> q_gen_1999
}

Datatype: <elt, eltlist, eltlist>
Convolution form: complete
}}}
  ;  le_nat -> 
{{{
Q={q_gen_1997, q_gen_1998},
Q_f={q_gen_1997},
Delta=
{
<z>() -> q_gen_1998
<z, s>(q_gen_1998) -> q_gen_1997
}

Datatype: <nat, nat>
Convolution form: complete
}}}
  ;  length -> 
{{{
Q={q_gen_1996},
Q_f={q_gen_1996},
Delta=
{
<nil, z>() -> q_gen_1996
}

Datatype: <eltlist, nat>
Convolution form: complete
}}}
  ;  leq -> 
{{{
Q={q_gen_1994},
Q_f={q_gen_1994},
Delta=
{
<a, b>() -> q_gen_1994
<b, b>() -> q_gen_1994
}

Datatype: <elt, elt>
Convolution form: complete
}}}
  ;  leqnat -> 
{{{
Q={q_gen_1991, q_gen_1993},
Q_f={q_gen_1991},
Delta=
{
<z>() -> q_gen_1993
<s, s>(q_gen_1991) -> q_gen_1991
<z, s>(q_gen_1993) -> q_gen_1991
<z, z>() -> q_gen_1991
}

Datatype: <nat, nat>
Convolution form: complete
}}}

}
--
Equality automata are defined for: {eq_elt, eq_eltlist, eq_nat}
_|

Teacher's answer:
New clause system:
{
() -> insert([x, nil, cons(x, nil)]) -> 3  ;  () -> le_nat([z, s(nn2)]) -> 3  ;  () -> length([nil, z]) -> 3  ;  () -> leq([a, y]) -> 3  ;  () -> leq([b, b]) -> 3  ;  () -> leqnat([z, s(nn2)]) -> 3  ;  () -> leqnat([z, z]) -> 3  ;  (insert([x, l, _gi]) /\ length([_gi, _hi]) /\ length([l, _fi])) -> le_nat([_fi, _hi]) -> 1  ;  (insert([x, z, _wh]) /\ not leq([x, y])) -> insert([x, cons(y, z), cons(y, _wh)]) -> 1  ;  (le_nat([nn1, nn2])) -> le_nat([s(nn1), s(nn2)]) -> 1  ;  (le_nat([s(nn1), s(nn2)])) -> le_nat([nn1, nn2]) -> 1  ;  (le_nat([s(nn1), z])) -> BOT -> 1  ;  (le_nat([z, z])) -> BOT -> 1  ;  (length([ll, _bi])) -> length([cons(x, ll), s(_bi)]) -> 1  ;  (leq([x, y])) -> insert([x, cons(y, z), cons(x, cons(y, z))]) -> 4  ;  (leq([b, a])) -> BOT -> 2  ;  (leqnat([nn1, nn2])) -> leqnat([s(nn1), s(nn2)]) -> 4  ;  (leqnat([s(nn1), s(nn2)])) -> leqnat([nn1, nn2]) -> 2  ;  (leqnat([s(nn1), z])) -> BOT -> 2
}
Sat witness: Yes: ((leq([x, y])) -> insert([x, cons(y, z), cons(x, cons(y, z))]), {
x -> a  ;  y -> b  ;  z -> nil
})

-------------------------------------------
Step 9, which took 0.007424 s (model generation: 0.007351,  model checking: 0.000073):

Model:
|_
{
insert -> 
{{{
Q={q_gen_1999, q_gen_2000, q_gen_2001, q_gen_2004, q_gen_2005, q_gen_2006, q_gen_2007},
Q_f={q_gen_1999},
Delta=
{
<nil>() -> q_gen_2000
<b>() -> q_gen_2001
<nil, cons>(q_gen_2001, q_gen_2000) -> q_gen_2004
<nil, a>() -> q_gen_2005
<b, cons>(q_gen_2001, q_gen_2000) -> q_gen_2006
<b, a>() -> q_gen_2007
<a, cons, cons>(q_gen_2007, q_gen_2006, q_gen_2005, q_gen_2004) -> q_gen_1999
<b, nil, cons>(q_gen_2001, q_gen_2000) -> q_gen_1999
}

Datatype: <elt, eltlist, eltlist>
Convolution form: complete
}}}
  ;  le_nat -> 
{{{
Q={q_gen_1997, q_gen_1998},
Q_f={q_gen_1997},
Delta=
{
<z>() -> q_gen_1998
<z, s>(q_gen_1998) -> q_gen_1997
}

Datatype: <nat, nat>
Convolution form: complete
}}}
  ;  length -> 
{{{
Q={q_gen_1996},
Q_f={q_gen_1996},
Delta=
{
<nil, z>() -> q_gen_1996
}

Datatype: <eltlist, nat>
Convolution form: complete
}}}
  ;  leq -> 
{{{
Q={q_gen_1994},
Q_f={q_gen_1994},
Delta=
{
<a, b>() -> q_gen_1994
<b, b>() -> q_gen_1994
}

Datatype: <elt, elt>
Convolution form: complete
}}}
  ;  leqnat -> 
{{{
Q={q_gen_1991, q_gen_1993},
Q_f={q_gen_1991},
Delta=
{
<z>() -> q_gen_1993
<s, s>(q_gen_1991) -> q_gen_1991
<z, s>(q_gen_1993) -> q_gen_1991
<z, z>() -> q_gen_1991
}

Datatype: <nat, nat>
Convolution form: complete
}}}

}
--
Equality automata are defined for: {eq_elt, eq_eltlist, eq_nat}
_|

Teacher's answer:
New clause system:
{
() -> insert([x, nil, cons(x, nil)]) -> 3  ;  () -> le_nat([z, s(nn2)]) -> 3  ;  () -> length([nil, z]) -> 3  ;  () -> leq([a, y]) -> 3  ;  () -> leq([b, b]) -> 3  ;  () -> leqnat([z, s(nn2)]) -> 3  ;  () -> leqnat([z, z]) -> 3  ;  (insert([x, l, _gi]) /\ length([_gi, _hi]) /\ length([l, _fi])) -> le_nat([_fi, _hi]) -> 1  ;  (insert([x, z, _wh]) /\ not leq([x, y])) -> insert([x, cons(y, z), cons(y, _wh)]) -> 1  ;  (le_nat([nn1, nn2])) -> le_nat([s(nn1), s(nn2)]) -> 1  ;  (le_nat([s(nn1), s(nn2)])) -> le_nat([nn1, nn2]) -> 1  ;  (le_nat([s(nn1), z])) -> BOT -> 1  ;  (le_nat([z, z])) -> BOT -> 1  ;  (length([ll, _bi])) -> length([cons(x, ll), s(_bi)]) -> 4  ;  (leq([x, y])) -> insert([x, cons(y, z), cons(x, cons(y, z))]) -> 4  ;  (leq([b, a])) -> BOT -> 2  ;  (leqnat([nn1, nn2])) -> leqnat([s(nn1), s(nn2)]) -> 4  ;  (leqnat([s(nn1), s(nn2)])) -> leqnat([nn1, nn2]) -> 2  ;  (leqnat([s(nn1), z])) -> BOT -> 2
}
Sat witness: Yes: ((length([ll, _bi])) -> length([cons(x, ll), s(_bi)]), {
_bi -> z  ;  ll -> nil  ;  x -> b
})

-------------------------------------------
Step 10, which took 0.008152 s (model generation: 0.007815,  model checking: 0.000337):

Model:
|_
{
insert -> 
{{{
Q={q_gen_1999, q_gen_2000, q_gen_2001, q_gen_2004, q_gen_2005, q_gen_2006, q_gen_2007},
Q_f={q_gen_1999},
Delta=
{
<nil>() -> q_gen_2000
<b>() -> q_gen_2001
<nil, cons>(q_gen_2001, q_gen_2000) -> q_gen_2004
<nil, a>() -> q_gen_2005
<b, cons>(q_gen_2001, q_gen_2000) -> q_gen_2006
<b, a>() -> q_gen_2007
<a, cons, cons>(q_gen_2007, q_gen_2006, q_gen_2005, q_gen_2004) -> q_gen_1999
<b, nil, cons>(q_gen_2001, q_gen_2000) -> q_gen_1999
}

Datatype: <elt, eltlist, eltlist>
Convolution form: complete
}}}
  ;  le_nat -> 
{{{
Q={q_gen_1997, q_gen_1998},
Q_f={q_gen_1997},
Delta=
{
<z>() -> q_gen_1998
<z, s>(q_gen_1998) -> q_gen_1997
}

Datatype: <nat, nat>
Convolution form: complete
}}}
  ;  length -> 
{{{
Q={q_gen_1996, q_gen_2009},
Q_f={q_gen_1996},
Delta=
{
<cons, s>(q_gen_2009, q_gen_1996) -> q_gen_1996
<nil, z>() -> q_gen_1996
<b, z>() -> q_gen_2009
}

Datatype: <eltlist, nat>
Convolution form: complete
}}}
  ;  leq -> 
{{{
Q={q_gen_1994},
Q_f={q_gen_1994},
Delta=
{
<a, b>() -> q_gen_1994
<b, b>() -> q_gen_1994
}

Datatype: <elt, elt>
Convolution form: complete
}}}
  ;  leqnat -> 
{{{
Q={q_gen_1991, q_gen_1993},
Q_f={q_gen_1991},
Delta=
{
<z>() -> q_gen_1993
<s, s>(q_gen_1991) -> q_gen_1991
<z, s>(q_gen_1993) -> q_gen_1991
<z, z>() -> q_gen_1991
}

Datatype: <nat, nat>
Convolution form: complete
}}}

}
--
Equality automata are defined for: {eq_elt, eq_eltlist, eq_nat}
_|

Teacher's answer:
New clause system:
{
() -> insert([x, nil, cons(x, nil)]) -> 3  ;  () -> le_nat([z, s(nn2)]) -> 3  ;  () -> length([nil, z]) -> 3  ;  () -> leq([a, y]) -> 3  ;  () -> leq([b, b]) -> 3  ;  () -> leqnat([z, s(nn2)]) -> 3  ;  () -> leqnat([z, z]) -> 3  ;  (insert([x, l, _gi]) /\ length([_gi, _hi]) /\ length([l, _fi])) -> le_nat([_fi, _hi]) -> 1  ;  (insert([x, z, _wh]) /\ not leq([x, y])) -> insert([x, cons(y, z), cons(y, _wh)]) -> 1  ;  (le_nat([nn1, nn2])) -> le_nat([s(nn1), s(nn2)]) -> 4  ;  (le_nat([s(nn1), s(nn2)])) -> le_nat([nn1, nn2]) -> 2  ;  (le_nat([s(nn1), z])) -> BOT -> 2  ;  (le_nat([z, z])) -> BOT -> 2  ;  (length([ll, _bi])) -> length([cons(x, ll), s(_bi)]) -> 4  ;  (leq([x, y])) -> insert([x, cons(y, z), cons(x, cons(y, z))]) -> 4  ;  (leq([b, a])) -> BOT -> 2  ;  (leqnat([nn1, nn2])) -> leqnat([s(nn1), s(nn2)]) -> 4  ;  (leqnat([s(nn1), s(nn2)])) -> leqnat([nn1, nn2]) -> 2  ;  (leqnat([s(nn1), z])) -> BOT -> 2
}
Sat witness: Yes: ((le_nat([nn1, nn2])) -> le_nat([s(nn1), s(nn2)]), {
nn1 -> z  ;  nn2 -> s(z)
})

-------------------------------------------
Step 11, which took 0.010191 s (model generation: 0.009168,  model checking: 0.001023):

Model:
|_
{
insert -> 
{{{
Q={q_gen_1999, q_gen_2000, q_gen_2001, q_gen_2004, q_gen_2005, q_gen_2006, q_gen_2007},
Q_f={q_gen_1999},
Delta=
{
<nil>() -> q_gen_2000
<b>() -> q_gen_2001
<nil, cons>(q_gen_2001, q_gen_2000) -> q_gen_2004
<nil, a>() -> q_gen_2005
<b, cons>(q_gen_2001, q_gen_2000) -> q_gen_2006
<b, a>() -> q_gen_2007
<a, cons, cons>(q_gen_2007, q_gen_2006, q_gen_2005, q_gen_2004) -> q_gen_1999
<b, nil, cons>(q_gen_2001, q_gen_2000) -> q_gen_1999
}

Datatype: <elt, eltlist, eltlist>
Convolution form: complete
}}}
  ;  le_nat -> 
{{{
Q={q_gen_1997, q_gen_1998},
Q_f={q_gen_1997},
Delta=
{
<z>() -> q_gen_1998
<s, s>(q_gen_1997) -> q_gen_1997
<z, s>(q_gen_1998) -> q_gen_1997
}

Datatype: <nat, nat>
Convolution form: complete
}}}
  ;  length -> 
{{{
Q={q_gen_1996, q_gen_2009},
Q_f={q_gen_1996},
Delta=
{
<cons, s>(q_gen_2009, q_gen_1996) -> q_gen_1996
<nil, z>() -> q_gen_1996
<b, z>() -> q_gen_2009
}

Datatype: <eltlist, nat>
Convolution form: complete
}}}
  ;  leq -> 
{{{
Q={q_gen_1994},
Q_f={q_gen_1994},
Delta=
{
<a, b>() -> q_gen_1994
<b, b>() -> q_gen_1994
}

Datatype: <elt, elt>
Convolution form: complete
}}}
  ;  leqnat -> 
{{{
Q={q_gen_1991, q_gen_1993},
Q_f={q_gen_1991},
Delta=
{
<z>() -> q_gen_1993
<s, s>(q_gen_1991) -> q_gen_1991
<z, s>(q_gen_1993) -> q_gen_1991
<z, z>() -> q_gen_1991
}

Datatype: <nat, nat>
Convolution form: complete
}}}

}
--
Equality automata are defined for: {eq_elt, eq_eltlist, eq_nat}
_|

Teacher's answer:
New clause system:
{
() -> insert([x, nil, cons(x, nil)]) -> 3  ;  () -> le_nat([z, s(nn2)]) -> 3  ;  () -> length([nil, z]) -> 3  ;  () -> leq([a, y]) -> 3  ;  () -> leq([b, b]) -> 3  ;  () -> leqnat([z, s(nn2)]) -> 3  ;  () -> leqnat([z, z]) -> 3  ;  (insert([x, l, _gi]) /\ length([_gi, _hi]) /\ length([l, _fi])) -> le_nat([_fi, _hi]) -> 1  ;  (insert([x, z, _wh]) /\ not leq([x, y])) -> insert([x, cons(y, z), cons(y, _wh)]) -> 4  ;  (le_nat([nn1, nn2])) -> le_nat([s(nn1), s(nn2)]) -> 4  ;  (le_nat([s(nn1), s(nn2)])) -> le_nat([nn1, nn2]) -> 2  ;  (le_nat([s(nn1), z])) -> BOT -> 2  ;  (le_nat([z, z])) -> BOT -> 2  ;  (length([ll, _bi])) -> length([cons(x, ll), s(_bi)]) -> 4  ;  (leq([x, y])) -> insert([x, cons(y, z), cons(x, cons(y, z))]) -> 4  ;  (leq([b, a])) -> BOT -> 2  ;  (leqnat([nn1, nn2])) -> leqnat([s(nn1), s(nn2)]) -> 4  ;  (leqnat([s(nn1), s(nn2)])) -> leqnat([nn1, nn2]) -> 2  ;  (leqnat([s(nn1), z])) -> BOT -> 2
}
Sat witness: Yes: ((insert([x, z, _wh]) /\ not leq([x, y])) -> insert([x, cons(y, z), cons(y, _wh)]), {
_wh -> cons(b, nil)  ;  x -> b  ;  y -> a  ;  z -> nil
})

-------------------------------------------
Step 12, which took 0.009206 s (model generation: 0.008437,  model checking: 0.000769):

Model:
|_
{
insert -> 
{{{
Q={q_gen_1999, q_gen_2000, q_gen_2001, q_gen_2004, q_gen_2005, q_gen_2006, q_gen_2007},
Q_f={q_gen_1999},
Delta=
{
<nil>() -> q_gen_2000
<b>() -> q_gen_2001
<nil, cons>(q_gen_2001, q_gen_2000) -> q_gen_2004
<nil, a>() -> q_gen_2005
<a, cons>(q_gen_2001, q_gen_2000) -> q_gen_2006
<b, cons>(q_gen_2001, q_gen_2000) -> q_gen_2006
<a, a>() -> q_gen_2007
<b, a>() -> q_gen_2007
<a, cons, cons>(q_gen_2007, q_gen_2006, q_gen_2005, q_gen_2004) -> q_gen_1999
<b, cons, cons>(q_gen_2007, q_gen_2006, q_gen_2005, q_gen_2004) -> q_gen_1999
<b, nil, cons>(q_gen_2001, q_gen_2000) -> q_gen_1999
}

Datatype: <elt, eltlist, eltlist>
Convolution form: complete
}}}
  ;  le_nat -> 
{{{
Q={q_gen_1997, q_gen_1998},
Q_f={q_gen_1997},
Delta=
{
<z>() -> q_gen_1998
<s, s>(q_gen_1997) -> q_gen_1997
<z, s>(q_gen_1998) -> q_gen_1997
}

Datatype: <nat, nat>
Convolution form: complete
}}}
  ;  length -> 
{{{
Q={q_gen_1996, q_gen_2009},
Q_f={q_gen_1996},
Delta=
{
<cons, s>(q_gen_2009, q_gen_1996) -> q_gen_1996
<nil, z>() -> q_gen_1996
<b, z>() -> q_gen_2009
}

Datatype: <eltlist, nat>
Convolution form: complete
}}}
  ;  leq -> 
{{{
Q={q_gen_1994},
Q_f={q_gen_1994},
Delta=
{
<a, b>() -> q_gen_1994
<b, a>() -> q_gen_1994
<b, b>() -> q_gen_1994
}

Datatype: <elt, elt>
Convolution form: complete
}}}
  ;  leqnat -> 
{{{
Q={q_gen_1991, q_gen_1993},
Q_f={q_gen_1991},
Delta=
{
<z>() -> q_gen_1993
<s, s>(q_gen_1991) -> q_gen_1991
<z, s>(q_gen_1993) -> q_gen_1991
<z, z>() -> q_gen_1991
}

Datatype: <nat, nat>
Convolution form: complete
}}}

}
--
Equality automata are defined for: {eq_elt, eq_eltlist, eq_nat}
_|

Teacher's answer:
New clause system:
{
() -> insert([x, nil, cons(x, nil)]) -> 3  ;  () -> le_nat([z, s(nn2)]) -> 3  ;  () -> length([nil, z]) -> 3  ;  () -> leq([a, y]) -> 3  ;  () -> leq([b, b]) -> 3  ;  () -> leqnat([z, s(nn2)]) -> 3  ;  () -> leqnat([z, z]) -> 3  ;  (insert([x, l, _gi]) /\ length([_gi, _hi]) /\ length([l, _fi])) -> le_nat([_fi, _hi]) -> 2  ;  (insert([x, z, _wh]) /\ not leq([x, y])) -> insert([x, cons(y, z), cons(y, _wh)]) -> 4  ;  (le_nat([nn1, nn2])) -> le_nat([s(nn1), s(nn2)]) -> 4  ;  (le_nat([s(nn1), s(nn2)])) -> le_nat([nn1, nn2]) -> 2  ;  (le_nat([s(nn1), z])) -> BOT -> 2  ;  (le_nat([z, z])) -> BOT -> 2  ;  (length([ll, _bi])) -> length([cons(x, ll), s(_bi)]) -> 4  ;  (leq([x, y])) -> insert([x, cons(y, z), cons(x, cons(y, z))]) -> 4  ;  (leq([b, a])) -> BOT -> 5  ;  (leqnat([nn1, nn2])) -> leqnat([s(nn1), s(nn2)]) -> 4  ;  (leqnat([s(nn1), s(nn2)])) -> leqnat([nn1, nn2]) -> 3  ;  (leqnat([s(nn1), z])) -> BOT -> 3
}
Sat witness: Yes: ((leq([b, a])) -> BOT, {

})

-------------------------------------------
Step 13, which took 0.009411 s (model generation: 0.009055,  model checking: 0.000356):

Model:
|_
{
insert -> 
{{{
Q={q_gen_1999, q_gen_2000, q_gen_2001, q_gen_2004, q_gen_2005, q_gen_2006, q_gen_2007},
Q_f={q_gen_1999},
Delta=
{
<nil>() -> q_gen_2000
<b>() -> q_gen_2001
<nil, cons>(q_gen_2001, q_gen_2000) -> q_gen_2004
<nil, a>() -> q_gen_2005
<a, cons>(q_gen_2001, q_gen_2000) -> q_gen_2006
<b, cons>(q_gen_2001, q_gen_2000) -> q_gen_2006
<a, a>() -> q_gen_2007
<b, a>() -> q_gen_2007
<a, cons, cons>(q_gen_2007, q_gen_2006, q_gen_2005, q_gen_2004) -> q_gen_1999
<b, cons, cons>(q_gen_2007, q_gen_2006, q_gen_2005, q_gen_2004) -> q_gen_1999
<b, nil, cons>(q_gen_2001, q_gen_2000) -> q_gen_1999
}

Datatype: <elt, eltlist, eltlist>
Convolution form: complete
}}}
  ;  le_nat -> 
{{{
Q={q_gen_1997, q_gen_1998},
Q_f={q_gen_1997},
Delta=
{
<z>() -> q_gen_1998
<s, s>(q_gen_1997) -> q_gen_1997
<z, s>(q_gen_1998) -> q_gen_1997
}

Datatype: <nat, nat>
Convolution form: complete
}}}
  ;  length -> 
{{{
Q={q_gen_1996, q_gen_2009},
Q_f={q_gen_1996},
Delta=
{
<cons, s>(q_gen_2009, q_gen_1996) -> q_gen_1996
<nil, z>() -> q_gen_1996
<b, z>() -> q_gen_2009
}

Datatype: <eltlist, nat>
Convolution form: complete
}}}
  ;  leq -> 
{{{
Q={q_gen_1994, q_gen_2011},
Q_f={q_gen_1994},
Delta=
{
<a, b>() -> q_gen_1994
<b, b>() -> q_gen_1994
<b, a>() -> q_gen_2011
}

Datatype: <elt, elt>
Convolution form: complete
}}}
  ;  leqnat -> 
{{{
Q={q_gen_1991, q_gen_1993},
Q_f={q_gen_1991},
Delta=
{
<z>() -> q_gen_1993
<s, s>(q_gen_1991) -> q_gen_1991
<z, s>(q_gen_1993) -> q_gen_1991
<z, z>() -> q_gen_1991
}

Datatype: <nat, nat>
Convolution form: complete
}}}

}
--
Equality automata are defined for: {eq_elt, eq_eltlist, eq_nat}
_|

Teacher's answer:
New clause system:
{
() -> insert([x, nil, cons(x, nil)]) -> 3  ;  () -> le_nat([z, s(nn2)]) -> 3  ;  () -> length([nil, z]) -> 3  ;  () -> leq([a, y]) -> 3  ;  () -> leq([b, b]) -> 3  ;  () -> leqnat([z, s(nn2)]) -> 6  ;  () -> leqnat([z, z]) -> 4  ;  (insert([x, l, _gi]) /\ length([_gi, _hi]) /\ length([l, _fi])) -> le_nat([_fi, _hi]) -> 3  ;  (insert([x, z, _wh]) /\ not leq([x, y])) -> insert([x, cons(y, z), cons(y, _wh)]) -> 4  ;  (le_nat([nn1, nn2])) -> le_nat([s(nn1), s(nn2)]) -> 4  ;  (le_nat([s(nn1), s(nn2)])) -> le_nat([nn1, nn2]) -> 3  ;  (le_nat([s(nn1), z])) -> BOT -> 3  ;  (le_nat([z, z])) -> BOT -> 3  ;  (length([ll, _bi])) -> length([cons(x, ll), s(_bi)]) -> 4  ;  (leq([x, y])) -> insert([x, cons(y, z), cons(x, cons(y, z))]) -> 4  ;  (leq([b, a])) -> BOT -> 5  ;  (leqnat([nn1, nn2])) -> leqnat([s(nn1), s(nn2)]) -> 4  ;  (leqnat([s(nn1), s(nn2)])) -> leqnat([nn1, nn2]) -> 4  ;  (leqnat([s(nn1), z])) -> BOT -> 4
}
Sat witness: Yes: (() -> leqnat([z, s(nn2)]), {
nn2 -> s(z)
})

-------------------------------------------
Step 14, which took 0.007841 s (model generation: 0.007626,  model checking: 0.000215):

Model:
|_
{
insert -> 
{{{
Q={q_gen_1999, q_gen_2000, q_gen_2001, q_gen_2004, q_gen_2005, q_gen_2006, q_gen_2007},
Q_f={q_gen_1999},
Delta=
{
<nil>() -> q_gen_2000
<b>() -> q_gen_2001
<nil, cons>(q_gen_2001, q_gen_2000) -> q_gen_2004
<nil, a>() -> q_gen_2005
<a, cons>(q_gen_2001, q_gen_2000) -> q_gen_2006
<b, cons>(q_gen_2001, q_gen_2000) -> q_gen_2006
<a, a>() -> q_gen_2007
<b, a>() -> q_gen_2007
<a, cons, cons>(q_gen_2007, q_gen_2006, q_gen_2005, q_gen_2004) -> q_gen_1999
<b, cons, cons>(q_gen_2007, q_gen_2006, q_gen_2005, q_gen_2004) -> q_gen_1999
<b, nil, cons>(q_gen_2001, q_gen_2000) -> q_gen_1999
}

Datatype: <elt, eltlist, eltlist>
Convolution form: complete
}}}
  ;  le_nat -> 
{{{
Q={q_gen_1997, q_gen_1998},
Q_f={q_gen_1997},
Delta=
{
<z>() -> q_gen_1998
<s, s>(q_gen_1997) -> q_gen_1997
<z, s>(q_gen_1998) -> q_gen_1997
}

Datatype: <nat, nat>
Convolution form: complete
}}}
  ;  length -> 
{{{
Q={q_gen_1996, q_gen_2009},
Q_f={q_gen_1996},
Delta=
{
<cons, s>(q_gen_2009, q_gen_1996) -> q_gen_1996
<nil, z>() -> q_gen_1996
<b, z>() -> q_gen_2009
}

Datatype: <eltlist, nat>
Convolution form: complete
}}}
  ;  leq -> 
{{{
Q={q_gen_1994, q_gen_2011},
Q_f={q_gen_1994},
Delta=
{
<a, b>() -> q_gen_1994
<b, b>() -> q_gen_1994
<b, a>() -> q_gen_2011
}

Datatype: <elt, elt>
Convolution form: complete
}}}
  ;  leqnat -> 
{{{
Q={q_gen_1991, q_gen_1993},
Q_f={q_gen_1991},
Delta=
{
<s>(q_gen_1993) -> q_gen_1993
<z>() -> q_gen_1993
<s, s>(q_gen_1991) -> q_gen_1991
<z, s>(q_gen_1993) -> q_gen_1991
<z, z>() -> q_gen_1991
}

Datatype: <nat, nat>
Convolution form: complete
}}}

}
--
Equality automata are defined for: {eq_elt, eq_eltlist, eq_nat}
_|

Teacher's answer:
New clause system:
{
() -> insert([x, nil, cons(x, nil)]) -> 3  ;  () -> le_nat([z, s(nn2)]) -> 3  ;  () -> length([nil, z]) -> 3  ;  () -> leq([a, y]) -> 6  ;  () -> leq([b, b]) -> 4  ;  () -> leqnat([z, s(nn2)]) -> 6  ;  () -> leqnat([z, z]) -> 4  ;  (insert([x, l, _gi]) /\ length([_gi, _hi]) /\ length([l, _fi])) -> le_nat([_fi, _hi]) -> 4  ;  (insert([x, z, _wh]) /\ not leq([x, y])) -> insert([x, cons(y, z), cons(y, _wh)]) -> 4  ;  (le_nat([nn1, nn2])) -> le_nat([s(nn1), s(nn2)]) -> 4  ;  (le_nat([s(nn1), s(nn2)])) -> le_nat([nn1, nn2]) -> 4  ;  (le_nat([s(nn1), z])) -> BOT -> 4  ;  (le_nat([z, z])) -> BOT -> 4  ;  (length([ll, _bi])) -> length([cons(x, ll), s(_bi)]) -> 4  ;  (leq([x, y])) -> insert([x, cons(y, z), cons(x, cons(y, z))]) -> 4  ;  (leq([b, a])) -> BOT -> 5  ;  (leqnat([nn1, nn2])) -> leqnat([s(nn1), s(nn2)]) -> 4  ;  (leqnat([s(nn1), s(nn2)])) -> leqnat([nn1, nn2]) -> 4  ;  (leqnat([s(nn1), z])) -> BOT -> 4
}
Sat witness: Yes: (() -> leq([a, y]), {
y -> a
})

-------------------------------------------
Step 15, which took 0.008676 s (model generation: 0.008019,  model checking: 0.000657):

Model:
|_
{
insert -> 
{{{
Q={q_gen_1999, q_gen_2000, q_gen_2001, q_gen_2004, q_gen_2005, q_gen_2006, q_gen_2007},
Q_f={q_gen_1999},
Delta=
{
<nil>() -> q_gen_2000
<b>() -> q_gen_2001
<nil, cons>(q_gen_2001, q_gen_2000) -> q_gen_2004
<nil, a>() -> q_gen_2005
<a, cons>(q_gen_2001, q_gen_2000) -> q_gen_2006
<b, cons>(q_gen_2001, q_gen_2000) -> q_gen_2006
<a, a>() -> q_gen_2007
<b, a>() -> q_gen_2007
<a, cons, cons>(q_gen_2007, q_gen_2006, q_gen_2005, q_gen_2004) -> q_gen_1999
<b, cons, cons>(q_gen_2007, q_gen_2006, q_gen_2005, q_gen_2004) -> q_gen_1999
<b, nil, cons>(q_gen_2001, q_gen_2000) -> q_gen_1999
}

Datatype: <elt, eltlist, eltlist>
Convolution form: complete
}}}
  ;  le_nat -> 
{{{
Q={q_gen_1997, q_gen_1998},
Q_f={q_gen_1997},
Delta=
{
<z>() -> q_gen_1998
<s, s>(q_gen_1997) -> q_gen_1997
<z, s>(q_gen_1998) -> q_gen_1997
}

Datatype: <nat, nat>
Convolution form: complete
}}}
  ;  length -> 
{{{
Q={q_gen_1996, q_gen_2009},
Q_f={q_gen_1996},
Delta=
{
<cons, s>(q_gen_2009, q_gen_1996) -> q_gen_1996
<nil, z>() -> q_gen_1996
<b, z>() -> q_gen_2009
}

Datatype: <eltlist, nat>
Convolution form: complete
}}}
  ;  leq -> 
{{{
Q={q_gen_1994, q_gen_2011},
Q_f={q_gen_1994},
Delta=
{
<a, a>() -> q_gen_1994
<a, b>() -> q_gen_1994
<b, b>() -> q_gen_1994
<b, a>() -> q_gen_2011
}

Datatype: <elt, elt>
Convolution form: complete
}}}
  ;  leqnat -> 
{{{
Q={q_gen_1991, q_gen_1993},
Q_f={q_gen_1991},
Delta=
{
<s>(q_gen_1993) -> q_gen_1993
<z>() -> q_gen_1993
<s, s>(q_gen_1991) -> q_gen_1991
<z, s>(q_gen_1993) -> q_gen_1991
<z, z>() -> q_gen_1991
}

Datatype: <nat, nat>
Convolution form: complete
}}}

}
--
Equality automata are defined for: {eq_elt, eq_eltlist, eq_nat}
_|

Teacher's answer:
New clause system:
{
() -> insert([x, nil, cons(x, nil)]) -> 3  ;  () -> le_nat([z, s(nn2)]) -> 6  ;  () -> length([nil, z]) -> 4  ;  () -> leq([a, y]) -> 6  ;  () -> leq([b, b]) -> 4  ;  () -> leqnat([z, s(nn2)]) -> 6  ;  () -> leqnat([z, z]) -> 4  ;  (insert([x, l, _gi]) /\ length([_gi, _hi]) /\ length([l, _fi])) -> le_nat([_fi, _hi]) -> 4  ;  (insert([x, z, _wh]) /\ not leq([x, y])) -> insert([x, cons(y, z), cons(y, _wh)]) -> 4  ;  (le_nat([nn1, nn2])) -> le_nat([s(nn1), s(nn2)]) -> 4  ;  (le_nat([s(nn1), s(nn2)])) -> le_nat([nn1, nn2]) -> 4  ;  (le_nat([s(nn1), z])) -> BOT -> 4  ;  (le_nat([z, z])) -> BOT -> 4  ;  (length([ll, _bi])) -> length([cons(x, ll), s(_bi)]) -> 4  ;  (leq([x, y])) -> insert([x, cons(y, z), cons(x, cons(y, z))]) -> 4  ;  (leq([b, a])) -> BOT -> 5  ;  (leqnat([nn1, nn2])) -> leqnat([s(nn1), s(nn2)]) -> 4  ;  (leqnat([s(nn1), s(nn2)])) -> leqnat([nn1, nn2]) -> 4  ;  (leqnat([s(nn1), z])) -> BOT -> 4
}
Sat witness: Yes: (() -> le_nat([z, s(nn2)]), {
nn2 -> s(z)
})

-------------------------------------------
Step 16, which took 0.014174 s (model generation: 0.012937,  model checking: 0.001237):

Model:
|_
{
insert -> 
{{{
Q={q_gen_1999, q_gen_2000, q_gen_2001, q_gen_2004, q_gen_2005, q_gen_2006, q_gen_2007},
Q_f={q_gen_1999},
Delta=
{
<nil>() -> q_gen_2000
<b>() -> q_gen_2001
<nil, cons>(q_gen_2001, q_gen_2000) -> q_gen_2004
<nil, a>() -> q_gen_2005
<a, cons>(q_gen_2001, q_gen_2000) -> q_gen_2006
<b, cons>(q_gen_2001, q_gen_2000) -> q_gen_2006
<a, a>() -> q_gen_2007
<b, a>() -> q_gen_2007
<a, cons, cons>(q_gen_2007, q_gen_2006, q_gen_2005, q_gen_2004) -> q_gen_1999
<b, cons, cons>(q_gen_2007, q_gen_2006, q_gen_2005, q_gen_2004) -> q_gen_1999
<b, nil, cons>(q_gen_2001, q_gen_2000) -> q_gen_1999
}

Datatype: <elt, eltlist, eltlist>
Convolution form: complete
}}}
  ;  le_nat -> 
{{{
Q={q_gen_1997, q_gen_1998},
Q_f={q_gen_1997},
Delta=
{
<s>(q_gen_1998) -> q_gen_1998
<z>() -> q_gen_1998
<s, s>(q_gen_1997) -> q_gen_1997
<z, s>(q_gen_1998) -> q_gen_1997
}

Datatype: <nat, nat>
Convolution form: complete
}}}
  ;  length -> 
{{{
Q={q_gen_1996, q_gen_2009},
Q_f={q_gen_1996},
Delta=
{
<cons, s>(q_gen_2009, q_gen_1996) -> q_gen_1996
<nil, z>() -> q_gen_1996
<b, z>() -> q_gen_2009
}

Datatype: <eltlist, nat>
Convolution form: complete
}}}
  ;  leq -> 
{{{
Q={q_gen_1994, q_gen_2011},
Q_f={q_gen_1994},
Delta=
{
<a, a>() -> q_gen_1994
<a, b>() -> q_gen_1994
<b, b>() -> q_gen_1994
<b, a>() -> q_gen_2011
}

Datatype: <elt, elt>
Convolution form: complete
}}}
  ;  leqnat -> 
{{{
Q={q_gen_1991, q_gen_1993},
Q_f={q_gen_1991},
Delta=
{
<s>(q_gen_1993) -> q_gen_1993
<z>() -> q_gen_1993
<s, s>(q_gen_1991) -> q_gen_1991
<z, s>(q_gen_1993) -> q_gen_1991
<z, z>() -> q_gen_1991
}

Datatype: <nat, nat>
Convolution form: complete
}}}

}
--
Equality automata are defined for: {eq_elt, eq_eltlist, eq_nat}
_|

Teacher's answer:
New clause system:
{
() -> insert([x, nil, cons(x, nil)]) -> 6  ;  () -> le_nat([z, s(nn2)]) -> 6  ;  () -> length([nil, z]) -> 4  ;  () -> leq([a, y]) -> 6  ;  () -> leq([b, b]) -> 4  ;  () -> leqnat([z, s(nn2)]) -> 6  ;  () -> leqnat([z, z]) -> 4  ;  (insert([x, l, _gi]) /\ length([_gi, _hi]) /\ length([l, _fi])) -> le_nat([_fi, _hi]) -> 4  ;  (insert([x, z, _wh]) /\ not leq([x, y])) -> insert([x, cons(y, z), cons(y, _wh)]) -> 4  ;  (le_nat([nn1, nn2])) -> le_nat([s(nn1), s(nn2)]) -> 4  ;  (le_nat([s(nn1), s(nn2)])) -> le_nat([nn1, nn2]) -> 4  ;  (le_nat([s(nn1), z])) -> BOT -> 4  ;  (le_nat([z, z])) -> BOT -> 4  ;  (length([ll, _bi])) -> length([cons(x, ll), s(_bi)]) -> 4  ;  (leq([x, y])) -> insert([x, cons(y, z), cons(x, cons(y, z))]) -> 4  ;  (leq([b, a])) -> BOT -> 5  ;  (leqnat([nn1, nn2])) -> leqnat([s(nn1), s(nn2)]) -> 4  ;  (leqnat([s(nn1), s(nn2)])) -> leqnat([nn1, nn2]) -> 4  ;  (leqnat([s(nn1), z])) -> BOT -> 4
}
Sat witness: Yes: (() -> insert([x, nil, cons(x, nil)]), {
x -> a
})

-------------------------------------------
Step 17, which took 0.020302 s (model generation: 0.013316,  model checking: 0.006986):

Model:
|_
{
insert -> 
{{{
Q={q_gen_1999, q_gen_2000, q_gen_2001, q_gen_2004, q_gen_2005, q_gen_2006, q_gen_2007},
Q_f={q_gen_1999},
Delta=
{
<nil>() -> q_gen_2000
<a>() -> q_gen_2001
<b>() -> q_gen_2001
<nil, cons>(q_gen_2001, q_gen_2000) -> q_gen_2004
<nil, a>() -> q_gen_2005
<a, cons>(q_gen_2001, q_gen_2000) -> q_gen_2006
<b, cons>(q_gen_2001, q_gen_2000) -> q_gen_2006
<a, a>() -> q_gen_2007
<b, a>() -> q_gen_2007
<a, cons, cons>(q_gen_2007, q_gen_2006, q_gen_2005, q_gen_2004) -> q_gen_1999
<a, nil, cons>(q_gen_2001, q_gen_2000) -> q_gen_1999
<b, cons, cons>(q_gen_2007, q_gen_2006, q_gen_2005, q_gen_2004) -> q_gen_1999
<b, nil, cons>(q_gen_2001, q_gen_2000) -> q_gen_1999
}

Datatype: <elt, eltlist, eltlist>
Convolution form: complete
}}}
  ;  le_nat -> 
{{{
Q={q_gen_1997, q_gen_1998},
Q_f={q_gen_1997},
Delta=
{
<s>(q_gen_1998) -> q_gen_1998
<z>() -> q_gen_1998
<s, s>(q_gen_1997) -> q_gen_1997
<z, s>(q_gen_1998) -> q_gen_1997
}

Datatype: <nat, nat>
Convolution form: complete
}}}
  ;  length -> 
{{{
Q={q_gen_1996, q_gen_2009},
Q_f={q_gen_1996},
Delta=
{
<cons, s>(q_gen_2009, q_gen_1996) -> q_gen_1996
<nil, z>() -> q_gen_1996
<b, z>() -> q_gen_2009
}

Datatype: <eltlist, nat>
Convolution form: complete
}}}
  ;  leq -> 
{{{
Q={q_gen_1994, q_gen_2011},
Q_f={q_gen_1994},
Delta=
{
<a, a>() -> q_gen_1994
<a, b>() -> q_gen_1994
<b, b>() -> q_gen_1994
<b, a>() -> q_gen_2011
}

Datatype: <elt, elt>
Convolution form: complete
}}}
  ;  leqnat -> 
{{{
Q={q_gen_1991, q_gen_1993},
Q_f={q_gen_1991},
Delta=
{
<s>(q_gen_1993) -> q_gen_1993
<z>() -> q_gen_1993
<s, s>(q_gen_1991) -> q_gen_1991
<z, s>(q_gen_1993) -> q_gen_1991
<z, z>() -> q_gen_1991
}

Datatype: <nat, nat>
Convolution form: complete
}}}

}
--
Equality automata are defined for: {eq_elt, eq_eltlist, eq_nat}
_|

Teacher's answer:
New clause system:
{
() -> insert([x, nil, cons(x, nil)]) -> 6  ;  () -> le_nat([z, s(nn2)]) -> 6  ;  () -> length([nil, z]) -> 4  ;  () -> leq([a, y]) -> 6  ;  () -> leq([b, b]) -> 4  ;  () -> leqnat([z, s(nn2)]) -> 6  ;  () -> leqnat([z, z]) -> 4  ;  (insert([x, l, _gi]) /\ length([_gi, _hi]) /\ length([l, _fi])) -> le_nat([_fi, _hi]) -> 4  ;  (insert([x, z, _wh]) /\ not leq([x, y])) -> insert([x, cons(y, z), cons(y, _wh)]) -> 4  ;  (le_nat([nn1, nn2])) -> le_nat([s(nn1), s(nn2)]) -> 4  ;  (le_nat([s(nn1), s(nn2)])) -> le_nat([nn1, nn2]) -> 4  ;  (le_nat([s(nn1), z])) -> BOT -> 4  ;  (le_nat([z, z])) -> BOT -> 4  ;  (length([ll, _bi])) -> length([cons(x, ll), s(_bi)]) -> 4  ;  (leq([x, y])) -> insert([x, cons(y, z), cons(x, cons(y, z))]) -> 7  ;  (leq([b, a])) -> BOT -> 5  ;  (leqnat([nn1, nn2])) -> leqnat([s(nn1), s(nn2)]) -> 5  ;  (leqnat([s(nn1), s(nn2)])) -> leqnat([nn1, nn2]) -> 5  ;  (leqnat([s(nn1), z])) -> BOT -> 5
}
Sat witness: Yes: ((leq([x, y])) -> insert([x, cons(y, z), cons(x, cons(y, z))]), {
x -> b  ;  y -> b  ;  z -> nil
})

-------------------------------------------
Step 18, which took 0.006660 s (model generation: 0.006237,  model checking: 0.000423):

Model:
|_
{
insert -> 
{{{
Q={q_gen_1999, q_gen_2000, q_gen_2001, q_gen_2004, q_gen_2005, q_gen_2006, q_gen_2007},
Q_f={q_gen_1999},
Delta=
{
<nil>() -> q_gen_2000
<a>() -> q_gen_2001
<b>() -> q_gen_2001
<nil, cons>(q_gen_2001, q_gen_2000) -> q_gen_2004
<nil, a>() -> q_gen_2005
<nil, b>() -> q_gen_2005
<a, cons>(q_gen_2001, q_gen_2000) -> q_gen_2006
<b, cons>(q_gen_2001, q_gen_2000) -> q_gen_2006
<a, a>() -> q_gen_2007
<b, a>() -> q_gen_2007
<b, b>() -> q_gen_2007
<a, cons, cons>(q_gen_2007, q_gen_2006, q_gen_2005, q_gen_2004) -> q_gen_1999
<a, nil, cons>(q_gen_2001, q_gen_2000) -> q_gen_1999
<b, cons, cons>(q_gen_2007, q_gen_2006, q_gen_2005, q_gen_2004) -> q_gen_1999
<b, nil, cons>(q_gen_2001, q_gen_2000) -> q_gen_1999
}

Datatype: <elt, eltlist, eltlist>
Convolution form: complete
}}}
  ;  le_nat -> 
{{{
Q={q_gen_1997, q_gen_1998},
Q_f={q_gen_1997},
Delta=
{
<s>(q_gen_1998) -> q_gen_1998
<z>() -> q_gen_1998
<s, s>(q_gen_1997) -> q_gen_1997
<z, s>(q_gen_1998) -> q_gen_1997
}

Datatype: <nat, nat>
Convolution form: complete
}}}
  ;  length -> 
{{{
Q={q_gen_1996, q_gen_2009},
Q_f={q_gen_1996},
Delta=
{
<cons, s>(q_gen_2009, q_gen_1996) -> q_gen_1996
<nil, z>() -> q_gen_1996
<b, z>() -> q_gen_2009
}

Datatype: <eltlist, nat>
Convolution form: complete
}}}
  ;  leq -> 
{{{
Q={q_gen_1994, q_gen_2011},
Q_f={q_gen_1994},
Delta=
{
<a, a>() -> q_gen_1994
<a, b>() -> q_gen_1994
<b, b>() -> q_gen_1994
<b, a>() -> q_gen_2011
}

Datatype: <elt, elt>
Convolution form: complete
}}}
  ;  leqnat -> 
{{{
Q={q_gen_1991, q_gen_1993},
Q_f={q_gen_1991},
Delta=
{
<s>(q_gen_1993) -> q_gen_1993
<z>() -> q_gen_1993
<s, s>(q_gen_1991) -> q_gen_1991
<z, s>(q_gen_1993) -> q_gen_1991
<z, z>() -> q_gen_1991
}

Datatype: <nat, nat>
Convolution form: complete
}}}

}
--
Equality automata are defined for: {eq_elt, eq_eltlist, eq_nat}
_|

Teacher's answer:
New clause system:
{
() -> insert([x, nil, cons(x, nil)]) -> 6  ;  () -> le_nat([z, s(nn2)]) -> 6  ;  () -> length([nil, z]) -> 4  ;  () -> leq([a, y]) -> 6  ;  () -> leq([b, b]) -> 4  ;  () -> leqnat([z, s(nn2)]) -> 6  ;  () -> leqnat([z, z]) -> 4  ;  (insert([x, l, _gi]) /\ length([_gi, _hi]) /\ length([l, _fi])) -> le_nat([_fi, _hi]) -> 4  ;  (insert([x, z, _wh]) /\ not leq([x, y])) -> insert([x, cons(y, z), cons(y, _wh)]) -> 4  ;  (le_nat([nn1, nn2])) -> le_nat([s(nn1), s(nn2)]) -> 4  ;  (le_nat([s(nn1), s(nn2)])) -> le_nat([nn1, nn2]) -> 4  ;  (le_nat([s(nn1), z])) -> BOT -> 4  ;  (le_nat([z, z])) -> BOT -> 4  ;  (length([ll, _bi])) -> length([cons(x, ll), s(_bi)]) -> 7  ;  (leq([x, y])) -> insert([x, cons(y, z), cons(x, cons(y, z))]) -> 7  ;  (leq([b, a])) -> BOT -> 5  ;  (leqnat([nn1, nn2])) -> leqnat([s(nn1), s(nn2)]) -> 5  ;  (leqnat([s(nn1), s(nn2)])) -> leqnat([nn1, nn2]) -> 5  ;  (leqnat([s(nn1), z])) -> BOT -> 5
}
Sat witness: Yes: ((length([ll, _bi])) -> length([cons(x, ll), s(_bi)]), {
_bi -> z  ;  ll -> nil  ;  x -> a
})

-------------------------------------------
Step 19, which took 0.028087 s (model generation: 0.013587,  model checking: 0.014500):

Model:
|_
{
insert -> 
{{{
Q={q_gen_1999, q_gen_2000, q_gen_2001, q_gen_2004, q_gen_2005, q_gen_2006, q_gen_2007},
Q_f={q_gen_1999},
Delta=
{
<nil>() -> q_gen_2000
<a>() -> q_gen_2001
<b>() -> q_gen_2001
<nil, cons>(q_gen_2001, q_gen_2000) -> q_gen_2004
<nil, a>() -> q_gen_2005
<nil, b>() -> q_gen_2005
<a, cons>(q_gen_2001, q_gen_2000) -> q_gen_2006
<b, cons>(q_gen_2001, q_gen_2000) -> q_gen_2006
<a, a>() -> q_gen_2007
<b, a>() -> q_gen_2007
<b, b>() -> q_gen_2007
<a, cons, cons>(q_gen_2007, q_gen_2006, q_gen_2005, q_gen_2004) -> q_gen_1999
<a, nil, cons>(q_gen_2001, q_gen_2000) -> q_gen_1999
<b, cons, cons>(q_gen_2007, q_gen_2006, q_gen_2005, q_gen_2004) -> q_gen_1999
<b, nil, cons>(q_gen_2001, q_gen_2000) -> q_gen_1999
}

Datatype: <elt, eltlist, eltlist>
Convolution form: complete
}}}
  ;  le_nat -> 
{{{
Q={q_gen_1997, q_gen_1998},
Q_f={q_gen_1997},
Delta=
{
<s>(q_gen_1998) -> q_gen_1998
<z>() -> q_gen_1998
<s, s>(q_gen_1997) -> q_gen_1997
<z, s>(q_gen_1998) -> q_gen_1997
}

Datatype: <nat, nat>
Convolution form: complete
}}}
  ;  length -> 
{{{
Q={q_gen_1996, q_gen_2009},
Q_f={q_gen_1996},
Delta=
{
<cons, s>(q_gen_2009, q_gen_1996) -> q_gen_1996
<nil, z>() -> q_gen_1996
<a, z>() -> q_gen_2009
<b, z>() -> q_gen_2009
}

Datatype: <eltlist, nat>
Convolution form: complete
}}}
  ;  leq -> 
{{{
Q={q_gen_1994, q_gen_2011},
Q_f={q_gen_1994},
Delta=
{
<a, a>() -> q_gen_1994
<a, b>() -> q_gen_1994
<b, b>() -> q_gen_1994
<b, a>() -> q_gen_2011
}

Datatype: <elt, elt>
Convolution form: complete
}}}
  ;  leqnat -> 
{{{
Q={q_gen_1991, q_gen_1993},
Q_f={q_gen_1991},
Delta=
{
<s>(q_gen_1993) -> q_gen_1993
<z>() -> q_gen_1993
<s, s>(q_gen_1991) -> q_gen_1991
<z, s>(q_gen_1993) -> q_gen_1991
<z, z>() -> q_gen_1991
}

Datatype: <nat, nat>
Convolution form: complete
}}}

}
--
Equality automata are defined for: {eq_elt, eq_eltlist, eq_nat}
_|

Teacher's answer:
New clause system:
{
() -> insert([x, nil, cons(x, nil)]) -> 6  ;  () -> le_nat([z, s(nn2)]) -> 6  ;  () -> length([nil, z]) -> 4  ;  () -> leq([a, y]) -> 6  ;  () -> leq([b, b]) -> 4  ;  () -> leqnat([z, s(nn2)]) -> 6  ;  () -> leqnat([z, z]) -> 4  ;  (insert([x, l, _gi]) /\ length([_gi, _hi]) /\ length([l, _fi])) -> le_nat([_fi, _hi]) -> 4  ;  (insert([x, z, _wh]) /\ not leq([x, y])) -> insert([x, cons(y, z), cons(y, _wh)]) -> 7  ;  (le_nat([nn1, nn2])) -> le_nat([s(nn1), s(nn2)]) -> 5  ;  (le_nat([s(nn1), s(nn2)])) -> le_nat([nn1, nn2]) -> 5  ;  (le_nat([s(nn1), z])) -> BOT -> 5  ;  (le_nat([z, z])) -> BOT -> 5  ;  (length([ll, _bi])) -> length([cons(x, ll), s(_bi)]) -> 7  ;  (leq([x, y])) -> insert([x, cons(y, z), cons(x, cons(y, z))]) -> 7  ;  (leq([b, a])) -> BOT -> 5  ;  (leqnat([nn1, nn2])) -> leqnat([s(nn1), s(nn2)]) -> 5  ;  (leqnat([s(nn1), s(nn2)])) -> leqnat([nn1, nn2]) -> 5  ;  (leqnat([s(nn1), z])) -> BOT -> 5
}
Sat witness: Yes: ((insert([x, z, _wh]) /\ not leq([x, y])) -> insert([x, cons(y, z), cons(y, _wh)]), {
_wh -> cons(b, cons(b, nil))  ;  x -> b  ;  y -> a  ;  z -> cons(b, nil)
})

-------------------------------------------
Step 20, which took 0.017783 s (model generation: 0.010613,  model checking: 0.007170):

Model:
|_
{
insert -> 
{{{
Q={q_gen_1999, q_gen_2000, q_gen_2001, q_gen_2004, q_gen_2005, q_gen_2006, q_gen_2007},
Q_f={q_gen_1999},
Delta=
{
<cons>(q_gen_2001, q_gen_2000) -> q_gen_2000
<nil>() -> q_gen_2000
<a>() -> q_gen_2001
<b>() -> q_gen_2001
<cons, cons>(q_gen_2007, q_gen_2006, q_gen_2005, q_gen_2004) -> q_gen_2004
<nil, cons>(q_gen_2001, q_gen_2000) -> q_gen_2004
<cons, a>(q_gen_2001, q_gen_2000) -> q_gen_2005
<nil, a>() -> q_gen_2005
<nil, b>() -> q_gen_2005
<a, cons>(q_gen_2001, q_gen_2000) -> q_gen_2006
<b, cons>(q_gen_2001, q_gen_2000) -> q_gen_2006
<a, a>() -> q_gen_2007
<b, a>() -> q_gen_2007
<b, b>() -> q_gen_2007
<a, cons, cons>(q_gen_2007, q_gen_2006, q_gen_2005, q_gen_2004) -> q_gen_1999
<a, nil, cons>(q_gen_2001, q_gen_2000) -> q_gen_1999
<b, cons, cons>(q_gen_2007, q_gen_2006, q_gen_2005, q_gen_2004) -> q_gen_1999
<b, nil, cons>(q_gen_2001, q_gen_2000) -> q_gen_1999
}

Datatype: <elt, eltlist, eltlist>
Convolution form: complete
}}}
  ;  le_nat -> 
{{{
Q={q_gen_1997, q_gen_1998},
Q_f={q_gen_1997},
Delta=
{
<s>(q_gen_1998) -> q_gen_1998
<z>() -> q_gen_1998
<s, s>(q_gen_1997) -> q_gen_1997
<z, s>(q_gen_1998) -> q_gen_1997
}

Datatype: <nat, nat>
Convolution form: complete
}}}
  ;  length -> 
{{{
Q={q_gen_1996, q_gen_2009},
Q_f={q_gen_1996},
Delta=
{
<cons, s>(q_gen_2009, q_gen_1996) -> q_gen_1996
<nil, z>() -> q_gen_1996
<a, z>() -> q_gen_2009
<b, z>() -> q_gen_2009
}

Datatype: <eltlist, nat>
Convolution form: complete
}}}
  ;  leq -> 
{{{
Q={q_gen_1994, q_gen_2011},
Q_f={q_gen_1994},
Delta=
{
<a, a>() -> q_gen_1994
<a, b>() -> q_gen_1994
<b, b>() -> q_gen_1994
<b, a>() -> q_gen_2011
}

Datatype: <elt, elt>
Convolution form: complete
}}}
  ;  leqnat -> 
{{{
Q={q_gen_1991, q_gen_1993},
Q_f={q_gen_1991},
Delta=
{
<s>(q_gen_1993) -> q_gen_1993
<z>() -> q_gen_1993
<s, s>(q_gen_1991) -> q_gen_1991
<z, s>(q_gen_1993) -> q_gen_1991
<z, z>() -> q_gen_1991
}

Datatype: <nat, nat>
Convolution form: complete
}}}

}
--
Equality automata are defined for: {eq_elt, eq_eltlist, eq_nat}
_|

Teacher's answer:
New clause system:
{
() -> insert([x, nil, cons(x, nil)]) -> 7  ;  () -> le_nat([z, s(nn2)]) -> 7  ;  () -> length([nil, z]) -> 5  ;  () -> leq([a, y]) -> 7  ;  () -> leq([b, b]) -> 5  ;  () -> leqnat([z, s(nn2)]) -> 7  ;  () -> leqnat([z, z]) -> 5  ;  (insert([x, l, _gi]) /\ length([_gi, _hi]) /\ length([l, _fi])) -> le_nat([_fi, _hi]) -> 5  ;  (insert([x, z, _wh]) /\ not leq([x, y])) -> insert([x, cons(y, z), cons(y, _wh)]) -> 7  ;  (le_nat([nn1, nn2])) -> le_nat([s(nn1), s(nn2)]) -> 6  ;  (le_nat([s(nn1), s(nn2)])) -> le_nat([nn1, nn2]) -> 6  ;  (le_nat([s(nn1), z])) -> BOT -> 6  ;  (le_nat([z, z])) -> BOT -> 6  ;  (length([ll, _bi])) -> length([cons(x, ll), s(_bi)]) -> 7  ;  (leq([x, y])) -> insert([x, cons(y, z), cons(x, cons(y, z))]) -> 10  ;  (leq([b, a])) -> BOT -> 6  ;  (leqnat([nn1, nn2])) -> leqnat([s(nn1), s(nn2)]) -> 6  ;  (leqnat([s(nn1), s(nn2)])) -> leqnat([nn1, nn2]) -> 6  ;  (leqnat([s(nn1), z])) -> BOT -> 6
}
Sat witness: Yes: ((leq([x, y])) -> insert([x, cons(y, z), cons(x, cons(y, z))]), {
x -> b  ;  y -> b  ;  z -> cons(b, nil)
})

-------------------------------------------
Step 21, which took 0.008935 s (model generation: 0.008470,  model checking: 0.000465):

Model:
|_
{
insert -> 
{{{
Q={q_gen_1999, q_gen_2000, q_gen_2001, q_gen_2004, q_gen_2005, q_gen_2006, q_gen_2007},
Q_f={q_gen_1999},
Delta=
{
<cons>(q_gen_2001, q_gen_2000) -> q_gen_2000
<nil>() -> q_gen_2000
<a>() -> q_gen_2001
<b>() -> q_gen_2001
<cons, cons>(q_gen_2007, q_gen_2006, q_gen_2005, q_gen_2004) -> q_gen_2004
<nil, cons>(q_gen_2001, q_gen_2000) -> q_gen_2004
<cons, a>(q_gen_2001, q_gen_2000) -> q_gen_2005
<cons, b>(q_gen_2001, q_gen_2000) -> q_gen_2005
<nil, a>() -> q_gen_2005
<nil, b>() -> q_gen_2005
<a, cons>(q_gen_2001, q_gen_2000) -> q_gen_2006
<b, cons>(q_gen_2001, q_gen_2000) -> q_gen_2006
<a, a>() -> q_gen_2007
<b, a>() -> q_gen_2007
<b, b>() -> q_gen_2007
<a, cons, cons>(q_gen_2007, q_gen_2006, q_gen_2005, q_gen_2004) -> q_gen_1999
<a, nil, cons>(q_gen_2001, q_gen_2000) -> q_gen_1999
<b, cons, cons>(q_gen_2007, q_gen_2006, q_gen_2005, q_gen_2004) -> q_gen_1999
<b, nil, cons>(q_gen_2001, q_gen_2000) -> q_gen_1999
}

Datatype: <elt, eltlist, eltlist>
Convolution form: complete
}}}
  ;  le_nat -> 
{{{
Q={q_gen_1997, q_gen_1998},
Q_f={q_gen_1997},
Delta=
{
<s>(q_gen_1998) -> q_gen_1998
<z>() -> q_gen_1998
<s, s>(q_gen_1997) -> q_gen_1997
<z, s>(q_gen_1998) -> q_gen_1997
}

Datatype: <nat, nat>
Convolution form: complete
}}}
  ;  length -> 
{{{
Q={q_gen_1996, q_gen_2009},
Q_f={q_gen_1996},
Delta=
{
<cons, s>(q_gen_2009, q_gen_1996) -> q_gen_1996
<nil, z>() -> q_gen_1996
<a, z>() -> q_gen_2009
<b, z>() -> q_gen_2009
}

Datatype: <eltlist, nat>
Convolution form: complete
}}}
  ;  leq -> 
{{{
Q={q_gen_1994, q_gen_2011},
Q_f={q_gen_1994},
Delta=
{
<a, a>() -> q_gen_1994
<a, b>() -> q_gen_1994
<b, b>() -> q_gen_1994
<b, a>() -> q_gen_2011
}

Datatype: <elt, elt>
Convolution form: complete
}}}
  ;  leqnat -> 
{{{
Q={q_gen_1991, q_gen_1993},
Q_f={q_gen_1991},
Delta=
{
<s>(q_gen_1993) -> q_gen_1993
<z>() -> q_gen_1993
<s, s>(q_gen_1991) -> q_gen_1991
<z, s>(q_gen_1993) -> q_gen_1991
<z, z>() -> q_gen_1991
}

Datatype: <nat, nat>
Convolution form: complete
}}}

}
--
Equality automata are defined for: {eq_elt, eq_eltlist, eq_nat}
_|

Teacher's answer:
New clause system:
{
() -> insert([x, nil, cons(x, nil)]) -> 7  ;  () -> le_nat([z, s(nn2)]) -> 7  ;  () -> length([nil, z]) -> 6  ;  () -> leq([a, y]) -> 7  ;  () -> leq([b, b]) -> 6  ;  () -> leqnat([z, s(nn2)]) -> 7  ;  () -> leqnat([z, z]) -> 6  ;  (insert([x, l, _gi]) /\ length([_gi, _hi]) /\ length([l, _fi])) -> le_nat([_fi, _hi]) -> 6  ;  (insert([x, z, _wh]) /\ not leq([x, y])) -> insert([x, cons(y, z), cons(y, _wh)]) -> 7  ;  (le_nat([nn1, nn2])) -> le_nat([s(nn1), s(nn2)]) -> 7  ;  (le_nat([s(nn1), s(nn2)])) -> le_nat([nn1, nn2]) -> 7  ;  (le_nat([s(nn1), z])) -> BOT -> 7  ;  (le_nat([z, z])) -> BOT -> 7  ;  (length([ll, _bi])) -> length([cons(x, ll), s(_bi)]) -> 10  ;  (leq([x, y])) -> insert([x, cons(y, z), cons(x, cons(y, z))]) -> 10  ;  (leq([b, a])) -> BOT -> 7  ;  (leqnat([nn1, nn2])) -> leqnat([s(nn1), s(nn2)]) -> 7  ;  (leqnat([s(nn1), s(nn2)])) -> leqnat([nn1, nn2]) -> 7  ;  (leqnat([s(nn1), z])) -> BOT -> 7
}
Sat witness: Yes: ((length([ll, _bi])) -> length([cons(x, ll), s(_bi)]), {
_bi -> s(z)  ;  ll -> cons(a, nil)  ;  x -> b
})

-------------------------------------------
Step 22, which took 0.034874 s (model generation: 0.012003,  model checking: 0.022871):

Model:
|_
{
insert -> 
{{{
Q={q_gen_1999, q_gen_2000, q_gen_2001, q_gen_2004, q_gen_2005, q_gen_2006, q_gen_2007},
Q_f={q_gen_1999},
Delta=
{
<cons>(q_gen_2001, q_gen_2000) -> q_gen_2000
<nil>() -> q_gen_2000
<a>() -> q_gen_2001
<b>() -> q_gen_2001
<cons, cons>(q_gen_2007, q_gen_2006, q_gen_2005, q_gen_2004) -> q_gen_2004
<nil, cons>(q_gen_2001, q_gen_2000) -> q_gen_2004
<cons, a>(q_gen_2001, q_gen_2000) -> q_gen_2005
<cons, b>(q_gen_2001, q_gen_2000) -> q_gen_2005
<nil, a>() -> q_gen_2005
<nil, b>() -> q_gen_2005
<a, cons>(q_gen_2001, q_gen_2000) -> q_gen_2006
<b, cons>(q_gen_2001, q_gen_2000) -> q_gen_2006
<a, a>() -> q_gen_2007
<b, a>() -> q_gen_2007
<b, b>() -> q_gen_2007
<a, cons, cons>(q_gen_2007, q_gen_2006, q_gen_2005, q_gen_2004) -> q_gen_1999
<a, nil, cons>(q_gen_2001, q_gen_2000) -> q_gen_1999
<b, cons, cons>(q_gen_2007, q_gen_2006, q_gen_2005, q_gen_2004) -> q_gen_1999
<b, nil, cons>(q_gen_2001, q_gen_2000) -> q_gen_1999
}

Datatype: <elt, eltlist, eltlist>
Convolution form: complete
}}}
  ;  le_nat -> 
{{{
Q={q_gen_1997, q_gen_1998},
Q_f={q_gen_1997},
Delta=
{
<s>(q_gen_1998) -> q_gen_1998
<z>() -> q_gen_1998
<s, s>(q_gen_1997) -> q_gen_1997
<z, s>(q_gen_1998) -> q_gen_1997
}

Datatype: <nat, nat>
Convolution form: complete
}}}
  ;  length -> 
{{{
Q={q_gen_1996, q_gen_2009, q_gen_2037},
Q_f={q_gen_1996},
Delta=
{
<z>() -> q_gen_2037
<cons, s>(q_gen_2009, q_gen_1996) -> q_gen_1996
<nil, z>() -> q_gen_1996
<a, z>() -> q_gen_2009
<b, s>(q_gen_2037) -> q_gen_2009
<b, z>() -> q_gen_2009
}

Datatype: <eltlist, nat>
Convolution form: complete
}}}
  ;  leq -> 
{{{
Q={q_gen_1994, q_gen_2011},
Q_f={q_gen_1994},
Delta=
{
<a, a>() -> q_gen_1994
<a, b>() -> q_gen_1994
<b, b>() -> q_gen_1994
<b, a>() -> q_gen_2011
}

Datatype: <elt, elt>
Convolution form: complete
}}}
  ;  leqnat -> 
{{{
Q={q_gen_1991, q_gen_1993},
Q_f={q_gen_1991},
Delta=
{
<s>(q_gen_1993) -> q_gen_1993
<z>() -> q_gen_1993
<s, s>(q_gen_1991) -> q_gen_1991
<z, s>(q_gen_1993) -> q_gen_1991
<z, z>() -> q_gen_1991
}

Datatype: <nat, nat>
Convolution form: complete
}}}

}
--
Equality automata are defined for: {eq_elt, eq_eltlist, eq_nat}
_|

Teacher's answer:
New clause system:
{
() -> insert([x, nil, cons(x, nil)]) -> 8  ;  () -> le_nat([z, s(nn2)]) -> 8  ;  () -> length([nil, z]) -> 7  ;  () -> leq([a, y]) -> 8  ;  () -> leq([b, b]) -> 7  ;  () -> leqnat([z, s(nn2)]) -> 8  ;  () -> leqnat([z, z]) -> 7  ;  (insert([x, l, _gi]) /\ length([_gi, _hi]) /\ length([l, _fi])) -> le_nat([_fi, _hi]) -> 7  ;  (insert([x, z, _wh]) /\ not leq([x, y])) -> insert([x, cons(y, z), cons(y, _wh)]) -> 8  ;  (le_nat([nn1, nn2])) -> le_nat([s(nn1), s(nn2)]) -> 8  ;  (le_nat([s(nn1), s(nn2)])) -> le_nat([nn1, nn2]) -> 8  ;  (le_nat([s(nn1), z])) -> BOT -> 8  ;  (le_nat([z, z])) -> BOT -> 8  ;  (length([ll, _bi])) -> length([cons(x, ll), s(_bi)]) -> 10  ;  (leq([x, y])) -> insert([x, cons(y, z), cons(x, cons(y, z))]) -> 13  ;  (leq([b, a])) -> BOT -> 8  ;  (leqnat([nn1, nn2])) -> leqnat([s(nn1), s(nn2)]) -> 8  ;  (leqnat([s(nn1), s(nn2)])) -> leqnat([nn1, nn2]) -> 8  ;  (leqnat([s(nn1), z])) -> BOT -> 8
}
Sat witness: Yes: ((leq([x, y])) -> insert([x, cons(y, z), cons(x, cons(y, z))]), {
x -> b  ;  y -> b  ;  z -> cons(a, nil)
})

-------------------------------------------
Step 23, which took 0.015422 s (model generation: 0.006700,  model checking: 0.008722):

Model:
|_
{
insert -> 
{{{
Q={q_gen_1999, q_gen_2000, q_gen_2001, q_gen_2004, q_gen_2005, q_gen_2006, q_gen_2007},
Q_f={q_gen_1999},
Delta=
{
<cons>(q_gen_2001, q_gen_2000) -> q_gen_2000
<nil>() -> q_gen_2000
<a>() -> q_gen_2001
<b>() -> q_gen_2001
<cons, cons>(q_gen_2007, q_gen_2006, q_gen_2005, q_gen_2004) -> q_gen_2004
<nil, cons>(q_gen_2001, q_gen_2000) -> q_gen_2004
<cons, a>(q_gen_2001, q_gen_2000) -> q_gen_2005
<cons, b>(q_gen_2001, q_gen_2000) -> q_gen_2005
<nil, a>() -> q_gen_2005
<nil, b>() -> q_gen_2005
<a, cons>(q_gen_2001, q_gen_2000) -> q_gen_2006
<b, cons>(q_gen_2001, q_gen_2000) -> q_gen_2006
<a, a>() -> q_gen_2007
<a, b>() -> q_gen_2007
<b, a>() -> q_gen_2007
<b, b>() -> q_gen_2007
<a, cons, cons>(q_gen_2007, q_gen_2006, q_gen_2005, q_gen_2004) -> q_gen_1999
<a, nil, cons>(q_gen_2001, q_gen_2000) -> q_gen_1999
<b, cons, cons>(q_gen_2007, q_gen_2006, q_gen_2005, q_gen_2004) -> q_gen_1999
<b, nil, cons>(q_gen_2001, q_gen_2000) -> q_gen_1999
}

Datatype: <elt, eltlist, eltlist>
Convolution form: complete
}}}
  ;  le_nat -> 
{{{
Q={q_gen_1997, q_gen_1998},
Q_f={q_gen_1997},
Delta=
{
<s>(q_gen_1998) -> q_gen_1998
<z>() -> q_gen_1998
<s, s>(q_gen_1997) -> q_gen_1997
<z, s>(q_gen_1998) -> q_gen_1997
}

Datatype: <nat, nat>
Convolution form: complete
}}}
  ;  length -> 
{{{
Q={q_gen_1996, q_gen_2009, q_gen_2037},
Q_f={q_gen_1996},
Delta=
{
<z>() -> q_gen_2037
<cons, s>(q_gen_2009, q_gen_1996) -> q_gen_1996
<nil, z>() -> q_gen_1996
<a, z>() -> q_gen_2009
<b, s>(q_gen_2037) -> q_gen_2009
<b, z>() -> q_gen_2009
}

Datatype: <eltlist, nat>
Convolution form: complete
}}}
  ;  leq -> 
{{{
Q={q_gen_1994, q_gen_2011},
Q_f={q_gen_1994},
Delta=
{
<a, a>() -> q_gen_1994
<a, b>() -> q_gen_1994
<b, b>() -> q_gen_1994
<b, a>() -> q_gen_2011
}

Datatype: <elt, elt>
Convolution form: complete
}}}
  ;  leqnat -> 
{{{
Q={q_gen_1991, q_gen_1993},
Q_f={q_gen_1991},
Delta=
{
<s>(q_gen_1993) -> q_gen_1993
<z>() -> q_gen_1993
<s, s>(q_gen_1991) -> q_gen_1991
<z, s>(q_gen_1993) -> q_gen_1991
<z, z>() -> q_gen_1991
}

Datatype: <nat, nat>
Convolution form: complete
}}}

}
--
Equality automata are defined for: {eq_elt, eq_eltlist, eq_nat}
_|

Teacher's answer:
New clause system:
{
() -> insert([x, nil, cons(x, nil)]) -> 9  ;  () -> le_nat([z, s(nn2)]) -> 9  ;  () -> length([nil, z]) -> 8  ;  () -> leq([a, y]) -> 9  ;  () -> leq([b, b]) -> 8  ;  () -> leqnat([z, s(nn2)]) -> 9  ;  () -> leqnat([z, z]) -> 8  ;  (insert([x, l, _gi]) /\ length([_gi, _hi]) /\ length([l, _fi])) -> le_nat([_fi, _hi]) -> 8  ;  (insert([x, z, _wh]) /\ not leq([x, y])) -> insert([x, cons(y, z), cons(y, _wh)]) -> 9  ;  (le_nat([nn1, nn2])) -> le_nat([s(nn1), s(nn2)]) -> 9  ;  (le_nat([s(nn1), s(nn2)])) -> le_nat([nn1, nn2]) -> 9  ;  (le_nat([s(nn1), z])) -> BOT -> 9  ;  (le_nat([z, z])) -> BOT -> 9  ;  (length([ll, _bi])) -> length([cons(x, ll), s(_bi)]) -> 13  ;  (leq([x, y])) -> insert([x, cons(y, z), cons(x, cons(y, z))]) -> 13  ;  (leq([b, a])) -> BOT -> 9  ;  (leqnat([nn1, nn2])) -> leqnat([s(nn1), s(nn2)]) -> 9  ;  (leqnat([s(nn1), s(nn2)])) -> leqnat([nn1, nn2]) -> 9  ;  (leqnat([s(nn1), z])) -> BOT -> 9
}
Sat witness: Yes: ((length([ll, _bi])) -> length([cons(x, ll), s(_bi)]), {
_bi -> s(z)  ;  ll -> cons(b, nil)  ;  x -> a
})

-------------------------------------------
Step 24, which took 0.015338 s (model generation: 0.006857,  model checking: 0.008481):

Model:
|_
{
insert -> 
{{{
Q={q_gen_1999, q_gen_2000, q_gen_2001, q_gen_2004, q_gen_2005, q_gen_2006, q_gen_2007},
Q_f={q_gen_1999},
Delta=
{
<cons>(q_gen_2001, q_gen_2000) -> q_gen_2000
<nil>() -> q_gen_2000
<a>() -> q_gen_2001
<b>() -> q_gen_2001
<cons, cons>(q_gen_2007, q_gen_2006, q_gen_2005, q_gen_2004) -> q_gen_2004
<nil, cons>(q_gen_2001, q_gen_2000) -> q_gen_2004
<cons, a>(q_gen_2001, q_gen_2000) -> q_gen_2005
<cons, b>(q_gen_2001, q_gen_2000) -> q_gen_2005
<nil, a>() -> q_gen_2005
<nil, b>() -> q_gen_2005
<a, cons>(q_gen_2001, q_gen_2000) -> q_gen_2006
<b, cons>(q_gen_2001, q_gen_2000) -> q_gen_2006
<a, a>() -> q_gen_2007
<a, b>() -> q_gen_2007
<b, a>() -> q_gen_2007
<b, b>() -> q_gen_2007
<a, cons, cons>(q_gen_2007, q_gen_2006, q_gen_2005, q_gen_2004) -> q_gen_1999
<a, nil, cons>(q_gen_2001, q_gen_2000) -> q_gen_1999
<b, cons, cons>(q_gen_2007, q_gen_2006, q_gen_2005, q_gen_2004) -> q_gen_1999
<b, nil, cons>(q_gen_2001, q_gen_2000) -> q_gen_1999
}

Datatype: <elt, eltlist, eltlist>
Convolution form: complete
}}}
  ;  le_nat -> 
{{{
Q={q_gen_1997, q_gen_1998},
Q_f={q_gen_1997},
Delta=
{
<s>(q_gen_1998) -> q_gen_1998
<z>() -> q_gen_1998
<s, s>(q_gen_1997) -> q_gen_1997
<z, s>(q_gen_1998) -> q_gen_1997
}

Datatype: <nat, nat>
Convolution form: complete
}}}
  ;  length -> 
{{{
Q={q_gen_1996, q_gen_2009, q_gen_2037},
Q_f={q_gen_1996},
Delta=
{
<z>() -> q_gen_2037
<cons, s>(q_gen_2009, q_gen_1996) -> q_gen_1996
<nil, z>() -> q_gen_1996
<a, s>(q_gen_2037) -> q_gen_2009
<a, z>() -> q_gen_2009
<b, s>(q_gen_2037) -> q_gen_2009
<b, z>() -> q_gen_2009
}

Datatype: <eltlist, nat>
Convolution form: complete
}}}
  ;  leq -> 
{{{
Q={q_gen_1994, q_gen_2011},
Q_f={q_gen_1994},
Delta=
{
<a, a>() -> q_gen_1994
<a, b>() -> q_gen_1994
<b, b>() -> q_gen_1994
<b, a>() -> q_gen_2011
}

Datatype: <elt, elt>
Convolution form: complete
}}}
  ;  leqnat -> 
{{{
Q={q_gen_1991, q_gen_1993},
Q_f={q_gen_1991},
Delta=
{
<s>(q_gen_1993) -> q_gen_1993
<z>() -> q_gen_1993
<s, s>(q_gen_1991) -> q_gen_1991
<z, s>(q_gen_1993) -> q_gen_1991
<z, z>() -> q_gen_1991
}

Datatype: <nat, nat>
Convolution form: complete
}}}

}
--
Equality automata are defined for: {eq_elt, eq_eltlist, eq_nat}
_|

Teacher's answer:
New clause system:
{
() -> insert([x, nil, cons(x, nil)]) -> 10  ;  () -> le_nat([z, s(nn2)]) -> 10  ;  () -> length([nil, z]) -> 9  ;  () -> leq([a, y]) -> 10  ;  () -> leq([b, b]) -> 9  ;  () -> leqnat([z, s(nn2)]) -> 10  ;  () -> leqnat([z, z]) -> 9  ;  (insert([x, l, _gi]) /\ length([_gi, _hi]) /\ length([l, _fi])) -> le_nat([_fi, _hi]) -> 9  ;  (insert([x, z, _wh]) /\ not leq([x, y])) -> insert([x, cons(y, z), cons(y, _wh)]) -> 10  ;  (le_nat([nn1, nn2])) -> le_nat([s(nn1), s(nn2)]) -> 10  ;  (le_nat([s(nn1), s(nn2)])) -> le_nat([nn1, nn2]) -> 10  ;  (le_nat([s(nn1), z])) -> BOT -> 10  ;  (le_nat([z, z])) -> BOT -> 10  ;  (length([ll, _bi])) -> length([cons(x, ll), s(_bi)]) -> 16  ;  (leq([x, y])) -> insert([x, cons(y, z), cons(x, cons(y, z))]) -> 14  ;  (leq([b, a])) -> BOT -> 10  ;  (leqnat([nn1, nn2])) -> leqnat([s(nn1), s(nn2)]) -> 10  ;  (leqnat([s(nn1), s(nn2)])) -> leqnat([nn1, nn2]) -> 10  ;  (leqnat([s(nn1), z])) -> BOT -> 10
}
Sat witness: Yes: ((length([ll, _bi])) -> length([cons(x, ll), s(_bi)]), {
_bi -> s(s(z))  ;  ll -> cons(b, cons(b, nil))  ;  x -> b
})

Total time: 0.279429
Reason for stopping: Proved

