Solving ../../../../benchmarks/smtlib/true/delete_one_insert.smt2...

Inference procedure has parameters:
Ice fuel: 200
Timeout: 20s
Convolution: complete


Learning problem is:

env: {
elist -> {econs, enil}  ;  elt -> {a, b}  ;  nat -> {s, z}
}
definition:
{
(leq_elt, P:
{() -> leq_elt([a, e2])
() -> leq_elt([b, b])
(leq_elt([b, a])) -> BOT}
)
(insert_elt, F:
{() -> insert_elt([x, enil, econs(x, enil)])
(insert_elt([x, z, _qo]) /\ not leq_elt([x, y])) -> insert_elt([x, econs(y, z), econs(y, _qo)])
(leq_elt([x, y])) -> insert_elt([x, econs(y, z), econs(x, econs(y, z))])}
(insert_elt([_ro, _so, _to]) /\ insert_elt([_ro, _so, _uo])) -> eq_elist([_to, _uo])
)
(delete_one_elt, F:
{() -> delete_one_elt([h, econs(h, t), t])
() -> delete_one_elt([x, enil, enil])
(delete_one_elt([x, t, _vo]) /\ not eq_elt([x, h])) -> delete_one_elt([x, econs(h, t), econs(h, _vo)])}
(delete_one_elt([_wo, _xo, _yo]) /\ delete_one_elt([_wo, _xo, _zo])) -> eq_elist([_yo, _zo])
)
}

properties:
{(delete_one_elt([e, _ap, _bp]) /\ insert_elt([e, l, _ap])) -> eq_elist([_bp, l])}


over-approximation: {delete_one_elt, insert_elt}
under-approximation: {leq_elt}

Clause system for inference is:

{
() -> delete_one_elt([h, econs(h, t), t]) -> 0  ;  () -> delete_one_elt([x, enil, enil]) -> 0  ;  () -> insert_elt([x, enil, econs(x, enil)]) -> 0  ;  () -> leq_elt([a, e2]) -> 0  ;  () -> leq_elt([b, b]) -> 0  ;  (delete_one_elt([e, _ap, _bp]) /\ insert_elt([e, l, _ap])) -> eq_elist([_bp, l]) -> 0  ;  (delete_one_elt([x, t, _vo]) /\ not eq_elt([x, h])) -> delete_one_elt([x, econs(h, t), econs(h, _vo)]) -> 0  ;  (insert_elt([x, z, _qo]) /\ not leq_elt([x, y])) -> insert_elt([x, econs(y, z), econs(y, _qo)]) -> 0  ;  (leq_elt([x, y])) -> insert_elt([x, econs(y, z), econs(x, econs(y, z))]) -> 0  ;  (leq_elt([b, a])) -> BOT -> 0
}


Solving took 20.008097 seconds.
DontKnow. Stopped because: timeout
Working model:
|_
{
delete_one_elt -> 
{{{
Q={q_gen_1040, q_gen_1041, q_gen_1042, q_gen_1043, q_gen_1056, q_gen_1057, q_gen_1058, q_gen_1059, q_gen_1060, q_gen_1063, q_gen_1064, q_gen_1065, q_gen_1071, q_gen_1072, q_gen_1073, q_gen_1074, q_gen_1075, q_gen_1076, q_gen_1077, q_gen_1078, q_gen_1079, q_gen_1090, q_gen_1091, q_gen_1092, q_gen_1093, q_gen_1094, q_gen_1104, q_gen_1105, q_gen_1106, q_gen_1107, q_gen_1108, q_gen_1110, q_gen_1111},
Q_f={},
Delta=
{
<enil>() -> q_gen_1042
<a>() -> q_gen_1043
<b>() -> q_gen_1065
<enil, enil>() -> q_gen_1057
<enil, a>() -> q_gen_1058
<a, enil>() -> q_gen_1059
<a, a>() -> q_gen_1060
<enil, b>() -> q_gen_1072
<b, enil>() -> q_gen_1073
<b, b>() -> q_gen_1074
<econs, enil>(q_gen_1043, q_gen_1042) -> q_gen_1077
<econs, a>(q_gen_1043, q_gen_1042) -> q_gen_1078
<b, a>() -> q_gen_1079
<econs, enil>(q_gen_1065, q_gen_1042) -> q_gen_1092
<econs, b>(q_gen_1065, q_gen_1042) -> q_gen_1093
<econs, econs>(q_gen_1074, q_gen_1073, q_gen_1072, q_gen_1057) -> q_gen_1105
<b, econs>(q_gen_1065, q_gen_1042) -> q_gen_1106
<econs, a>(q_gen_1065, q_gen_1042) -> q_gen_1108
<a, b>() -> q_gen_1111
<b, enil, enil>() -> q_gen_1040
<a, econs, enil>(q_gen_1043, q_gen_1042) -> q_gen_1041
<b, econs, econs>(q_gen_1060, q_gen_1059, q_gen_1058, q_gen_1057) -> q_gen_1056
<a, enil, enil>() -> q_gen_1063
<b, econs, enil>(q_gen_1065, q_gen_1042) -> q_gen_1064
<a, econs, econs>(q_gen_1074, q_gen_1073, q_gen_1072, q_gen_1057) -> q_gen_1071
<a, econs, econs>(q_gen_1060, q_gen_1059, q_gen_1058, q_gen_1057) -> q_gen_1075
<b, econs, econs>(q_gen_1079, q_gen_1073, q_gen_1078, q_gen_1077) -> q_gen_1076
<a, econs, enil>(q_gen_1065, q_gen_1042) -> q_gen_1090
<a, econs, econs>(q_gen_1074, q_gen_1073, q_gen_1093, q_gen_1092) -> q_gen_1091
<a, econs, econs>(q_gen_1060, q_gen_1059, q_gen_1078, q_gen_1077) -> q_gen_1094
<a, econs, econs>(q_gen_1074, q_gen_1106, q_gen_1093, q_gen_1105) -> q_gen_1104
<a, econs, econs>(q_gen_1060, q_gen_1059, q_gen_1108, q_gen_1092) -> q_gen_1107
<a, econs, econs>(q_gen_1111, q_gen_1059, q_gen_1093, q_gen_1092) -> q_gen_1110
}

Datatype: <elt, elist, elist>
Convolution form: complete
}}}
  ;  insert_elt -> 
{{{
Q={q_gen_1037, q_gen_1038, q_gen_1039, q_gen_1044, q_gen_1045, q_gen_1046, q_gen_1047, q_gen_1048, q_gen_1049, q_gen_1051, q_gen_1052, q_gen_1053, q_gen_1054, q_gen_1055, q_gen_1061, q_gen_1062, q_gen_1066, q_gen_1067, q_gen_1069, q_gen_1070, q_gen_1080, q_gen_1081, q_gen_1082, q_gen_1083, q_gen_1084, q_gen_1085, q_gen_1086, q_gen_1087, q_gen_1088, q_gen_1089, q_gen_1095, q_gen_1096, q_gen_1097, q_gen_1098, q_gen_1099, q_gen_1100, q_gen_1101, q_gen_1102, q_gen_1103, q_gen_1109, q_gen_1112, q_gen_1113, q_gen_1114},
Q_f={},
Delta=
{
<enil>() -> q_gen_1038
<a>() -> q_gen_1039
<b>() -> q_gen_1046
<econs>(q_gen_1039, q_gen_1038) -> q_gen_1085
<econs>(q_gen_1046, q_gen_1038) -> q_gen_1100
<enil, econs>(q_gen_1046, q_gen_1038) -> q_gen_1045
<enil, b>() -> q_gen_1047
<b, econs>(q_gen_1046, q_gen_1038) -> q_gen_1048
<b, b>() -> q_gen_1049
<enil, econs>(q_gen_1039, q_gen_1038) -> q_gen_1052
<enil, a>() -> q_gen_1053
<a, econs>(q_gen_1039, q_gen_1038) -> q_gen_1054
<a, a>() -> q_gen_1055
<b, a>() -> q_gen_1067
<a, econs>(q_gen_1046, q_gen_1038) -> q_gen_1070
<econs, econs>(q_gen_1082, q_gen_1054, q_gen_1047, q_gen_1052) -> q_gen_1081
<a, b>() -> q_gen_1082
<econs, b>(q_gen_1039, q_gen_1038) -> q_gen_1083
<b, econs>(q_gen_1046, q_gen_1085) -> q_gen_1084
<econs, a>(q_gen_1039, q_gen_1038) -> q_gen_1088
<a, econs>(q_gen_1046, q_gen_1085) -> q_gen_1089
<econs, econs>(q_gen_1049, q_gen_1048, q_gen_1047, q_gen_1045) -> q_gen_1097
<econs, b>(q_gen_1046, q_gen_1038) -> q_gen_1098
<b, econs>(q_gen_1046, q_gen_1100) -> q_gen_1099
<econs, a>(q_gen_1046, q_gen_1038) -> q_gen_1102
<a, econs>(q_gen_1046, q_gen_1100) -> q_gen_1103
<econs, econs>(q_gen_1067, q_gen_1048, q_gen_1053, q_gen_1045) -> q_gen_1113
<a, econs>(q_gen_1039, q_gen_1100) -> q_gen_1114
<a, enil, econs>(q_gen_1039, q_gen_1038) -> q_gen_1037
<b, econs, econs>(q_gen_1049, q_gen_1048, q_gen_1047, q_gen_1045) -> q_gen_1044
<a, econs, econs>(q_gen_1055, q_gen_1054, q_gen_1053, q_gen_1052) -> q_gen_1051
<b, enil, econs>(q_gen_1046, q_gen_1038) -> q_gen_1061
<b, enil, econs>(q_gen_1039, q_gen_1038) -> q_gen_1062
<a, econs, econs>(q_gen_1067, q_gen_1048, q_gen_1053, q_gen_1045) -> q_gen_1066
<b, econs, econs>(q_gen_1055, q_gen_1070, q_gen_1053, q_gen_1045) -> q_gen_1069
<b, econs, econs>(q_gen_1049, q_gen_1084, q_gen_1083, q_gen_1081) -> q_gen_1080
<b, econs, econs>(q_gen_1082, q_gen_1054, q_gen_1047, q_gen_1052) -> q_gen_1086
<b, econs, econs>(q_gen_1055, q_gen_1089, q_gen_1088, q_gen_1081) -> q_gen_1087
<a, enil, econs>(q_gen_1039, q_gen_1085) -> q_gen_1095
<b, econs, econs>(q_gen_1049, q_gen_1099, q_gen_1098, q_gen_1097) -> q_gen_1096
<b, econs, econs>(q_gen_1055, q_gen_1103, q_gen_1102, q_gen_1097) -> q_gen_1101
<a, enil, econs>(q_gen_1039, q_gen_1100) -> q_gen_1109
<a, econs, econs>(q_gen_1055, q_gen_1114, q_gen_1102, q_gen_1113) -> q_gen_1112
}

Datatype: <elt, elist, elist>
Convolution form: complete
}}}
  ;  leq_elt -> 
{{{
Q={q_gen_1035, q_gen_1036, q_gen_1050, q_gen_1068},
Q_f={},
Delta=
{
<b, b>() -> q_gen_1035
<a, b>() -> q_gen_1036
<a, a>() -> q_gen_1050
<b, a>() -> q_gen_1068
}

Datatype: <elt, elt>
Convolution form: complete
}}}

}
--
Equality automata are defined for: {eq_elist, eq_elt, eq_nat}
_|

-------------------
STEPS:
-------------------------------------------
Step 0, which took 0.005898 s (model generation: 0.005053,  model checking: 0.000845):

Model:
|_
{
delete_one_elt -> 
{{{
Q={},
Q_f={},
Delta=
{

}

Datatype: <elt, elist, elist>
Convolution form: complete
}}}
  ;  insert_elt -> 
{{{
Q={},
Q_f={},
Delta=
{

}

Datatype: <elt, elist, elist>
Convolution form: complete
}}}
  ;  leq_elt -> 
{{{
Q={},
Q_f={},
Delta=
{

}

Datatype: <elt, elt>
Convolution form: complete
}}}

}
--
Equality automata are defined for: {eq_elist, eq_elt, eq_nat}
_|

Teacher's answer:
New clause system:
{
() -> delete_one_elt([h, econs(h, t), t]) -> 0  ;  () -> delete_one_elt([x, enil, enil]) -> 0  ;  () -> insert_elt([x, enil, econs(x, enil)]) -> 0  ;  () -> leq_elt([a, e2]) -> 0  ;  () -> leq_elt([b, b]) -> 3  ;  (delete_one_elt([e, _ap, _bp]) /\ insert_elt([e, l, _ap])) -> eq_elist([_bp, l]) -> 1  ;  (delete_one_elt([x, t, _vo]) /\ not eq_elt([x, h])) -> delete_one_elt([x, econs(h, t), econs(h, _vo)]) -> 1  ;  (insert_elt([x, z, _qo]) /\ not leq_elt([x, y])) -> insert_elt([x, econs(y, z), econs(y, _qo)]) -> 1  ;  (leq_elt([x, y])) -> insert_elt([x, econs(y, z), econs(x, econs(y, z))]) -> 1  ;  (leq_elt([b, a])) -> BOT -> 1
}
Sat witness: Yes: (() -> leq_elt([b, b]), {

})

-------------------------------------------
Step 1, which took 0.007540 s (model generation: 0.007507,  model checking: 0.000033):

Model:
|_
{
delete_one_elt -> 
{{{
Q={},
Q_f={},
Delta=
{

}

Datatype: <elt, elist, elist>
Convolution form: complete
}}}
  ;  insert_elt -> 
{{{
Q={},
Q_f={},
Delta=
{

}

Datatype: <elt, elist, elist>
Convolution form: complete
}}}
  ;  leq_elt -> 
{{{
Q={q_gen_1035},
Q_f={q_gen_1035},
Delta=
{
<b, b>() -> q_gen_1035
}

Datatype: <elt, elt>
Convolution form: complete
}}}

}
--
Equality automata are defined for: {eq_elist, eq_elt, eq_nat}
_|

Teacher's answer:
New clause system:
{
() -> delete_one_elt([h, econs(h, t), t]) -> 0  ;  () -> delete_one_elt([x, enil, enil]) -> 0  ;  () -> insert_elt([x, enil, econs(x, enil)]) -> 0  ;  () -> leq_elt([a, e2]) -> 3  ;  () -> leq_elt([b, b]) -> 3  ;  (delete_one_elt([e, _ap, _bp]) /\ insert_elt([e, l, _ap])) -> eq_elist([_bp, l]) -> 1  ;  (delete_one_elt([x, t, _vo]) /\ not eq_elt([x, h])) -> delete_one_elt([x, econs(h, t), econs(h, _vo)]) -> 1  ;  (insert_elt([x, z, _qo]) /\ not leq_elt([x, y])) -> insert_elt([x, econs(y, z), econs(y, _qo)]) -> 1  ;  (leq_elt([x, y])) -> insert_elt([x, econs(y, z), econs(x, econs(y, z))]) -> 1  ;  (leq_elt([b, a])) -> BOT -> 1
}
Sat witness: Yes: (() -> leq_elt([a, e2]), {
e2 -> b
})

-------------------------------------------
Step 2, which took 0.003210 s (model generation: 0.003092,  model checking: 0.000118):

Model:
|_
{
delete_one_elt -> 
{{{
Q={},
Q_f={},
Delta=
{

}

Datatype: <elt, elist, elist>
Convolution form: complete
}}}
  ;  insert_elt -> 
{{{
Q={},
Q_f={},
Delta=
{

}

Datatype: <elt, elist, elist>
Convolution form: complete
}}}
  ;  leq_elt -> 
{{{
Q={q_gen_1035},
Q_f={q_gen_1035},
Delta=
{
<a, b>() -> q_gen_1035
<b, b>() -> q_gen_1035
}

Datatype: <elt, elt>
Convolution form: complete
}}}

}
--
Equality automata are defined for: {eq_elist, eq_elt, eq_nat}
_|

Teacher's answer:
New clause system:
{
() -> delete_one_elt([h, econs(h, t), t]) -> 0  ;  () -> delete_one_elt([x, enil, enil]) -> 0  ;  () -> insert_elt([x, enil, econs(x, enil)]) -> 3  ;  () -> leq_elt([a, e2]) -> 3  ;  () -> leq_elt([b, b]) -> 3  ;  (delete_one_elt([e, _ap, _bp]) /\ insert_elt([e, l, _ap])) -> eq_elist([_bp, l]) -> 1  ;  (delete_one_elt([x, t, _vo]) /\ not eq_elt([x, h])) -> delete_one_elt([x, econs(h, t), econs(h, _vo)]) -> 1  ;  (insert_elt([x, z, _qo]) /\ not leq_elt([x, y])) -> insert_elt([x, econs(y, z), econs(y, _qo)]) -> 1  ;  (leq_elt([x, y])) -> insert_elt([x, econs(y, z), econs(x, econs(y, z))]) -> 1  ;  (leq_elt([b, a])) -> BOT -> 1
}
Sat witness: Yes: (() -> insert_elt([x, enil, econs(x, enil)]), {
x -> a
})

-------------------------------------------
Step 3, which took 0.007976 s (model generation: 0.007875,  model checking: 0.000101):

Model:
|_
{
delete_one_elt -> 
{{{
Q={},
Q_f={},
Delta=
{

}

Datatype: <elt, elist, elist>
Convolution form: complete
}}}
  ;  insert_elt -> 
{{{
Q={q_gen_1037, q_gen_1038, q_gen_1039},
Q_f={q_gen_1037},
Delta=
{
<enil>() -> q_gen_1038
<a>() -> q_gen_1039
<a, enil, econs>(q_gen_1039, q_gen_1038) -> q_gen_1037
}

Datatype: <elt, elist, elist>
Convolution form: complete
}}}
  ;  leq_elt -> 
{{{
Q={q_gen_1035},
Q_f={q_gen_1035},
Delta=
{
<a, b>() -> q_gen_1035
<b, b>() -> q_gen_1035
}

Datatype: <elt, elt>
Convolution form: complete
}}}

}
--
Equality automata are defined for: {eq_elist, eq_elt, eq_nat}
_|

Teacher's answer:
New clause system:
{
() -> delete_one_elt([h, econs(h, t), t]) -> 0  ;  () -> delete_one_elt([x, enil, enil]) -> 3  ;  () -> insert_elt([x, enil, econs(x, enil)]) -> 3  ;  () -> leq_elt([a, e2]) -> 3  ;  () -> leq_elt([b, b]) -> 3  ;  (delete_one_elt([e, _ap, _bp]) /\ insert_elt([e, l, _ap])) -> eq_elist([_bp, l]) -> 1  ;  (delete_one_elt([x, t, _vo]) /\ not eq_elt([x, h])) -> delete_one_elt([x, econs(h, t), econs(h, _vo)]) -> 1  ;  (insert_elt([x, z, _qo]) /\ not leq_elt([x, y])) -> insert_elt([x, econs(y, z), econs(y, _qo)]) -> 1  ;  (leq_elt([x, y])) -> insert_elt([x, econs(y, z), econs(x, econs(y, z))]) -> 1  ;  (leq_elt([b, a])) -> BOT -> 1
}
Sat witness: Yes: (() -> delete_one_elt([x, enil, enil]), {
x -> b
})

-------------------------------------------
Step 4, which took 0.007178 s (model generation: 0.006856,  model checking: 0.000322):

Model:
|_
{
delete_one_elt -> 
{{{
Q={q_gen_1040},
Q_f={q_gen_1040},
Delta=
{
<b, enil, enil>() -> q_gen_1040
}

Datatype: <elt, elist, elist>
Convolution form: complete
}}}
  ;  insert_elt -> 
{{{
Q={q_gen_1037, q_gen_1038, q_gen_1039},
Q_f={q_gen_1037},
Delta=
{
<enil>() -> q_gen_1038
<a>() -> q_gen_1039
<a, enil, econs>(q_gen_1039, q_gen_1038) -> q_gen_1037
}

Datatype: <elt, elist, elist>
Convolution form: complete
}}}
  ;  leq_elt -> 
{{{
Q={q_gen_1035},
Q_f={q_gen_1035},
Delta=
{
<a, b>() -> q_gen_1035
<b, b>() -> q_gen_1035
}

Datatype: <elt, elt>
Convolution form: complete
}}}

}
--
Equality automata are defined for: {eq_elist, eq_elt, eq_nat}
_|

Teacher's answer:
New clause system:
{
() -> delete_one_elt([h, econs(h, t), t]) -> 3  ;  () -> delete_one_elt([x, enil, enil]) -> 3  ;  () -> insert_elt([x, enil, econs(x, enil)]) -> 3  ;  () -> leq_elt([a, e2]) -> 3  ;  () -> leq_elt([b, b]) -> 3  ;  (delete_one_elt([e, _ap, _bp]) /\ insert_elt([e, l, _ap])) -> eq_elist([_bp, l]) -> 1  ;  (delete_one_elt([x, t, _vo]) /\ not eq_elt([x, h])) -> delete_one_elt([x, econs(h, t), econs(h, _vo)]) -> 1  ;  (insert_elt([x, z, _qo]) /\ not leq_elt([x, y])) -> insert_elt([x, econs(y, z), econs(y, _qo)]) -> 1  ;  (leq_elt([x, y])) -> insert_elt([x, econs(y, z), econs(x, econs(y, z))]) -> 1  ;  (leq_elt([b, a])) -> BOT -> 1
}
Sat witness: Yes: (() -> delete_one_elt([h, econs(h, t), t]), {
h -> a  ;  t -> enil
})

-------------------------------------------
Step 5, which took 0.010358 s (model generation: 0.009009,  model checking: 0.001349):

Model:
|_
{
delete_one_elt -> 
{{{
Q={q_gen_1040, q_gen_1042, q_gen_1043},
Q_f={q_gen_1040},
Delta=
{
<enil>() -> q_gen_1042
<a>() -> q_gen_1043
<a, econs, enil>(q_gen_1043, q_gen_1042) -> q_gen_1040
<b, enil, enil>() -> q_gen_1040
}

Datatype: <elt, elist, elist>
Convolution form: complete
}}}
  ;  insert_elt -> 
{{{
Q={q_gen_1037, q_gen_1038, q_gen_1039},
Q_f={q_gen_1037},
Delta=
{
<enil>() -> q_gen_1038
<a>() -> q_gen_1039
<a, enil, econs>(q_gen_1039, q_gen_1038) -> q_gen_1037
}

Datatype: <elt, elist, elist>
Convolution form: complete
}}}
  ;  leq_elt -> 
{{{
Q={q_gen_1035},
Q_f={q_gen_1035},
Delta=
{
<a, b>() -> q_gen_1035
<b, b>() -> q_gen_1035
}

Datatype: <elt, elt>
Convolution form: complete
}}}

}
--
Equality automata are defined for: {eq_elist, eq_elt, eq_nat}
_|

Teacher's answer:
New clause system:
{
() -> delete_one_elt([h, econs(h, t), t]) -> 3  ;  () -> delete_one_elt([x, enil, enil]) -> 3  ;  () -> insert_elt([x, enil, econs(x, enil)]) -> 3  ;  () -> leq_elt([a, e2]) -> 3  ;  () -> leq_elt([b, b]) -> 3  ;  (delete_one_elt([e, _ap, _bp]) /\ insert_elt([e, l, _ap])) -> eq_elist([_bp, l]) -> 1  ;  (delete_one_elt([x, t, _vo]) /\ not eq_elt([x, h])) -> delete_one_elt([x, econs(h, t), econs(h, _vo)]) -> 1  ;  (insert_elt([x, z, _qo]) /\ not leq_elt([x, y])) -> insert_elt([x, econs(y, z), econs(y, _qo)]) -> 1  ;  (leq_elt([x, y])) -> insert_elt([x, econs(y, z), econs(x, econs(y, z))]) -> 4  ;  (leq_elt([b, a])) -> BOT -> 2
}
Sat witness: Yes: ((leq_elt([x, y])) -> insert_elt([x, econs(y, z), econs(x, econs(y, z))]), {
x -> b  ;  y -> b  ;  z -> enil
})

-------------------------------------------
Step 6, which took 0.011169 s (model generation: 0.009194,  model checking: 0.001975):

Model:
|_
{
delete_one_elt -> 
{{{
Q={q_gen_1040, q_gen_1042, q_gen_1043},
Q_f={q_gen_1040},
Delta=
{
<enil>() -> q_gen_1042
<a>() -> q_gen_1043
<a, econs, enil>(q_gen_1043, q_gen_1042) -> q_gen_1040
<b, enil, enil>() -> q_gen_1040
}

Datatype: <elt, elist, elist>
Convolution form: complete
}}}
  ;  insert_elt -> 
{{{
Q={q_gen_1037, q_gen_1038, q_gen_1039, q_gen_1045, q_gen_1047, q_gen_1048, q_gen_1049},
Q_f={q_gen_1037},
Delta=
{
<enil>() -> q_gen_1038
<a>() -> q_gen_1039
<b>() -> q_gen_1039
<enil, econs>(q_gen_1039, q_gen_1038) -> q_gen_1045
<enil, b>() -> q_gen_1047
<b, econs>(q_gen_1039, q_gen_1038) -> q_gen_1048
<b, b>() -> q_gen_1049
<a, enil, econs>(q_gen_1039, q_gen_1038) -> q_gen_1037
<b, econs, econs>(q_gen_1049, q_gen_1048, q_gen_1047, q_gen_1045) -> q_gen_1037
}

Datatype: <elt, elist, elist>
Convolution form: complete
}}}
  ;  leq_elt -> 
{{{
Q={q_gen_1035},
Q_f={q_gen_1035},
Delta=
{
<a, b>() -> q_gen_1035
<b, b>() -> q_gen_1035
}

Datatype: <elt, elt>
Convolution form: complete
}}}

}
--
Equality automata are defined for: {eq_elist, eq_elt, eq_nat}
_|

Teacher's answer:
New clause system:
{
() -> delete_one_elt([h, econs(h, t), t]) -> 3  ;  () -> delete_one_elt([x, enil, enil]) -> 3  ;  () -> insert_elt([x, enil, econs(x, enil)]) -> 3  ;  () -> leq_elt([a, e2]) -> 3  ;  () -> leq_elt([b, b]) -> 3  ;  (delete_one_elt([e, _ap, _bp]) /\ insert_elt([e, l, _ap])) -> eq_elist([_bp, l]) -> 1  ;  (delete_one_elt([x, t, _vo]) /\ not eq_elt([x, h])) -> delete_one_elt([x, econs(h, t), econs(h, _vo)]) -> 1  ;  (insert_elt([x, z, _qo]) /\ not leq_elt([x, y])) -> insert_elt([x, econs(y, z), econs(y, _qo)]) -> 4  ;  (leq_elt([x, y])) -> insert_elt([x, econs(y, z), econs(x, econs(y, z))]) -> 4  ;  (leq_elt([b, a])) -> BOT -> 2
}
Sat witness: Yes: ((insert_elt([x, z, _qo]) /\ not leq_elt([x, y])) -> insert_elt([x, econs(y, z), econs(y, _qo)]), {
_qo -> econs(a, enil)  ;  x -> a  ;  y -> a  ;  z -> enil
})

-------------------------------------------
Step 7, which took 0.007608 s (model generation: 0.007384,  model checking: 0.000224):

Model:
|_
{
delete_one_elt -> 
{{{
Q={q_gen_1040, q_gen_1042, q_gen_1043},
Q_f={q_gen_1040},
Delta=
{
<enil>() -> q_gen_1042
<a>() -> q_gen_1043
<a, econs, enil>(q_gen_1043, q_gen_1042) -> q_gen_1040
<b, enil, enil>() -> q_gen_1040
}

Datatype: <elt, elist, elist>
Convolution form: complete
}}}
  ;  insert_elt -> 
{{{
Q={q_gen_1037, q_gen_1038, q_gen_1039, q_gen_1045, q_gen_1047, q_gen_1048, q_gen_1049},
Q_f={q_gen_1037},
Delta=
{
<enil>() -> q_gen_1038
<a>() -> q_gen_1039
<b>() -> q_gen_1039
<enil, econs>(q_gen_1039, q_gen_1038) -> q_gen_1045
<enil, a>() -> q_gen_1047
<enil, b>() -> q_gen_1047
<a, econs>(q_gen_1039, q_gen_1038) -> q_gen_1048
<b, econs>(q_gen_1039, q_gen_1038) -> q_gen_1048
<a, a>() -> q_gen_1049
<b, b>() -> q_gen_1049
<a, econs, econs>(q_gen_1049, q_gen_1048, q_gen_1047, q_gen_1045) -> q_gen_1037
<a, enil, econs>(q_gen_1039, q_gen_1038) -> q_gen_1037
<b, econs, econs>(q_gen_1049, q_gen_1048, q_gen_1047, q_gen_1045) -> q_gen_1037
}

Datatype: <elt, elist, elist>
Convolution form: complete
}}}
  ;  leq_elt -> 
{{{
Q={q_gen_1035},
Q_f={q_gen_1035},
Delta=
{
<a, a>() -> q_gen_1035
<a, b>() -> q_gen_1035
<b, b>() -> q_gen_1035
}

Datatype: <elt, elt>
Convolution form: complete
}}}

}
--
Equality automata are defined for: {eq_elist, eq_elt, eq_nat}
_|

Teacher's answer:
New clause system:
{
() -> delete_one_elt([h, econs(h, t), t]) -> 3  ;  () -> delete_one_elt([x, enil, enil]) -> 3  ;  () -> insert_elt([x, enil, econs(x, enil)]) -> 3  ;  () -> leq_elt([a, e2]) -> 3  ;  () -> leq_elt([b, b]) -> 3  ;  (delete_one_elt([e, _ap, _bp]) /\ insert_elt([e, l, _ap])) -> eq_elist([_bp, l]) -> 1  ;  (delete_one_elt([x, t, _vo]) /\ not eq_elt([x, h])) -> delete_one_elt([x, econs(h, t), econs(h, _vo)]) -> 4  ;  (insert_elt([x, z, _qo]) /\ not leq_elt([x, y])) -> insert_elt([x, econs(y, z), econs(y, _qo)]) -> 4  ;  (leq_elt([x, y])) -> insert_elt([x, econs(y, z), econs(x, econs(y, z))]) -> 4  ;  (leq_elt([b, a])) -> BOT -> 2
}
Sat witness: Yes: ((delete_one_elt([x, t, _vo]) /\ not eq_elt([x, h])) -> delete_one_elt([x, econs(h, t), econs(h, _vo)]), {
_vo -> enil  ;  h -> a  ;  t -> enil  ;  x -> b
})

-------------------------------------------
Step 8, which took 0.007814 s (model generation: 0.005823,  model checking: 0.001991):

Model:
|_
{
delete_one_elt -> 
{{{
Q={q_gen_1040, q_gen_1042, q_gen_1043, q_gen_1057, q_gen_1058, q_gen_1059, q_gen_1060},
Q_f={q_gen_1040},
Delta=
{
<enil>() -> q_gen_1042
<a>() -> q_gen_1043
<enil, enil>() -> q_gen_1057
<enil, a>() -> q_gen_1058
<a, enil>() -> q_gen_1059
<a, a>() -> q_gen_1060
<a, econs, enil>(q_gen_1043, q_gen_1042) -> q_gen_1040
<b, econs, econs>(q_gen_1060, q_gen_1059, q_gen_1058, q_gen_1057) -> q_gen_1040
<b, enil, enil>() -> q_gen_1040
}

Datatype: <elt, elist, elist>
Convolution form: complete
}}}
  ;  insert_elt -> 
{{{
Q={q_gen_1037, q_gen_1038, q_gen_1039, q_gen_1045, q_gen_1047, q_gen_1048, q_gen_1049},
Q_f={q_gen_1037},
Delta=
{
<enil>() -> q_gen_1038
<a>() -> q_gen_1039
<b>() -> q_gen_1039
<enil, econs>(q_gen_1039, q_gen_1038) -> q_gen_1045
<enil, a>() -> q_gen_1047
<enil, b>() -> q_gen_1047
<a, econs>(q_gen_1039, q_gen_1038) -> q_gen_1048
<b, econs>(q_gen_1039, q_gen_1038) -> q_gen_1048
<a, a>() -> q_gen_1049
<b, b>() -> q_gen_1049
<a, econs, econs>(q_gen_1049, q_gen_1048, q_gen_1047, q_gen_1045) -> q_gen_1037
<a, enil, econs>(q_gen_1039, q_gen_1038) -> q_gen_1037
<b, econs, econs>(q_gen_1049, q_gen_1048, q_gen_1047, q_gen_1045) -> q_gen_1037
}

Datatype: <elt, elist, elist>
Convolution form: complete
}}}
  ;  leq_elt -> 
{{{
Q={q_gen_1035},
Q_f={q_gen_1035},
Delta=
{
<a, a>() -> q_gen_1035
<a, b>() -> q_gen_1035
<b, b>() -> q_gen_1035
}

Datatype: <elt, elt>
Convolution form: complete
}}}

}
--
Equality automata are defined for: {eq_elist, eq_elt, eq_nat}
_|

Teacher's answer:
New clause system:
{
() -> delete_one_elt([h, econs(h, t), t]) -> 3  ;  () -> delete_one_elt([x, enil, enil]) -> 3  ;  () -> insert_elt([x, enil, econs(x, enil)]) -> 6  ;  () -> leq_elt([a, e2]) -> 4  ;  () -> leq_elt([b, b]) -> 4  ;  (delete_one_elt([e, _ap, _bp]) /\ insert_elt([e, l, _ap])) -> eq_elist([_bp, l]) -> 2  ;  (delete_one_elt([x, t, _vo]) /\ not eq_elt([x, h])) -> delete_one_elt([x, econs(h, t), econs(h, _vo)]) -> 4  ;  (insert_elt([x, z, _qo]) /\ not leq_elt([x, y])) -> insert_elt([x, econs(y, z), econs(y, _qo)]) -> 4  ;  (leq_elt([x, y])) -> insert_elt([x, econs(y, z), econs(x, econs(y, z))]) -> 4  ;  (leq_elt([b, a])) -> BOT -> 3
}
Sat witness: Yes: (() -> insert_elt([x, enil, econs(x, enil)]), {
x -> b
})

-------------------------------------------
Step 9, which took 0.010037 s (model generation: 0.009887,  model checking: 0.000150):

Model:
|_
{
delete_one_elt -> 
{{{
Q={q_gen_1040, q_gen_1042, q_gen_1043, q_gen_1057, q_gen_1058, q_gen_1059, q_gen_1060},
Q_f={q_gen_1040},
Delta=
{
<enil>() -> q_gen_1042
<a>() -> q_gen_1043
<enil, enil>() -> q_gen_1057
<enil, a>() -> q_gen_1058
<a, enil>() -> q_gen_1059
<a, a>() -> q_gen_1060
<a, econs, enil>(q_gen_1043, q_gen_1042) -> q_gen_1040
<b, econs, econs>(q_gen_1060, q_gen_1059, q_gen_1058, q_gen_1057) -> q_gen_1040
<b, enil, enil>() -> q_gen_1040
}

Datatype: <elt, elist, elist>
Convolution form: complete
}}}
  ;  insert_elt -> 
{{{
Q={q_gen_1037, q_gen_1038, q_gen_1039, q_gen_1045, q_gen_1047, q_gen_1048, q_gen_1049},
Q_f={q_gen_1037},
Delta=
{
<enil>() -> q_gen_1038
<a>() -> q_gen_1039
<b>() -> q_gen_1039
<enil, econs>(q_gen_1039, q_gen_1038) -> q_gen_1045
<enil, a>() -> q_gen_1047
<enil, b>() -> q_gen_1047
<a, econs>(q_gen_1039, q_gen_1038) -> q_gen_1048
<b, econs>(q_gen_1039, q_gen_1038) -> q_gen_1048
<a, a>() -> q_gen_1049
<b, b>() -> q_gen_1049
<a, econs, econs>(q_gen_1049, q_gen_1048, q_gen_1047, q_gen_1045) -> q_gen_1037
<a, enil, econs>(q_gen_1039, q_gen_1038) -> q_gen_1037
<b, econs, econs>(q_gen_1049, q_gen_1048, q_gen_1047, q_gen_1045) -> q_gen_1037
<b, enil, econs>(q_gen_1039, q_gen_1038) -> q_gen_1037
}

Datatype: <elt, elist, elist>
Convolution form: complete
}}}
  ;  leq_elt -> 
{{{
Q={q_gen_1035},
Q_f={q_gen_1035},
Delta=
{
<a, a>() -> q_gen_1035
<a, b>() -> q_gen_1035
<b, b>() -> q_gen_1035
}

Datatype: <elt, elt>
Convolution form: complete
}}}

}
--
Equality automata are defined for: {eq_elist, eq_elt, eq_nat}
_|

Teacher's answer:
New clause system:
{
() -> delete_one_elt([h, econs(h, t), t]) -> 3  ;  () -> delete_one_elt([x, enil, enil]) -> 3  ;  () -> insert_elt([x, enil, econs(x, enil)]) -> 6  ;  () -> leq_elt([a, e2]) -> 4  ;  () -> leq_elt([b, b]) -> 4  ;  (delete_one_elt([e, _ap, _bp]) /\ insert_elt([e, l, _ap])) -> eq_elist([_bp, l]) -> 5  ;  (delete_one_elt([x, t, _vo]) /\ not eq_elt([x, h])) -> delete_one_elt([x, econs(h, t), econs(h, _vo)]) -> 4  ;  (insert_elt([x, z, _qo]) /\ not leq_elt([x, y])) -> insert_elt([x, econs(y, z), econs(y, _qo)]) -> 4  ;  (leq_elt([x, y])) -> insert_elt([x, econs(y, z), econs(x, econs(y, z))]) -> 4  ;  (leq_elt([b, a])) -> BOT -> 3
}
Sat witness: Yes: ((delete_one_elt([e, _ap, _bp]) /\ insert_elt([e, l, _ap])) -> eq_elist([_bp, l]), {
_ap -> econs(a, enil)  ;  _bp -> econs(a, enil)  ;  e -> b  ;  l -> enil
})

-------------------------------------------
Step 10, which took 0.006844 s (model generation: 0.005682,  model checking: 0.001162):

Model:
|_
{
delete_one_elt -> 
{{{
Q={q_gen_1040, q_gen_1042, q_gen_1043, q_gen_1057, q_gen_1058, q_gen_1059, q_gen_1060},
Q_f={q_gen_1040},
Delta=
{
<enil>() -> q_gen_1042
<a>() -> q_gen_1043
<enil, enil>() -> q_gen_1057
<enil, a>() -> q_gen_1058
<a, enil>() -> q_gen_1059
<a, a>() -> q_gen_1060
<a, econs, enil>(q_gen_1043, q_gen_1042) -> q_gen_1040
<b, econs, econs>(q_gen_1060, q_gen_1059, q_gen_1058, q_gen_1057) -> q_gen_1040
<b, enil, enil>() -> q_gen_1040
}

Datatype: <elt, elist, elist>
Convolution form: complete
}}}
  ;  insert_elt -> 
{{{
Q={q_gen_1037, q_gen_1038, q_gen_1039, q_gen_1045, q_gen_1046, q_gen_1047, q_gen_1048, q_gen_1049, q_gen_1062},
Q_f={q_gen_1037},
Delta=
{
<enil>() -> q_gen_1038
<a>() -> q_gen_1039
<b>() -> q_gen_1046
<enil, econs>(q_gen_1039, q_gen_1038) -> q_gen_1045
<enil, econs>(q_gen_1046, q_gen_1038) -> q_gen_1045
<enil, a>() -> q_gen_1047
<enil, b>() -> q_gen_1047
<a, econs>(q_gen_1039, q_gen_1038) -> q_gen_1048
<b, econs>(q_gen_1046, q_gen_1038) -> q_gen_1048
<a, a>() -> q_gen_1049
<b, b>() -> q_gen_1049
<a, econs, econs>(q_gen_1049, q_gen_1048, q_gen_1047, q_gen_1045) -> q_gen_1037
<a, enil, econs>(q_gen_1039, q_gen_1038) -> q_gen_1037
<b, econs, econs>(q_gen_1049, q_gen_1048, q_gen_1047, q_gen_1045) -> q_gen_1037
<b, enil, econs>(q_gen_1046, q_gen_1038) -> q_gen_1037
<b, enil, econs>(q_gen_1039, q_gen_1038) -> q_gen_1062
}

Datatype: <elt, elist, elist>
Convolution form: complete
}}}
  ;  leq_elt -> 
{{{
Q={q_gen_1035},
Q_f={q_gen_1035},
Delta=
{
<a, a>() -> q_gen_1035
<a, b>() -> q_gen_1035
<b, b>() -> q_gen_1035
}

Datatype: <elt, elt>
Convolution form: complete
}}}

}
--
Equality automata are defined for: {eq_elist, eq_elt, eq_nat}
_|

Teacher's answer:
New clause system:
{
() -> delete_one_elt([h, econs(h, t), t]) -> 3  ;  () -> delete_one_elt([x, enil, enil]) -> 6  ;  () -> insert_elt([x, enil, econs(x, enil)]) -> 6  ;  () -> leq_elt([a, e2]) -> 4  ;  () -> leq_elt([b, b]) -> 4  ;  (delete_one_elt([e, _ap, _bp]) /\ insert_elt([e, l, _ap])) -> eq_elist([_bp, l]) -> 5  ;  (delete_one_elt([x, t, _vo]) /\ not eq_elt([x, h])) -> delete_one_elt([x, econs(h, t), econs(h, _vo)]) -> 4  ;  (insert_elt([x, z, _qo]) /\ not leq_elt([x, y])) -> insert_elt([x, econs(y, z), econs(y, _qo)]) -> 4  ;  (leq_elt([x, y])) -> insert_elt([x, econs(y, z), econs(x, econs(y, z))]) -> 4  ;  (leq_elt([b, a])) -> BOT -> 4
}
Sat witness: Yes: (() -> delete_one_elt([x, enil, enil]), {
x -> a
})

-------------------------------------------
Step 11, which took 0.013528 s (model generation: 0.012240,  model checking: 0.001288):

Model:
|_
{
delete_one_elt -> 
{{{
Q={q_gen_1040, q_gen_1042, q_gen_1043, q_gen_1057, q_gen_1058, q_gen_1059, q_gen_1060},
Q_f={q_gen_1040},
Delta=
{
<enil>() -> q_gen_1042
<a>() -> q_gen_1043
<enil, enil>() -> q_gen_1057
<enil, a>() -> q_gen_1058
<a, enil>() -> q_gen_1059
<a, a>() -> q_gen_1060
<a, econs, enil>(q_gen_1043, q_gen_1042) -> q_gen_1040
<a, enil, enil>() -> q_gen_1040
<b, econs, econs>(q_gen_1060, q_gen_1059, q_gen_1058, q_gen_1057) -> q_gen_1040
<b, enil, enil>() -> q_gen_1040
}

Datatype: <elt, elist, elist>
Convolution form: complete
}}}
  ;  insert_elt -> 
{{{
Q={q_gen_1037, q_gen_1038, q_gen_1039, q_gen_1045, q_gen_1046, q_gen_1047, q_gen_1048, q_gen_1049, q_gen_1062},
Q_f={q_gen_1037},
Delta=
{
<enil>() -> q_gen_1038
<a>() -> q_gen_1039
<b>() -> q_gen_1046
<enil, econs>(q_gen_1039, q_gen_1038) -> q_gen_1045
<enil, econs>(q_gen_1046, q_gen_1038) -> q_gen_1045
<enil, a>() -> q_gen_1047
<enil, b>() -> q_gen_1047
<a, econs>(q_gen_1039, q_gen_1038) -> q_gen_1048
<b, econs>(q_gen_1046, q_gen_1038) -> q_gen_1048
<a, a>() -> q_gen_1049
<b, b>() -> q_gen_1049
<a, econs, econs>(q_gen_1049, q_gen_1048, q_gen_1047, q_gen_1045) -> q_gen_1037
<a, enil, econs>(q_gen_1039, q_gen_1038) -> q_gen_1037
<b, econs, econs>(q_gen_1049, q_gen_1048, q_gen_1047, q_gen_1045) -> q_gen_1037
<b, enil, econs>(q_gen_1046, q_gen_1038) -> q_gen_1037
<b, enil, econs>(q_gen_1039, q_gen_1038) -> q_gen_1062
}

Datatype: <elt, elist, elist>
Convolution form: complete
}}}
  ;  leq_elt -> 
{{{
Q={q_gen_1035},
Q_f={q_gen_1035},
Delta=
{
<a, a>() -> q_gen_1035
<a, b>() -> q_gen_1035
<b, b>() -> q_gen_1035
}

Datatype: <elt, elt>
Convolution form: complete
}}}

}
--
Equality automata are defined for: {eq_elist, eq_elt, eq_nat}
_|

Teacher's answer:
New clause system:
{
() -> delete_one_elt([h, econs(h, t), t]) -> 6  ;  () -> delete_one_elt([x, enil, enil]) -> 6  ;  () -> insert_elt([x, enil, econs(x, enil)]) -> 6  ;  () -> leq_elt([a, e2]) -> 4  ;  () -> leq_elt([b, b]) -> 4  ;  (delete_one_elt([e, _ap, _bp]) /\ insert_elt([e, l, _ap])) -> eq_elist([_bp, l]) -> 5  ;  (delete_one_elt([x, t, _vo]) /\ not eq_elt([x, h])) -> delete_one_elt([x, econs(h, t), econs(h, _vo)]) -> 4  ;  (insert_elt([x, z, _qo]) /\ not leq_elt([x, y])) -> insert_elt([x, econs(y, z), econs(y, _qo)]) -> 4  ;  (leq_elt([x, y])) -> insert_elt([x, econs(y, z), econs(x, econs(y, z))]) -> 4  ;  (leq_elt([b, a])) -> BOT -> 4
}
Sat witness: Yes: (() -> delete_one_elt([h, econs(h, t), t]), {
h -> b  ;  t -> enil
})

-------------------------------------------
Step 12, which took 0.032752 s (model generation: 0.011579,  model checking: 0.021173):

Model:
|_
{
delete_one_elt -> 
{{{
Q={q_gen_1040, q_gen_1042, q_gen_1043, q_gen_1057, q_gen_1058, q_gen_1059, q_gen_1060},
Q_f={q_gen_1040},
Delta=
{
<enil>() -> q_gen_1042
<a>() -> q_gen_1043
<b>() -> q_gen_1043
<enil, enil>() -> q_gen_1057
<enil, a>() -> q_gen_1058
<a, enil>() -> q_gen_1059
<a, a>() -> q_gen_1060
<a, econs, enil>(q_gen_1043, q_gen_1042) -> q_gen_1040
<a, enil, enil>() -> q_gen_1040
<b, econs, econs>(q_gen_1060, q_gen_1059, q_gen_1058, q_gen_1057) -> q_gen_1040
<b, econs, enil>(q_gen_1043, q_gen_1042) -> q_gen_1040
<b, enil, enil>() -> q_gen_1040
}

Datatype: <elt, elist, elist>
Convolution form: complete
}}}
  ;  insert_elt -> 
{{{
Q={q_gen_1037, q_gen_1038, q_gen_1039, q_gen_1045, q_gen_1046, q_gen_1047, q_gen_1048, q_gen_1049, q_gen_1062},
Q_f={q_gen_1037},
Delta=
{
<enil>() -> q_gen_1038
<a>() -> q_gen_1039
<b>() -> q_gen_1046
<enil, econs>(q_gen_1039, q_gen_1038) -> q_gen_1045
<enil, econs>(q_gen_1046, q_gen_1038) -> q_gen_1045
<enil, a>() -> q_gen_1047
<enil, b>() -> q_gen_1047
<a, econs>(q_gen_1039, q_gen_1038) -> q_gen_1048
<b, econs>(q_gen_1046, q_gen_1038) -> q_gen_1048
<a, a>() -> q_gen_1049
<b, b>() -> q_gen_1049
<a, econs, econs>(q_gen_1049, q_gen_1048, q_gen_1047, q_gen_1045) -> q_gen_1037
<a, enil, econs>(q_gen_1039, q_gen_1038) -> q_gen_1037
<b, econs, econs>(q_gen_1049, q_gen_1048, q_gen_1047, q_gen_1045) -> q_gen_1037
<b, enil, econs>(q_gen_1046, q_gen_1038) -> q_gen_1037
<b, enil, econs>(q_gen_1039, q_gen_1038) -> q_gen_1062
}

Datatype: <elt, elist, elist>
Convolution form: complete
}}}
  ;  leq_elt -> 
{{{
Q={q_gen_1035},
Q_f={q_gen_1035},
Delta=
{
<a, a>() -> q_gen_1035
<a, b>() -> q_gen_1035
<b, b>() -> q_gen_1035
}

Datatype: <elt, elt>
Convolution form: complete
}}}

}
--
Equality automata are defined for: {eq_elist, eq_elt, eq_nat}
_|

Teacher's answer:
New clause system:
{
() -> delete_one_elt([h, econs(h, t), t]) -> 6  ;  () -> delete_one_elt([x, enil, enil]) -> 6  ;  () -> insert_elt([x, enil, econs(x, enil)]) -> 6  ;  () -> leq_elt([a, e2]) -> 4  ;  () -> leq_elt([b, b]) -> 4  ;  (delete_one_elt([e, _ap, _bp]) /\ insert_elt([e, l, _ap])) -> eq_elist([_bp, l]) -> 5  ;  (delete_one_elt([x, t, _vo]) /\ not eq_elt([x, h])) -> delete_one_elt([x, econs(h, t), econs(h, _vo)]) -> 4  ;  (insert_elt([x, z, _qo]) /\ not leq_elt([x, y])) -> insert_elt([x, econs(y, z), econs(y, _qo)]) -> 4  ;  (leq_elt([x, y])) -> insert_elt([x, econs(y, z), econs(x, econs(y, z))]) -> 7  ;  (leq_elt([b, a])) -> BOT -> 5
}
Sat witness: Yes: ((leq_elt([x, y])) -> insert_elt([x, econs(y, z), econs(x, econs(y, z))]), {
x -> a  ;  y -> b  ;  z -> enil
})

-------------------------------------------
Step 13, which took 0.006360 s (model generation: 0.005378,  model checking: 0.000982):

Model:
|_
{
delete_one_elt -> 
{{{
Q={q_gen_1040, q_gen_1042, q_gen_1043, q_gen_1057, q_gen_1058, q_gen_1059, q_gen_1060},
Q_f={q_gen_1040},
Delta=
{
<enil>() -> q_gen_1042
<a>() -> q_gen_1043
<b>() -> q_gen_1043
<enil, enil>() -> q_gen_1057
<enil, a>() -> q_gen_1058
<a, enil>() -> q_gen_1059
<a, a>() -> q_gen_1060
<a, econs, enil>(q_gen_1043, q_gen_1042) -> q_gen_1040
<a, enil, enil>() -> q_gen_1040
<b, econs, econs>(q_gen_1060, q_gen_1059, q_gen_1058, q_gen_1057) -> q_gen_1040
<b, econs, enil>(q_gen_1043, q_gen_1042) -> q_gen_1040
<b, enil, enil>() -> q_gen_1040
}

Datatype: <elt, elist, elist>
Convolution form: complete
}}}
  ;  insert_elt -> 
{{{
Q={q_gen_1037, q_gen_1038, q_gen_1039, q_gen_1045, q_gen_1046, q_gen_1047, q_gen_1048, q_gen_1049, q_gen_1062},
Q_f={q_gen_1037},
Delta=
{
<enil>() -> q_gen_1038
<a>() -> q_gen_1039
<b>() -> q_gen_1046
<enil, econs>(q_gen_1039, q_gen_1038) -> q_gen_1045
<enil, econs>(q_gen_1046, q_gen_1038) -> q_gen_1045
<enil, a>() -> q_gen_1047
<enil, b>() -> q_gen_1047
<a, econs>(q_gen_1039, q_gen_1038) -> q_gen_1048
<b, econs>(q_gen_1046, q_gen_1038) -> q_gen_1048
<a, a>() -> q_gen_1049
<b, a>() -> q_gen_1049
<b, b>() -> q_gen_1049
<a, econs, econs>(q_gen_1049, q_gen_1048, q_gen_1047, q_gen_1045) -> q_gen_1037
<a, enil, econs>(q_gen_1039, q_gen_1038) -> q_gen_1037
<b, econs, econs>(q_gen_1049, q_gen_1048, q_gen_1047, q_gen_1045) -> q_gen_1037
<b, enil, econs>(q_gen_1046, q_gen_1038) -> q_gen_1037
<b, enil, econs>(q_gen_1039, q_gen_1038) -> q_gen_1062
}

Datatype: <elt, elist, elist>
Convolution form: complete
}}}
  ;  leq_elt -> 
{{{
Q={q_gen_1035},
Q_f={q_gen_1035},
Delta=
{
<a, a>() -> q_gen_1035
<a, b>() -> q_gen_1035
<b, b>() -> q_gen_1035
}

Datatype: <elt, elt>
Convolution form: complete
}}}

}
--
Equality automata are defined for: {eq_elist, eq_elt, eq_nat}
_|

Teacher's answer:
New clause system:
{
() -> delete_one_elt([h, econs(h, t), t]) -> 6  ;  () -> delete_one_elt([x, enil, enil]) -> 6  ;  () -> insert_elt([x, enil, econs(x, enil)]) -> 6  ;  () -> leq_elt([a, e2]) -> 4  ;  () -> leq_elt([b, b]) -> 4  ;  (delete_one_elt([e, _ap, _bp]) /\ insert_elt([e, l, _ap])) -> eq_elist([_bp, l]) -> 5  ;  (delete_one_elt([x, t, _vo]) /\ not eq_elt([x, h])) -> delete_one_elt([x, econs(h, t), econs(h, _vo)]) -> 4  ;  (insert_elt([x, z, _qo]) /\ not leq_elt([x, y])) -> insert_elt([x, econs(y, z), econs(y, _qo)]) -> 7  ;  (leq_elt([x, y])) -> insert_elt([x, econs(y, z), econs(x, econs(y, z))]) -> 7  ;  (leq_elt([b, a])) -> BOT -> 5
}
Sat witness: Yes: ((insert_elt([x, z, _qo]) /\ not leq_elt([x, y])) -> insert_elt([x, econs(y, z), econs(y, _qo)]), {
_qo -> econs(b, enil)  ;  x -> b  ;  y -> a  ;  z -> enil
})

-------------------------------------------
Step 14, which took 0.011399 s (model generation: 0.008004,  model checking: 0.003395):

Model:
|_
{
delete_one_elt -> 
{{{
Q={q_gen_1040, q_gen_1042, q_gen_1043, q_gen_1057, q_gen_1058, q_gen_1059, q_gen_1060},
Q_f={q_gen_1040},
Delta=
{
<enil>() -> q_gen_1042
<a>() -> q_gen_1043
<b>() -> q_gen_1043
<enil, enil>() -> q_gen_1057
<enil, a>() -> q_gen_1058
<a, enil>() -> q_gen_1059
<a, a>() -> q_gen_1060
<a, econs, enil>(q_gen_1043, q_gen_1042) -> q_gen_1040
<a, enil, enil>() -> q_gen_1040
<b, econs, econs>(q_gen_1060, q_gen_1059, q_gen_1058, q_gen_1057) -> q_gen_1040
<b, econs, enil>(q_gen_1043, q_gen_1042) -> q_gen_1040
<b, enil, enil>() -> q_gen_1040
}

Datatype: <elt, elist, elist>
Convolution form: complete
}}}
  ;  insert_elt -> 
{{{
Q={q_gen_1037, q_gen_1038, q_gen_1039, q_gen_1045, q_gen_1046, q_gen_1047, q_gen_1048, q_gen_1049, q_gen_1062},
Q_f={q_gen_1037},
Delta=
{
<enil>() -> q_gen_1038
<a>() -> q_gen_1039
<b>() -> q_gen_1046
<enil, econs>(q_gen_1039, q_gen_1038) -> q_gen_1045
<enil, econs>(q_gen_1046, q_gen_1038) -> q_gen_1045
<enil, a>() -> q_gen_1047
<enil, b>() -> q_gen_1047
<a, econs>(q_gen_1039, q_gen_1038) -> q_gen_1048
<a, econs>(q_gen_1046, q_gen_1038) -> q_gen_1048
<b, econs>(q_gen_1046, q_gen_1038) -> q_gen_1048
<a, a>() -> q_gen_1049
<b, a>() -> q_gen_1049
<b, b>() -> q_gen_1049
<a, econs, econs>(q_gen_1049, q_gen_1048, q_gen_1047, q_gen_1045) -> q_gen_1037
<a, enil, econs>(q_gen_1039, q_gen_1038) -> q_gen_1037
<b, econs, econs>(q_gen_1049, q_gen_1048, q_gen_1047, q_gen_1045) -> q_gen_1037
<b, enil, econs>(q_gen_1046, q_gen_1038) -> q_gen_1037
<b, enil, econs>(q_gen_1039, q_gen_1038) -> q_gen_1062
}

Datatype: <elt, elist, elist>
Convolution form: complete
}}}
  ;  leq_elt -> 
{{{
Q={q_gen_1035},
Q_f={q_gen_1035},
Delta=
{
<a, a>() -> q_gen_1035
<a, b>() -> q_gen_1035
<b, a>() -> q_gen_1035
<b, b>() -> q_gen_1035
}

Datatype: <elt, elt>
Convolution form: complete
}}}

}
--
Equality automata are defined for: {eq_elist, eq_elt, eq_nat}
_|

Teacher's answer:
New clause system:
{
() -> delete_one_elt([h, econs(h, t), t]) -> 6  ;  () -> delete_one_elt([x, enil, enil]) -> 6  ;  () -> insert_elt([x, enil, econs(x, enil)]) -> 6  ;  () -> leq_elt([a, e2]) -> 4  ;  () -> leq_elt([b, b]) -> 4  ;  (delete_one_elt([e, _ap, _bp]) /\ insert_elt([e, l, _ap])) -> eq_elist([_bp, l]) -> 5  ;  (delete_one_elt([x, t, _vo]) /\ not eq_elt([x, h])) -> delete_one_elt([x, econs(h, t), econs(h, _vo)]) -> 7  ;  (insert_elt([x, z, _qo]) /\ not leq_elt([x, y])) -> insert_elt([x, econs(y, z), econs(y, _qo)]) -> 7  ;  (leq_elt([x, y])) -> insert_elt([x, econs(y, z), econs(x, econs(y, z))]) -> 7  ;  (leq_elt([b, a])) -> BOT -> 5
}
Sat witness: Yes: ((delete_one_elt([x, t, _vo]) /\ not eq_elt([x, h])) -> delete_one_elt([x, econs(h, t), econs(h, _vo)]), {
_vo -> enil  ;  h -> b  ;  t -> enil  ;  x -> a
})

-------------------------------------------
Step 15, which took 0.012593 s (model generation: 0.012482,  model checking: 0.000111):

Model:
|_
{
delete_one_elt -> 
{{{
Q={q_gen_1040, q_gen_1042, q_gen_1043, q_gen_1057, q_gen_1058, q_gen_1059, q_gen_1060},
Q_f={q_gen_1040},
Delta=
{
<enil>() -> q_gen_1042
<a>() -> q_gen_1043
<b>() -> q_gen_1043
<enil, enil>() -> q_gen_1057
<enil, a>() -> q_gen_1058
<enil, b>() -> q_gen_1058
<a, enil>() -> q_gen_1059
<b, enil>() -> q_gen_1059
<a, a>() -> q_gen_1060
<b, b>() -> q_gen_1060
<a, econs, econs>(q_gen_1060, q_gen_1059, q_gen_1058, q_gen_1057) -> q_gen_1040
<a, econs, enil>(q_gen_1043, q_gen_1042) -> q_gen_1040
<a, enil, enil>() -> q_gen_1040
<b, econs, econs>(q_gen_1060, q_gen_1059, q_gen_1058, q_gen_1057) -> q_gen_1040
<b, econs, enil>(q_gen_1043, q_gen_1042) -> q_gen_1040
<b, enil, enil>() -> q_gen_1040
}

Datatype: <elt, elist, elist>
Convolution form: complete
}}}
  ;  insert_elt -> 
{{{
Q={q_gen_1037, q_gen_1038, q_gen_1039, q_gen_1045, q_gen_1046, q_gen_1047, q_gen_1048, q_gen_1049, q_gen_1062},
Q_f={q_gen_1037},
Delta=
{
<enil>() -> q_gen_1038
<a>() -> q_gen_1039
<b>() -> q_gen_1046
<enil, econs>(q_gen_1039, q_gen_1038) -> q_gen_1045
<enil, econs>(q_gen_1046, q_gen_1038) -> q_gen_1045
<enil, a>() -> q_gen_1047
<enil, b>() -> q_gen_1047
<a, econs>(q_gen_1039, q_gen_1038) -> q_gen_1048
<a, econs>(q_gen_1046, q_gen_1038) -> q_gen_1048
<b, econs>(q_gen_1046, q_gen_1038) -> q_gen_1048
<a, a>() -> q_gen_1049
<b, a>() -> q_gen_1049
<b, b>() -> q_gen_1049
<a, econs, econs>(q_gen_1049, q_gen_1048, q_gen_1047, q_gen_1045) -> q_gen_1037
<a, enil, econs>(q_gen_1039, q_gen_1038) -> q_gen_1037
<b, econs, econs>(q_gen_1049, q_gen_1048, q_gen_1047, q_gen_1045) -> q_gen_1037
<b, enil, econs>(q_gen_1046, q_gen_1038) -> q_gen_1037
<b, enil, econs>(q_gen_1039, q_gen_1038) -> q_gen_1062
}

Datatype: <elt, elist, elist>
Convolution form: complete
}}}
  ;  leq_elt -> 
{{{
Q={q_gen_1035},
Q_f={q_gen_1035},
Delta=
{
<a, a>() -> q_gen_1035
<a, b>() -> q_gen_1035
<b, a>() -> q_gen_1035
<b, b>() -> q_gen_1035
}

Datatype: <elt, elt>
Convolution form: complete
}}}

}
--
Equality automata are defined for: {eq_elist, eq_elt, eq_nat}
_|

Teacher's answer:
New clause system:
{
() -> delete_one_elt([h, econs(h, t), t]) -> 6  ;  () -> delete_one_elt([x, enil, enil]) -> 6  ;  () -> insert_elt([x, enil, econs(x, enil)]) -> 6  ;  () -> leq_elt([a, e2]) -> 5  ;  () -> leq_elt([b, b]) -> 5  ;  (delete_one_elt([e, _ap, _bp]) /\ insert_elt([e, l, _ap])) -> eq_elist([_bp, l]) -> 5  ;  (delete_one_elt([x, t, _vo]) /\ not eq_elt([x, h])) -> delete_one_elt([x, econs(h, t), econs(h, _vo)]) -> 7  ;  (insert_elt([x, z, _qo]) /\ not leq_elt([x, y])) -> insert_elt([x, econs(y, z), econs(y, _qo)]) -> 7  ;  (leq_elt([x, y])) -> insert_elt([x, econs(y, z), econs(x, econs(y, z))]) -> 7  ;  (leq_elt([b, a])) -> BOT -> 8
}
Sat witness: Yes: ((leq_elt([b, a])) -> BOT, {

})

-------------------------------------------
Step 16, which took 0.016466 s (model generation: 0.015548,  model checking: 0.000918):

Model:
|_
{
delete_one_elt -> 
{{{
Q={q_gen_1040, q_gen_1042, q_gen_1043, q_gen_1057, q_gen_1058, q_gen_1059, q_gen_1060},
Q_f={q_gen_1040},
Delta=
{
<enil>() -> q_gen_1042
<a>() -> q_gen_1043
<b>() -> q_gen_1043
<enil, enil>() -> q_gen_1057
<enil, a>() -> q_gen_1058
<enil, b>() -> q_gen_1058
<a, enil>() -> q_gen_1059
<b, enil>() -> q_gen_1059
<a, a>() -> q_gen_1060
<b, b>() -> q_gen_1060
<a, econs, econs>(q_gen_1060, q_gen_1059, q_gen_1058, q_gen_1057) -> q_gen_1040
<a, econs, enil>(q_gen_1043, q_gen_1042) -> q_gen_1040
<a, enil, enil>() -> q_gen_1040
<b, econs, econs>(q_gen_1060, q_gen_1059, q_gen_1058, q_gen_1057) -> q_gen_1040
<b, econs, enil>(q_gen_1043, q_gen_1042) -> q_gen_1040
<b, enil, enil>() -> q_gen_1040
}

Datatype: <elt, elist, elist>
Convolution form: complete
}}}
  ;  insert_elt -> 
{{{
Q={q_gen_1037, q_gen_1038, q_gen_1039, q_gen_1045, q_gen_1046, q_gen_1047, q_gen_1048, q_gen_1049, q_gen_1062},
Q_f={q_gen_1037},
Delta=
{
<enil>() -> q_gen_1038
<a>() -> q_gen_1039
<b>() -> q_gen_1046
<enil, econs>(q_gen_1039, q_gen_1038) -> q_gen_1045
<enil, econs>(q_gen_1046, q_gen_1038) -> q_gen_1045
<enil, a>() -> q_gen_1047
<enil, b>() -> q_gen_1047
<a, econs>(q_gen_1039, q_gen_1038) -> q_gen_1048
<a, econs>(q_gen_1046, q_gen_1038) -> q_gen_1048
<b, econs>(q_gen_1046, q_gen_1038) -> q_gen_1048
<a, a>() -> q_gen_1049
<b, a>() -> q_gen_1049
<b, b>() -> q_gen_1049
<a, econs, econs>(q_gen_1049, q_gen_1048, q_gen_1047, q_gen_1045) -> q_gen_1037
<a, enil, econs>(q_gen_1039, q_gen_1038) -> q_gen_1037
<b, econs, econs>(q_gen_1049, q_gen_1048, q_gen_1047, q_gen_1045) -> q_gen_1037
<b, enil, econs>(q_gen_1046, q_gen_1038) -> q_gen_1037
<b, enil, econs>(q_gen_1039, q_gen_1038) -> q_gen_1062
}

Datatype: <elt, elist, elist>
Convolution form: complete
}}}
  ;  leq_elt -> 
{{{
Q={q_gen_1035, q_gen_1050},
Q_f={q_gen_1035},
Delta=
{
<a, b>() -> q_gen_1035
<b, b>() -> q_gen_1035
<a, a>() -> q_gen_1050
<b, a>() -> q_gen_1050
}

Datatype: <elt, elt>
Convolution form: complete
}}}

}
--
Equality automata are defined for: {eq_elist, eq_elt, eq_nat}
_|

Teacher's answer:
New clause system:
{
() -> delete_one_elt([h, econs(h, t), t]) -> 6  ;  () -> delete_one_elt([x, enil, enil]) -> 6  ;  () -> insert_elt([x, enil, econs(x, enil)]) -> 6  ;  () -> leq_elt([a, e2]) -> 5  ;  () -> leq_elt([b, b]) -> 5  ;  (delete_one_elt([e, _ap, _bp]) /\ insert_elt([e, l, _ap])) -> eq_elist([_bp, l]) -> 8  ;  (delete_one_elt([x, t, _vo]) /\ not eq_elt([x, h])) -> delete_one_elt([x, econs(h, t), econs(h, _vo)]) -> 7  ;  (insert_elt([x, z, _qo]) /\ not leq_elt([x, y])) -> insert_elt([x, econs(y, z), econs(y, _qo)]) -> 7  ;  (leq_elt([x, y])) -> insert_elt([x, econs(y, z), econs(x, econs(y, z))]) -> 7  ;  (leq_elt([b, a])) -> BOT -> 8
}
Sat witness: Yes: ((delete_one_elt([e, _ap, _bp]) /\ insert_elt([e, l, _ap])) -> eq_elist([_bp, l]), {
_ap -> econs(a, enil)  ;  _bp -> econs(a, enil)  ;  e -> a  ;  l -> enil
})

-------------------------------------------
Step 17, which took 0.009324 s (model generation: 0.009294,  model checking: 0.000030):

Model:
|_
{
delete_one_elt -> 
{{{
Q={q_gen_1040, q_gen_1042, q_gen_1043, q_gen_1057, q_gen_1058, q_gen_1059, q_gen_1060, q_gen_1073, q_gen_1075},
Q_f={q_gen_1040},
Delta=
{
<enil>() -> q_gen_1042
<a>() -> q_gen_1043
<b>() -> q_gen_1043
<enil, enil>() -> q_gen_1057
<enil, a>() -> q_gen_1058
<enil, b>() -> q_gen_1058
<a, enil>() -> q_gen_1059
<a, a>() -> q_gen_1060
<b, b>() -> q_gen_1060
<b, enil>() -> q_gen_1073
<a, econs, econs>(q_gen_1060, q_gen_1073, q_gen_1058, q_gen_1057) -> q_gen_1040
<a, econs, enil>(q_gen_1043, q_gen_1042) -> q_gen_1040
<a, enil, enil>() -> q_gen_1040
<b, econs, econs>(q_gen_1060, q_gen_1059, q_gen_1058, q_gen_1057) -> q_gen_1040
<b, econs, enil>(q_gen_1043, q_gen_1042) -> q_gen_1040
<b, enil, enil>() -> q_gen_1040
<a, econs, econs>(q_gen_1060, q_gen_1059, q_gen_1058, q_gen_1057) -> q_gen_1075
}

Datatype: <elt, elist, elist>
Convolution form: complete
}}}
  ;  insert_elt -> 
{{{
Q={q_gen_1037, q_gen_1038, q_gen_1039, q_gen_1045, q_gen_1046, q_gen_1047, q_gen_1048, q_gen_1049, q_gen_1062},
Q_f={q_gen_1037},
Delta=
{
<enil>() -> q_gen_1038
<a>() -> q_gen_1039
<b>() -> q_gen_1046
<enil, econs>(q_gen_1039, q_gen_1038) -> q_gen_1045
<enil, econs>(q_gen_1046, q_gen_1038) -> q_gen_1045
<enil, a>() -> q_gen_1047
<enil, b>() -> q_gen_1047
<a, econs>(q_gen_1039, q_gen_1038) -> q_gen_1048
<a, econs>(q_gen_1046, q_gen_1038) -> q_gen_1048
<b, econs>(q_gen_1046, q_gen_1038) -> q_gen_1048
<a, a>() -> q_gen_1049
<b, a>() -> q_gen_1049
<b, b>() -> q_gen_1049
<a, econs, econs>(q_gen_1049, q_gen_1048, q_gen_1047, q_gen_1045) -> q_gen_1037
<a, enil, econs>(q_gen_1039, q_gen_1038) -> q_gen_1037
<b, econs, econs>(q_gen_1049, q_gen_1048, q_gen_1047, q_gen_1045) -> q_gen_1037
<b, enil, econs>(q_gen_1046, q_gen_1038) -> q_gen_1037
<b, enil, econs>(q_gen_1039, q_gen_1038) -> q_gen_1062
}

Datatype: <elt, elist, elist>
Convolution form: complete
}}}
  ;  leq_elt -> 
{{{
Q={q_gen_1035, q_gen_1050},
Q_f={q_gen_1035},
Delta=
{
<a, b>() -> q_gen_1035
<b, b>() -> q_gen_1035
<a, a>() -> q_gen_1050
<b, a>() -> q_gen_1050
}

Datatype: <elt, elt>
Convolution form: complete
}}}

}
--
Equality automata are defined for: {eq_elist, eq_elt, eq_nat}
_|

Teacher's answer:
New clause system:
{
() -> delete_one_elt([h, econs(h, t), t]) -> 6  ;  () -> delete_one_elt([x, enil, enil]) -> 6  ;  () -> insert_elt([x, enil, econs(x, enil)]) -> 6  ;  () -> leq_elt([a, e2]) -> 8  ;  () -> leq_elt([b, b]) -> 6  ;  (delete_one_elt([e, _ap, _bp]) /\ insert_elt([e, l, _ap])) -> eq_elist([_bp, l]) -> 8  ;  (delete_one_elt([x, t, _vo]) /\ not eq_elt([x, h])) -> delete_one_elt([x, econs(h, t), econs(h, _vo)]) -> 7  ;  (insert_elt([x, z, _qo]) /\ not leq_elt([x, y])) -> insert_elt([x, econs(y, z), econs(y, _qo)]) -> 7  ;  (leq_elt([x, y])) -> insert_elt([x, econs(y, z), econs(x, econs(y, z))]) -> 7  ;  (leq_elt([b, a])) -> BOT -> 8
}
Sat witness: Yes: (() -> leq_elt([a, e2]), {
e2 -> a
})

-------------------------------------------
Step 18, which took 0.012677 s (model generation: 0.008546,  model checking: 0.004131):

Model:
|_
{
delete_one_elt -> 
{{{
Q={q_gen_1040, q_gen_1042, q_gen_1043, q_gen_1057, q_gen_1058, q_gen_1059, q_gen_1060, q_gen_1074, q_gen_1075},
Q_f={q_gen_1040},
Delta=
{
<enil>() -> q_gen_1042
<a>() -> q_gen_1043
<b>() -> q_gen_1043
<enil, enil>() -> q_gen_1057
<enil, a>() -> q_gen_1058
<enil, b>() -> q_gen_1058
<a, enil>() -> q_gen_1059
<b, enil>() -> q_gen_1059
<a, a>() -> q_gen_1060
<b, b>() -> q_gen_1074
<a, econs, econs>(q_gen_1074, q_gen_1059, q_gen_1058, q_gen_1057) -> q_gen_1040
<a, econs, enil>(q_gen_1043, q_gen_1042) -> q_gen_1040
<a, enil, enil>() -> q_gen_1040
<b, econs, econs>(q_gen_1060, q_gen_1059, q_gen_1058, q_gen_1057) -> q_gen_1040
<b, econs, enil>(q_gen_1043, q_gen_1042) -> q_gen_1040
<b, enil, enil>() -> q_gen_1040
<a, econs, econs>(q_gen_1060, q_gen_1059, q_gen_1058, q_gen_1057) -> q_gen_1075
}

Datatype: <elt, elist, elist>
Convolution form: complete
}}}
  ;  insert_elt -> 
{{{
Q={q_gen_1037, q_gen_1038, q_gen_1039, q_gen_1045, q_gen_1046, q_gen_1047, q_gen_1048, q_gen_1049, q_gen_1062},
Q_f={q_gen_1037},
Delta=
{
<enil>() -> q_gen_1038
<a>() -> q_gen_1039
<b>() -> q_gen_1046
<enil, econs>(q_gen_1039, q_gen_1038) -> q_gen_1045
<enil, econs>(q_gen_1046, q_gen_1038) -> q_gen_1045
<enil, a>() -> q_gen_1047
<enil, b>() -> q_gen_1047
<a, econs>(q_gen_1039, q_gen_1038) -> q_gen_1048
<a, econs>(q_gen_1046, q_gen_1038) -> q_gen_1048
<b, econs>(q_gen_1046, q_gen_1038) -> q_gen_1048
<a, a>() -> q_gen_1049
<b, a>() -> q_gen_1049
<b, b>() -> q_gen_1049
<a, econs, econs>(q_gen_1049, q_gen_1048, q_gen_1047, q_gen_1045) -> q_gen_1037
<a, enil, econs>(q_gen_1039, q_gen_1038) -> q_gen_1037
<b, econs, econs>(q_gen_1049, q_gen_1048, q_gen_1047, q_gen_1045) -> q_gen_1037
<b, enil, econs>(q_gen_1046, q_gen_1038) -> q_gen_1037
<b, enil, econs>(q_gen_1039, q_gen_1038) -> q_gen_1062
}

Datatype: <elt, elist, elist>
Convolution form: complete
}}}
  ;  leq_elt -> 
{{{
Q={q_gen_1035, q_gen_1068},
Q_f={q_gen_1035},
Delta=
{
<a, a>() -> q_gen_1035
<a, b>() -> q_gen_1035
<b, b>() -> q_gen_1035
<b, a>() -> q_gen_1068
}

Datatype: <elt, elt>
Convolution form: complete
}}}

}
--
Equality automata are defined for: {eq_elist, eq_elt, eq_nat}
_|

Teacher's answer:
New clause system:
{
() -> delete_one_elt([h, econs(h, t), t]) -> 9  ;  () -> delete_one_elt([x, enil, enil]) -> 7  ;  () -> insert_elt([x, enil, econs(x, enil)]) -> 7  ;  () -> leq_elt([a, e2]) -> 8  ;  () -> leq_elt([b, b]) -> 7  ;  (delete_one_elt([e, _ap, _bp]) /\ insert_elt([e, l, _ap])) -> eq_elist([_bp, l]) -> 8  ;  (delete_one_elt([x, t, _vo]) /\ not eq_elt([x, h])) -> delete_one_elt([x, econs(h, t), econs(h, _vo)]) -> 7  ;  (insert_elt([x, z, _qo]) /\ not leq_elt([x, y])) -> insert_elt([x, econs(y, z), econs(y, _qo)]) -> 7  ;  (leq_elt([x, y])) -> insert_elt([x, econs(y, z), econs(x, econs(y, z))]) -> 7  ;  (leq_elt([b, a])) -> BOT -> 8
}
Sat witness: Yes: (() -> delete_one_elt([h, econs(h, t), t]), {
h -> b  ;  t -> econs(a, enil)
})

-------------------------------------------
Step 19, which took 0.091916 s (model generation: 0.011200,  model checking: 0.080716):

Model:
|_
{
delete_one_elt -> 
{{{
Q={q_gen_1040, q_gen_1042, q_gen_1043, q_gen_1057, q_gen_1058, q_gen_1059, q_gen_1060, q_gen_1073, q_gen_1075},
Q_f={q_gen_1040},
Delta=
{
<enil>() -> q_gen_1042
<a>() -> q_gen_1043
<b>() -> q_gen_1043
<econs, enil>(q_gen_1043, q_gen_1042) -> q_gen_1057
<enil, enil>() -> q_gen_1057
<econs, a>(q_gen_1043, q_gen_1042) -> q_gen_1058
<enil, a>() -> q_gen_1058
<enil, b>() -> q_gen_1058
<a, enil>() -> q_gen_1059
<a, a>() -> q_gen_1060
<b, a>() -> q_gen_1060
<b, b>() -> q_gen_1060
<b, enil>() -> q_gen_1073
<a, econs, econs>(q_gen_1060, q_gen_1073, q_gen_1058, q_gen_1057) -> q_gen_1040
<a, econs, enil>(q_gen_1043, q_gen_1042) -> q_gen_1040
<a, enil, enil>() -> q_gen_1040
<b, econs, econs>(q_gen_1060, q_gen_1059, q_gen_1058, q_gen_1057) -> q_gen_1040
<b, econs, econs>(q_gen_1060, q_gen_1073, q_gen_1058, q_gen_1057) -> q_gen_1040
<b, econs, enil>(q_gen_1043, q_gen_1042) -> q_gen_1040
<b, enil, enil>() -> q_gen_1040
<a, econs, econs>(q_gen_1060, q_gen_1059, q_gen_1058, q_gen_1057) -> q_gen_1075
}

Datatype: <elt, elist, elist>
Convolution form: complete
}}}
  ;  insert_elt -> 
{{{
Q={q_gen_1037, q_gen_1038, q_gen_1039, q_gen_1045, q_gen_1046, q_gen_1047, q_gen_1048, q_gen_1049, q_gen_1062},
Q_f={q_gen_1037},
Delta=
{
<enil>() -> q_gen_1038
<a>() -> q_gen_1039
<b>() -> q_gen_1046
<enil, econs>(q_gen_1039, q_gen_1038) -> q_gen_1045
<enil, econs>(q_gen_1046, q_gen_1038) -> q_gen_1045
<enil, a>() -> q_gen_1047
<enil, b>() -> q_gen_1047
<a, econs>(q_gen_1039, q_gen_1038) -> q_gen_1048
<a, econs>(q_gen_1046, q_gen_1038) -> q_gen_1048
<b, econs>(q_gen_1046, q_gen_1038) -> q_gen_1048
<a, a>() -> q_gen_1049
<b, a>() -> q_gen_1049
<b, b>() -> q_gen_1049
<a, econs, econs>(q_gen_1049, q_gen_1048, q_gen_1047, q_gen_1045) -> q_gen_1037
<a, enil, econs>(q_gen_1039, q_gen_1038) -> q_gen_1037
<b, econs, econs>(q_gen_1049, q_gen_1048, q_gen_1047, q_gen_1045) -> q_gen_1037
<b, enil, econs>(q_gen_1046, q_gen_1038) -> q_gen_1037
<b, enil, econs>(q_gen_1039, q_gen_1038) -> q_gen_1062
}

Datatype: <elt, elist, elist>
Convolution form: complete
}}}
  ;  leq_elt -> 
{{{
Q={q_gen_1035, q_gen_1068},
Q_f={q_gen_1035},
Delta=
{
<a, a>() -> q_gen_1035
<a, b>() -> q_gen_1035
<b, b>() -> q_gen_1035
<b, a>() -> q_gen_1068
}

Datatype: <elt, elt>
Convolution form: complete
}}}

}
--
Equality automata are defined for: {eq_elist, eq_elt, eq_nat}
_|

Teacher's answer:
New clause system:
{
() -> delete_one_elt([h, econs(h, t), t]) -> 9  ;  () -> delete_one_elt([x, enil, enil]) -> 7  ;  () -> insert_elt([x, enil, econs(x, enil)]) -> 7  ;  () -> leq_elt([a, e2]) -> 8  ;  () -> leq_elt([b, b]) -> 7  ;  (delete_one_elt([e, _ap, _bp]) /\ insert_elt([e, l, _ap])) -> eq_elist([_bp, l]) -> 8  ;  (delete_one_elt([x, t, _vo]) /\ not eq_elt([x, h])) -> delete_one_elt([x, econs(h, t), econs(h, _vo)]) -> 7  ;  (insert_elt([x, z, _qo]) /\ not leq_elt([x, y])) -> insert_elt([x, econs(y, z), econs(y, _qo)]) -> 7  ;  (leq_elt([x, y])) -> insert_elt([x, econs(y, z), econs(x, econs(y, z))]) -> 10  ;  (leq_elt([b, a])) -> BOT -> 8
}
Sat witness: Yes: ((leq_elt([x, y])) -> insert_elt([x, econs(y, z), econs(x, econs(y, z))]), {
x -> b  ;  y -> b  ;  z -> econs(a, enil)
})

-------------------------------------------
Step 20, which took 0.010660 s (model generation: 0.006713,  model checking: 0.003947):

Model:
|_
{
delete_one_elt -> 
{{{
Q={q_gen_1040, q_gen_1042, q_gen_1043, q_gen_1057, q_gen_1058, q_gen_1059, q_gen_1060, q_gen_1074, q_gen_1075},
Q_f={q_gen_1040},
Delta=
{
<enil>() -> q_gen_1042
<a>() -> q_gen_1043
<b>() -> q_gen_1043
<econs, enil>(q_gen_1043, q_gen_1042) -> q_gen_1057
<enil, enil>() -> q_gen_1057
<econs, a>(q_gen_1043, q_gen_1042) -> q_gen_1058
<enil, a>() -> q_gen_1058
<enil, b>() -> q_gen_1058
<a, enil>() -> q_gen_1059
<b, enil>() -> q_gen_1059
<a, a>() -> q_gen_1060
<b, a>() -> q_gen_1074
<b, b>() -> q_gen_1074
<a, econs, econs>(q_gen_1074, q_gen_1059, q_gen_1058, q_gen_1057) -> q_gen_1040
<a, econs, enil>(q_gen_1043, q_gen_1042) -> q_gen_1040
<a, enil, enil>() -> q_gen_1040
<b, econs, econs>(q_gen_1060, q_gen_1059, q_gen_1058, q_gen_1057) -> q_gen_1040
<b, econs, econs>(q_gen_1074, q_gen_1059, q_gen_1058, q_gen_1057) -> q_gen_1040
<b, econs, enil>(q_gen_1043, q_gen_1042) -> q_gen_1040
<b, enil, enil>() -> q_gen_1040
<a, econs, econs>(q_gen_1060, q_gen_1059, q_gen_1058, q_gen_1057) -> q_gen_1075
}

Datatype: <elt, elist, elist>
Convolution form: complete
}}}
  ;  insert_elt -> 
{{{
Q={q_gen_1037, q_gen_1038, q_gen_1039, q_gen_1045, q_gen_1046, q_gen_1047, q_gen_1048, q_gen_1049, q_gen_1062},
Q_f={q_gen_1037},
Delta=
{
<econs>(q_gen_1039, q_gen_1038) -> q_gen_1038
<enil>() -> q_gen_1038
<a>() -> q_gen_1039
<b>() -> q_gen_1046
<econs, econs>(q_gen_1049, q_gen_1048, q_gen_1047, q_gen_1045) -> q_gen_1045
<enil, econs>(q_gen_1039, q_gen_1038) -> q_gen_1045
<enil, econs>(q_gen_1046, q_gen_1038) -> q_gen_1045
<econs, b>(q_gen_1039, q_gen_1038) -> q_gen_1047
<enil, a>() -> q_gen_1047
<enil, b>() -> q_gen_1047
<a, econs>(q_gen_1039, q_gen_1038) -> q_gen_1048
<a, econs>(q_gen_1046, q_gen_1038) -> q_gen_1048
<b, econs>(q_gen_1046, q_gen_1038) -> q_gen_1048
<a, a>() -> q_gen_1049
<a, b>() -> q_gen_1049
<b, a>() -> q_gen_1049
<b, b>() -> q_gen_1049
<a, econs, econs>(q_gen_1049, q_gen_1048, q_gen_1047, q_gen_1045) -> q_gen_1037
<a, enil, econs>(q_gen_1039, q_gen_1038) -> q_gen_1037
<b, econs, econs>(q_gen_1049, q_gen_1048, q_gen_1047, q_gen_1045) -> q_gen_1037
<b, enil, econs>(q_gen_1046, q_gen_1038) -> q_gen_1037
<b, enil, econs>(q_gen_1039, q_gen_1038) -> q_gen_1062
}

Datatype: <elt, elist, elist>
Convolution form: complete
}}}
  ;  leq_elt -> 
{{{
Q={q_gen_1035, q_gen_1068},
Q_f={q_gen_1035},
Delta=
{
<a, a>() -> q_gen_1035
<a, b>() -> q_gen_1035
<b, b>() -> q_gen_1035
<b, a>() -> q_gen_1068
}

Datatype: <elt, elt>
Convolution form: complete
}}}

}
--
Equality automata are defined for: {eq_elist, eq_elt, eq_nat}
_|

Teacher's answer:
New clause system:
{
() -> delete_one_elt([h, econs(h, t), t]) -> 9  ;  () -> delete_one_elt([x, enil, enil]) -> 7  ;  () -> insert_elt([x, enil, econs(x, enil)]) -> 7  ;  () -> leq_elt([a, e2]) -> 8  ;  () -> leq_elt([b, b]) -> 7  ;  (delete_one_elt([e, _ap, _bp]) /\ insert_elt([e, l, _ap])) -> eq_elist([_bp, l]) -> 8  ;  (delete_one_elt([x, t, _vo]) /\ not eq_elt([x, h])) -> delete_one_elt([x, econs(h, t), econs(h, _vo)]) -> 7  ;  (insert_elt([x, z, _qo]) /\ not leq_elt([x, y])) -> insert_elt([x, econs(y, z), econs(y, _qo)]) -> 10  ;  (leq_elt([x, y])) -> insert_elt([x, econs(y, z), econs(x, econs(y, z))]) -> 10  ;  (leq_elt([b, a])) -> BOT -> 8
}
Sat witness: Yes: ((insert_elt([x, z, _qo]) /\ not leq_elt([x, y])) -> insert_elt([x, econs(y, z), econs(y, _qo)]), {
_qo -> econs(b, econs(a, enil))  ;  x -> b  ;  y -> a  ;  z -> econs(a, enil)
})

-------------------------------------------
Step 21, which took 0.010268 s (model generation: 0.007105,  model checking: 0.003163):

Model:
|_
{
delete_one_elt -> 
{{{
Q={q_gen_1040, q_gen_1042, q_gen_1043, q_gen_1057, q_gen_1058, q_gen_1059, q_gen_1060, q_gen_1072, q_gen_1075},
Q_f={q_gen_1040},
Delta=
{
<enil>() -> q_gen_1042
<a>() -> q_gen_1043
<b>() -> q_gen_1043
<econs, enil>(q_gen_1043, q_gen_1042) -> q_gen_1057
<enil, enil>() -> q_gen_1057
<enil, a>() -> q_gen_1058
<a, enil>() -> q_gen_1059
<b, enil>() -> q_gen_1059
<a, a>() -> q_gen_1060
<b, a>() -> q_gen_1060
<b, b>() -> q_gen_1060
<econs, a>(q_gen_1043, q_gen_1042) -> q_gen_1072
<enil, b>() -> q_gen_1072
<a, econs, econs>(q_gen_1060, q_gen_1059, q_gen_1072, q_gen_1057) -> q_gen_1040
<a, econs, enil>(q_gen_1043, q_gen_1042) -> q_gen_1040
<a, enil, enil>() -> q_gen_1040
<b, econs, econs>(q_gen_1060, q_gen_1059, q_gen_1058, q_gen_1057) -> q_gen_1040
<b, econs, econs>(q_gen_1060, q_gen_1059, q_gen_1072, q_gen_1057) -> q_gen_1040
<b, econs, enil>(q_gen_1043, q_gen_1042) -> q_gen_1040
<b, enil, enil>() -> q_gen_1040
<a, econs, econs>(q_gen_1060, q_gen_1059, q_gen_1058, q_gen_1057) -> q_gen_1075
}

Datatype: <elt, elist, elist>
Convolution form: complete
}}}
  ;  insert_elt -> 
{{{
Q={q_gen_1037, q_gen_1038, q_gen_1039, q_gen_1045, q_gen_1046, q_gen_1047, q_gen_1048, q_gen_1049, q_gen_1062},
Q_f={q_gen_1037},
Delta=
{
<econs>(q_gen_1039, q_gen_1038) -> q_gen_1038
<enil>() -> q_gen_1038
<a>() -> q_gen_1039
<b>() -> q_gen_1046
<econs, econs>(q_gen_1049, q_gen_1048, q_gen_1047, q_gen_1045) -> q_gen_1045
<enil, econs>(q_gen_1039, q_gen_1038) -> q_gen_1045
<enil, econs>(q_gen_1046, q_gen_1038) -> q_gen_1045
<econs, a>(q_gen_1039, q_gen_1038) -> q_gen_1047
<econs, b>(q_gen_1039, q_gen_1038) -> q_gen_1047
<enil, a>() -> q_gen_1047
<enil, b>() -> q_gen_1047
<a, econs>(q_gen_1039, q_gen_1038) -> q_gen_1048
<a, econs>(q_gen_1046, q_gen_1038) -> q_gen_1048
<b, econs>(q_gen_1046, q_gen_1038) -> q_gen_1048
<a, a>() -> q_gen_1049
<a, b>() -> q_gen_1049
<b, a>() -> q_gen_1049
<b, b>() -> q_gen_1049
<a, econs, econs>(q_gen_1049, q_gen_1048, q_gen_1047, q_gen_1045) -> q_gen_1037
<a, enil, econs>(q_gen_1039, q_gen_1038) -> q_gen_1037
<b, econs, econs>(q_gen_1049, q_gen_1048, q_gen_1047, q_gen_1045) -> q_gen_1037
<b, enil, econs>(q_gen_1046, q_gen_1038) -> q_gen_1037
<b, enil, econs>(q_gen_1039, q_gen_1038) -> q_gen_1062
}

Datatype: <elt, elist, elist>
Convolution form: complete
}}}
  ;  leq_elt -> 
{{{
Q={q_gen_1035, q_gen_1068},
Q_f={q_gen_1035},
Delta=
{
<a, a>() -> q_gen_1035
<a, b>() -> q_gen_1035
<b, b>() -> q_gen_1035
<b, a>() -> q_gen_1068
}

Datatype: <elt, elt>
Convolution form: complete
}}}

}
--
Equality automata are defined for: {eq_elist, eq_elt, eq_nat}
_|

Teacher's answer:
New clause system:
{
() -> delete_one_elt([h, econs(h, t), t]) -> 9  ;  () -> delete_one_elt([x, enil, enil]) -> 7  ;  () -> insert_elt([x, enil, econs(x, enil)]) -> 7  ;  () -> leq_elt([a, e2]) -> 8  ;  () -> leq_elt([b, b]) -> 7  ;  (delete_one_elt([e, _ap, _bp]) /\ insert_elt([e, l, _ap])) -> eq_elist([_bp, l]) -> 8  ;  (delete_one_elt([x, t, _vo]) /\ not eq_elt([x, h])) -> delete_one_elt([x, econs(h, t), econs(h, _vo)]) -> 10  ;  (insert_elt([x, z, _qo]) /\ not leq_elt([x, y])) -> insert_elt([x, econs(y, z), econs(y, _qo)]) -> 10  ;  (leq_elt([x, y])) -> insert_elt([x, econs(y, z), econs(x, econs(y, z))]) -> 10  ;  (leq_elt([b, a])) -> BOT -> 8
}
Sat witness: Yes: ((delete_one_elt([x, t, _vo]) /\ not eq_elt([x, h])) -> delete_one_elt([x, econs(h, t), econs(h, _vo)]), {
_vo -> enil  ;  h -> b  ;  t -> econs(b, enil)  ;  x -> a
})

-------------------------------------------
Step 22, which took 0.008644 s (model generation: 0.007635,  model checking: 0.001009):

Model:
|_
{
delete_one_elt -> 
{{{
Q={q_gen_1040, q_gen_1042, q_gen_1043, q_gen_1057, q_gen_1058, q_gen_1059, q_gen_1060, q_gen_1072, q_gen_1075},
Q_f={q_gen_1040},
Delta=
{
<enil>() -> q_gen_1042
<a>() -> q_gen_1043
<b>() -> q_gen_1043
<econs, enil>(q_gen_1043, q_gen_1042) -> q_gen_1057
<enil, enil>() -> q_gen_1057
<enil, a>() -> q_gen_1058
<a, enil>() -> q_gen_1059
<b, enil>() -> q_gen_1059
<a, a>() -> q_gen_1060
<b, a>() -> q_gen_1060
<b, b>() -> q_gen_1060
<econs, a>(q_gen_1043, q_gen_1042) -> q_gen_1072
<econs, b>(q_gen_1043, q_gen_1042) -> q_gen_1072
<enil, b>() -> q_gen_1072
<a, econs, econs>(q_gen_1060, q_gen_1059, q_gen_1072, q_gen_1057) -> q_gen_1040
<a, econs, enil>(q_gen_1043, q_gen_1042) -> q_gen_1040
<a, enil, enil>() -> q_gen_1040
<b, econs, econs>(q_gen_1060, q_gen_1059, q_gen_1058, q_gen_1057) -> q_gen_1040
<b, econs, econs>(q_gen_1060, q_gen_1059, q_gen_1072, q_gen_1057) -> q_gen_1040
<b, econs, enil>(q_gen_1043, q_gen_1042) -> q_gen_1040
<b, enil, enil>() -> q_gen_1040
<a, econs, econs>(q_gen_1060, q_gen_1059, q_gen_1058, q_gen_1057) -> q_gen_1075
}

Datatype: <elt, elist, elist>
Convolution form: complete
}}}
  ;  insert_elt -> 
{{{
Q={q_gen_1037, q_gen_1038, q_gen_1039, q_gen_1045, q_gen_1046, q_gen_1047, q_gen_1048, q_gen_1049, q_gen_1062},
Q_f={q_gen_1037},
Delta=
{
<econs>(q_gen_1039, q_gen_1038) -> q_gen_1038
<enil>() -> q_gen_1038
<a>() -> q_gen_1039
<b>() -> q_gen_1046
<econs, econs>(q_gen_1049, q_gen_1048, q_gen_1047, q_gen_1045) -> q_gen_1045
<enil, econs>(q_gen_1039, q_gen_1038) -> q_gen_1045
<enil, econs>(q_gen_1046, q_gen_1038) -> q_gen_1045
<econs, a>(q_gen_1039, q_gen_1038) -> q_gen_1047
<econs, b>(q_gen_1039, q_gen_1038) -> q_gen_1047
<enil, a>() -> q_gen_1047
<enil, b>() -> q_gen_1047
<a, econs>(q_gen_1039, q_gen_1038) -> q_gen_1048
<a, econs>(q_gen_1046, q_gen_1038) -> q_gen_1048
<b, econs>(q_gen_1046, q_gen_1038) -> q_gen_1048
<a, a>() -> q_gen_1049
<a, b>() -> q_gen_1049
<b, a>() -> q_gen_1049
<b, b>() -> q_gen_1049
<a, econs, econs>(q_gen_1049, q_gen_1048, q_gen_1047, q_gen_1045) -> q_gen_1037
<a, enil, econs>(q_gen_1039, q_gen_1038) -> q_gen_1037
<b, econs, econs>(q_gen_1049, q_gen_1048, q_gen_1047, q_gen_1045) -> q_gen_1037
<b, enil, econs>(q_gen_1046, q_gen_1038) -> q_gen_1037
<b, enil, econs>(q_gen_1039, q_gen_1038) -> q_gen_1062
}

Datatype: <elt, elist, elist>
Convolution form: complete
}}}
  ;  leq_elt -> 
{{{
Q={q_gen_1035, q_gen_1068},
Q_f={q_gen_1035},
Delta=
{
<a, a>() -> q_gen_1035
<a, b>() -> q_gen_1035
<b, b>() -> q_gen_1035
<b, a>() -> q_gen_1068
}

Datatype: <elt, elt>
Convolution form: complete
}}}

}
--
Equality automata are defined for: {eq_elist, eq_elt, eq_nat}
_|

Teacher's answer:
New clause system:
{
() -> delete_one_elt([h, econs(h, t), t]) -> 9  ;  () -> delete_one_elt([x, enil, enil]) -> 8  ;  () -> insert_elt([x, enil, econs(x, enil)]) -> 8  ;  () -> leq_elt([a, e2]) -> 8  ;  () -> leq_elt([b, b]) -> 8  ;  (delete_one_elt([e, _ap, _bp]) /\ insert_elt([e, l, _ap])) -> eq_elist([_bp, l]) -> 11  ;  (delete_one_elt([x, t, _vo]) /\ not eq_elt([x, h])) -> delete_one_elt([x, econs(h, t), econs(h, _vo)]) -> 10  ;  (insert_elt([x, z, _qo]) /\ not leq_elt([x, y])) -> insert_elt([x, econs(y, z), econs(y, _qo)]) -> 10  ;  (leq_elt([x, y])) -> insert_elt([x, econs(y, z), econs(x, econs(y, z))]) -> 10  ;  (leq_elt([b, a])) -> BOT -> 9
}
Sat witness: Yes: ((delete_one_elt([e, _ap, _bp]) /\ insert_elt([e, l, _ap])) -> eq_elist([_bp, l]), {
_ap -> econs(a, econs(a, enil))  ;  _bp -> econs(a, enil)  ;  e -> a  ;  l -> enil
})

-------------------------------------------
Step 23, which took 0.012050 s (model generation: 0.009952,  model checking: 0.002098):

Model:
|_
{
delete_one_elt -> 
{{{
Q={q_gen_1040, q_gen_1042, q_gen_1043, q_gen_1057, q_gen_1058, q_gen_1059, q_gen_1060, q_gen_1072, q_gen_1075},
Q_f={q_gen_1040},
Delta=
{
<enil>() -> q_gen_1042
<a>() -> q_gen_1043
<b>() -> q_gen_1043
<econs, enil>(q_gen_1043, q_gen_1042) -> q_gen_1057
<enil, enil>() -> q_gen_1057
<econs, a>(q_gen_1043, q_gen_1042) -> q_gen_1058
<enil, a>() -> q_gen_1058
<a, enil>() -> q_gen_1059
<b, enil>() -> q_gen_1059
<a, a>() -> q_gen_1060
<b, a>() -> q_gen_1060
<b, b>() -> q_gen_1060
<econs, b>(q_gen_1043, q_gen_1042) -> q_gen_1072
<enil, b>() -> q_gen_1072
<a, econs, econs>(q_gen_1060, q_gen_1059, q_gen_1072, q_gen_1057) -> q_gen_1040
<a, econs, enil>(q_gen_1043, q_gen_1042) -> q_gen_1040
<a, enil, enil>() -> q_gen_1040
<b, econs, econs>(q_gen_1060, q_gen_1059, q_gen_1058, q_gen_1057) -> q_gen_1040
<b, econs, enil>(q_gen_1043, q_gen_1042) -> q_gen_1040
<b, enil, enil>() -> q_gen_1040
<a, econs, econs>(q_gen_1060, q_gen_1059, q_gen_1058, q_gen_1057) -> q_gen_1075
}

Datatype: <elt, elist, elist>
Convolution form: complete
}}}
  ;  insert_elt -> 
{{{
Q={q_gen_1037, q_gen_1038, q_gen_1039, q_gen_1045, q_gen_1046, q_gen_1047, q_gen_1048, q_gen_1049, q_gen_1062},
Q_f={q_gen_1037},
Delta=
{
<econs>(q_gen_1039, q_gen_1038) -> q_gen_1038
<enil>() -> q_gen_1038
<a>() -> q_gen_1039
<b>() -> q_gen_1046
<econs, econs>(q_gen_1049, q_gen_1048, q_gen_1047, q_gen_1045) -> q_gen_1045
<enil, econs>(q_gen_1039, q_gen_1038) -> q_gen_1045
<enil, econs>(q_gen_1046, q_gen_1038) -> q_gen_1045
<econs, a>(q_gen_1039, q_gen_1038) -> q_gen_1047
<econs, b>(q_gen_1039, q_gen_1038) -> q_gen_1047
<enil, a>() -> q_gen_1047
<enil, b>() -> q_gen_1047
<a, econs>(q_gen_1039, q_gen_1038) -> q_gen_1048
<a, econs>(q_gen_1046, q_gen_1038) -> q_gen_1048
<b, econs>(q_gen_1046, q_gen_1038) -> q_gen_1048
<a, a>() -> q_gen_1049
<a, b>() -> q_gen_1049
<b, a>() -> q_gen_1049
<b, b>() -> q_gen_1049
<a, econs, econs>(q_gen_1049, q_gen_1048, q_gen_1047, q_gen_1045) -> q_gen_1037
<a, enil, econs>(q_gen_1039, q_gen_1038) -> q_gen_1037
<b, econs, econs>(q_gen_1049, q_gen_1048, q_gen_1047, q_gen_1045) -> q_gen_1037
<b, enil, econs>(q_gen_1046, q_gen_1038) -> q_gen_1037
<b, enil, econs>(q_gen_1039, q_gen_1038) -> q_gen_1062
}

Datatype: <elt, elist, elist>
Convolution form: complete
}}}
  ;  leq_elt -> 
{{{
Q={q_gen_1035, q_gen_1068},
Q_f={q_gen_1035},
Delta=
{
<a, a>() -> q_gen_1035
<a, b>() -> q_gen_1035
<b, b>() -> q_gen_1035
<b, a>() -> q_gen_1068
}

Datatype: <elt, elt>
Convolution form: complete
}}}

}
--
Equality automata are defined for: {eq_elist, eq_elt, eq_nat}
_|

Teacher's answer:
New clause system:
{
() -> delete_one_elt([h, econs(h, t), t]) -> 12  ;  () -> delete_one_elt([x, enil, enil]) -> 9  ;  () -> insert_elt([x, enil, econs(x, enil)]) -> 9  ;  () -> leq_elt([a, e2]) -> 9  ;  () -> leq_elt([b, b]) -> 9  ;  (delete_one_elt([e, _ap, _bp]) /\ insert_elt([e, l, _ap])) -> eq_elist([_bp, l]) -> 11  ;  (delete_one_elt([x, t, _vo]) /\ not eq_elt([x, h])) -> delete_one_elt([x, econs(h, t), econs(h, _vo)]) -> 10  ;  (insert_elt([x, z, _qo]) /\ not leq_elt([x, y])) -> insert_elt([x, econs(y, z), econs(y, _qo)]) -> 10  ;  (leq_elt([x, y])) -> insert_elt([x, econs(y, z), econs(x, econs(y, z))]) -> 10  ;  (leq_elt([b, a])) -> BOT -> 10
}
Sat witness: Yes: (() -> delete_one_elt([h, econs(h, t), t]), {
h -> a  ;  t -> econs(a, enil)
})

-------------------------------------------
Step 24, which took 1.083227 s (model generation: 0.013571,  model checking: 1.069656):

Model:
|_
{
delete_one_elt -> 
{{{
Q={q_gen_1040, q_gen_1042, q_gen_1043, q_gen_1057, q_gen_1058, q_gen_1059, q_gen_1060, q_gen_1072, q_gen_1075},
Q_f={q_gen_1040},
Delta=
{
<enil>() -> q_gen_1042
<a>() -> q_gen_1043
<b>() -> q_gen_1043
<econs, enil>(q_gen_1043, q_gen_1042) -> q_gen_1057
<enil, enil>() -> q_gen_1057
<enil, a>() -> q_gen_1058
<a, enil>() -> q_gen_1059
<b, enil>() -> q_gen_1059
<a, a>() -> q_gen_1060
<b, a>() -> q_gen_1060
<b, b>() -> q_gen_1060
<econs, a>(q_gen_1043, q_gen_1042) -> q_gen_1072
<econs, b>(q_gen_1043, q_gen_1042) -> q_gen_1072
<enil, b>() -> q_gen_1072
<a, econs, econs>(q_gen_1060, q_gen_1059, q_gen_1072, q_gen_1057) -> q_gen_1040
<a, econs, enil>(q_gen_1043, q_gen_1042) -> q_gen_1040
<a, enil, enil>() -> q_gen_1040
<b, econs, econs>(q_gen_1060, q_gen_1059, q_gen_1058, q_gen_1057) -> q_gen_1040
<b, econs, econs>(q_gen_1060, q_gen_1059, q_gen_1072, q_gen_1057) -> q_gen_1040
<b, econs, enil>(q_gen_1043, q_gen_1042) -> q_gen_1040
<b, enil, enil>() -> q_gen_1040
<a, econs, econs>(q_gen_1060, q_gen_1059, q_gen_1058, q_gen_1057) -> q_gen_1075
}

Datatype: <elt, elist, elist>
Convolution form: complete
}}}
  ;  insert_elt -> 
{{{
Q={q_gen_1037, q_gen_1038, q_gen_1039, q_gen_1045, q_gen_1046, q_gen_1047, q_gen_1048, q_gen_1049, q_gen_1062, q_gen_1085},
Q_f={q_gen_1037},
Delta=
{
<enil>() -> q_gen_1038
<a>() -> q_gen_1039
<b>() -> q_gen_1046
<econs>(q_gen_1039, q_gen_1038) -> q_gen_1085
<econs, econs>(q_gen_1049, q_gen_1048, q_gen_1047, q_gen_1045) -> q_gen_1045
<enil, econs>(q_gen_1039, q_gen_1038) -> q_gen_1045
<enil, econs>(q_gen_1046, q_gen_1038) -> q_gen_1045
<econs, a>(q_gen_1039, q_gen_1038) -> q_gen_1047
<econs, b>(q_gen_1039, q_gen_1038) -> q_gen_1047
<enil, a>() -> q_gen_1047
<enil, b>() -> q_gen_1047
<a, econs>(q_gen_1039, q_gen_1038) -> q_gen_1048
<a, econs>(q_gen_1046, q_gen_1038) -> q_gen_1048
<a, econs>(q_gen_1046, q_gen_1085) -> q_gen_1048
<b, econs>(q_gen_1046, q_gen_1038) -> q_gen_1048
<b, econs>(q_gen_1046, q_gen_1085) -> q_gen_1048
<a, a>() -> q_gen_1049
<a, b>() -> q_gen_1049
<b, a>() -> q_gen_1049
<b, b>() -> q_gen_1049
<a, econs, econs>(q_gen_1049, q_gen_1048, q_gen_1047, q_gen_1045) -> q_gen_1037
<a, enil, econs>(q_gen_1039, q_gen_1038) -> q_gen_1037
<b, econs, econs>(q_gen_1049, q_gen_1048, q_gen_1047, q_gen_1045) -> q_gen_1037
<b, enil, econs>(q_gen_1046, q_gen_1038) -> q_gen_1037
<a, enil, econs>(q_gen_1039, q_gen_1085) -> q_gen_1062
<b, enil, econs>(q_gen_1039, q_gen_1038) -> q_gen_1062
}

Datatype: <elt, elist, elist>
Convolution form: complete
}}}
  ;  leq_elt -> 
{{{
Q={q_gen_1035, q_gen_1068},
Q_f={q_gen_1035},
Delta=
{
<a, a>() -> q_gen_1035
<a, b>() -> q_gen_1035
<b, b>() -> q_gen_1035
<b, a>() -> q_gen_1068
}

Datatype: <elt, elt>
Convolution form: complete
}}}

}
--
Equality automata are defined for: {eq_elist, eq_elt, eq_nat}
_|

Teacher's answer:
New clause system:
{
() -> delete_one_elt([h, econs(h, t), t]) -> 12  ;  () -> delete_one_elt([x, enil, enil]) -> 10  ;  () -> insert_elt([x, enil, econs(x, enil)]) -> 10  ;  () -> leq_elt([a, e2]) -> 10  ;  () -> leq_elt([b, b]) -> 10  ;  (delete_one_elt([e, _ap, _bp]) /\ insert_elt([e, l, _ap])) -> eq_elist([_bp, l]) -> 11  ;  (delete_one_elt([x, t, _vo]) /\ not eq_elt([x, h])) -> delete_one_elt([x, econs(h, t), econs(h, _vo)]) -> 10  ;  (insert_elt([x, z, _qo]) /\ not leq_elt([x, y])) -> insert_elt([x, econs(y, z), econs(y, _qo)]) -> 10  ;  (leq_elt([x, y])) -> insert_elt([x, econs(y, z), econs(x, econs(y, z))]) -> 13  ;  (leq_elt([b, a])) -> BOT -> 11
}
Sat witness: Yes: ((leq_elt([x, y])) -> insert_elt([x, econs(y, z), econs(x, econs(y, z))]), {
x -> b  ;  y -> b  ;  z -> econs(b, enil)
})

-------------------------------------------
Step 25, which took 0.260769 s (model generation: 0.010925,  model checking: 0.249844):

Model:
|_
{
delete_one_elt -> 
{{{
Q={q_gen_1040, q_gen_1042, q_gen_1043, q_gen_1057, q_gen_1058, q_gen_1059, q_gen_1060, q_gen_1072, q_gen_1075},
Q_f={q_gen_1040},
Delta=
{
<enil>() -> q_gen_1042
<a>() -> q_gen_1043
<b>() -> q_gen_1043
<econs, enil>(q_gen_1043, q_gen_1042) -> q_gen_1057
<enil, enil>() -> q_gen_1057
<enil, a>() -> q_gen_1058
<a, enil>() -> q_gen_1059
<b, enil>() -> q_gen_1059
<a, a>() -> q_gen_1060
<b, a>() -> q_gen_1060
<b, b>() -> q_gen_1060
<econs, a>(q_gen_1043, q_gen_1042) -> q_gen_1072
<econs, b>(q_gen_1043, q_gen_1042) -> q_gen_1072
<enil, b>() -> q_gen_1072
<a, econs, econs>(q_gen_1060, q_gen_1059, q_gen_1072, q_gen_1057) -> q_gen_1040
<a, econs, enil>(q_gen_1043, q_gen_1042) -> q_gen_1040
<a, enil, enil>() -> q_gen_1040
<b, econs, econs>(q_gen_1060, q_gen_1059, q_gen_1058, q_gen_1057) -> q_gen_1040
<b, econs, econs>(q_gen_1060, q_gen_1059, q_gen_1072, q_gen_1057) -> q_gen_1040
<b, econs, enil>(q_gen_1043, q_gen_1042) -> q_gen_1040
<b, enil, enil>() -> q_gen_1040
<a, econs, econs>(q_gen_1060, q_gen_1059, q_gen_1058, q_gen_1057) -> q_gen_1075
}

Datatype: <elt, elist, elist>
Convolution form: complete
}}}
  ;  insert_elt -> 
{{{
Q={q_gen_1037, q_gen_1038, q_gen_1039, q_gen_1045, q_gen_1046, q_gen_1047, q_gen_1048, q_gen_1049, q_gen_1062, q_gen_1085},
Q_f={q_gen_1037},
Delta=
{
<econs>(q_gen_1046, q_gen_1038) -> q_gen_1038
<enil>() -> q_gen_1038
<a>() -> q_gen_1039
<b>() -> q_gen_1046
<econs>(q_gen_1039, q_gen_1038) -> q_gen_1085
<econs, econs>(q_gen_1049, q_gen_1048, q_gen_1047, q_gen_1045) -> q_gen_1045
<enil, econs>(q_gen_1039, q_gen_1038) -> q_gen_1045
<enil, econs>(q_gen_1046, q_gen_1038) -> q_gen_1045
<econs, a>(q_gen_1039, q_gen_1038) -> q_gen_1047
<econs, b>(q_gen_1039, q_gen_1038) -> q_gen_1047
<econs, b>(q_gen_1046, q_gen_1038) -> q_gen_1047
<enil, a>() -> q_gen_1047
<enil, b>() -> q_gen_1047
<a, econs>(q_gen_1039, q_gen_1038) -> q_gen_1048
<a, econs>(q_gen_1046, q_gen_1038) -> q_gen_1048
<a, econs>(q_gen_1046, q_gen_1085) -> q_gen_1048
<b, econs>(q_gen_1046, q_gen_1038) -> q_gen_1048
<b, econs>(q_gen_1046, q_gen_1085) -> q_gen_1048
<a, a>() -> q_gen_1049
<a, b>() -> q_gen_1049
<b, a>() -> q_gen_1049
<b, b>() -> q_gen_1049
<a, econs, econs>(q_gen_1049, q_gen_1048, q_gen_1047, q_gen_1045) -> q_gen_1037
<a, enil, econs>(q_gen_1039, q_gen_1038) -> q_gen_1037
<b, econs, econs>(q_gen_1049, q_gen_1048, q_gen_1047, q_gen_1045) -> q_gen_1037
<b, enil, econs>(q_gen_1046, q_gen_1038) -> q_gen_1037
<a, enil, econs>(q_gen_1039, q_gen_1085) -> q_gen_1062
<b, enil, econs>(q_gen_1039, q_gen_1038) -> q_gen_1062
}

Datatype: <elt, elist, elist>
Convolution form: complete
}}}
  ;  leq_elt -> 
{{{
Q={q_gen_1035, q_gen_1068},
Q_f={q_gen_1035},
Delta=
{
<a, a>() -> q_gen_1035
<a, b>() -> q_gen_1035
<b, b>() -> q_gen_1035
<b, a>() -> q_gen_1068
}

Datatype: <elt, elt>
Convolution form: complete
}}}

}
--
Equality automata are defined for: {eq_elist, eq_elt, eq_nat}
_|

Teacher's answer:
New clause system:
{
() -> delete_one_elt([h, econs(h, t), t]) -> 12  ;  () -> delete_one_elt([x, enil, enil]) -> 10  ;  () -> insert_elt([x, enil, econs(x, enil)]) -> 10  ;  () -> leq_elt([a, e2]) -> 10  ;  () -> leq_elt([b, b]) -> 10  ;  (delete_one_elt([e, _ap, _bp]) /\ insert_elt([e, l, _ap])) -> eq_elist([_bp, l]) -> 11  ;  (delete_one_elt([x, t, _vo]) /\ not eq_elt([x, h])) -> delete_one_elt([x, econs(h, t), econs(h, _vo)]) -> 10  ;  (insert_elt([x, z, _qo]) /\ not leq_elt([x, y])) -> insert_elt([x, econs(y, z), econs(y, _qo)]) -> 13  ;  (leq_elt([x, y])) -> insert_elt([x, econs(y, z), econs(x, econs(y, z))]) -> 13  ;  (leq_elt([b, a])) -> BOT -> 11
}
Sat witness: Yes: ((insert_elt([x, z, _qo]) /\ not leq_elt([x, y])) -> insert_elt([x, econs(y, z), econs(y, _qo)]), {
_qo -> econs(b, econs(b, enil))  ;  x -> b  ;  y -> a  ;  z -> econs(b, enil)
})

-------------------------------------------
Step 26, which took 0.020679 s (model generation: 0.011148,  model checking: 0.009531):

Model:
|_
{
delete_one_elt -> 
{{{
Q={q_gen_1040, q_gen_1042, q_gen_1043, q_gen_1057, q_gen_1058, q_gen_1059, q_gen_1060, q_gen_1072, q_gen_1075},
Q_f={q_gen_1040},
Delta=
{
<enil>() -> q_gen_1042
<a>() -> q_gen_1043
<b>() -> q_gen_1043
<econs, enil>(q_gen_1043, q_gen_1042) -> q_gen_1057
<enil, enil>() -> q_gen_1057
<enil, a>() -> q_gen_1058
<a, enil>() -> q_gen_1059
<b, enil>() -> q_gen_1059
<a, a>() -> q_gen_1060
<b, a>() -> q_gen_1060
<b, b>() -> q_gen_1060
<econs, a>(q_gen_1043, q_gen_1042) -> q_gen_1072
<econs, b>(q_gen_1043, q_gen_1042) -> q_gen_1072
<enil, b>() -> q_gen_1072
<a, econs, econs>(q_gen_1060, q_gen_1059, q_gen_1072, q_gen_1057) -> q_gen_1040
<a, econs, enil>(q_gen_1043, q_gen_1042) -> q_gen_1040
<a, enil, enil>() -> q_gen_1040
<b, econs, econs>(q_gen_1060, q_gen_1059, q_gen_1058, q_gen_1057) -> q_gen_1040
<b, econs, econs>(q_gen_1060, q_gen_1059, q_gen_1072, q_gen_1057) -> q_gen_1040
<b, econs, enil>(q_gen_1043, q_gen_1042) -> q_gen_1040
<b, enil, enil>() -> q_gen_1040
<a, econs, econs>(q_gen_1060, q_gen_1059, q_gen_1058, q_gen_1057) -> q_gen_1075
}

Datatype: <elt, elist, elist>
Convolution form: complete
}}}
  ;  insert_elt -> 
{{{
Q={q_gen_1037, q_gen_1038, q_gen_1039, q_gen_1045, q_gen_1046, q_gen_1047, q_gen_1048, q_gen_1049, q_gen_1062, q_gen_1085},
Q_f={q_gen_1037},
Delta=
{
<econs>(q_gen_1046, q_gen_1038) -> q_gen_1038
<enil>() -> q_gen_1038
<a>() -> q_gen_1039
<b>() -> q_gen_1046
<econs>(q_gen_1039, q_gen_1038) -> q_gen_1085
<econs, econs>(q_gen_1049, q_gen_1048, q_gen_1047, q_gen_1045) -> q_gen_1045
<enil, econs>(q_gen_1039, q_gen_1038) -> q_gen_1045
<enil, econs>(q_gen_1046, q_gen_1038) -> q_gen_1045
<econs, a>(q_gen_1039, q_gen_1038) -> q_gen_1047
<econs, a>(q_gen_1046, q_gen_1038) -> q_gen_1047
<econs, b>(q_gen_1039, q_gen_1038) -> q_gen_1047
<econs, b>(q_gen_1046, q_gen_1038) -> q_gen_1047
<enil, a>() -> q_gen_1047
<enil, b>() -> q_gen_1047
<a, econs>(q_gen_1039, q_gen_1038) -> q_gen_1048
<a, econs>(q_gen_1046, q_gen_1038) -> q_gen_1048
<a, econs>(q_gen_1046, q_gen_1085) -> q_gen_1048
<b, econs>(q_gen_1046, q_gen_1038) -> q_gen_1048
<b, econs>(q_gen_1046, q_gen_1085) -> q_gen_1048
<a, a>() -> q_gen_1049
<a, b>() -> q_gen_1049
<b, a>() -> q_gen_1049
<b, b>() -> q_gen_1049
<a, econs, econs>(q_gen_1049, q_gen_1048, q_gen_1047, q_gen_1045) -> q_gen_1037
<a, enil, econs>(q_gen_1039, q_gen_1038) -> q_gen_1037
<b, econs, econs>(q_gen_1049, q_gen_1048, q_gen_1047, q_gen_1045) -> q_gen_1037
<b, enil, econs>(q_gen_1046, q_gen_1038) -> q_gen_1037
<a, enil, econs>(q_gen_1039, q_gen_1085) -> q_gen_1062
<b, enil, econs>(q_gen_1039, q_gen_1038) -> q_gen_1062
}

Datatype: <elt, elist, elist>
Convolution form: complete
}}}
  ;  leq_elt -> 
{{{
Q={q_gen_1035, q_gen_1068},
Q_f={q_gen_1035},
Delta=
{
<a, a>() -> q_gen_1035
<a, b>() -> q_gen_1035
<b, b>() -> q_gen_1035
<b, a>() -> q_gen_1068
}

Datatype: <elt, elt>
Convolution form: complete
}}}

}
--
Equality automata are defined for: {eq_elist, eq_elt, eq_nat}
_|

Teacher's answer:
New clause system:
{
() -> delete_one_elt([h, econs(h, t), t]) -> 12  ;  () -> delete_one_elt([x, enil, enil]) -> 10  ;  () -> insert_elt([x, enil, econs(x, enil)]) -> 10  ;  () -> leq_elt([a, e2]) -> 10  ;  () -> leq_elt([b, b]) -> 10  ;  (delete_one_elt([e, _ap, _bp]) /\ insert_elt([e, l, _ap])) -> eq_elist([_bp, l]) -> 11  ;  (delete_one_elt([x, t, _vo]) /\ not eq_elt([x, h])) -> delete_one_elt([x, econs(h, t), econs(h, _vo)]) -> 13  ;  (insert_elt([x, z, _qo]) /\ not leq_elt([x, y])) -> insert_elt([x, econs(y, z), econs(y, _qo)]) -> 13  ;  (leq_elt([x, y])) -> insert_elt([x, econs(y, z), econs(x, econs(y, z))]) -> 13  ;  (leq_elt([b, a])) -> BOT -> 11
}
Sat witness: Yes: ((delete_one_elt([x, t, _vo]) /\ not eq_elt([x, h])) -> delete_one_elt([x, econs(h, t), econs(h, _vo)]), {
_vo -> econs(b, enil)  ;  h -> b  ;  t -> econs(b, enil)  ;  x -> a
})

-------------------------------------------
Step 27, which took 0.012450 s (model generation: 0.010955,  model checking: 0.001495):

Model:
|_
{
delete_one_elt -> 
{{{
Q={q_gen_1040, q_gen_1042, q_gen_1043, q_gen_1057, q_gen_1058, q_gen_1059, q_gen_1060, q_gen_1072, q_gen_1075},
Q_f={q_gen_1040},
Delta=
{
<enil>() -> q_gen_1042
<a>() -> q_gen_1043
<b>() -> q_gen_1043
<econs, econs>(q_gen_1060, q_gen_1059, q_gen_1072, q_gen_1057) -> q_gen_1057
<econs, enil>(q_gen_1043, q_gen_1042) -> q_gen_1057
<enil, enil>() -> q_gen_1057
<enil, a>() -> q_gen_1058
<a, enil>() -> q_gen_1059
<b, econs>(q_gen_1043, q_gen_1042) -> q_gen_1059
<b, enil>() -> q_gen_1059
<a, a>() -> q_gen_1060
<b, a>() -> q_gen_1060
<b, b>() -> q_gen_1060
<econs, a>(q_gen_1043, q_gen_1042) -> q_gen_1072
<econs, b>(q_gen_1043, q_gen_1042) -> q_gen_1072
<enil, b>() -> q_gen_1072
<a, econs, econs>(q_gen_1060, q_gen_1059, q_gen_1072, q_gen_1057) -> q_gen_1040
<a, econs, enil>(q_gen_1043, q_gen_1042) -> q_gen_1040
<a, enil, enil>() -> q_gen_1040
<b, econs, econs>(q_gen_1060, q_gen_1059, q_gen_1058, q_gen_1057) -> q_gen_1040
<b, econs, econs>(q_gen_1060, q_gen_1059, q_gen_1072, q_gen_1057) -> q_gen_1040
<b, econs, enil>(q_gen_1043, q_gen_1042) -> q_gen_1040
<b, enil, enil>() -> q_gen_1040
<a, econs, econs>(q_gen_1060, q_gen_1059, q_gen_1058, q_gen_1057) -> q_gen_1075
}

Datatype: <elt, elist, elist>
Convolution form: complete
}}}
  ;  insert_elt -> 
{{{
Q={q_gen_1037, q_gen_1038, q_gen_1039, q_gen_1045, q_gen_1046, q_gen_1047, q_gen_1048, q_gen_1049, q_gen_1062, q_gen_1085},
Q_f={q_gen_1037},
Delta=
{
<econs>(q_gen_1046, q_gen_1038) -> q_gen_1038
<enil>() -> q_gen_1038
<a>() -> q_gen_1039
<b>() -> q_gen_1046
<econs>(q_gen_1039, q_gen_1038) -> q_gen_1085
<econs, econs>(q_gen_1049, q_gen_1048, q_gen_1047, q_gen_1045) -> q_gen_1045
<enil, econs>(q_gen_1039, q_gen_1038) -> q_gen_1045
<enil, econs>(q_gen_1046, q_gen_1038) -> q_gen_1045
<econs, a>(q_gen_1039, q_gen_1038) -> q_gen_1047
<econs, a>(q_gen_1046, q_gen_1038) -> q_gen_1047
<econs, b>(q_gen_1039, q_gen_1038) -> q_gen_1047
<econs, b>(q_gen_1046, q_gen_1038) -> q_gen_1047
<enil, a>() -> q_gen_1047
<enil, b>() -> q_gen_1047
<a, econs>(q_gen_1039, q_gen_1038) -> q_gen_1048
<a, econs>(q_gen_1046, q_gen_1038) -> q_gen_1048
<a, econs>(q_gen_1046, q_gen_1085) -> q_gen_1048
<b, econs>(q_gen_1046, q_gen_1038) -> q_gen_1048
<b, econs>(q_gen_1046, q_gen_1085) -> q_gen_1048
<a, a>() -> q_gen_1049
<a, b>() -> q_gen_1049
<b, a>() -> q_gen_1049
<b, b>() -> q_gen_1049
<a, econs, econs>(q_gen_1049, q_gen_1048, q_gen_1047, q_gen_1045) -> q_gen_1037
<a, enil, econs>(q_gen_1039, q_gen_1038) -> q_gen_1037
<b, econs, econs>(q_gen_1049, q_gen_1048, q_gen_1047, q_gen_1045) -> q_gen_1037
<b, enil, econs>(q_gen_1046, q_gen_1038) -> q_gen_1037
<a, enil, econs>(q_gen_1039, q_gen_1085) -> q_gen_1062
<b, enil, econs>(q_gen_1039, q_gen_1038) -> q_gen_1062
}

Datatype: <elt, elist, elist>
Convolution form: complete
}}}
  ;  leq_elt -> 
{{{
Q={q_gen_1035, q_gen_1068},
Q_f={q_gen_1035},
Delta=
{
<a, a>() -> q_gen_1035
<a, b>() -> q_gen_1035
<b, b>() -> q_gen_1035
<b, a>() -> q_gen_1068
}

Datatype: <elt, elt>
Convolution form: complete
}}}

}
--
Equality automata are defined for: {eq_elist, eq_elt, eq_nat}
_|

Teacher's answer:
New clause system:
{
() -> delete_one_elt([h, econs(h, t), t]) -> 12  ;  () -> delete_one_elt([x, enil, enil]) -> 11  ;  () -> insert_elt([x, enil, econs(x, enil)]) -> 11  ;  () -> leq_elt([a, e2]) -> 11  ;  () -> leq_elt([b, b]) -> 11  ;  (delete_one_elt([e, _ap, _bp]) /\ insert_elt([e, l, _ap])) -> eq_elist([_bp, l]) -> 14  ;  (delete_one_elt([x, t, _vo]) /\ not eq_elt([x, h])) -> delete_one_elt([x, econs(h, t), econs(h, _vo)]) -> 13  ;  (insert_elt([x, z, _qo]) /\ not leq_elt([x, y])) -> insert_elt([x, econs(y, z), econs(y, _qo)]) -> 13  ;  (leq_elt([x, y])) -> insert_elt([x, econs(y, z), econs(x, econs(y, z))]) -> 13  ;  (leq_elt([b, a])) -> BOT -> 12
}
Sat witness: Yes: ((delete_one_elt([e, _ap, _bp]) /\ insert_elt([e, l, _ap])) -> eq_elist([_bp, l]), {
_ap -> econs(a, econs(b, enil))  ;  _bp -> econs(a, enil)  ;  e -> a  ;  l -> enil
})

-------------------------------------------
Step 28, which took 0.024209 s (model generation: 0.014266,  model checking: 0.009943):

Model:
|_
{
delete_one_elt -> 
{{{
Q={q_gen_1040, q_gen_1042, q_gen_1043, q_gen_1057, q_gen_1058, q_gen_1059, q_gen_1060, q_gen_1072, q_gen_1075},
Q_f={q_gen_1040},
Delta=
{
<enil>() -> q_gen_1042
<a>() -> q_gen_1043
<b>() -> q_gen_1043
<econs, econs>(q_gen_1060, q_gen_1059, q_gen_1072, q_gen_1057) -> q_gen_1057
<econs, enil>(q_gen_1043, q_gen_1042) -> q_gen_1057
<enil, enil>() -> q_gen_1057
<enil, a>() -> q_gen_1058
<a, enil>() -> q_gen_1059
<b, econs>(q_gen_1043, q_gen_1042) -> q_gen_1059
<b, enil>() -> q_gen_1059
<a, a>() -> q_gen_1060
<b, a>() -> q_gen_1060
<b, b>() -> q_gen_1060
<econs, a>(q_gen_1043, q_gen_1042) -> q_gen_1072
<econs, b>(q_gen_1043, q_gen_1042) -> q_gen_1072
<enil, b>() -> q_gen_1072
<a, econs, econs>(q_gen_1060, q_gen_1059, q_gen_1072, q_gen_1057) -> q_gen_1040
<a, econs, enil>(q_gen_1043, q_gen_1042) -> q_gen_1040
<a, enil, enil>() -> q_gen_1040
<b, econs, econs>(q_gen_1060, q_gen_1059, q_gen_1058, q_gen_1057) -> q_gen_1040
<b, econs, econs>(q_gen_1060, q_gen_1059, q_gen_1072, q_gen_1057) -> q_gen_1040
<b, econs, enil>(q_gen_1043, q_gen_1042) -> q_gen_1040
<b, enil, enil>() -> q_gen_1040
<a, econs, econs>(q_gen_1060, q_gen_1059, q_gen_1058, q_gen_1057) -> q_gen_1075
}

Datatype: <elt, elist, elist>
Convolution form: complete
}}}
  ;  insert_elt -> 
{{{
Q={q_gen_1037, q_gen_1038, q_gen_1039, q_gen_1045, q_gen_1046, q_gen_1047, q_gen_1048, q_gen_1049, q_gen_1062, q_gen_1085},
Q_f={q_gen_1037},
Delta=
{
<enil>() -> q_gen_1038
<a>() -> q_gen_1039
<b>() -> q_gen_1046
<econs>(q_gen_1039, q_gen_1038) -> q_gen_1085
<econs>(q_gen_1046, q_gen_1038) -> q_gen_1085
<econs, econs>(q_gen_1049, q_gen_1048, q_gen_1047, q_gen_1045) -> q_gen_1045
<enil, econs>(q_gen_1039, q_gen_1038) -> q_gen_1045
<enil, econs>(q_gen_1046, q_gen_1038) -> q_gen_1045
<econs, a>(q_gen_1039, q_gen_1038) -> q_gen_1047
<econs, a>(q_gen_1046, q_gen_1038) -> q_gen_1047
<econs, b>(q_gen_1039, q_gen_1038) -> q_gen_1047
<econs, b>(q_gen_1046, q_gen_1038) -> q_gen_1047
<enil, a>() -> q_gen_1047
<enil, b>() -> q_gen_1047
<a, econs>(q_gen_1039, q_gen_1038) -> q_gen_1048
<a, econs>(q_gen_1046, q_gen_1038) -> q_gen_1048
<a, econs>(q_gen_1046, q_gen_1085) -> q_gen_1048
<b, econs>(q_gen_1046, q_gen_1038) -> q_gen_1048
<b, econs>(q_gen_1046, q_gen_1085) -> q_gen_1048
<a, a>() -> q_gen_1049
<a, b>() -> q_gen_1049
<b, a>() -> q_gen_1049
<b, b>() -> q_gen_1049
<a, econs, econs>(q_gen_1049, q_gen_1048, q_gen_1047, q_gen_1045) -> q_gen_1037
<a, enil, econs>(q_gen_1039, q_gen_1038) -> q_gen_1037
<b, econs, econs>(q_gen_1049, q_gen_1048, q_gen_1047, q_gen_1045) -> q_gen_1037
<b, enil, econs>(q_gen_1046, q_gen_1038) -> q_gen_1037
<a, enil, econs>(q_gen_1039, q_gen_1085) -> q_gen_1062
<b, enil, econs>(q_gen_1039, q_gen_1038) -> q_gen_1062
}

Datatype: <elt, elist, elist>
Convolution form: complete
}}}
  ;  leq_elt -> 
{{{
Q={q_gen_1035, q_gen_1068},
Q_f={q_gen_1035},
Delta=
{
<a, a>() -> q_gen_1035
<a, b>() -> q_gen_1035
<b, b>() -> q_gen_1035
<b, a>() -> q_gen_1068
}

Datatype: <elt, elt>
Convolution form: complete
}}}

}
--
Equality automata are defined for: {eq_elist, eq_elt, eq_nat}
_|

Teacher's answer:
New clause system:
{
() -> delete_one_elt([h, econs(h, t), t]) -> 15  ;  () -> delete_one_elt([x, enil, enil]) -> 12  ;  () -> insert_elt([x, enil, econs(x, enil)]) -> 12  ;  () -> leq_elt([a, e2]) -> 12  ;  () -> leq_elt([b, b]) -> 12  ;  (delete_one_elt([e, _ap, _bp]) /\ insert_elt([e, l, _ap])) -> eq_elist([_bp, l]) -> 14  ;  (delete_one_elt([x, t, _vo]) /\ not eq_elt([x, h])) -> delete_one_elt([x, econs(h, t), econs(h, _vo)]) -> 13  ;  (insert_elt([x, z, _qo]) /\ not leq_elt([x, y])) -> insert_elt([x, econs(y, z), econs(y, _qo)]) -> 13  ;  (leq_elt([x, y])) -> insert_elt([x, econs(y, z), econs(x, econs(y, z))]) -> 13  ;  (leq_elt([b, a])) -> BOT -> 13
}
Sat witness: Yes: (() -> delete_one_elt([h, econs(h, t), t]), {
h -> a  ;  t -> econs(b, enil)
})

-------------------------------------------
Step 29, which took 0.637169 s (model generation: 0.013046,  model checking: 0.624123):

Model:
|_
{
delete_one_elt -> 
{{{
Q={q_gen_1040, q_gen_1042, q_gen_1043, q_gen_1057, q_gen_1058, q_gen_1059, q_gen_1060, q_gen_1072, q_gen_1075},
Q_f={q_gen_1040},
Delta=
{
<enil>() -> q_gen_1042
<a>() -> q_gen_1043
<b>() -> q_gen_1043
<econs, econs>(q_gen_1060, q_gen_1059, q_gen_1072, q_gen_1057) -> q_gen_1057
<econs, enil>(q_gen_1043, q_gen_1042) -> q_gen_1057
<enil, enil>() -> q_gen_1057
<enil, a>() -> q_gen_1058
<a, enil>() -> q_gen_1059
<b, econs>(q_gen_1043, q_gen_1042) -> q_gen_1059
<b, enil>() -> q_gen_1059
<a, a>() -> q_gen_1060
<a, b>() -> q_gen_1060
<b, a>() -> q_gen_1060
<b, b>() -> q_gen_1060
<econs, a>(q_gen_1043, q_gen_1042) -> q_gen_1072
<econs, b>(q_gen_1043, q_gen_1042) -> q_gen_1072
<enil, b>() -> q_gen_1072
<a, econs, econs>(q_gen_1060, q_gen_1059, q_gen_1072, q_gen_1057) -> q_gen_1040
<a, econs, enil>(q_gen_1043, q_gen_1042) -> q_gen_1040
<a, enil, enil>() -> q_gen_1040
<b, econs, econs>(q_gen_1060, q_gen_1059, q_gen_1058, q_gen_1057) -> q_gen_1040
<b, econs, econs>(q_gen_1060, q_gen_1059, q_gen_1072, q_gen_1057) -> q_gen_1040
<b, econs, enil>(q_gen_1043, q_gen_1042) -> q_gen_1040
<b, enil, enil>() -> q_gen_1040
<a, econs, econs>(q_gen_1060, q_gen_1059, q_gen_1058, q_gen_1057) -> q_gen_1075
}

Datatype: <elt, elist, elist>
Convolution form: complete
}}}
  ;  insert_elt -> 
{{{
Q={q_gen_1037, q_gen_1038, q_gen_1039, q_gen_1045, q_gen_1046, q_gen_1047, q_gen_1048, q_gen_1049, q_gen_1062, q_gen_1085},
Q_f={q_gen_1037},
Delta=
{
<enil>() -> q_gen_1038
<a>() -> q_gen_1039
<b>() -> q_gen_1046
<econs>(q_gen_1039, q_gen_1038) -> q_gen_1085
<econs>(q_gen_1046, q_gen_1038) -> q_gen_1085
<econs, econs>(q_gen_1049, q_gen_1048, q_gen_1047, q_gen_1045) -> q_gen_1045
<enil, econs>(q_gen_1039, q_gen_1038) -> q_gen_1045
<enil, econs>(q_gen_1046, q_gen_1038) -> q_gen_1045
<econs, a>(q_gen_1039, q_gen_1038) -> q_gen_1047
<econs, a>(q_gen_1046, q_gen_1038) -> q_gen_1047
<econs, b>(q_gen_1039, q_gen_1038) -> q_gen_1047
<econs, b>(q_gen_1046, q_gen_1038) -> q_gen_1047
<enil, a>() -> q_gen_1047
<enil, b>() -> q_gen_1047
<a, econs>(q_gen_1039, q_gen_1038) -> q_gen_1048
<a, econs>(q_gen_1046, q_gen_1038) -> q_gen_1048
<a, econs>(q_gen_1046, q_gen_1085) -> q_gen_1048
<b, econs>(q_gen_1046, q_gen_1038) -> q_gen_1048
<b, econs>(q_gen_1046, q_gen_1085) -> q_gen_1048
<a, a>() -> q_gen_1049
<a, b>() -> q_gen_1049
<b, a>() -> q_gen_1049
<b, b>() -> q_gen_1049
<a, econs, econs>(q_gen_1049, q_gen_1048, q_gen_1047, q_gen_1045) -> q_gen_1037
<a, enil, econs>(q_gen_1039, q_gen_1038) -> q_gen_1037
<b, econs, econs>(q_gen_1049, q_gen_1048, q_gen_1047, q_gen_1045) -> q_gen_1037
<b, enil, econs>(q_gen_1046, q_gen_1038) -> q_gen_1037
<a, enil, econs>(q_gen_1039, q_gen_1085) -> q_gen_1062
<b, enil, econs>(q_gen_1039, q_gen_1038) -> q_gen_1062
}

Datatype: <elt, elist, elist>
Convolution form: complete
}}}
  ;  leq_elt -> 
{{{
Q={q_gen_1035, q_gen_1068},
Q_f={q_gen_1035},
Delta=
{
<a, a>() -> q_gen_1035
<a, b>() -> q_gen_1035
<b, b>() -> q_gen_1035
<b, a>() -> q_gen_1068
}

Datatype: <elt, elt>
Convolution form: complete
}}}

}
--
Equality automata are defined for: {eq_elist, eq_elt, eq_nat}
_|

Teacher's answer:
New clause system:
{
() -> delete_one_elt([h, econs(h, t), t]) -> 15  ;  () -> delete_one_elt([x, enil, enil]) -> 13  ;  () -> insert_elt([x, enil, econs(x, enil)]) -> 13  ;  () -> leq_elt([a, e2]) -> 13  ;  () -> leq_elt([b, b]) -> 13  ;  (delete_one_elt([e, _ap, _bp]) /\ insert_elt([e, l, _ap])) -> eq_elist([_bp, l]) -> 14  ;  (delete_one_elt([x, t, _vo]) /\ not eq_elt([x, h])) -> delete_one_elt([x, econs(h, t), econs(h, _vo)]) -> 13  ;  (insert_elt([x, z, _qo]) /\ not leq_elt([x, y])) -> insert_elt([x, econs(y, z), econs(y, _qo)]) -> 13  ;  (leq_elt([x, y])) -> insert_elt([x, econs(y, z), econs(x, econs(y, z))]) -> 16  ;  (leq_elt([b, a])) -> BOT -> 14
}
Sat witness: Yes: ((leq_elt([x, y])) -> insert_elt([x, econs(y, z), econs(x, econs(y, z))]), {
x -> a  ;  y -> a  ;  z -> econs(b, enil)
})

Total time: 20.008097
Reason for stopping: DontKnow. Stopped because: timeout

