Solving ../../../../benchmarks/smtlib/false/sort_bug_length_eq.smt2...

Inference procedure has parameters:
Timeout: Some(40.) (sec)
Approximation method: remove functionnality constraint where possible



Learning problem is:

env: {
elt -> {a, b}  ;  eltlist -> {cons, nil}  ;  nat -> {s, z}
}
definition:
{
(leq, P:
{
leq(a, y) <= True
leq(b, b) <= True
False <= leq(b, a)
}
)
(insert, F:
{
insert(x, nil, cons(x, nil)) <= True
insert(x, cons(y, z), _lcb) \/ leq(x, y) <= insert(x, z, _lcb)
insert(x, cons(y, z), cons(x, cons(y, z))) <= leq(x, y)
}
eq_eltlist(_ocb, _pcb) <= insert(_mcb, _ncb, _ocb) /\ insert(_mcb, _ncb, _pcb)
)
(sort, F:
{
sort(nil, nil) <= True
sort(cons(y, z), _qcb) <= insert(y, _rcb, _qcb) /\ sort(z, _rcb)
}
eq_eltlist(_tcb, _ucb) <= sort(_scb, _tcb) /\ sort(_scb, _ucb)
)
(length, F:
{
length(nil, z) <= True
length(cons(x, ll), s(_vcb)) <= length(ll, _vcb)
}
eq_nat(_xcb, _ycb) <= length(_wcb, _xcb) /\ length(_wcb, _ycb)
)
}

properties:
{
eq_nat(_zcb, _adb) <= length(_bdb, _adb) /\ length(l, _zcb) /\ sort(l, _bdb)
}


over-approximation: {insert, length, sort}
under-approximation: {}

Clause system for inference is:

{
insert(x, nil, cons(x, nil)) <= True
length(nil, z) <= True
leq(a, y) <= True
leq(b, b) <= True
sort(nil, nil) <= True
insert(x, cons(y, z), _lcb) \/ leq(x, y) <= insert(x, z, _lcb)
sort(cons(y, z), _qcb) <= insert(y, _rcb, _qcb) /\ sort(z, _rcb)
eq_nat(_zcb, _adb) <= length(_bdb, _adb) /\ length(l, _zcb) /\ sort(l, _bdb)
length(cons(x, ll), s(_vcb)) <= length(ll, _vcb)
insert(x, cons(y, z), cons(x, cons(y, z))) <= leq(x, y)
False <= leq(b, a)
}


Solving took 5.834083 seconds.
No: Contradictory set of ground constraints:
{
False <= True
insert(a, cons(a, cons(a, nil)), cons(a, cons(a, cons(a, nil)))) <= True
insert(a, cons(a, nil), cons(a, cons(a, nil))) <= True
insert(a, cons(b, cons(a, nil)), cons(a, cons(b, cons(a, nil)))) <= True
insert(a, cons(b, nil), cons(a, cons(b, nil))) <= True
insert(a, nil, cons(a, nil)) <= True
insert(b, cons(a, nil), cons(b, nil)) <= True
insert(b, cons(b, nil), cons(b, cons(b, nil))) <= True
insert(b, nil, cons(b, nil)) <= True
length(cons(a, cons(a, nil)), s(s(z))) <= True
length(cons(a, nil), s(z)) <= True
length(cons(b, cons(b, nil)), s(s(z))) <= True
length(cons(b, nil), s(z)) <= True
length(nil, z) <= True
leq(a, a) <= True
leq(a, b) <= True
leq(b, b) <= True
sort(cons(a, cons(a, nil)), cons(a, cons(a, nil))) <= True
sort(cons(a, nil), cons(a, nil)) <= True
sort(cons(b, cons(a, nil)), cons(b, nil)) <= True
sort(nil, nil) <= True
False <= insert(a, cons(a, nil), cons(a, nil))
sort(cons(a, cons(a, nil)), cons(a, cons(a, cons(a, nil)))) <= insert(a, cons(b, nil), cons(a, cons(a, cons(a, nil)))) /\ sort(cons(a, nil), cons(b, nil))
sort(cons(a, cons(b, cons(a, nil))), cons(a, cons(a, nil))) <= insert(a, cons(b, nil), cons(a, cons(a, nil)))
False <= insert(a, cons(b, nil), cons(a, nil)) /\ sort(cons(a, nil), cons(b, nil))
False <= insert(a, nil, cons(a, cons(a, nil)))
sort(cons(b, cons(a, nil)), cons(a, cons(a, cons(a, nil)))) <= insert(b, cons(a, nil), cons(a, cons(a, cons(a, nil))))
sort(cons(b, cons(a, nil)), cons(a, cons(a, nil))) <= insert(b, cons(a, nil), cons(a, cons(a, nil)))
sort(cons(b, cons(a, nil)), cons(a, nil)) <= insert(b, cons(a, nil), cons(a, nil))
insert(b, cons(a, cons(b, nil)), cons(a, cons(a, cons(a, nil)))) <= insert(b, cons(b, nil), cons(a, cons(a, cons(a, nil))))
insert(b, cons(a, cons(b, nil)), cons(a, nil)) <= insert(b, cons(b, nil), cons(a, nil))
sort(cons(b, cons(a, nil)), cons(a, nil)) <= insert(b, cons(b, nil), cons(a, nil)) /\ sort(cons(a, nil), cons(b, nil))
sort(cons(b, cons(b, nil)), cons(b, cons(a, nil))) <= insert(b, cons(b, nil), cons(b, cons(a, nil))) /\ sort(cons(b, nil), cons(b, nil))
False <= insert(b, nil, cons(a, cons(a, nil)))
insert(b, cons(a, nil), cons(a, nil)) <= insert(b, nil, cons(a, nil))
sort(cons(b, nil), cons(a, nil)) <= insert(b, nil, cons(a, nil))
sort(cons(b, nil), cons(b, cons(a, nil))) <= insert(b, nil, cons(b, cons(a, nil)))
False <= length(cons(a, cons(a, cons(b, nil))), s(s(s(z)))) /\ length(cons(a, cons(b, nil)), s(s(z))) /\ sort(cons(a, cons(b, nil)), cons(a, cons(a, cons(b, nil))))
False <= length(cons(a, cons(b, nil)), s(s(z))) /\ sort(cons(a, nil), cons(a, cons(b, nil)))
False <= length(cons(a, nil), s(s(z)))
False <= length(cons(b, cons(a, nil)), s(s(z)))
False <= leq(b, a)
False <= sort(cons(a, cons(a, nil)), cons(a, nil))
False <= sort(cons(a, cons(a, nil)), cons(b, nil))
False <= sort(cons(a, nil), cons(a, cons(a, nil)))
False <= sort(cons(b, nil), cons(a, cons(a, nil)))
False <= sort(cons(b, nil), nil)
}
-------------------
STEPS:
-------------------------------------------
Step 0, which took 0.005372 s (model generation: 0.005273,  model checking: 0.000099):

Ground examples at the beginning of this step are:
{

}

Learner proposed model:
Found Model:
|_

insert ->
{
  
}
;
length ->
{
  
}
;
leq ->
{
  
}
;
sort ->
{
  
}

--
Equality automata are defined for: {elt, eltlist, nat}
_|


Answer of teacher:


insert(x, nil, cons(x, nil)) <= True -> Yes: {
x -> b
}
length(nil, z) <= True -> Yes: {

}
leq(a, y) <= True -> Yes: {
y -> b
}
leq(b, b) <= True -> Yes: {

}
sort(nil, nil) <= True -> Yes: {

}
insert(x, cons(y, z), _lcb) \/ leq(x, y) <= insert(x, z, _lcb) -> No: ()
sort(cons(y, z), _qcb) <= insert(y, _rcb, _qcb) /\ sort(z, _rcb) -> No: ()
eq_nat(_zcb, _adb) <= length(_bdb, _adb) /\ length(l, _zcb) /\ sort(l, _bdb) -> No: ()
length(cons(x, ll), s(_vcb)) <= length(ll, _vcb) -> No: ()
insert(x, cons(y, z), cons(x, cons(y, z))) <= leq(x, y) -> No: ()
False <= leq(b, a) -> No: ()



-------------------------------------------
Step 1, which took 0.006090 s (model generation: 0.005993,  model checking: 0.000097):

Ground examples at the beginning of this step are:
{
insert(b, nil, cons(b, nil)) <= True
length(nil, z) <= True
leq(a, b) <= True
leq(b, b) <= True
sort(nil, nil) <= True
}

Learner proposed model:
Found Model:
|_

insert ->
{
  insert(b, nil, cons(x_2_0, x_2_1)) <= True
}
;
length ->
{
  length(nil, z) <= True
}
;
leq ->
{
  leq(a, b) <= True
  leq(b, b) <= True
}
;
sort ->
{
  sort(nil, nil) <= True
}

--
Equality automata are defined for: {elt, eltlist, nat}
_|


Answer of teacher:


insert(x, nil, cons(x, nil)) <= True -> Yes: {
x -> a
}
length(nil, z) <= True -> No: ()
leq(a, y) <= True -> Yes: {
y -> a
}
leq(b, b) <= True -> No: ()
sort(nil, nil) <= True -> No: ()
insert(x, cons(y, z), _lcb) \/ leq(x, y) <= insert(x, z, _lcb) -> Yes: {
_lcb -> cons(_lcb_0, _lcb_1)  ;  x -> b  ;  y -> a  ;  z -> nil
}
sort(cons(y, z), _qcb) <= insert(y, _rcb, _qcb) /\ sort(z, _rcb) -> Yes: {
_qcb -> cons(_qcb_0, _qcb_1)  ;  _rcb -> nil  ;  y -> b  ;  z -> nil
}
eq_nat(_zcb, _adb) <= length(_bdb, _adb) /\ length(l, _zcb) /\ sort(l, _bdb) -> No: ()
length(cons(x, ll), s(_vcb)) <= length(ll, _vcb) -> Yes: {
_vcb -> z  ;  ll -> nil
}
insert(x, cons(y, z), cons(x, cons(y, z))) <= leq(x, y) -> Yes: {
x -> b  ;  y -> b
}
False <= leq(b, a) -> No: ()



-------------------------------------------
Step 2, which took 0.012797 s (model generation: 0.012608,  model checking: 0.000189):

Ground examples at the beginning of this step are:
{
insert(a, nil, cons(a, nil)) <= True
insert(b, cons(b, nil), cons(b, cons(b, nil))) <= True
insert(b, nil, cons(b, nil)) <= True
length(cons(a, nil), s(z)) <= True
length(nil, z) <= True
leq(a, a) <= True
leq(a, b) <= True
leq(b, b) <= True
sort(nil, nil) <= True
insert(b, cons(a, nil), cons(a, nil)) \/ leq(b, a) <= insert(b, nil, cons(a, nil))
sort(cons(b, nil), cons(a, nil)) <= insert(b, nil, cons(a, nil))
}

Learner proposed model:
Found Model:
|_

insert ->
{
  insert(a, nil, cons(x_2_0, x_2_1)) <= True
  insert(b, cons(x_1_0, x_1_1), cons(x_2_0, x_2_1)) <= True
  insert(b, nil, cons(x_2_0, x_2_1)) <= True
}
;
length ->
{
  length(cons(x_0_0, x_0_1), s(x_1_0)) <= True
  length(nil, z) <= True
}
;
leq ->
{
  leq(a, a) <= True
  leq(a, b) <= True
  leq(b, a) <= True
  leq(b, b) <= True
}
;
sort ->
{
  sort(cons(x_0_0, x_0_1), cons(x_1_0, x_1_1)) <= True
  sort(nil, nil) <= True
}

--
Equality automata are defined for: {elt, eltlist, nat}
_|


Answer of teacher:


insert(x, nil, cons(x, nil)) <= True -> No: ()
length(nil, z) <= True -> No: ()
leq(a, y) <= True -> No: ()
leq(b, b) <= True -> No: ()
sort(nil, nil) <= True -> No: ()
insert(x, cons(y, z), _lcb) \/ leq(x, y) <= insert(x, z, _lcb) -> No: ()
sort(cons(y, z), _qcb) <= insert(y, _rcb, _qcb) /\ sort(z, _rcb) -> No: ()
eq_nat(_zcb, _adb) <= length(_bdb, _adb) /\ length(l, _zcb) /\ sort(l, _bdb) -> Yes: {
_adb -> s(s(v1_0))  ;  _bdb -> cons(_bdb_0, _bdb_1)  ;  _zcb -> s(z)  ;  l -> cons(l_0, l_1)
}
length(cons(x, ll), s(_vcb)) <= length(ll, _vcb) -> No: ()
insert(x, cons(y, z), cons(x, cons(y, z))) <= leq(x, y) -> Yes: {
x -> a  ;  y -> b
}
False <= leq(b, a) -> Yes: {

}



-------------------------------------------
Step 3, which took 0.011606 s (model generation: 0.011406,  model checking: 0.000200):

Ground examples at the beginning of this step are:
{
insert(a, cons(b, nil), cons(a, cons(b, nil))) <= True
insert(a, nil, cons(a, nil)) <= True
insert(b, cons(b, nil), cons(b, cons(b, nil))) <= True
insert(b, nil, cons(b, nil)) <= True
length(cons(a, nil), s(z)) <= True
length(nil, z) <= True
leq(a, a) <= True
leq(a, b) <= True
leq(b, b) <= True
sort(nil, nil) <= True
insert(b, cons(a, nil), cons(a, nil)) <= insert(b, nil, cons(a, nil))
sort(cons(b, nil), cons(a, nil)) <= insert(b, nil, cons(a, nil))
False <= length(cons(a, nil), s(s(z))) /\ sort(cons(a, nil), cons(a, nil))
False <= leq(b, a)
}

Learner proposed model:
Found Model:
|_

insert ->
{
  insert(a, cons(x_1_0, x_1_1), cons(x_2_0, x_2_1)) <= True
  insert(a, nil, cons(x_2_0, x_2_1)) <= True
  insert(b, cons(x_1_0, x_1_1), cons(x_2_0, x_2_1)) <= True
  insert(b, nil, cons(x_2_0, x_2_1)) <= True
}
;
length ->
{
  length(cons(x_0_0, x_0_1), s(x_1_0)) <= length(x_0_1, x_1_0)
  length(nil, z) <= True
}
;
leq ->
{
  leq(a, a) <= True
  leq(a, b) <= True
  leq(b, b) <= True
}
;
sort ->
{
  sort(cons(x_0_0, x_0_1), cons(x_1_0, x_1_1)) <= True
  sort(nil, nil) <= True
}

--
Equality automata are defined for: {elt, eltlist, nat}
_|


Answer of teacher:


insert(x, nil, cons(x, nil)) <= True -> No: ()
length(nil, z) <= True -> No: ()
leq(a, y) <= True -> No: ()
leq(b, b) <= True -> No: ()
sort(nil, nil) <= True -> No: ()
insert(x, cons(y, z), _lcb) \/ leq(x, y) <= insert(x, z, _lcb) -> No: ()
sort(cons(y, z), _qcb) <= insert(y, _rcb, _qcb) /\ sort(z, _rcb) -> No: ()
eq_nat(_zcb, _adb) <= length(_bdb, _adb) /\ length(l, _zcb) /\ sort(l, _bdb) -> Yes: {
_adb -> s(s(z))  ;  _bdb -> cons(_bdb_0, cons(v2_0, nil))  ;  _zcb -> s(z)  ;  l -> cons(l_0, nil)
}
length(cons(x, ll), s(_vcb)) <= length(ll, _vcb) -> No: ()
insert(x, cons(y, z), cons(x, cons(y, z))) <= leq(x, y) -> No: ()
False <= leq(b, a) -> No: ()



-------------------------------------------
Step 4, which took 0.015366 s (model generation: 0.015118,  model checking: 0.000248):

Ground examples at the beginning of this step are:
{
insert(a, cons(b, nil), cons(a, cons(b, nil))) <= True
insert(a, nil, cons(a, nil)) <= True
insert(b, cons(b, nil), cons(b, cons(b, nil))) <= True
insert(b, nil, cons(b, nil)) <= True
length(cons(a, nil), s(z)) <= True
length(nil, z) <= True
leq(a, a) <= True
leq(a, b) <= True
leq(b, b) <= True
sort(nil, nil) <= True
insert(b, cons(a, nil), cons(a, nil)) <= insert(b, nil, cons(a, nil))
sort(cons(b, nil), cons(a, nil)) <= insert(b, nil, cons(a, nil))
False <= length(cons(a, cons(a, nil)), s(s(z))) /\ sort(cons(a, nil), cons(a, cons(a, nil)))
False <= length(cons(a, nil), s(s(z))) /\ sort(cons(a, nil), cons(a, nil))
False <= leq(b, a)
}

Learner proposed model:
Found Model:
|_

insert ->
{
  insert(a, cons(x_1_0, x_1_1), cons(x_2_0, x_2_1)) <= True
  insert(a, nil, cons(x_2_0, x_2_1)) <= True
  insert(b, cons(x_1_0, x_1_1), cons(x_2_0, x_2_1)) <= True
  insert(b, nil, cons(x_2_0, x_2_1)) <= True
}
;
length ->
{
  length(cons(x_0_0, x_0_1), s(x_1_0)) <= length(x_0_1, x_1_0)
  length(nil, z) <= True
}
;
leq ->
{
  leq(a, a) <= True
  leq(a, b) <= True
  leq(b, b) <= True
}
;
sort ->
{
  sort(cons(x_0_0, x_0_1), cons(x_1_0, x_1_1)) <= sort(x_0_1, x_1_1)
  sort(nil, nil) <= True
}

--
Equality automata are defined for: {elt, eltlist, nat}
_|


Answer of teacher:


insert(x, nil, cons(x, nil)) <= True -> No: ()
length(nil, z) <= True -> No: ()
leq(a, y) <= True -> No: ()
leq(b, b) <= True -> No: ()
sort(nil, nil) <= True -> No: ()
insert(x, cons(y, z), _lcb) \/ leq(x, y) <= insert(x, z, _lcb) -> No: ()
sort(cons(y, z), _qcb) <= insert(y, _rcb, _qcb) /\ sort(z, _rcb) -> Yes: {
_qcb -> cons(_qcb_0, cons(v0_0, v0_1))  ;  _rcb -> nil  ;  y -> b  ;  z -> nil
}
eq_nat(_zcb, _adb) <= length(_bdb, _adb) /\ length(l, _zcb) /\ sort(l, _bdb) -> No: ()
length(cons(x, ll), s(_vcb)) <= length(ll, _vcb) -> No: ()
insert(x, cons(y, z), cons(x, cons(y, z))) <= leq(x, y) -> No: ()
False <= leq(b, a) -> No: ()



-------------------------------------------
Step 5, which took 0.025355 s (model generation: 0.025244,  model checking: 0.000111):

Ground examples at the beginning of this step are:
{
insert(a, cons(b, nil), cons(a, cons(b, nil))) <= True
insert(a, nil, cons(a, nil)) <= True
insert(b, cons(b, nil), cons(b, cons(b, nil))) <= True
insert(b, nil, cons(b, nil)) <= True
length(cons(a, nil), s(z)) <= True
length(nil, z) <= True
leq(a, a) <= True
leq(a, b) <= True
leq(b, b) <= True
sort(nil, nil) <= True
sort(cons(b, nil), cons(a, cons(a, nil))) <= insert(b, nil, cons(a, cons(a, nil)))
insert(b, cons(a, nil), cons(a, nil)) <= insert(b, nil, cons(a, nil))
sort(cons(b, nil), cons(a, nil)) <= insert(b, nil, cons(a, nil))
False <= length(cons(a, cons(a, nil)), s(s(z))) /\ sort(cons(a, nil), cons(a, cons(a, nil)))
False <= length(cons(a, nil), s(s(z))) /\ sort(cons(a, nil), cons(a, nil))
False <= leq(b, a)
}

Learner proposed model:
Found Model:
|_

_r_1 ->
{
  _r_1(z) <= True
}
;
insert ->
{
  insert(a, cons(x_1_0, x_1_1), cons(x_2_0, x_2_1)) <= True
  insert(a, nil, cons(x_2_0, x_2_1)) <= True
  insert(b, cons(x_1_0, x_1_1), cons(x_2_0, x_2_1)) <= True
  insert(b, nil, cons(x_2_0, x_2_1)) <= True
}
;
length ->
{
  length(cons(x_0_0, x_0_1), s(x_1_0)) <= _r_1(x_1_0)
  length(nil, z) <= True
}
;
leq ->
{
  leq(a, a) <= True
  leq(a, b) <= True
  leq(b, b) <= True
}
;
sort ->
{
  sort(cons(x_0_0, x_0_1), cons(x_1_0, x_1_1)) <= True
  sort(nil, nil) <= True
}

--
Equality automata are defined for: {elt, eltlist, nat}
_|


Answer of teacher:


insert(x, nil, cons(x, nil)) <= True -> No: ()
length(nil, z) <= True -> No: ()
leq(a, y) <= True -> No: ()
leq(b, b) <= True -> No: ()
sort(nil, nil) <= True -> No: ()
insert(x, cons(y, z), _lcb) \/ leq(x, y) <= insert(x, z, _lcb) -> No: ()
sort(cons(y, z), _qcb) <= insert(y, _rcb, _qcb) /\ sort(z, _rcb) -> No: ()
eq_nat(_zcb, _adb) <= length(_bdb, _adb) /\ length(l, _zcb) /\ sort(l, _bdb) -> No: ()
length(cons(x, ll), s(_vcb)) <= length(ll, _vcb) -> Yes: {
_vcb -> s(z)  ;  ll -> cons(v1_0, v1_1)
}
insert(x, cons(y, z), cons(x, cons(y, z))) <= leq(x, y) -> No: ()
False <= leq(b, a) -> No: ()



-------------------------------------------
Step 6, which took 0.022003 s (model generation: 0.021716,  model checking: 0.000287):

Ground examples at the beginning of this step are:
{
insert(a, cons(b, nil), cons(a, cons(b, nil))) <= True
insert(a, nil, cons(a, nil)) <= True
insert(b, cons(b, nil), cons(b, cons(b, nil))) <= True
insert(b, nil, cons(b, nil)) <= True
length(cons(a, cons(a, nil)), s(s(z))) <= True
length(cons(a, nil), s(z)) <= True
length(nil, z) <= True
leq(a, a) <= True
leq(a, b) <= True
leq(b, b) <= True
sort(nil, nil) <= True
sort(cons(b, nil), cons(a, cons(a, nil))) <= insert(b, nil, cons(a, cons(a, nil)))
insert(b, cons(a, nil), cons(a, nil)) <= insert(b, nil, cons(a, nil))
sort(cons(b, nil), cons(a, nil)) <= insert(b, nil, cons(a, nil))
False <= length(cons(a, nil), s(s(z))) /\ sort(cons(a, nil), cons(a, nil))
False <= leq(b, a)
False <= sort(cons(a, nil), cons(a, cons(a, nil)))
}

Learner proposed model:
Found Model:
|_

_r_1 ->
{
  _r_1(b) <= True
}
;
insert ->
{
  insert(a, cons(x_1_0, x_1_1), cons(x_2_0, x_2_1)) <= True
  insert(a, nil, cons(x_2_0, x_2_1)) <= True
  insert(b, cons(x_1_0, x_1_1), cons(x_2_0, x_2_1)) <= True
  insert(b, nil, cons(x_2_0, x_2_1)) <= True
}
;
length ->
{
  length(cons(x_0_0, x_0_1), s(x_1_0)) <= True
  length(nil, z) <= True
}
;
leq ->
{
  leq(a, a) <= True
  leq(a, b) <= True
  leq(b, b) <= True
}
;
sort ->
{
  sort(cons(x_0_0, x_0_1), cons(x_1_0, x_1_1)) <= _r_1(x_0_0)
  sort(nil, nil) <= True
}

--
Equality automata are defined for: {elt, eltlist, nat}
_|


Answer of teacher:


insert(x, nil, cons(x, nil)) <= True -> No: ()
length(nil, z) <= True -> No: ()
leq(a, y) <= True -> No: ()
leq(b, b) <= True -> No: ()
sort(nil, nil) <= True -> No: ()
insert(x, cons(y, z), _lcb) \/ leq(x, y) <= insert(x, z, _lcb) -> No: ()
sort(cons(y, z), _qcb) <= insert(y, _rcb, _qcb) /\ sort(z, _rcb) -> Yes: {
_qcb -> cons(_qcb_0, _qcb_1)  ;  _rcb -> nil  ;  y -> a  ;  z -> nil
}
eq_nat(_zcb, _adb) <= length(_bdb, _adb) /\ length(l, _zcb) /\ sort(l, _bdb) -> Yes: {
_adb -> s(s(v1_0))  ;  _bdb -> cons(_bdb_0, _bdb_1)  ;  _zcb -> s(z)  ;  l -> cons(b, l_1)
}
length(cons(x, ll), s(_vcb)) <= length(ll, _vcb) -> No: ()
insert(x, cons(y, z), cons(x, cons(y, z))) <= leq(x, y) -> No: ()
False <= leq(b, a) -> No: ()



-------------------------------------------
Step 7, which took 0.023898 s (model generation: 0.023622,  model checking: 0.000276):

Ground examples at the beginning of this step are:
{
insert(a, cons(b, nil), cons(a, cons(b, nil))) <= True
insert(a, nil, cons(a, nil)) <= True
insert(b, cons(b, nil), cons(b, cons(b, nil))) <= True
insert(b, nil, cons(b, nil)) <= True
length(cons(a, cons(a, nil)), s(s(z))) <= True
length(cons(a, nil), s(z)) <= True
length(nil, z) <= True
leq(a, a) <= True
leq(a, b) <= True
leq(b, b) <= True
sort(cons(a, nil), cons(a, nil)) <= True
sort(nil, nil) <= True
sort(cons(b, nil), cons(a, cons(a, nil))) <= insert(b, nil, cons(a, cons(a, nil)))
insert(b, cons(a, nil), cons(a, nil)) <= insert(b, nil, cons(a, nil))
sort(cons(b, nil), cons(a, nil)) <= insert(b, nil, cons(a, nil))
False <= length(cons(a, nil), s(s(z)))
False <= leq(b, a)
False <= sort(cons(a, nil), cons(a, cons(a, nil)))
}

Learner proposed model:
Found Model:
|_

_r_1 ->
{
  _r_1(a, nil) <= True
  _r_1(b, cons(x_1_0, x_1_1)) <= True
  _r_1(b, nil) <= True
}
;
insert ->
{
  insert(a, cons(x_1_0, x_1_1), cons(x_2_0, x_2_1)) <= True
  insert(a, nil, cons(x_2_0, x_2_1)) <= True
  insert(b, cons(x_1_0, x_1_1), cons(x_2_0, x_2_1)) <= True
  insert(b, nil, cons(x_2_0, x_2_1)) <= True
}
;
length ->
{
  length(cons(x_0_0, x_0_1), s(x_1_0)) <= length(x_0_1, x_1_0)
  length(nil, z) <= True
}
;
leq ->
{
  leq(a, a) <= True
  leq(a, b) <= True
  leq(b, b) <= True
}
;
sort ->
{
  sort(cons(x_0_0, x_0_1), cons(x_1_0, x_1_1)) <= _r_1(x_0_0, x_1_1)
  sort(nil, nil) <= True
}

--
Equality automata are defined for: {elt, eltlist, nat}
_|


Answer of teacher:


insert(x, nil, cons(x, nil)) <= True -> No: ()
length(nil, z) <= True -> No: ()
leq(a, y) <= True -> No: ()
leq(b, b) <= True -> No: ()
sort(nil, nil) <= True -> No: ()
insert(x, cons(y, z), _lcb) \/ leq(x, y) <= insert(x, z, _lcb) -> No: ()
sort(cons(y, z), _qcb) <= insert(y, _rcb, _qcb) /\ sort(z, _rcb) -> Yes: {
_qcb -> cons(_qcb_0, cons(v0_0, v0_1))  ;  _rcb -> nil  ;  y -> a  ;  z -> nil
}
eq_nat(_zcb, _adb) <= length(_bdb, _adb) /\ length(l, _zcb) /\ sort(l, _bdb) -> Yes: {
_adb -> s(s(z))  ;  _bdb -> cons(_bdb_0, cons(v3_0, nil))  ;  _zcb -> s(z)  ;  l -> cons(b, nil)
}
length(cons(x, ll), s(_vcb)) <= length(ll, _vcb) -> No: ()
insert(x, cons(y, z), cons(x, cons(y, z))) <= leq(x, y) -> No: ()
False <= leq(b, a) -> No: ()



-------------------------------------------
Step 8, which took 0.020760 s (model generation: 0.020564,  model checking: 0.000196):

Ground examples at the beginning of this step are:
{
insert(a, cons(b, nil), cons(a, cons(b, nil))) <= True
insert(a, nil, cons(a, nil)) <= True
insert(b, cons(b, nil), cons(b, cons(b, nil))) <= True
insert(b, nil, cons(b, nil)) <= True
length(cons(a, cons(a, nil)), s(s(z))) <= True
length(cons(a, nil), s(z)) <= True
length(nil, z) <= True
leq(a, a) <= True
leq(a, b) <= True
leq(b, b) <= True
sort(cons(a, nil), cons(a, nil)) <= True
sort(nil, nil) <= True
False <= insert(a, nil, cons(a, cons(a, nil)))
sort(cons(b, nil), cons(a, cons(a, nil))) <= insert(b, nil, cons(a, cons(a, nil)))
insert(b, cons(a, nil), cons(a, nil)) <= insert(b, nil, cons(a, nil))
sort(cons(b, nil), cons(a, nil)) <= insert(b, nil, cons(a, nil))
False <= length(cons(a, nil), s(s(z)))
False <= length(cons(b, nil), s(z)) /\ sort(cons(b, nil), cons(a, cons(a, nil)))
False <= leq(b, a)
False <= sort(cons(a, nil), cons(a, cons(a, nil)))
}

Learner proposed model:
Found Model:
|_

_r_1 ->
{
  _r_1(nil) <= True
}
;
insert ->
{
  insert(a, cons(x_1_0, x_1_1), cons(x_2_0, x_2_1)) <= True
  insert(a, nil, cons(x_2_0, x_2_1)) <= _r_1(x_2_1)
  insert(b, cons(x_1_0, x_1_1), cons(x_2_0, x_2_1)) <= True
  insert(b, nil, cons(x_2_0, x_2_1)) <= _r_1(x_2_1)
}
;
length ->
{
  length(cons(x_0_0, x_0_1), s(x_1_0)) <= length(x_0_1, x_1_0)
  length(nil, z) <= True
}
;
leq ->
{
  leq(a, a) <= True
  leq(a, b) <= True
  leq(b, b) <= True
}
;
sort ->
{
  sort(cons(x_0_0, x_0_1), cons(x_1_0, x_1_1)) <= _r_1(x_1_1)
  sort(nil, nil) <= True
}

--
Equality automata are defined for: {elt, eltlist, nat}
_|


Answer of teacher:


insert(x, nil, cons(x, nil)) <= True -> No: ()
length(nil, z) <= True -> No: ()
leq(a, y) <= True -> No: ()
leq(b, b) <= True -> No: ()
sort(nil, nil) <= True -> No: ()
insert(x, cons(y, z), _lcb) \/ leq(x, y) <= insert(x, z, _lcb) -> No: ()
sort(cons(y, z), _qcb) <= insert(y, _rcb, _qcb) /\ sort(z, _rcb) -> Yes: {
_qcb -> cons(_qcb_0, cons(v0_0, v0_1))  ;  _rcb -> cons(_rcb_0, nil)  ;  y -> b  ;  z -> cons(z_0, z_1)
}
eq_nat(_zcb, _adb) <= length(_bdb, _adb) /\ length(l, _zcb) /\ sort(l, _bdb) -> Yes: {
_adb -> s(z)  ;  _bdb -> cons(_bdb_0, nil)  ;  _zcb -> s(s(z))  ;  l -> cons(l_0, cons(v3_0, nil))
}
length(cons(x, ll), s(_vcb)) <= length(ll, _vcb) -> No: ()
insert(x, cons(y, z), cons(x, cons(y, z))) <= leq(x, y) -> No: ()
False <= leq(b, a) -> No: ()



-------------------------------------------
Step 9, which took 0.024655 s (model generation: 0.024460,  model checking: 0.000195):

Ground examples at the beginning of this step are:
{
insert(a, cons(b, nil), cons(a, cons(b, nil))) <= True
insert(a, nil, cons(a, nil)) <= True
insert(b, cons(b, nil), cons(b, cons(b, nil))) <= True
insert(b, nil, cons(b, nil)) <= True
length(cons(a, cons(a, nil)), s(s(z))) <= True
length(cons(a, nil), s(z)) <= True
length(nil, z) <= True
leq(a, a) <= True
leq(a, b) <= True
leq(b, b) <= True
sort(cons(a, nil), cons(a, nil)) <= True
sort(nil, nil) <= True
False <= insert(a, nil, cons(a, cons(a, nil)))
sort(cons(b, cons(a, nil)), cons(a, cons(a, nil))) <= insert(b, cons(a, nil), cons(a, cons(a, nil)))
sort(cons(b, nil), cons(a, cons(a, nil))) <= insert(b, nil, cons(a, cons(a, nil)))
insert(b, cons(a, nil), cons(a, nil)) <= insert(b, nil, cons(a, nil))
sort(cons(b, nil), cons(a, nil)) <= insert(b, nil, cons(a, nil))
False <= length(cons(a, nil), s(s(z)))
False <= length(cons(b, nil), s(z)) /\ sort(cons(b, nil), cons(a, cons(a, nil)))
False <= leq(b, a)
False <= sort(cons(a, cons(a, nil)), cons(a, nil))
False <= sort(cons(a, nil), cons(a, cons(a, nil)))
}

Learner proposed model:
Found Model:
|_

_r_1 ->
{
  _r_1(nil) <= True
}
;
insert ->
{
  insert(a, cons(x_1_0, x_1_1), cons(x_2_0, x_2_1)) <= True
  insert(a, nil, cons(x_2_0, x_2_1)) <= _r_1(x_2_1)
  insert(b, cons(x_1_0, x_1_1), cons(x_2_0, x_2_1)) <= True
  insert(b, nil, cons(x_2_0, x_2_1)) <= _r_1(x_2_1)
}
;
length ->
{
  length(cons(x_0_0, x_0_1), s(x_1_0)) <= length(x_0_1, x_1_0)
  length(nil, z) <= True
}
;
leq ->
{
  leq(a, a) <= True
  leq(a, b) <= True
  leq(b, b) <= True
}
;
sort ->
{
  sort(cons(x_0_0, x_0_1), cons(x_1_0, x_1_1)) <= sort(x_0_1, x_1_1)
  sort(nil, nil) <= True
}

--
Equality automata are defined for: {elt, eltlist, nat}
_|


Answer of teacher:


insert(x, nil, cons(x, nil)) <= True -> No: ()
length(nil, z) <= True -> No: ()
leq(a, y) <= True -> No: ()
leq(b, b) <= True -> No: ()
sort(nil, nil) <= True -> No: ()
insert(x, cons(y, z), _lcb) \/ leq(x, y) <= insert(x, z, _lcb) -> No: ()
sort(cons(y, z), _qcb) <= insert(y, _rcb, _qcb) /\ sort(z, _rcb) -> Yes: {
_qcb -> cons(_qcb_0, nil)  ;  _rcb -> cons(_rcb_0, nil)  ;  y -> b  ;  z -> cons(z_0, nil)
}
eq_nat(_zcb, _adb) <= length(_bdb, _adb) /\ length(l, _zcb) /\ sort(l, _bdb) -> No: ()
length(cons(x, ll), s(_vcb)) <= length(ll, _vcb) -> No: ()
insert(x, cons(y, z), cons(x, cons(y, z))) <= leq(x, y) -> No: ()
False <= leq(b, a) -> No: ()



-------------------------------------------
Step 10, which took 0.049180 s (model generation: 0.048822,  model checking: 0.000358):

Ground examples at the beginning of this step are:
{
insert(a, cons(b, nil), cons(a, cons(b, nil))) <= True
insert(a, nil, cons(a, nil)) <= True
insert(b, cons(b, nil), cons(b, cons(b, nil))) <= True
insert(b, nil, cons(b, nil)) <= True
length(cons(a, cons(a, nil)), s(s(z))) <= True
length(cons(a, nil), s(z)) <= True
length(nil, z) <= True
leq(a, a) <= True
leq(a, b) <= True
leq(b, b) <= True
sort(cons(a, nil), cons(a, nil)) <= True
sort(nil, nil) <= True
False <= insert(a, nil, cons(a, cons(a, nil)))
sort(cons(b, cons(a, nil)), cons(a, cons(a, nil))) <= insert(b, cons(a, nil), cons(a, cons(a, nil)))
sort(cons(b, cons(a, nil)), cons(a, nil)) <= insert(b, cons(a, nil), cons(a, nil))
sort(cons(b, nil), cons(a, cons(a, nil))) <= insert(b, nil, cons(a, cons(a, nil)))
insert(b, cons(a, nil), cons(a, nil)) <= insert(b, nil, cons(a, nil))
sort(cons(b, nil), cons(a, nil)) <= insert(b, nil, cons(a, nil))
False <= length(cons(a, nil), s(s(z)))
False <= length(cons(b, nil), s(z)) /\ sort(cons(b, nil), cons(a, cons(a, nil)))
False <= leq(b, a)
False <= sort(cons(a, cons(a, nil)), cons(a, nil))
False <= sort(cons(a, nil), cons(a, cons(a, nil)))
}

Learner proposed model:
Found Model:
|_

_r_1 ->
{
  _r_1(nil) <= True
}
;
_r_2 ->
{
  _r_2(b) <= True
}
;
insert ->
{
  insert(a, cons(x_1_0, x_1_1), cons(x_2_0, x_2_1)) <= True
  insert(a, nil, cons(x_2_0, x_2_1)) <= _r_1(x_2_1)
  insert(b, cons(x_1_0, x_1_1), cons(x_2_0, x_2_1)) <= _r_2(x_2_0)
  insert(b, nil, cons(x_2_0, x_2_1)) <= _r_2(x_2_0)
}
;
length ->
{
  length(cons(x_0_0, x_0_1), s(x_1_0)) <= length(x_0_1, x_1_0)
  length(nil, z) <= True
}
;
leq ->
{
  leq(a, a) <= True
  leq(a, b) <= True
  leq(b, b) <= True
}
;
sort ->
{
  sort(cons(x_0_0, x_0_1), cons(x_1_0, x_1_1)) <= sort(x_0_1, x_1_1)
  sort(nil, nil) <= True
}

--
Equality automata are defined for: {elt, eltlist, nat}
_|


Answer of teacher:


insert(x, nil, cons(x, nil)) <= True -> No: ()
length(nil, z) <= True -> No: ()
leq(a, y) <= True -> No: ()
leq(b, b) <= True -> No: ()
sort(nil, nil) <= True -> No: ()
insert(x, cons(y, z), _lcb) \/ leq(x, y) <= insert(x, z, _lcb) -> No: ()
sort(cons(y, z), _qcb) <= insert(y, _rcb, _qcb) /\ sort(z, _rcb) -> Yes: {
_qcb -> cons(b, cons(v0_0, v0_1))  ;  _rcb -> nil  ;  y -> b  ;  z -> nil
}
eq_nat(_zcb, _adb) <= length(_bdb, _adb) /\ length(l, _zcb) /\ sort(l, _bdb) -> No: ()
length(cons(x, ll), s(_vcb)) <= length(ll, _vcb) -> No: ()
insert(x, cons(y, z), cons(x, cons(y, z))) <= leq(x, y) -> No: ()
False <= leq(b, a) -> No: ()



-------------------------------------------
Step 11, which took 0.051275 s (model generation: 0.050931,  model checking: 0.000344):

Ground examples at the beginning of this step are:
{
insert(a, cons(b, nil), cons(a, cons(b, nil))) <= True
insert(a, nil, cons(a, nil)) <= True
insert(b, cons(b, nil), cons(b, cons(b, nil))) <= True
insert(b, nil, cons(b, nil)) <= True
length(cons(a, cons(a, nil)), s(s(z))) <= True
length(cons(a, nil), s(z)) <= True
length(nil, z) <= True
leq(a, a) <= True
leq(a, b) <= True
leq(b, b) <= True
sort(cons(a, nil), cons(a, nil)) <= True
sort(nil, nil) <= True
False <= insert(a, nil, cons(a, cons(a, nil)))
sort(cons(b, cons(a, nil)), cons(a, cons(a, nil))) <= insert(b, cons(a, nil), cons(a, cons(a, nil)))
sort(cons(b, cons(a, nil)), cons(a, nil)) <= insert(b, cons(a, nil), cons(a, nil))
sort(cons(b, nil), cons(a, cons(a, nil))) <= insert(b, nil, cons(a, cons(a, nil)))
insert(b, cons(a, nil), cons(a, nil)) <= insert(b, nil, cons(a, nil))
sort(cons(b, nil), cons(a, nil)) <= insert(b, nil, cons(a, nil))
sort(cons(b, nil), cons(b, cons(a, nil))) <= insert(b, nil, cons(b, cons(a, nil)))
False <= length(cons(a, nil), s(s(z)))
False <= length(cons(b, nil), s(z)) /\ sort(cons(b, nil), cons(a, cons(a, nil)))
False <= leq(b, a)
False <= sort(cons(a, cons(a, nil)), cons(a, nil))
False <= sort(cons(a, nil), cons(a, cons(a, nil)))
}

Learner proposed model:
Found Model:
|_

_r_1 ->
{
  _r_1(b, nil) <= True
}
;
_r_2 ->
{
  _r_2(nil) <= True
}
;
insert ->
{
  insert(a, cons(x_1_0, x_1_1), cons(x_2_0, x_2_1)) <= True
  insert(a, nil, cons(x_2_0, x_2_1)) <= _r_2(x_2_1)
  insert(b, cons(x_1_0, x_1_1), cons(x_2_0, x_2_1)) <= True
  insert(b, nil, cons(x_2_0, x_2_1)) <= _r_2(x_2_1)
}
;
length ->
{
  length(cons(x_0_0, x_0_1), s(x_1_0)) <= length(x_0_1, x_1_0)
  length(nil, z) <= True
}
;
leq ->
{
  leq(a, a) <= True
  leq(a, b) <= True
  leq(b, b) <= True
}
;
sort ->
{
  sort(cons(x_0_0, x_0_1), cons(x_1_0, x_1_1)) <= _r_1(x_0_0, x_1_1)
  sort(cons(x_0_0, x_0_1), cons(x_1_0, x_1_1)) <= sort(x_0_1, x_1_1)
  sort(nil, nil) <= True
}

--
Equality automata are defined for: {elt, eltlist, nat}
_|


Answer of teacher:


insert(x, nil, cons(x, nil)) <= True -> No: ()
length(nil, z) <= True -> No: ()
leq(a, y) <= True -> No: ()
leq(b, b) <= True -> No: ()
sort(nil, nil) <= True -> No: ()
insert(x, cons(y, z), _lcb) \/ leq(x, y) <= insert(x, z, _lcb) -> No: ()
sort(cons(y, z), _qcb) <= insert(y, _rcb, _qcb) /\ sort(z, _rcb) -> Yes: {
_qcb -> cons(_qcb_0, nil)  ;  _rcb -> cons(_rcb_0, nil)  ;  y -> a  ;  z -> cons(b, z_1)
}
eq_nat(_zcb, _adb) <= length(_bdb, _adb) /\ length(l, _zcb) /\ sort(l, _bdb) -> Yes: {
_adb -> s(z)  ;  _bdb -> cons(_bdb_0, nil)  ;  _zcb -> s(s(z))  ;  l -> cons(b, cons(v4_0, nil))
}
length(cons(x, ll), s(_vcb)) <= length(ll, _vcb) -> No: ()
insert(x, cons(y, z), cons(x, cons(y, z))) <= leq(x, y) -> No: ()
False <= leq(b, a) -> No: ()



-------------------------------------------
Step 12, which took 0.056821 s (model generation: 0.056491,  model checking: 0.000330):

Ground examples at the beginning of this step are:
{
insert(a, cons(b, nil), cons(a, cons(b, nil))) <= True
insert(a, nil, cons(a, nil)) <= True
insert(b, cons(b, nil), cons(b, cons(b, nil))) <= True
insert(b, nil, cons(b, nil)) <= True
length(cons(a, cons(a, nil)), s(s(z))) <= True
length(cons(a, nil), s(z)) <= True
length(nil, z) <= True
leq(a, a) <= True
leq(a, b) <= True
leq(b, b) <= True
sort(cons(a, nil), cons(a, nil)) <= True
sort(nil, nil) <= True
sort(cons(a, cons(b, nil)), cons(a, nil)) <= insert(a, cons(a, nil), cons(a, nil)) /\ sort(cons(b, nil), cons(a, nil))
False <= insert(a, nil, cons(a, cons(a, nil)))
sort(cons(b, cons(a, nil)), cons(a, cons(a, nil))) <= insert(b, cons(a, nil), cons(a, cons(a, nil)))
sort(cons(b, cons(a, nil)), cons(a, nil)) <= insert(b, cons(a, nil), cons(a, nil))
sort(cons(b, nil), cons(a, cons(a, nil))) <= insert(b, nil, cons(a, cons(a, nil)))
insert(b, cons(a, nil), cons(a, nil)) <= insert(b, nil, cons(a, nil))
sort(cons(b, nil), cons(a, nil)) <= insert(b, nil, cons(a, nil))
sort(cons(b, nil), cons(b, cons(a, nil))) <= insert(b, nil, cons(b, cons(a, nil)))
False <= length(cons(a, nil), s(s(z)))
False <= length(cons(b, cons(a, nil)), s(s(z))) /\ sort(cons(b, cons(a, nil)), cons(a, nil))
False <= length(cons(b, nil), s(z)) /\ sort(cons(b, nil), cons(a, cons(a, nil)))
False <= leq(b, a)
False <= sort(cons(a, cons(a, nil)), cons(a, nil))
False <= sort(cons(a, nil), cons(a, cons(a, nil)))
}

Learner proposed model:
Found Model:
|_

_r_1 ->
{
  _r_1(nil) <= True
}
;
_r_2 ->
{
  _r_2(b) <= True
}
;
insert ->
{
  insert(a, cons(x_1_0, x_1_1), cons(x_2_0, x_2_1)) <= _r_2(x_1_0)
  insert(a, nil, cons(x_2_0, x_2_1)) <= _r_1(x_2_1)
  insert(b, cons(x_1_0, x_1_1), cons(x_2_0, x_2_1)) <= _r_2(x_1_0)
  insert(b, nil, cons(x_2_0, x_2_1)) <= _r_1(x_2_1) /\ _r_2(x_2_0)
}
;
length ->
{
  length(cons(x_0_0, x_0_1), s(x_1_0)) <= length(x_0_1, x_1_0)
  length(nil, z) <= True
}
;
leq ->
{
  leq(a, a) <= True
  leq(a, b) <= True
  leq(b, b) <= True
}
;
sort ->
{
  sort(cons(x_0_0, x_0_1), cons(x_1_0, x_1_1)) <= sort(x_0_1, x_1_1)
  sort(nil, nil) <= True
}

--
Equality automata are defined for: {elt, eltlist, nat}
_|


Answer of teacher:


insert(x, nil, cons(x, nil)) <= True -> No: ()
length(nil, z) <= True -> No: ()
leq(a, y) <= True -> No: ()
leq(b, b) <= True -> No: ()
sort(nil, nil) <= True -> No: ()
insert(x, cons(y, z), _lcb) \/ leq(x, y) <= insert(x, z, _lcb) -> Yes: {
_lcb -> cons(_lcb_0, _lcb_1)  ;  x -> b  ;  y -> a  ;  z -> cons(b, z_1)
}
sort(cons(y, z), _qcb) <= insert(y, _rcb, _qcb) /\ sort(z, _rcb) -> Yes: {
_qcb -> cons(_qcb_0, nil)  ;  _rcb -> cons(b, nil)  ;  y -> b  ;  z -> cons(z_0, nil)
}
eq_nat(_zcb, _adb) <= length(_bdb, _adb) /\ length(l, _zcb) /\ sort(l, _bdb) -> No: ()
length(cons(x, ll), s(_vcb)) <= length(ll, _vcb) -> No: ()
insert(x, cons(y, z), cons(x, cons(y, z))) <= leq(x, y) -> Yes: {
x -> a  ;  y -> a
}
False <= leq(b, a) -> No: ()



-------------------------------------------
Step 13, which took 0.065188 s (model generation: 0.064756,  model checking: 0.000432):

Ground examples at the beginning of this step are:
{
insert(a, cons(a, nil), cons(a, cons(a, nil))) <= True
insert(a, cons(b, nil), cons(a, cons(b, nil))) <= True
insert(a, nil, cons(a, nil)) <= True
insert(b, cons(b, nil), cons(b, cons(b, nil))) <= True
insert(b, nil, cons(b, nil)) <= True
length(cons(a, cons(a, nil)), s(s(z))) <= True
length(cons(a, nil), s(z)) <= True
length(nil, z) <= True
leq(a, a) <= True
leq(a, b) <= True
leq(b, b) <= True
sort(cons(a, nil), cons(a, nil)) <= True
sort(nil, nil) <= True
sort(cons(a, cons(b, nil)), cons(a, nil)) <= insert(a, cons(a, nil), cons(a, nil)) /\ sort(cons(b, nil), cons(a, nil))
False <= insert(a, nil, cons(a, cons(a, nil)))
sort(cons(b, cons(a, nil)), cons(a, cons(a, nil))) <= insert(b, cons(a, nil), cons(a, cons(a, nil)))
sort(cons(b, cons(a, nil)), cons(a, nil)) <= insert(b, cons(a, nil), cons(a, nil))
insert(b, cons(a, cons(b, nil)), cons(a, nil)) <= insert(b, cons(b, nil), cons(a, nil))
sort(cons(b, cons(a, nil)), cons(a, nil)) <= insert(b, cons(b, nil), cons(a, nil)) /\ sort(cons(a, nil), cons(b, nil))
sort(cons(b, nil), cons(a, cons(a, nil))) <= insert(b, nil, cons(a, cons(a, nil)))
insert(b, cons(a, nil), cons(a, nil)) <= insert(b, nil, cons(a, nil))
sort(cons(b, nil), cons(a, nil)) <= insert(b, nil, cons(a, nil))
sort(cons(b, nil), cons(b, cons(a, nil))) <= insert(b, nil, cons(b, cons(a, nil)))
False <= length(cons(a, nil), s(s(z)))
False <= length(cons(b, cons(a, nil)), s(s(z))) /\ sort(cons(b, cons(a, nil)), cons(a, nil))
False <= length(cons(b, nil), s(z)) /\ sort(cons(b, nil), cons(a, cons(a, nil)))
False <= leq(b, a)
False <= sort(cons(a, cons(a, nil)), cons(a, nil))
False <= sort(cons(a, nil), cons(a, cons(a, nil)))
}

Learner proposed model:
Found Model:
|_

_r_1 ->
{
  _r_1(nil) <= True
}
;
_r_2 ->
{
  _r_2(b) <= True
}
;
insert ->
{
  insert(a, cons(x_1_0, x_1_1), cons(x_2_0, x_2_1)) <= True
  insert(a, nil, cons(x_2_0, x_2_1)) <= _r_1(x_2_1)
  insert(b, cons(x_1_0, x_1_1), cons(x_2_0, x_2_1)) <= _r_2(x_2_0)
  insert(b, nil, cons(x_2_0, x_2_1)) <= _r_1(x_2_1) /\ _r_2(x_2_0)
}
;
length ->
{
  length(cons(x_0_0, x_0_1), s(x_1_0)) <= length(x_0_1, x_1_0)
  length(nil, z) <= True
}
;
leq ->
{
  leq(a, a) <= True
  leq(a, b) <= True
  leq(b, b) <= True
}
;
sort ->
{
  sort(cons(x_0_0, x_0_1), cons(x_1_0, x_1_1)) <= sort(x_0_1, x_1_1)
  sort(cons(x_0_0, x_0_1), nil) <= _r_2(x_0_0)
  sort(nil, nil) <= True
}

--
Equality automata are defined for: {elt, eltlist, nat}
_|


Answer of teacher:


insert(x, nil, cons(x, nil)) <= True -> No: ()
length(nil, z) <= True -> No: ()
leq(a, y) <= True -> No: ()
leq(b, b) <= True -> No: ()
sort(nil, nil) <= True -> No: ()
insert(x, cons(y, z), _lcb) \/ leq(x, y) <= insert(x, z, _lcb) -> No: ()
sort(cons(y, z), _qcb) <= insert(y, _rcb, _qcb) /\ sort(z, _rcb) -> Yes: {
_qcb -> cons(_qcb_0, nil)  ;  _rcb -> cons(_rcb_0, nil)  ;  y -> a  ;  z -> cons(a, nil)
}
eq_nat(_zcb, _adb) <= length(_bdb, _adb) /\ length(l, _zcb) /\ sort(l, _bdb) -> Yes: {
_adb -> z  ;  _bdb -> nil  ;  _zcb -> s(z)  ;  l -> cons(b, nil)
}
length(cons(x, ll), s(_vcb)) <= length(ll, _vcb) -> No: ()
insert(x, cons(y, z), cons(x, cons(y, z))) <= leq(x, y) -> No: ()
False <= leq(b, a) -> No: ()



-------------------------------------------
Step 14, which took 0.116800 s (model generation: 0.116435,  model checking: 0.000365):

Ground examples at the beginning of this step are:
{
insert(a, cons(a, nil), cons(a, cons(a, nil))) <= True
insert(a, cons(b, nil), cons(a, cons(b, nil))) <= True
insert(a, nil, cons(a, nil)) <= True
insert(b, cons(b, nil), cons(b, cons(b, nil))) <= True
insert(b, nil, cons(b, nil)) <= True
length(cons(a, cons(a, nil)), s(s(z))) <= True
length(cons(a, nil), s(z)) <= True
length(nil, z) <= True
leq(a, a) <= True
leq(a, b) <= True
leq(b, b) <= True
sort(cons(a, nil), cons(a, nil)) <= True
sort(nil, nil) <= True
False <= insert(a, cons(a, nil), cons(a, nil))
False <= insert(a, nil, cons(a, cons(a, nil)))
sort(cons(b, cons(a, nil)), cons(a, cons(a, nil))) <= insert(b, cons(a, nil), cons(a, cons(a, nil)))
sort(cons(b, cons(a, nil)), cons(a, nil)) <= insert(b, cons(a, nil), cons(a, nil))
insert(b, cons(a, cons(b, nil)), cons(a, nil)) <= insert(b, cons(b, nil), cons(a, nil))
sort(cons(b, cons(a, nil)), cons(a, nil)) <= insert(b, cons(b, nil), cons(a, nil)) /\ sort(cons(a, nil), cons(b, nil))
sort(cons(b, nil), cons(a, cons(a, nil))) <= insert(b, nil, cons(a, cons(a, nil)))
insert(b, cons(a, nil), cons(a, nil)) <= insert(b, nil, cons(a, nil))
sort(cons(b, nil), cons(a, nil)) <= insert(b, nil, cons(a, nil))
sort(cons(b, nil), cons(b, cons(a, nil))) <= insert(b, nil, cons(b, cons(a, nil)))
False <= length(cons(a, nil), s(s(z)))
False <= length(cons(b, cons(a, nil)), s(s(z))) /\ sort(cons(b, cons(a, nil)), cons(a, nil))
False <= length(cons(b, nil), s(z)) /\ sort(cons(b, nil), cons(a, cons(a, nil)))
False <= length(cons(b, nil), s(z)) /\ sort(cons(b, nil), nil)
False <= leq(b, a)
False <= sort(cons(a, cons(a, nil)), cons(a, nil))
False <= sort(cons(a, nil), cons(a, cons(a, nil)))
}

Learner proposed model:
Found Model:
|_

_r_1 ->
{
  _r_1(nil) <= True
}
;
_r_2 ->
{
  _r_2(cons(x_0_0, x_0_1)) <= True
}
;
_r_3 ->
{
  _r_3(b) <= True
}
;
insert ->
{
  insert(a, cons(x_1_0, x_1_1), cons(x_2_0, x_2_1)) <= _r_2(x_2_1)
  insert(a, nil, cons(x_2_0, x_2_1)) <= _r_1(x_2_1)
  insert(b, cons(x_1_0, x_1_1), cons(x_2_0, x_2_1)) <= _r_2(x_2_1)
  insert(b, nil, cons(x_2_0, x_2_1)) <= _r_1(x_2_1) /\ _r_3(x_2_0)
}
;
length ->
{
  length(cons(x_0_0, x_0_1), s(x_1_0)) <= length(x_0_1, x_1_0)
  length(nil, z) <= True
}
;
leq ->
{
  leq(a, a) <= True
  leq(a, b) <= True
  leq(b, b) <= True
}
;
sort ->
{
  sort(cons(x_0_0, x_0_1), cons(x_1_0, x_1_1)) <= sort(x_0_1, x_1_1)
  sort(nil, nil) <= True
}

--
Equality automata are defined for: {elt, eltlist, nat}
_|


Answer of teacher:


insert(x, nil, cons(x, nil)) <= True -> No: ()
length(nil, z) <= True -> No: ()
leq(a, y) <= True -> No: ()
leq(b, b) <= True -> No: ()
sort(nil, nil) <= True -> No: ()
insert(x, cons(y, z), _lcb) \/ leq(x, y) <= insert(x, z, _lcb) -> Yes: {
_lcb -> cons(b, nil)  ;  x -> b  ;  y -> a  ;  z -> nil
}
sort(cons(y, z), _qcb) <= insert(y, _rcb, _qcb) /\ sort(z, _rcb) -> Yes: {
_qcb -> cons(_qcb_0, cons(v0_0, cons(v0_0, v0_1)))  ;  _rcb -> cons(_rcb_0, nil)  ;  y -> b  ;  z -> cons(z_0, nil)
}
eq_nat(_zcb, _adb) <= length(_bdb, _adb) /\ length(l, _zcb) /\ sort(l, _bdb) -> No: ()
length(cons(x, ll), s(_vcb)) <= length(ll, _vcb) -> No: ()
insert(x, cons(y, z), cons(x, cons(y, z))) <= leq(x, y) -> No: ()
False <= leq(b, a) -> No: ()



-------------------------------------------
Step 15, which took 0.167804 s (model generation: 0.167377,  model checking: 0.000427):

Ground examples at the beginning of this step are:
{
insert(a, cons(a, nil), cons(a, cons(a, nil))) <= True
insert(a, cons(b, nil), cons(a, cons(b, nil))) <= True
insert(a, nil, cons(a, nil)) <= True
insert(b, cons(a, nil), cons(b, nil)) <= True
insert(b, cons(b, nil), cons(b, cons(b, nil))) <= True
insert(b, nil, cons(b, nil)) <= True
length(cons(a, cons(a, nil)), s(s(z))) <= True
length(cons(a, nil), s(z)) <= True
length(nil, z) <= True
leq(a, a) <= True
leq(a, b) <= True
leq(b, b) <= True
sort(cons(a, nil), cons(a, nil)) <= True
sort(nil, nil) <= True
False <= insert(a, cons(a, nil), cons(a, nil))
False <= insert(a, nil, cons(a, cons(a, nil)))
sort(cons(b, cons(a, nil)), cons(a, cons(a, cons(a, nil)))) <= insert(b, cons(a, nil), cons(a, cons(a, cons(a, nil))))
sort(cons(b, cons(a, nil)), cons(a, cons(a, nil))) <= insert(b, cons(a, nil), cons(a, cons(a, nil)))
sort(cons(b, cons(a, nil)), cons(a, nil)) <= insert(b, cons(a, nil), cons(a, nil))
insert(b, cons(a, cons(b, nil)), cons(a, nil)) <= insert(b, cons(b, nil), cons(a, nil))
sort(cons(b, cons(a, nil)), cons(a, nil)) <= insert(b, cons(b, nil), cons(a, nil)) /\ sort(cons(a, nil), cons(b, nil))
sort(cons(b, nil), cons(a, cons(a, nil))) <= insert(b, nil, cons(a, cons(a, nil)))
insert(b, cons(a, nil), cons(a, nil)) <= insert(b, nil, cons(a, nil))
sort(cons(b, nil), cons(a, nil)) <= insert(b, nil, cons(a, nil))
sort(cons(b, nil), cons(b, cons(a, nil))) <= insert(b, nil, cons(b, cons(a, nil)))
False <= length(cons(a, nil), s(s(z)))
False <= length(cons(b, cons(a, nil)), s(s(z))) /\ sort(cons(b, cons(a, nil)), cons(a, nil))
False <= length(cons(b, nil), s(z)) /\ sort(cons(b, nil), cons(a, cons(a, nil)))
False <= length(cons(b, nil), s(z)) /\ sort(cons(b, nil), nil)
False <= leq(b, a)
False <= sort(cons(a, cons(a, nil)), cons(a, nil))
False <= sort(cons(a, nil), cons(a, cons(a, nil)))
}

Learner proposed model:
Found Model:
|_

_r_1 ->
{
  _r_1(nil) <= True
}
;
_r_2 ->
{
  _r_2(cons(x_0_0, x_0_1)) <= True
}
;
_r_3 ->
{
  _r_3(b) <= True
}
;
insert ->
{
  insert(a, cons(x_1_0, x_1_1), cons(x_2_0, x_2_1)) <= _r_2(x_2_1)
  insert(a, nil, cons(x_2_0, x_2_1)) <= _r_1(x_2_1)
  insert(b, cons(x_1_0, x_1_1), cons(x_2_0, x_2_1)) <= _r_3(x_2_0)
  insert(b, nil, cons(x_2_0, x_2_1)) <= _r_1(x_2_1) /\ _r_3(x_2_0)
}
;
length ->
{
  length(cons(x_0_0, x_0_1), s(x_1_0)) <= length(x_0_1, x_1_0)
  length(nil, z) <= True
}
;
leq ->
{
  leq(a, a) <= True
  leq(a, b) <= True
  leq(b, b) <= True
}
;
sort ->
{
  sort(cons(x_0_0, x_0_1), cons(x_1_0, x_1_1)) <= sort(x_0_1, x_1_1)
  sort(nil, nil) <= True
}

--
Equality automata are defined for: {elt, eltlist, nat}
_|


Answer of teacher:


insert(x, nil, cons(x, nil)) <= True -> No: ()
length(nil, z) <= True -> No: ()
leq(a, y) <= True -> No: ()
leq(b, b) <= True -> No: ()
sort(nil, nil) <= True -> No: ()
insert(x, cons(y, z), _lcb) \/ leq(x, y) <= insert(x, z, _lcb) -> No: ()
sort(cons(y, z), _qcb) <= insert(y, _rcb, _qcb) /\ sort(z, _rcb) -> Yes: {
_qcb -> cons(b, nil)  ;  _rcb -> cons(_rcb_0, nil)  ;  y -> b  ;  z -> cons(z_0, nil)
}
eq_nat(_zcb, _adb) <= length(_bdb, _adb) /\ length(l, _zcb) /\ sort(l, _bdb) -> No: ()
length(cons(x, ll), s(_vcb)) <= length(ll, _vcb) -> No: ()
insert(x, cons(y, z), cons(x, cons(y, z))) <= leq(x, y) -> No: ()
False <= leq(b, a) -> No: ()



-------------------------------------------
Step 16, which took 0.180827 s (model generation: 0.180017,  model checking: 0.000810):

Ground examples at the beginning of this step are:
{
insert(a, cons(a, nil), cons(a, cons(a, nil))) <= True
insert(a, cons(b, nil), cons(a, cons(b, nil))) <= True
insert(a, nil, cons(a, nil)) <= True
insert(b, cons(a, nil), cons(b, nil)) <= True
insert(b, cons(b, nil), cons(b, cons(b, nil))) <= True
insert(b, nil, cons(b, nil)) <= True
length(cons(a, cons(a, nil)), s(s(z))) <= True
length(cons(a, nil), s(z)) <= True
length(nil, z) <= True
leq(a, a) <= True
leq(a, b) <= True
leq(b, b) <= True
sort(cons(a, nil), cons(a, nil)) <= True
sort(cons(b, cons(a, nil)), cons(b, nil)) <= True
sort(nil, nil) <= True
False <= insert(a, cons(a, nil), cons(a, nil))
False <= insert(a, nil, cons(a, cons(a, nil)))
sort(cons(b, cons(a, nil)), cons(a, cons(a, cons(a, nil)))) <= insert(b, cons(a, nil), cons(a, cons(a, cons(a, nil))))
sort(cons(b, cons(a, nil)), cons(a, cons(a, nil))) <= insert(b, cons(a, nil), cons(a, cons(a, nil)))
sort(cons(b, cons(a, nil)), cons(a, nil)) <= insert(b, cons(a, nil), cons(a, nil))
insert(b, cons(a, cons(b, nil)), cons(a, nil)) <= insert(b, cons(b, nil), cons(a, nil))
sort(cons(b, cons(a, nil)), cons(a, nil)) <= insert(b, cons(b, nil), cons(a, nil)) /\ sort(cons(a, nil), cons(b, nil))
sort(cons(b, nil), cons(a, cons(a, nil))) <= insert(b, nil, cons(a, cons(a, nil)))
insert(b, cons(a, nil), cons(a, nil)) <= insert(b, nil, cons(a, nil))
sort(cons(b, nil), cons(a, nil)) <= insert(b, nil, cons(a, nil))
sort(cons(b, nil), cons(b, cons(a, nil))) <= insert(b, nil, cons(b, cons(a, nil)))
False <= length(cons(a, nil), s(s(z)))
False <= length(cons(b, cons(a, nil)), s(s(z))) /\ sort(cons(b, cons(a, nil)), cons(a, nil))
False <= length(cons(b, nil), s(z)) /\ sort(cons(b, nil), cons(a, cons(a, nil)))
False <= length(cons(b, nil), s(z)) /\ sort(cons(b, nil), nil)
False <= leq(b, a)
False <= sort(cons(a, cons(a, nil)), cons(a, nil))
False <= sort(cons(a, nil), cons(a, cons(a, nil)))
}

Learner proposed model:
Found Model:
|_

_r_1 ->
{
  _r_1(nil) <= True
}
;
_r_2 ->
{
  _r_2(cons(x_0_0, x_0_1)) <= True
}
;
_r_3 ->
{
  _r_3(b) <= True
}
;
insert ->
{
  insert(a, cons(x_1_0, x_1_1), cons(x_2_0, x_2_1)) <= _r_2(x_2_1)
  insert(a, nil, cons(x_2_0, x_2_1)) <= _r_1(x_2_1)
  insert(b, cons(x_1_0, x_1_1), cons(x_2_0, x_2_1)) <= _r_3(x_2_0)
  insert(b, nil, cons(x_2_0, x_2_1)) <= _r_3(x_2_0)
}
;
length ->
{
  length(cons(x_0_0, x_0_1), s(x_1_0)) <= length(x_0_1, x_1_0)
  length(nil, z) <= True
}
;
leq ->
{
  leq(a, a) <= True
  leq(a, b) <= True
  leq(b, b) <= True
}
;
sort ->
{
  sort(cons(x_0_0, x_0_1), cons(x_1_0, x_1_1)) <= _r_3(x_1_0)
  sort(cons(x_0_0, x_0_1), cons(x_1_0, x_1_1)) <= sort(x_0_1, x_1_1)
  sort(nil, nil) <= True
}

--
Equality automata are defined for: {elt, eltlist, nat}
_|


Answer of teacher:


insert(x, nil, cons(x, nil)) <= True -> No: ()
length(nil, z) <= True -> No: ()
leq(a, y) <= True -> No: ()
leq(b, b) <= True -> No: ()
sort(nil, nil) <= True -> No: ()
insert(x, cons(y, z), _lcb) \/ leq(x, y) <= insert(x, z, _lcb) -> No: ()
sort(cons(y, z), _qcb) <= insert(y, _rcb, _qcb) /\ sort(z, _rcb) -> Yes: {
_qcb -> cons(a, cons(a, cons(v1_0, v1_1)))  ;  _rcb -> cons(b, _rcb_1)  ;  y -> a  ;  z -> cons(z_0, nil)
}
eq_nat(_zcb, _adb) <= length(_bdb, _adb) /\ length(l, _zcb) /\ sort(l, _bdb) -> Yes: {
_adb -> s(s(z))  ;  _bdb -> cons(b, cons(v2_0, nil))  ;  _zcb -> s(z)  ;  l -> cons(l_0, nil)
}
length(cons(x, ll), s(_vcb)) <= length(ll, _vcb) -> No: ()
insert(x, cons(y, z), cons(x, cons(y, z))) <= leq(x, y) -> No: ()
False <= leq(b, a) -> No: ()



-------------------------------------------
Step 17, which took 0.217754 s (model generation: 0.216536,  model checking: 0.001218):

Ground examples at the beginning of this step are:
{
insert(a, cons(a, nil), cons(a, cons(a, nil))) <= True
insert(a, cons(b, nil), cons(a, cons(b, nil))) <= True
insert(a, nil, cons(a, nil)) <= True
insert(b, cons(a, nil), cons(b, nil)) <= True
insert(b, cons(b, nil), cons(b, cons(b, nil))) <= True
insert(b, nil, cons(b, nil)) <= True
length(cons(a, cons(a, nil)), s(s(z))) <= True
length(cons(a, nil), s(z)) <= True
length(nil, z) <= True
leq(a, a) <= True
leq(a, b) <= True
leq(b, b) <= True
sort(cons(a, nil), cons(a, nil)) <= True
sort(cons(b, cons(a, nil)), cons(b, nil)) <= True
sort(nil, nil) <= True
False <= insert(a, cons(a, nil), cons(a, nil))
sort(cons(a, cons(a, nil)), cons(a, cons(a, cons(a, nil)))) <= insert(a, cons(b, nil), cons(a, cons(a, cons(a, nil)))) /\ sort(cons(a, nil), cons(b, nil))
False <= insert(a, nil, cons(a, cons(a, nil)))
sort(cons(b, cons(a, nil)), cons(a, cons(a, cons(a, nil)))) <= insert(b, cons(a, nil), cons(a, cons(a, cons(a, nil))))
sort(cons(b, cons(a, nil)), cons(a, cons(a, nil))) <= insert(b, cons(a, nil), cons(a, cons(a, nil)))
sort(cons(b, cons(a, nil)), cons(a, nil)) <= insert(b, cons(a, nil), cons(a, nil))
insert(b, cons(a, cons(b, nil)), cons(a, nil)) <= insert(b, cons(b, nil), cons(a, nil))
sort(cons(b, cons(a, nil)), cons(a, nil)) <= insert(b, cons(b, nil), cons(a, nil)) /\ sort(cons(a, nil), cons(b, nil))
sort(cons(b, nil), cons(a, cons(a, nil))) <= insert(b, nil, cons(a, cons(a, nil)))
insert(b, cons(a, nil), cons(a, nil)) <= insert(b, nil, cons(a, nil))
sort(cons(b, nil), cons(a, nil)) <= insert(b, nil, cons(a, nil))
sort(cons(b, nil), cons(b, cons(a, nil))) <= insert(b, nil, cons(b, cons(a, nil)))
False <= length(cons(a, nil), s(s(z)))
False <= length(cons(b, cons(a, nil)), s(s(z))) /\ sort(cons(a, nil), cons(b, cons(a, nil)))
False <= length(cons(b, cons(a, nil)), s(s(z))) /\ sort(cons(b, cons(a, nil)), cons(a, nil))
False <= length(cons(b, nil), s(z)) /\ sort(cons(b, nil), cons(a, cons(a, nil)))
False <= length(cons(b, nil), s(z)) /\ sort(cons(b, nil), nil)
False <= leq(b, a)
False <= sort(cons(a, cons(a, nil)), cons(a, nil))
False <= sort(cons(a, nil), cons(a, cons(a, nil)))
}

Learner proposed model:
Found Model:
|_

_r_1 ->
{
  _r_1(cons(x_0_0, x_0_1)) <= _r_2(x_0_1)
}
;
_r_2 ->
{
  _r_2(nil) <= True
}
;
_r_3 ->
{
  _r_3(b) <= True
}
;
insert ->
{
  insert(a, cons(x_1_0, x_1_1), cons(x_2_0, x_2_1)) <= _r_1(x_2_1)
  insert(a, nil, cons(x_2_0, x_2_1)) <= _r_2(x_2_1)
  insert(b, cons(x_1_0, x_1_1), cons(x_2_0, x_2_1)) <= _r_3(x_2_0)
  insert(b, nil, cons(x_2_0, x_2_1)) <= _r_3(x_2_0)
}
;
length ->
{
  length(cons(x_0_0, x_0_1), s(x_1_0)) <= length(x_0_1, x_1_0)
  length(nil, z) <= True
}
;
leq ->
{
  leq(a, a) <= True
  leq(a, b) <= True
  leq(b, b) <= True
}
;
sort ->
{
  sort(cons(x_0_0, x_0_1), cons(x_1_0, x_1_1)) <= _r_3(x_0_0) /\ _r_3(x_1_0)
  sort(cons(x_0_0, x_0_1), cons(x_1_0, x_1_1)) <= sort(x_0_1, x_1_1)
  sort(nil, nil) <= True
}

--
Equality automata are defined for: {elt, eltlist, nat}
_|


Answer of teacher:


insert(x, nil, cons(x, nil)) <= True -> No: ()
length(nil, z) <= True -> No: ()
leq(a, y) <= True -> No: ()
leq(b, b) <= True -> No: ()
sort(nil, nil) <= True -> No: ()
insert(x, cons(y, z), _lcb) \/ leq(x, y) <= insert(x, z, _lcb) -> No: ()
sort(cons(y, z), _qcb) <= insert(y, _rcb, _qcb) /\ sort(z, _rcb) -> Yes: {
_qcb -> cons(_qcb_0, cons(a, nil))  ;  _rcb -> cons(b, _rcb_1)  ;  y -> a  ;  z -> cons(b, cons(v1_0, v1_1))
}
eq_nat(_zcb, _adb) <= length(_bdb, _adb) /\ length(l, _zcb) /\ sort(l, _bdb) -> Yes: {
_adb -> s(s(z))  ;  _bdb -> cons(b, cons(v2_0, nil))  ;  _zcb -> s(z)  ;  l -> cons(b, nil)
}
length(cons(x, ll), s(_vcb)) <= length(ll, _vcb) -> No: ()
insert(x, cons(y, z), cons(x, cons(y, z))) <= leq(x, y) -> Yes: {
x -> a  ;  y -> b  ;  z -> cons(v0_0, v0_1)
}
False <= leq(b, a) -> No: ()



-------------------------------------------
Step 18, which took 0.404223 s (model generation: 0.401574,  model checking: 0.002649):

Ground examples at the beginning of this step are:
{
insert(a, cons(a, nil), cons(a, cons(a, nil))) <= True
insert(a, cons(b, cons(a, nil)), cons(a, cons(b, cons(a, nil)))) <= True
insert(a, cons(b, nil), cons(a, cons(b, nil))) <= True
insert(a, nil, cons(a, nil)) <= True
insert(b, cons(a, nil), cons(b, nil)) <= True
insert(b, cons(b, nil), cons(b, cons(b, nil))) <= True
insert(b, nil, cons(b, nil)) <= True
length(cons(a, cons(a, nil)), s(s(z))) <= True
length(cons(a, nil), s(z)) <= True
length(nil, z) <= True
leq(a, a) <= True
leq(a, b) <= True
leq(b, b) <= True
sort(cons(a, nil), cons(a, nil)) <= True
sort(cons(b, cons(a, nil)), cons(b, nil)) <= True
sort(nil, nil) <= True
False <= insert(a, cons(a, nil), cons(a, nil))
sort(cons(a, cons(a, nil)), cons(a, cons(a, cons(a, nil)))) <= insert(a, cons(b, nil), cons(a, cons(a, cons(a, nil)))) /\ sort(cons(a, nil), cons(b, nil))
sort(cons(a, cons(b, cons(a, nil))), cons(a, cons(a, nil))) <= insert(a, cons(b, nil), cons(a, cons(a, nil)))
False <= insert(a, nil, cons(a, cons(a, nil)))
sort(cons(b, cons(a, nil)), cons(a, cons(a, cons(a, nil)))) <= insert(b, cons(a, nil), cons(a, cons(a, cons(a, nil))))
sort(cons(b, cons(a, nil)), cons(a, cons(a, nil))) <= insert(b, cons(a, nil), cons(a, cons(a, nil)))
sort(cons(b, cons(a, nil)), cons(a, nil)) <= insert(b, cons(a, nil), cons(a, nil))
insert(b, cons(a, cons(b, nil)), cons(a, nil)) <= insert(b, cons(b, nil), cons(a, nil))
sort(cons(b, cons(a, nil)), cons(a, nil)) <= insert(b, cons(b, nil), cons(a, nil)) /\ sort(cons(a, nil), cons(b, nil))
sort(cons(b, nil), cons(a, cons(a, nil))) <= insert(b, nil, cons(a, cons(a, nil)))
insert(b, cons(a, nil), cons(a, nil)) <= insert(b, nil, cons(a, nil))
sort(cons(b, nil), cons(a, nil)) <= insert(b, nil, cons(a, nil))
sort(cons(b, nil), cons(b, cons(a, nil))) <= insert(b, nil, cons(b, cons(a, nil)))
False <= length(cons(a, nil), s(s(z)))
False <= length(cons(b, cons(a, nil)), s(s(z))) /\ length(cons(b, nil), s(z)) /\ sort(cons(b, nil), cons(b, cons(a, nil)))
False <= length(cons(b, cons(a, nil)), s(s(z))) /\ sort(cons(a, nil), cons(b, cons(a, nil)))
False <= length(cons(b, cons(a, nil)), s(s(z))) /\ sort(cons(b, cons(a, nil)), cons(a, nil))
False <= length(cons(b, nil), s(z)) /\ sort(cons(b, nil), cons(a, cons(a, nil)))
False <= length(cons(b, nil), s(z)) /\ sort(cons(b, nil), nil)
False <= leq(b, a)
False <= sort(cons(a, cons(a, nil)), cons(a, nil))
False <= sort(cons(a, nil), cons(a, cons(a, nil)))
}

Learner proposed model:
Found Model:
|_

_r_1 ->
{
  _r_1(nil) <= True
}
;
_r_2 ->
{
  _r_2(cons(x_0_0, x_0_1)) <= True
}
;
_r_3 ->
{
  _r_3(b) <= True
}
;
insert ->
{
  insert(a, cons(x_1_0, x_1_1), cons(x_2_0, x_2_1)) <= _r_2(x_2_1)
  insert(a, nil, cons(x_2_0, x_2_1)) <= _r_1(x_2_1)
  insert(b, cons(x_1_0, x_1_1), cons(x_2_0, x_2_1)) <= _r_3(x_2_0)
  insert(b, nil, cons(x_2_0, x_2_1)) <= _r_1(x_2_1) /\ _r_3(x_2_0)
}
;
length ->
{
  length(cons(x_0_0, x_0_1), s(x_1_0)) <= length(x_0_1, x_1_0)
  length(nil, z) <= True
}
;
leq ->
{
  leq(a, a) <= True
  leq(a, b) <= True
  leq(b, b) <= True
}
;
sort ->
{
  sort(cons(x_0_0, x_0_1), cons(x_1_0, x_1_1)) <= _r_1(x_0_1) /\ _r_1(x_1_1)
  sort(cons(x_0_0, x_0_1), cons(x_1_0, x_1_1)) <= _r_1(x_1_1) /\ _r_3(x_1_0)
  sort(cons(x_0_0, x_0_1), cons(x_1_0, x_1_1)) <= _r_2(x_0_1) /\ _r_2(x_1_1)
  sort(nil, nil) <= True
}

--
Equality automata are defined for: {elt, eltlist, nat}
_|


Answer of teacher:


insert(x, nil, cons(x, nil)) <= True -> No: ()
length(nil, z) <= True -> No: ()
leq(a, y) <= True -> No: ()
leq(b, b) <= True -> No: ()
sort(nil, nil) <= True -> No: ()
insert(x, cons(y, z), _lcb) \/ leq(x, y) <= insert(x, z, _lcb) -> No: ()
sort(cons(y, z), _qcb) <= insert(y, _rcb, _qcb) /\ sort(z, _rcb) -> No: ()
eq_nat(_zcb, _adb) <= length(_bdb, _adb) /\ length(l, _zcb) /\ sort(l, _bdb) -> Yes: {
_adb -> s(z)  ;  _bdb -> cons(b, nil)  ;  _zcb -> s(s(z))  ;  l -> cons(l_0, cons(v3_0, nil))
}
length(cons(x, ll), s(_vcb)) <= length(ll, _vcb) -> No: ()
insert(x, cons(y, z), cons(x, cons(y, z))) <= leq(x, y) -> No: ()
False <= leq(b, a) -> No: ()



-------------------------------------------
Step 19, which took 0.362954 s (model generation: 0.359062,  model checking: 0.003892):

Ground examples at the beginning of this step are:
{
insert(a, cons(a, nil), cons(a, cons(a, nil))) <= True
insert(a, cons(b, cons(a, nil)), cons(a, cons(b, cons(a, nil)))) <= True
insert(a, cons(b, nil), cons(a, cons(b, nil))) <= True
insert(a, nil, cons(a, nil)) <= True
insert(b, cons(a, nil), cons(b, nil)) <= True
insert(b, cons(b, nil), cons(b, cons(b, nil))) <= True
insert(b, nil, cons(b, nil)) <= True
length(cons(a, cons(a, nil)), s(s(z))) <= True
length(cons(a, nil), s(z)) <= True
length(nil, z) <= True
leq(a, a) <= True
leq(a, b) <= True
leq(b, b) <= True
sort(cons(a, nil), cons(a, nil)) <= True
sort(cons(b, cons(a, nil)), cons(b, nil)) <= True
sort(nil, nil) <= True
False <= insert(a, cons(a, nil), cons(a, nil))
sort(cons(a, cons(a, nil)), cons(a, cons(a, cons(a, nil)))) <= insert(a, cons(b, nil), cons(a, cons(a, cons(a, nil)))) /\ sort(cons(a, nil), cons(b, nil))
sort(cons(a, cons(b, cons(a, nil))), cons(a, cons(a, nil))) <= insert(a, cons(b, nil), cons(a, cons(a, nil)))
False <= insert(a, nil, cons(a, cons(a, nil)))
sort(cons(b, cons(a, nil)), cons(a, cons(a, cons(a, nil)))) <= insert(b, cons(a, nil), cons(a, cons(a, cons(a, nil))))
sort(cons(b, cons(a, nil)), cons(a, cons(a, nil))) <= insert(b, cons(a, nil), cons(a, cons(a, nil)))
sort(cons(b, cons(a, nil)), cons(a, nil)) <= insert(b, cons(a, nil), cons(a, nil))
insert(b, cons(a, cons(b, nil)), cons(a, nil)) <= insert(b, cons(b, nil), cons(a, nil))
sort(cons(b, cons(a, nil)), cons(a, nil)) <= insert(b, cons(b, nil), cons(a, nil)) /\ sort(cons(a, nil), cons(b, nil))
sort(cons(b, nil), cons(a, cons(a, nil))) <= insert(b, nil, cons(a, cons(a, nil)))
insert(b, cons(a, nil), cons(a, nil)) <= insert(b, nil, cons(a, nil))
sort(cons(b, nil), cons(a, nil)) <= insert(b, nil, cons(a, nil))
sort(cons(b, nil), cons(b, cons(a, nil))) <= insert(b, nil, cons(b, cons(a, nil)))
False <= length(cons(a, nil), s(s(z)))
False <= length(cons(b, cons(a, nil)), s(s(z))) /\ length(cons(b, nil), s(z)) /\ sort(cons(b, nil), cons(b, cons(a, nil)))
False <= length(cons(b, cons(a, nil)), s(s(z))) /\ sort(cons(a, nil), cons(b, cons(a, nil)))
False <= length(cons(b, cons(a, nil)), s(s(z))) /\ sort(cons(b, cons(a, nil)), cons(a, nil))
False <= length(cons(b, nil), s(z)) /\ sort(cons(a, cons(a, nil)), cons(b, nil))
False <= length(cons(b, nil), s(z)) /\ sort(cons(b, nil), cons(a, cons(a, nil)))
False <= length(cons(b, nil), s(z)) /\ sort(cons(b, nil), nil)
False <= leq(b, a)
False <= sort(cons(a, cons(a, nil)), cons(a, nil))
False <= sort(cons(a, nil), cons(a, cons(a, nil)))
}

Learner proposed model:
Found Model:
|_

_r_1 ->
{
  _r_1(nil) <= True
}
;
_r_2 ->
{
  _r_2(cons(x_0_0, x_0_1)) <= True
}
;
_r_3 ->
{
  _r_3(b) <= True
}
;
insert ->
{
  insert(a, cons(x_1_0, x_1_1), cons(x_2_0, x_2_1)) <= _r_2(x_2_1)
  insert(a, nil, cons(x_2_0, x_2_1)) <= _r_1(x_2_1)
  insert(b, cons(x_1_0, x_1_1), cons(x_2_0, x_2_1)) <= _r_3(x_2_0)
  insert(b, nil, cons(x_2_0, x_2_1)) <= _r_1(x_2_1) /\ _r_3(x_2_0)
}
;
length ->
{
  length(cons(x_0_0, x_0_1), s(x_1_0)) <= length(x_0_1, x_1_0)
  length(nil, z) <= True
}
;
leq ->
{
  leq(a, a) <= True
  leq(a, b) <= True
  leq(b, b) <= True
}
;
sort ->
{
  sort(cons(x_0_0, x_0_1), cons(x_1_0, x_1_1)) <= _r_1(x_0_1) /\ _r_1(x_1_1)
  sort(cons(x_0_0, x_0_1), cons(x_1_0, x_1_1)) <= _r_2(x_0_1) /\ _r_2(x_1_1)
  sort(cons(x_0_0, x_0_1), cons(x_1_0, x_1_1)) <= _r_2(x_0_1) /\ _r_3(x_0_0) /\ _r_3(x_1_0)
  sort(nil, nil) <= True
}

--
Equality automata are defined for: {elt, eltlist, nat}
_|


Answer of teacher:


insert(x, nil, cons(x, nil)) <= True -> No: ()
length(nil, z) <= True -> No: ()
leq(a, y) <= True -> No: ()
leq(b, b) <= True -> No: ()
sort(nil, nil) <= True -> No: ()
insert(x, cons(y, z), _lcb) \/ leq(x, y) <= insert(x, z, _lcb) -> No: ()
sort(cons(y, z), _qcb) <= insert(y, _rcb, _qcb) /\ sort(z, _rcb) -> No: ()
eq_nat(_zcb, _adb) <= length(_bdb, _adb) /\ length(l, _zcb) /\ sort(l, _bdb) -> Yes: {
_adb -> s(z)  ;  _bdb -> cons(b, nil)  ;  _zcb -> s(s(z))  ;  l -> cons(b, cons(v2_0, nil))
}
length(cons(x, ll), s(_vcb)) <= length(ll, _vcb) -> No: ()
insert(x, cons(y, z), cons(x, cons(y, z))) <= leq(x, y) -> No: ()
False <= leq(b, a) -> No: ()



-------------------------------------------
Step 20, which took 0.275715 s (model generation: 0.274359,  model checking: 0.001356):

Ground examples at the beginning of this step are:
{
insert(a, cons(a, nil), cons(a, cons(a, nil))) <= True
insert(a, cons(b, cons(a, nil)), cons(a, cons(b, cons(a, nil)))) <= True
insert(a, cons(b, nil), cons(a, cons(b, nil))) <= True
insert(a, nil, cons(a, nil)) <= True
insert(b, cons(a, nil), cons(b, nil)) <= True
insert(b, cons(b, nil), cons(b, cons(b, nil))) <= True
insert(b, nil, cons(b, nil)) <= True
length(cons(a, cons(a, nil)), s(s(z))) <= True
length(cons(a, nil), s(z)) <= True
length(nil, z) <= True
leq(a, a) <= True
leq(a, b) <= True
leq(b, b) <= True
sort(cons(a, nil), cons(a, nil)) <= True
sort(cons(b, cons(a, nil)), cons(b, nil)) <= True
sort(nil, nil) <= True
False <= insert(a, cons(a, nil), cons(a, nil))
sort(cons(a, cons(a, nil)), cons(a, cons(a, cons(a, nil)))) <= insert(a, cons(b, nil), cons(a, cons(a, cons(a, nil)))) /\ sort(cons(a, nil), cons(b, nil))
sort(cons(a, cons(b, cons(a, nil))), cons(a, cons(a, nil))) <= insert(a, cons(b, nil), cons(a, cons(a, nil)))
False <= insert(a, nil, cons(a, cons(a, nil)))
sort(cons(b, cons(a, nil)), cons(a, cons(a, cons(a, nil)))) <= insert(b, cons(a, nil), cons(a, cons(a, cons(a, nil))))
sort(cons(b, cons(a, nil)), cons(a, cons(a, nil))) <= insert(b, cons(a, nil), cons(a, cons(a, nil)))
sort(cons(b, cons(a, nil)), cons(a, nil)) <= insert(b, cons(a, nil), cons(a, nil))
insert(b, cons(a, cons(b, nil)), cons(a, nil)) <= insert(b, cons(b, nil), cons(a, nil))
sort(cons(b, cons(a, nil)), cons(a, nil)) <= insert(b, cons(b, nil), cons(a, nil)) /\ sort(cons(a, nil), cons(b, nil))
sort(cons(b, nil), cons(a, cons(a, nil))) <= insert(b, nil, cons(a, cons(a, nil)))
insert(b, cons(a, nil), cons(a, nil)) <= insert(b, nil, cons(a, nil))
sort(cons(b, nil), cons(a, nil)) <= insert(b, nil, cons(a, nil))
sort(cons(b, nil), cons(b, cons(a, nil))) <= insert(b, nil, cons(b, cons(a, nil)))
False <= length(cons(a, nil), s(s(z)))
False <= length(cons(b, cons(a, nil)), s(s(z))) /\ length(cons(b, nil), s(z))
False <= length(cons(b, cons(a, nil)), s(s(z))) /\ length(cons(b, nil), s(z)) /\ sort(cons(b, nil), cons(b, cons(a, nil)))
False <= length(cons(b, cons(a, nil)), s(s(z))) /\ sort(cons(a, nil), cons(b, cons(a, nil)))
False <= length(cons(b, cons(a, nil)), s(s(z))) /\ sort(cons(b, cons(a, nil)), cons(a, nil))
False <= length(cons(b, nil), s(z)) /\ sort(cons(a, cons(a, nil)), cons(b, nil))
False <= length(cons(b, nil), s(z)) /\ sort(cons(b, nil), cons(a, cons(a, nil)))
False <= length(cons(b, nil), s(z)) /\ sort(cons(b, nil), nil)
False <= leq(b, a)
False <= sort(cons(a, cons(a, nil)), cons(a, nil))
False <= sort(cons(a, nil), cons(a, cons(a, nil)))
}

Learner proposed model:
Found Model:
|_

_r_1 ->
{
  _r_1(a, cons(x_1_0, x_1_1)) <= _r_2(x_1_1)
  _r_1(b, cons(x_1_0, x_1_1)) <= True
  _r_1(b, nil) <= True
}
;
_r_2 ->
{
  _r_2(nil) <= True
}
;
_r_3 ->
{
  _r_3(a) <= True
}
;
insert ->
{
  insert(a, cons(x_1_0, x_1_1), cons(x_2_0, x_2_1)) <= _r_1(x_1_0, x_2_1)
  insert(a, nil, cons(x_2_0, x_2_1)) <= _r_2(x_2_1)
  insert(b, cons(x_1_0, x_1_1), cons(x_2_0, x_2_1)) <= _r_1(x_1_0, x_2_1)
  insert(b, cons(x_1_0, x_1_1), cons(x_2_0, x_2_1)) <= _r_2(x_2_1)
  insert(b, nil, cons(x_2_0, x_2_1)) <= _r_2(x_2_1)
}
;
length ->
{
  length(cons(x_0_0, x_0_1), s(x_1_0)) <= _r_3(x_0_0) /\ length(x_0_1, x_1_0)
  length(nil, z) <= True
}
;
leq ->
{
  leq(a, a) <= True
  leq(a, b) <= True
  leq(b, b) <= True
}
;
sort ->
{
  sort(cons(x_0_0, x_0_1), cons(x_1_0, x_1_1)) <= _r_1(x_0_0, x_1_1) /\ _r_2(x_1_1)
  sort(cons(x_0_0, x_0_1), cons(x_1_0, x_1_1)) <= _r_3(x_1_0) /\ sort(x_0_1, x_1_1)
  sort(nil, nil) <= True
}

--
Equality automata are defined for: {elt, eltlist, nat}
_|


Answer of teacher:


insert(x, nil, cons(x, nil)) <= True -> No: ()
length(nil, z) <= True -> No: ()
leq(a, y) <= True -> No: ()
leq(b, b) <= True -> No: ()
sort(nil, nil) <= True -> No: ()
insert(x, cons(y, z), _lcb) \/ leq(x, y) <= insert(x, z, _lcb) -> Yes: {
_lcb -> cons(_lcb_0, cons(v1_0, cons(v0_0, v0_1)))  ;  x -> b  ;  y -> a  ;  z -> cons(b, z_1)
}
sort(cons(y, z), _qcb) <= insert(y, _rcb, _qcb) /\ sort(z, _rcb) -> Yes: {
_qcb -> cons(b, cons(v1_0, v1_1))  ;  _rcb -> cons(b, nil)  ;  y -> b  ;  z -> cons(b, z_1)
}
eq_nat(_zcb, _adb) <= length(_bdb, _adb) /\ length(l, _zcb) /\ sort(l, _bdb) -> No: ()
length(cons(x, ll), s(_vcb)) <= length(ll, _vcb) -> Yes: {
_vcb -> z  ;  ll -> nil  ;  x -> b
}
insert(x, cons(y, z), cons(x, cons(y, z))) <= leq(x, y) -> Yes: {
x -> a  ;  y -> a  ;  z -> cons(v0_0, v0_1)
}
False <= leq(b, a) -> No: ()



-------------------------------------------
Step 21, which took 1.648296 s (model generation: 1.647302,  model checking: 0.000994):

Ground examples at the beginning of this step are:
{
insert(a, cons(a, cons(a, nil)), cons(a, cons(a, cons(a, nil)))) <= True
insert(a, cons(a, nil), cons(a, cons(a, nil))) <= True
insert(a, cons(b, cons(a, nil)), cons(a, cons(b, cons(a, nil)))) <= True
insert(a, cons(b, nil), cons(a, cons(b, nil))) <= True
insert(a, nil, cons(a, nil)) <= True
insert(b, cons(a, nil), cons(b, nil)) <= True
insert(b, cons(b, nil), cons(b, cons(b, nil))) <= True
insert(b, nil, cons(b, nil)) <= True
length(cons(a, cons(a, nil)), s(s(z))) <= True
length(cons(a, nil), s(z)) <= True
length(cons(b, nil), s(z)) <= True
length(nil, z) <= True
leq(a, a) <= True
leq(a, b) <= True
leq(b, b) <= True
sort(cons(a, nil), cons(a, nil)) <= True
sort(cons(b, cons(a, nil)), cons(b, nil)) <= True
sort(nil, nil) <= True
False <= insert(a, cons(a, nil), cons(a, nil))
sort(cons(a, cons(a, nil)), cons(a, cons(a, cons(a, nil)))) <= insert(a, cons(b, nil), cons(a, cons(a, cons(a, nil)))) /\ sort(cons(a, nil), cons(b, nil))
sort(cons(a, cons(b, cons(a, nil))), cons(a, cons(a, nil))) <= insert(a, cons(b, nil), cons(a, cons(a, nil)))
False <= insert(a, nil, cons(a, cons(a, nil)))
sort(cons(b, cons(a, nil)), cons(a, cons(a, cons(a, nil)))) <= insert(b, cons(a, nil), cons(a, cons(a, cons(a, nil))))
sort(cons(b, cons(a, nil)), cons(a, cons(a, nil))) <= insert(b, cons(a, nil), cons(a, cons(a, nil)))
sort(cons(b, cons(a, nil)), cons(a, nil)) <= insert(b, cons(a, nil), cons(a, nil))
insert(b, cons(a, cons(b, nil)), cons(a, cons(a, cons(a, nil)))) <= insert(b, cons(b, nil), cons(a, cons(a, cons(a, nil))))
insert(b, cons(a, cons(b, nil)), cons(a, nil)) <= insert(b, cons(b, nil), cons(a, nil))
sort(cons(b, cons(a, nil)), cons(a, nil)) <= insert(b, cons(b, nil), cons(a, nil)) /\ sort(cons(a, nil), cons(b, nil))
sort(cons(b, cons(b, nil)), cons(b, cons(a, nil))) <= insert(b, cons(b, nil), cons(b, cons(a, nil))) /\ sort(cons(b, nil), cons(b, nil))
False <= insert(b, nil, cons(a, cons(a, nil)))
insert(b, cons(a, nil), cons(a, nil)) <= insert(b, nil, cons(a, nil))
sort(cons(b, nil), cons(a, nil)) <= insert(b, nil, cons(a, nil))
sort(cons(b, nil), cons(b, cons(a, nil))) <= insert(b, nil, cons(b, cons(a, nil)))
False <= length(cons(a, nil), s(s(z)))
False <= length(cons(b, cons(a, nil)), s(s(z)))
False <= leq(b, a)
False <= sort(cons(a, cons(a, nil)), cons(a, nil))
False <= sort(cons(a, cons(a, nil)), cons(b, nil))
False <= sort(cons(a, nil), cons(a, cons(a, nil)))
False <= sort(cons(b, nil), cons(a, cons(a, nil)))
False <= sort(cons(b, nil), nil)
}

Learner proposed model:
Found Model:
|_

_r_1 ->
{
  _r_1(cons(x_0_0, x_0_1), cons(x_1_0, x_1_1)) <= True
  _r_1(cons(x_0_0, x_0_1), nil) <= True
}
;
_r_2 ->
{
  _r_2(a, s(x_1_0)) <= True
  _r_2(a, z) <= True
  _r_2(b, z) <= True
}
;
_r_3 ->
{
  _r_3(a, cons(x_1_0, x_1_1)) <= True
  _r_3(b, cons(x_1_0, x_1_1)) <= True
  _r_3(b, nil) <= True
}
;
_r_4 ->
{
  _r_4(nil) <= True
}
;
insert ->
{
  insert(a, cons(x_1_0, x_1_1), cons(x_2_0, x_2_1)) <= _r_3(x_1_0, x_2_1)
  insert(a, nil, cons(x_2_0, x_2_1)) <= _r_4(x_2_1)
  insert(b, cons(x_1_0, x_1_1), cons(x_2_0, x_2_1)) <= True
  insert(b, nil, cons(x_2_0, x_2_1)) <= _r_4(x_2_1)
}
;
length ->
{
  length(cons(x_0_0, x_0_1), s(x_1_0)) <= _r_2(x_0_0, x_1_0) /\ length(x_0_1, x_1_0)
  length(nil, z) <= True
}
;
leq ->
{
  leq(a, a) <= True
  leq(a, b) <= True
  leq(b, b) <= True
}
;
sort ->
{
  sort(cons(x_0_0, x_0_1), cons(x_1_0, x_1_1)) <= _r_1(x_0_1, x_1_1) /\ _r_3(x_0_0, x_1_1)
  sort(cons(x_0_0, x_0_1), cons(x_1_0, x_1_1)) <= sort(x_0_1, x_1_1)
  sort(nil, nil) <= True
}

--
Equality automata are defined for: {elt, eltlist, nat}
_|


Answer of teacher:


insert(x, nil, cons(x, nil)) <= True -> No: ()
length(nil, z) <= True -> No: ()
leq(a, y) <= True -> No: ()
leq(b, b) <= True -> No: ()
sort(nil, nil) <= True -> No: ()
insert(x, cons(y, z), _lcb) \/ leq(x, y) <= insert(x, z, _lcb) -> No: ()
sort(cons(y, z), _qcb) <= insert(y, _rcb, _qcb) /\ sort(z, _rcb) -> Yes: {
_qcb -> cons(_qcb_0, nil)  ;  _rcb -> cons(b, nil)  ;  y -> a  ;  z -> cons(z_0, nil)
}
eq_nat(_zcb, _adb) <= length(_bdb, _adb) /\ length(l, _zcb) /\ sort(l, _bdb) -> Yes: {
_adb -> s(s(s(z)))  ;  _bdb -> cons(a, cons(a, cons(b, nil)))  ;  _zcb -> s(s(z))  ;  l -> cons(a, cons(b, nil))
}
length(cons(x, ll), s(_vcb)) <= length(ll, _vcb) -> Yes: {
_vcb -> s(z)  ;  ll -> cons(b, nil)  ;  x -> b
}
insert(x, cons(y, z), cons(x, cons(y, z))) <= leq(x, y) -> No: ()
False <= leq(b, a) -> No: ()



-------------------------------------------
Step 22, which took 2.044797 s (model generation: 2.042710,  model checking: 0.002087):

Ground examples at the beginning of this step are:
{
insert(a, cons(a, cons(a, nil)), cons(a, cons(a, cons(a, nil)))) <= True
insert(a, cons(a, nil), cons(a, cons(a, nil))) <= True
insert(a, cons(b, cons(a, nil)), cons(a, cons(b, cons(a, nil)))) <= True
insert(a, cons(b, nil), cons(a, cons(b, nil))) <= True
insert(a, nil, cons(a, nil)) <= True
insert(b, cons(a, nil), cons(b, nil)) <= True
insert(b, cons(b, nil), cons(b, cons(b, nil))) <= True
insert(b, nil, cons(b, nil)) <= True
length(cons(a, cons(a, nil)), s(s(z))) <= True
length(cons(a, nil), s(z)) <= True
length(cons(b, cons(b, nil)), s(s(z))) <= True
length(cons(b, nil), s(z)) <= True
length(nil, z) <= True
leq(a, a) <= True
leq(a, b) <= True
leq(b, b) <= True
sort(cons(a, nil), cons(a, nil)) <= True
sort(cons(b, cons(a, nil)), cons(b, nil)) <= True
sort(nil, nil) <= True
False <= insert(a, cons(a, nil), cons(a, nil))
sort(cons(a, cons(a, nil)), cons(a, cons(a, cons(a, nil)))) <= insert(a, cons(b, nil), cons(a, cons(a, cons(a, nil)))) /\ sort(cons(a, nil), cons(b, nil))
sort(cons(a, cons(b, cons(a, nil))), cons(a, cons(a, nil))) <= insert(a, cons(b, nil), cons(a, cons(a, nil)))
False <= insert(a, cons(b, nil), cons(a, nil)) /\ sort(cons(a, nil), cons(b, nil))
False <= insert(a, nil, cons(a, cons(a, nil)))
sort(cons(b, cons(a, nil)), cons(a, cons(a, cons(a, nil)))) <= insert(b, cons(a, nil), cons(a, cons(a, cons(a, nil))))
sort(cons(b, cons(a, nil)), cons(a, cons(a, nil))) <= insert(b, cons(a, nil), cons(a, cons(a, nil)))
sort(cons(b, cons(a, nil)), cons(a, nil)) <= insert(b, cons(a, nil), cons(a, nil))
insert(b, cons(a, cons(b, nil)), cons(a, cons(a, cons(a, nil)))) <= insert(b, cons(b, nil), cons(a, cons(a, cons(a, nil))))
insert(b, cons(a, cons(b, nil)), cons(a, nil)) <= insert(b, cons(b, nil), cons(a, nil))
sort(cons(b, cons(a, nil)), cons(a, nil)) <= insert(b, cons(b, nil), cons(a, nil)) /\ sort(cons(a, nil), cons(b, nil))
sort(cons(b, cons(b, nil)), cons(b, cons(a, nil))) <= insert(b, cons(b, nil), cons(b, cons(a, nil))) /\ sort(cons(b, nil), cons(b, nil))
False <= insert(b, nil, cons(a, cons(a, nil)))
insert(b, cons(a, nil), cons(a, nil)) <= insert(b, nil, cons(a, nil))
sort(cons(b, nil), cons(a, nil)) <= insert(b, nil, cons(a, nil))
sort(cons(b, nil), cons(b, cons(a, nil))) <= insert(b, nil, cons(b, cons(a, nil)))
False <= length(cons(a, cons(a, cons(b, nil))), s(s(s(z)))) /\ length(cons(a, cons(b, nil)), s(s(z))) /\ sort(cons(a, cons(b, nil)), cons(a, cons(a, cons(b, nil))))
False <= length(cons(a, nil), s(s(z)))
False <= length(cons(b, cons(a, nil)), s(s(z)))
False <= leq(b, a)
False <= sort(cons(a, cons(a, nil)), cons(a, nil))
False <= sort(cons(a, cons(a, nil)), cons(b, nil))
False <= sort(cons(a, nil), cons(a, cons(a, nil)))
False <= sort(cons(b, nil), cons(a, cons(a, nil)))
False <= sort(cons(b, nil), nil)
}

Learner proposed model:
Found Model:
|_

_r_1 ->
{
  _r_1(a, cons(x_1_0, x_1_1)) <= True
  _r_1(b, cons(x_1_0, x_1_1)) <= _r_3(x_1_0)
}
;
_r_2 ->
{
  _r_2(cons(x_0_0, x_0_1)) <= _r_3(x_0_0)
  _r_2(nil) <= True
}
;
_r_3 ->
{
  _r_3(b) <= True
}
;
_r_4 ->
{
  _r_4(a) <= True
}
;
insert ->
{
  insert(a, cons(x_1_0, x_1_1), cons(x_2_0, x_2_1)) <= _r_1(x_1_0, x_2_1)
  insert(a, nil, cons(x_2_0, x_2_1)) <= _r_2(x_2_1)
  insert(b, cons(x_1_0, x_1_1), cons(x_2_0, x_2_1)) <= _r_2(x_2_1)
  insert(b, nil, cons(x_2_0, x_2_1)) <= _r_2(x_2_1)
}
;
length ->
{
  length(cons(x_0_0, x_0_1), s(x_1_0)) <= _r_2(x_0_1) /\ length(x_0_1, x_1_0)
  length(cons(x_0_0, x_0_1), s(x_1_0)) <= _r_4(x_0_0) /\ length(x_0_1, x_1_0)
  length(nil, z) <= True
}
;
leq ->
{
  leq(a, a) <= True
  leq(a, b) <= True
  leq(b, b) <= True
}
;
sort ->
{
  sort(cons(x_0_0, x_0_1), cons(x_1_0, x_1_1)) <= _r_2(x_0_1) /\ _r_2(x_1_1)
  sort(cons(x_0_0, x_0_1), cons(x_1_0, x_1_1)) <= _r_2(x_1_1) /\ _r_3(x_0_0)
  sort(nil, nil) <= True
}

--
Equality automata are defined for: {elt, eltlist, nat}
_|


Answer of teacher:


insert(x, nil, cons(x, nil)) <= True -> No: ()
length(nil, z) <= True -> No: ()
leq(a, y) <= True -> No: ()
leq(b, b) <= True -> No: ()
sort(nil, nil) <= True -> No: ()
insert(x, cons(y, z), _lcb) \/ leq(x, y) <= insert(x, z, _lcb) -> No: ()
sort(cons(y, z), _qcb) <= insert(y, _rcb, _qcb) /\ sort(z, _rcb) -> Yes: {
_qcb -> cons(_qcb_0, cons(v1_0, v1_1))  ;  _rcb -> cons(a, nil)  ;  y -> a  ;  z -> cons(a, nil)
}
eq_nat(_zcb, _adb) <= length(_bdb, _adb) /\ length(l, _zcb) /\ sort(l, _bdb) -> Yes: {
_adb -> s(s(z))  ;  _bdb -> cons(a, cons(b, nil))  ;  _zcb -> s(z)  ;  l -> cons(a, nil)
}
length(cons(x, ll), s(_vcb)) <= length(ll, _vcb) -> Yes: {
_vcb -> s(z)  ;  ll -> cons(a, nil)  ;  x -> b
}
insert(x, cons(y, z), cons(x, cons(y, z))) <= leq(x, y) -> No: ()
False <= leq(b, a) -> No: ()



Ground examples:
{
False <= True
insert(a, cons(a, cons(a, nil)), cons(a, cons(a, cons(a, nil)))) <= True
insert(a, cons(a, nil), cons(a, cons(a, nil))) <= True
insert(a, cons(b, cons(a, nil)), cons(a, cons(b, cons(a, nil)))) <= True
insert(a, cons(b, nil), cons(a, cons(b, nil))) <= True
insert(a, nil, cons(a, nil)) <= True
insert(b, cons(a, nil), cons(b, nil)) <= True
insert(b, cons(b, nil), cons(b, cons(b, nil))) <= True
insert(b, nil, cons(b, nil)) <= True
length(cons(a, cons(a, nil)), s(s(z))) <= True
length(cons(a, nil), s(z)) <= True
length(cons(b, cons(b, nil)), s(s(z))) <= True
length(cons(b, nil), s(z)) <= True
length(nil, z) <= True
leq(a, a) <= True
leq(a, b) <= True
leq(b, b) <= True
sort(cons(a, cons(a, nil)), cons(a, cons(a, nil))) <= True
sort(cons(a, nil), cons(a, nil)) <= True
sort(cons(b, cons(a, nil)), cons(b, nil)) <= True
sort(nil, nil) <= True
False <= insert(a, cons(a, nil), cons(a, nil))
sort(cons(a, cons(a, nil)), cons(a, cons(a, cons(a, nil)))) <= insert(a, cons(b, nil), cons(a, cons(a, cons(a, nil)))) /\ sort(cons(a, nil), cons(b, nil))
sort(cons(a, cons(b, cons(a, nil))), cons(a, cons(a, nil))) <= insert(a, cons(b, nil), cons(a, cons(a, nil)))
False <= insert(a, cons(b, nil), cons(a, nil)) /\ sort(cons(a, nil), cons(b, nil))
False <= insert(a, nil, cons(a, cons(a, nil)))
sort(cons(b, cons(a, nil)), cons(a, cons(a, cons(a, nil)))) <= insert(b, cons(a, nil), cons(a, cons(a, cons(a, nil))))
sort(cons(b, cons(a, nil)), cons(a, cons(a, nil))) <= insert(b, cons(a, nil), cons(a, cons(a, nil)))
sort(cons(b, cons(a, nil)), cons(a, nil)) <= insert(b, cons(a, nil), cons(a, nil))
insert(b, cons(a, cons(b, nil)), cons(a, cons(a, cons(a, nil)))) <= insert(b, cons(b, nil), cons(a, cons(a, cons(a, nil))))
insert(b, cons(a, cons(b, nil)), cons(a, nil)) <= insert(b, cons(b, nil), cons(a, nil))
sort(cons(b, cons(a, nil)), cons(a, nil)) <= insert(b, cons(b, nil), cons(a, nil)) /\ sort(cons(a, nil), cons(b, nil))
sort(cons(b, cons(b, nil)), cons(b, cons(a, nil))) <= insert(b, cons(b, nil), cons(b, cons(a, nil))) /\ sort(cons(b, nil), cons(b, nil))
False <= insert(b, nil, cons(a, cons(a, nil)))
insert(b, cons(a, nil), cons(a, nil)) <= insert(b, nil, cons(a, nil))
sort(cons(b, nil), cons(a, nil)) <= insert(b, nil, cons(a, nil))
sort(cons(b, nil), cons(b, cons(a, nil))) <= insert(b, nil, cons(b, cons(a, nil)))
False <= length(cons(a, cons(a, cons(b, nil))), s(s(s(z)))) /\ length(cons(a, cons(b, nil)), s(s(z))) /\ sort(cons(a, cons(b, nil)), cons(a, cons(a, cons(b, nil))))
False <= length(cons(a, cons(b, nil)), s(s(z))) /\ sort(cons(a, nil), cons(a, cons(b, nil)))
False <= length(cons(a, nil), s(s(z)))
False <= length(cons(b, cons(a, nil)), s(s(z)))
False <= leq(b, a)
False <= sort(cons(a, cons(a, nil)), cons(a, nil))
False <= sort(cons(a, cons(a, nil)), cons(b, nil))
False <= sort(cons(a, nil), cons(a, cons(a, nil)))
False <= sort(cons(b, nil), cons(a, cons(a, nil)))
False <= sort(cons(b, nil), nil)
}

Learner output:
Contradictory ground constraints

Last ice step stopped before teacher could answer
Total time: 5.834083
Learner time: 5.792376
Teacher time: 0.017160
Reasons for stopping: No: Contradictory set of ground constraints:
{
False <= True
insert(a, cons(a, cons(a, nil)), cons(a, cons(a, cons(a, nil)))) <= True
insert(a, cons(a, nil), cons(a, cons(a, nil))) <= True
insert(a, cons(b, cons(a, nil)), cons(a, cons(b, cons(a, nil)))) <= True
insert(a, cons(b, nil), cons(a, cons(b, nil))) <= True
insert(a, nil, cons(a, nil)) <= True
insert(b, cons(a, nil), cons(b, nil)) <= True
insert(b, cons(b, nil), cons(b, cons(b, nil))) <= True
insert(b, nil, cons(b, nil)) <= True
length(cons(a, cons(a, nil)), s(s(z))) <= True
length(cons(a, nil), s(z)) <= True
length(cons(b, cons(b, nil)), s(s(z))) <= True
length(cons(b, nil), s(z)) <= True
length(nil, z) <= True
leq(a, a) <= True
leq(a, b) <= True
leq(b, b) <= True
sort(cons(a, cons(a, nil)), cons(a, cons(a, nil))) <= True
sort(cons(a, nil), cons(a, nil)) <= True
sort(cons(b, cons(a, nil)), cons(b, nil)) <= True
sort(nil, nil) <= True
False <= insert(a, cons(a, nil), cons(a, nil))
sort(cons(a, cons(a, nil)), cons(a, cons(a, cons(a, nil)))) <= insert(a, cons(b, nil), cons(a, cons(a, cons(a, nil)))) /\ sort(cons(a, nil), cons(b, nil))
sort(cons(a, cons(b, cons(a, nil))), cons(a, cons(a, nil))) <= insert(a, cons(b, nil), cons(a, cons(a, nil)))
False <= insert(a, cons(b, nil), cons(a, nil)) /\ sort(cons(a, nil), cons(b, nil))
False <= insert(a, nil, cons(a, cons(a, nil)))
sort(cons(b, cons(a, nil)), cons(a, cons(a, cons(a, nil)))) <= insert(b, cons(a, nil), cons(a, cons(a, cons(a, nil))))
sort(cons(b, cons(a, nil)), cons(a, cons(a, nil))) <= insert(b, cons(a, nil), cons(a, cons(a, nil)))
sort(cons(b, cons(a, nil)), cons(a, nil)) <= insert(b, cons(a, nil), cons(a, nil))
insert(b, cons(a, cons(b, nil)), cons(a, cons(a, cons(a, nil)))) <= insert(b, cons(b, nil), cons(a, cons(a, cons(a, nil))))
insert(b, cons(a, cons(b, nil)), cons(a, nil)) <= insert(b, cons(b, nil), cons(a, nil))
sort(cons(b, cons(a, nil)), cons(a, nil)) <= insert(b, cons(b, nil), cons(a, nil)) /\ sort(cons(a, nil), cons(b, nil))
sort(cons(b, cons(b, nil)), cons(b, cons(a, nil))) <= insert(b, cons(b, nil), cons(b, cons(a, nil))) /\ sort(cons(b, nil), cons(b, nil))
False <= insert(b, nil, cons(a, cons(a, nil)))
insert(b, cons(a, nil), cons(a, nil)) <= insert(b, nil, cons(a, nil))
sort(cons(b, nil), cons(a, nil)) <= insert(b, nil, cons(a, nil))
sort(cons(b, nil), cons(b, cons(a, nil))) <= insert(b, nil, cons(b, cons(a, nil)))
False <= length(cons(a, cons(a, cons(b, nil))), s(s(s(z)))) /\ length(cons(a, cons(b, nil)), s(s(z))) /\ sort(cons(a, cons(b, nil)), cons(a, cons(a, cons(b, nil))))
False <= length(cons(a, cons(b, nil)), s(s(z))) /\ sort(cons(a, nil), cons(a, cons(b, nil)))
False <= length(cons(a, nil), s(s(z)))
False <= length(cons(b, cons(a, nil)), s(s(z)))
False <= leq(b, a)
False <= sort(cons(a, cons(a, nil)), cons(a, nil))
False <= sort(cons(a, cons(a, nil)), cons(b, nil))
False <= sort(cons(a, nil), cons(a, cons(a, nil)))
False <= sort(cons(b, nil), cons(a, cons(a, nil)))
False <= sort(cons(b, nil), nil)
}


